-8423092,1516,1496,1490,1503,1922,1516,1496,1490,1503,1180,1425,1570,1534,1503,0.000000,0.000000,0.000000,-0.242825,0.359374,-1.212720
-8323070,1516,1496,1490,1503,1077,1425,1570,1534,1503,1180,1425,1570,1534,1503,0.000000,0.000000,0.000000,-0.243810,0.361634,-1.212374
-8223067,1515,1496,1490,1502,1077,1515,1496,1490,1502,1180,1425,1571,1534,1503,0.000000,0.000000,0.000000,-0.243877,0.364869,-1.212337
-8123036,1516,1496,1490,1502,1077,1516,1496,1490,1502,1180,1425,1572,1533,1503,0.000000,0.000000,0.000000,-0.243669,0.367671,-1.212677
-8023025,1516,1496,1490,1503,1077,1516,1496,1490,1503,1180,1425,1572,1534,1503,0.000000,0.000000,0.000000,-0.244067,0.369689,-1.212099
-7922996,1516,1496,1490,1503,1077,1516,1496,1490,1503,1180,1425,1572,1534,1503,0.000000,0.000000,0.000000,-0.245420,0.370575,-1.211147
-7822964,1516,1496,1490,1503,1077,1516,1496,1490,1503,1180,1425,1573,1534,1503,0.000000,0.000000,0.000000,-0.247515,0.370136,-1.211041
-7722962,1516,1496,1490,1503,1077,1516,1496,1490,1503,1180,1425,1573,1534,1503,0.000000,0.000000,0.000000,-0.248407,0.369829,-1.210693
-7622946,1516,1496,1490,1502,1077,1516,1496,1490,1502,1180,1425,1573,1534,1503,0.000000,0.000000,0.000000,-0.248200,0.369739,-1.210561
-7522909,1516,1496,1490,1503,1077,1516,1496,1490,1503,1180,1425,1573,1534,1503,0.000000,0.000000,0.000000,-0.247569,0.369710,-1.210541
-7422899,1516,1496,1490,1503,1077,1516,1496,1490,1503,1180,1425,1572,1534,1503,0.000000,0.000000,0.000000,-0.246777,0.368769,-1.211449
-7322871,1516,1496,1490,1503,1077,1516,1496,1490,1503,1180,1425,1572,1533,1503,0.000000,0.000000,0.000000,-0.245786,0.368050,-1.212839
-7222854,1516,1496,1490,1503,1077,1516,1496,1490,1503,1180,1425,1573,1533,1503,0.000000,0.000000,0.000000,-0.244748,0.368470,-1.213485
-7122853,1516,1496,1490,1502,1077,1516,1496,1490,1502,1180,1425,1573,1533,1503,0.000000,0.000000,0.000000,-0.243907,0.368580,-1.214085
-7022831,1516,1496,1490,1503,1077,1516,1496,1490,1503,1180,1425,1573,1533,1503,0.000000,0.000000,0.000000,-0.243969,0.367931,-1.214185
-6922828,1516,1496,1490,1503,1077,1516,1496,1490,1503,1180,1425,1572,1533,1503,0.000000,0.000000,0.000000,-0.245385,0.366974,-1.214290
-6822815,1516,1496,1490,1503,1077,1516,1496,1490,1503,1180,1425,1572,1533,1503,0.000000,0.000000,0.000000,-0.246684,0.366401,-1.214709
-6722797,1516,1496,1490,1503,1077,1516,1496,1490,1503,1180,1425,1572,1534,1503,0.000000,0.000000,0.000000,-0.246348,0.365760,-1.215301
-6622763,1516,1496,1490,1502,1077,1516,1496,1490,1502,1180,1425,1572,1533,1503,0.000000,0.000000,0.000000,-0.245074,0.365001,-1.215678
-6522729,1515,1496,1490,1503,1077,1515,1496,1490,1503,1180,1425,1571,1533,1503,0.000000,0.000000,0.000000,-0.243623,0.363992,-1.216160
-6422694,1516,1496,1490,1502,1077,1516,1496,1490,1502,1180,1425,1571,1533,1503,0.000000,0.000000,0.000000,-0.242595,0.363540,-1.216674
-6322690,1515,1496,1490,1503,1077,1515,1496,1490,1503,1180,1425,1571,1533,1503,0.000000,0.000000,0.000000,-0.242080,0.363316,-1.217527
-6222681,1516,1496,1490,1503,1077,1516,1496,1490,1503,1180,1425,1571,1533,1503,0.000000,0.000000,0.000000,-0.241776,0.363615,-1.217991
-6122667,1516,1496,1490,1503,1077,1516,1496,1490,1503,1180,1425,1571,1533,1503,0.000000,0.000000,0.000000,-0.241088,0.364481,-1.217434
-6022661,1516,1496,1490,1503,1077,1516,1496,1490,1503,1180,1425,1571,1533,1503,0.000000,0.000000,0.000000,-0.240241,0.364431,-1.217669
-5922646,1516,1496,1490,1503,1077,1516,1496,1490,1503,1180,1425,1572,1532,1503,0.000000,0.000000,0.000000,-0.239377,0.364784,-1.217512
-5822625,1516,1496,1490,1503,1077,1516,1496,1490,1503,1180,1425,1572,1532,1503,0.000000,0.000000,0.000000,-0.238614,0.365231,-1.217164
-5722614,1515,1496,1490,1503,1077,1515,1496,1490,1503,1180,1425,1572,1532,1503,0.000000,0.000000,0.000000,-0.238185,0.365551,-1.217402
-5622603,1516,1496,1490,1503,1077,1516,1496,1490,1503,1180,1425,1572,1532,1503,0.000000,0.000000,0.000000,-0.238146,0.365622,-1.217820
-5522587,1516,1496,1490,1503,1077,1516,1496,1490,1503,1180,1425,1572,1532,1503,0.000000,0.000000,0.000000,-0.238474,0.365493,-1.218109
-5422583,1516,1496,1490,1503,1077,1516,1496,1490,1503,1180,1425,1572,1532,1503,0.000000,0.000000,0.000000,-0.238681,0.365308,-1.217801
-5322572,1515,1496,1490,1503,1077,1515,1496,1490,1503,1180,1425,1572,1532,1503,0.000000,0.000000,0.000000,-0.238791,0.364748,-1.217668
-5222547,1515,1496,1490,1503,1077,1515,1496,1490,1503,1180,1425,1572,1532,1503,0.000000,0.000000,0.000000,-0.238761,0.364675,-1.217652
-5122526,1516,1496,1490,1503,1077,1516,1496,1490,1503,1180,1425,1572,1532,1503,0.000000,0.000000,0.000000,-0.238696,0.364939,-1.217564
-5022492,1516,1496,1490,1502,1077,1516,1496,1490,1502,1180,1425,1572,1532,1503,0.000000,0.000000,0.000000,-0.238709,0.365513,-1.217401
-4922459,1515,1496,1490,1503,1077,1515,1496,1490,1503,1180,1425,1572,1532,1503,0.000000,0.000000,0.000000,-0.238595,0.365829,-1.217276
-4822425,1516,1496,1490,1503,1077,1516,1496,1490,1503,1180,1425,1572,1531,1503,0.000000,0.000000,0.000000,-0.238366,0.365644,-1.217250
-4722424,1516,1496,1490,1503,1077,1516,1496,1490,1503,1180,1425,1572,1532,1503,0.000000,0.000000,0.000000,-0.237981,0.365654,-1.216642
-4622423,1516,1496,1490,1503,1077,1516,1496,1490,1503,1180,1425,1572,1531,1503,0.000000,0.000000,0.000000,-0.237557,0.364441,-1.217044
-4522413,1516,1496,1490,1503,1077,1516,1496,1490,1503,1180,1425,1572,1531,1503,0.000000,0.000000,0.000000,-0.237202,0.363624,-1.217093
-4422395,1515,1496,1490,1502,1077,1515,1496,1490,1502,1180,1425,1572,1531,1503,0.000000,0.000000,0.000000,-0.237069,0.363226,-1.217061
-4322394,1516,1496,1490,1503,1077,1516,1496,1490,1503,1180,1425,1571,1531,1503,0.000000,0.000000,0.000000,-0.236995,0.363062,-1.217176
-4222388,1516,1496,1490,1503,1922,1516,1496,1490,1503,1180,1425,1571,1531,1503,0.000000,0.000000,0.000000,-0.236681,0.362833,-1.217253
-4122352,1516,1496,1490,1502,1921,1425,1571,1531,1503,1180,1425,1571,1531,1503,0.000000,0.000000,0.000000,-0.236722,0.362706,-1.217544
-4022340,1516,1496,1490,1503,1922,1425,1571,1532,1503,1180,1425,1571,1532,1503,0.000000,0.000000,0.000000,-0.237881,0.362503,-1.218440
-3922322,1516,1496,1490,1503,1922,1425,1571,1532,1503,1180,1425,1571,1532,1503,0.000000,0.000000,0.000000,-0.238923,0.361286,-1.219618
-3822304,1516,1496,1490,1503,1922,1425,1570,1533,1503,1180,1425,1570,1533,1503,0.000000,0.000000,0.000000,-0.238298,0.360665,-1.220206
-3722291,1516,1496,1490,1503,1922,1425,1570,1532,1503,1180,1425,1570,1532,1503,0.000000,0.000000,0.000000,-0.236028,0.360469,-1.220973
-3622258,1516,1496,1490,1503,1922,1425,1571,1531,1503,1180,1425,1571,1531,1503,0.000000,0.000000,0.000000,-0.233193,0.360625,-1.222053
-3522232,1516,1496,1490,1502,1921,1425,1571,1531,1503,1180,1425,1571,1531,1503,0.000000,0.000000,0.000000,-0.230888,0.360911,-1.222869
-3422212,1516,1496,1490,1503,1922,1425,1570,1531,1503,1180,1425,1570,1531,1503,0.000000,0.000000,0.000000,-0.229590,0.360979,-1.223657
-3322189,1516,1496,1490,1503,1922,1425,1570,1531,1503,1180,1425,1570,1531,1503,0.000000,0.000000,0.000000,-0.228990,0.360725,-1.224016
-3222167,1516,1496,1490,1503,1077,1425,1570,1531,1503,1180,1425,1570,1531,1503,0.000000,0.000000,0.000000,-0.228532,0.360434,-1.223748
-3122127,1516,1496,1490,1502,1077,1516,1496,1490,1502,1180,1425,1570,1531,1503,0.000000,0.000000,0.000000,-0.227655,0.361108,-1.222539
-3022112,1515,1496,1490,1503,1077,1515,1496,1490,1503,1180,1425,1570,1531,1503,0.000000,0.000000,0.000000,-0.227045,0.362188,-1.222139
-2922101,1516,1496,1490,1503,1077,1516,1496,1490,1503,1180,1425,1571,1530,1503,0.000000,0.000000,0.000000,-0.226996,0.362953,-1.221871
-2822073,1516,1496,1490,1503,1077,1516,1496,1490,1503,1180,1425,1571,1530,1503,0.000000,0.000000,0.000000,-0.227059,0.363244,-1.221804
-2722049,1516,1496,1490,1503,1077,1516,1496,1490,1503,1180,1425,1571,1530,1503,0.000000,0.000000,0.000000,-0.226643,0.362865,-1.222401
-2622031,1516,1496,1490,1503,1077,1516,1496,1490,1503,1180,1425,1571,1530,1503,0.000000,0.000000,0.000000,-0.225569,0.362993,-1.222685
-2522001,1516,1496,1490,1503,1077,1516,1496,1490,1503,1180,1425,1571,1530,1503,0.000000,0.000000,0.000000,-0.224516,0.363041,-1.223115
-2421997,1515,1496,1490,1503,1077,1515,1496,1490,1503,1180,1425,1571,1530,1503,0.000000,0.000000,0.000000,-0.224007,0.363192,-1.223402
-2321988,1516,1496,1490,1503,1077,1516,1496,1490,1503,1180,1425,1571,1530,1503,0.000000,0.000000,0.000000,-0.224007,0.363470,-1.223296
-2221977,1516,1496,1490,1502,1077,1516,1496,1490,1502,1180,1425,1571,1530,1503,0.000000,0.000000,0.000000,-0.224072,0.363547,-1.222351
-2121976,1516,1496,1490,1502,1077,1516,1496,1490,1502,1180,1425,1571,1530,1503,0.000000,0.000000,0.000000,-0.224242,0.363627,-1.220901
-2021973,1516,1496,1490,1503,1077,1516,1496,1490,1503,1180,1425,1571,1530,1503,0.000000,0.000000,0.000000,-0.224520,0.363616,-1.220392
-1921964,1516,1496,1490,1503,1077,1516,1496,1490,1503,1180,1425,1571,1530,1503,0.000000,0.000000,0.000000,-0.224970,0.363698,-1.220343
-1821930,1516,1496,1490,1503,1077,1516,1496,1490,1503,1180,1425,1571,1530,1503,0.000000,0.000000,0.000000,-0.225780,0.363255,-1.220777
-1721916,1516,1496,1490,1503,1077,1516,1496,1490,1503,1180,1425,1571,1530,1503,0.000000,0.000000,0.000000,-0.226623,0.362418,-1.221151
-1621914,1516,1496,1490,1503,1077,1516,1496,1490,1503,1180,1425,1571,1530,1503,0.000000,0.000000,0.000000,-0.227069,0.361910,-1.220421
-1521882,1515,1496,1490,1503,1077,1515,1496,1490,1503,1180,1425,1571,1530,1503,0.000000,0.000000,0.000000,-0.227287,0.361161,-1.220331
-1421858,1516,1496,1490,1503,1077,1516,1496,1490,1503,1180,1425,1571,1530,1503,0.000000,0.000000,0.000000,-0.227178,0.360989,-1.220017
-1321833,1516,1496,1490,1503,1077,1516,1496,1490,1503,1180,1425,1571,1530,1503,0.000000,0.000000,0.000000,-0.227161,0.361022,-1.219462
-1221826,1516,1496,1490,1503,1077,1516,1496,1490,1503,1180,1425,1570,1530,1503,0.000000,0.000000,0.000000,-0.227175,0.360911,-1.218718
-1121817,1516,1496,1490,1502,1077,1516,1496,1490,1502,1180,1516,1495,1490,1503,-0.227175,0.360911,-1.218718,-0.227869,0.360452,-1.218059
-1021809,1516,1496,1490,1502,1077,1516,1496,1490,1502,1180,1516,1495,1490,1503,-0.227175,0.360911,-1.218718,-0.229465,0.360040,-1.217907
-921786,1516,1496,1490,1503,1077,1516,1496,1490,1503,1180,1516,1495,1490,1503,-0.227175,0.360911,-1.218718,-0.231157,0.359385,-1.217440
-821754,1516,1496,1490,1503,1077,1516,1496,1490,1503,1180,1516,1495,1490,1503,-0.227175,0.360911,-1.218718,-0.232042,0.357987,-1.216532
-721733,1516,1496,1490,1502,1077,1516,1496,1490,1502,1180,1516,1495,1491,1503,-0.227175,0.360911,-1.218718,-0.232429,0.357088,-1.216003
-621713,1516,1496,1490,1502,1077,1516,1496,1490,1502,1180,1516,1495,1491,1503,-0.227175,0.360911,-1.218718,-0.232683,0.357429,-1.215780
-521705,1516,1496,1490,1502,1077,1516,1496,1490,1502,1180,1516,1495,1491,1503,-0.227175,0.360911,-1.218718,-0.233032,0.357817,-1.215573
-421680,1515,1496,1490,1503,1077,1515,1496,1490,1503,1180,1516,1495,1491,1503,-0.227175,0.360911,-1.218718,-0.233844,0.358263,-1.215480
-321679,1516,1496,1490,1502,1077,1516,1496,1490,1502,1180,1516,1495,1491,1503,-0.227175,0.360911,-1.218718,-0.235004,0.358516,-1.215876
-221648,1516,1496,1490,1503,1077,1516,1496,1490,1503,1180,1516,1495,1491,1503,-0.227175,0.360911,-1.218718,-0.235656,0.358593,-1.216053
-121639,1516,1496,1490,1503,1077,1516,1496,1490,1503,1180,1516,1495,1491,1503,-0.227175,0.360911,-1.218718,-0.236495,0.358904,-1.216200
-21622,1516,1496,1490,1502,1077,1516,1496,1490,1502,1180,1516,1495,1492,1503,-0.227175,0.360911,-1.218718,-0.238303,0.359367,-1.216431
78397,1516,1496,1490,1503,1077,1516,1496,1490,1503,1180,1516,1495,1492,1503,-0.227175,0.360911,-1.218718,-0.240740,0.359075,-1.216720
178401,1516,1496,1490,1503,1077,1516,1496,1490,1503,1180,1516,1495,1493,1503,-0.227175,0.360911,-1.218718,-0.243402,0.357411,-1.216787
278408,1516,1496,1490,1503,1077,1516,1496,1490,1503,1180,1516,1494,1493,1503,-0.227175,0.360911,-1.218718,-0.246287,0.354381,-1.216036
378441,1516,1496,1490,1502,1077,1516,1496,1490,1502,1180,1516,1492,1494,1503,-0.227175,0.360911,-1.218718,-0.247735,0.343581,-1.215987
478475,1516,1496,1490,1502,1077,1516,1496,1490,1502,1180,1516,1489,1494,1503,-0.227175,0.360911,-1.218718,-0.247937,0.326982,-1.217867
578480,1516,1496,1490,1502,1077,1516,1496,1490,1502,1180,1515,1484,1494,1503,-0.227175,0.360911,-1.218718,-0.247392,0.301485,-1.219281
678505,1516,1498,1490,1503,1077,1516,1498,1490,1503,1180,1515,1477,1494,1503,-0.227175,0.360911,-1.218718,-0.247435,0.264212,-1.221117
778530,1516,1518,1490,1503,1077,1516,1518,1490,1503,1180,1514,1468,1496,1503,-0.227175,0.360911,-1.218718,-0.248656,0.216523,-1.224566
878532,1516,1496,1490,1503,1077,1516,1496,1490,1503,1180,1514,1459,1497,1503,-0.227175,0.360911,-1.218718,-0.245261,0.169997,-1.228307
978568,1515,1496,1490,1502,1077,1515,1496,1490,1502,1180,1512,1449,1498,1503,-0.227175,0.360911,-1.218718,-0.240855,0.126764,-1.234962
1078588,1516,1419,1490,1503,1077,1516,1419,1490,1503,1180,1511,1442,1499,1503,-0.227175,0.360911,-1.218718,-0.237476,0.085252,-1.242217
1178598,1516,1419,1490,1503,1077,1516,1419,1490,1503,1180,1509,1434,1500,1503,-0.227175,0.360911,-1.218718,-0.235660,0.046636,-1.249905
1278615,1516,1408,1490,1503,1077,1516,1408,1490,1503,1180,1508,1426,1499,1503,-0.227175,0.360911,-1.218718,-0.234614,0.007876,-1.256215
1378629,1516,1387,1490,1503,1077,1516,1387,1490,1503,1180,1508,1420,1496,1503,-0.227175,0.360911,-1.218718,-0.235109,-0.021609,-1.258584
1478650,1516,1367,1490,1503,1077,1516,1367,1490,1503,1180,1507,1414,1492,1503,-0.227175,0.360911,-1.218718,-0.238722,-0.049451,-1.260970
1578684,1516,1359,1490,1503,1077,1516,1359,1490,1503,1180,1507,1407,1491,1503,-0.227175,0.360911,-1.218718,-0.240161,-0.082974,-1.261829
1678718,1515,1359,1490,1503,1077,1515,1359,1490,1503,1180,1507,1401,1493,1503,-0.227175,0.360911,-1.218718,-0.239636,-0.116185,-1.261239
1778748,1515,1359,1490,1503,1077,1515,1359,1490,1503,1180,1507,1396,1494,1503,-0.227175,0.360911,-1.218718,-0.238966,-0.156785,-1.260720
1878758,1516,1353,1490,1503,1077,1516,1353,1490,1503,1180,1508,1396,1496,1503,-0.227175,0.360911,-1.218718,-0.236798,-0.210162,-1.256838
1978799,1516,1341,1490,1503,1077,1516,1341,1490,1503,1180,1508,1396,1500,1503,-0.227175,0.360911,-1.218718,-0.235721,-0.267550,-1.254120
2078828,1515,1325,1490,1503,1077,1515,1325,1490,1503,1180,1508,1396,1502,1503,-0.227175,0.360911,-1.218718,-0.237757,-0.311354,-1.257094
2178862,1516,1324,1490,1503,1077,1516,1324,1490,1503,1180,1507,1396,1502,1503,-0.227175,0.360911,-1.218718,-0.241269,-0.350385,-1.260056
2278877,1516,1325,1490,1503,1077,1516,1325,1490,1503,1180,1506,1396,1503,1503,-0.227175,0.360911,-1.218718,-0.242507,-0.389847,-1.264849
2378895,1516,1325,1490,1502,1077,1516,1325,1490,1502,1180,1506,1396,1504,1503,-0.227175,0.360911,-1.218718,-0.241303,-0.415543,-1.268093
2478905,1516,1327,1490,1502,1077,1516,1327,1490,1502,1180,1505,1396,1501,1503,-0.227175,0.360911,-1.218718,-0.243120,-0.436953,-1.271666
2578920,1516,1333,1490,1502,1077,1516,1333,1490,1502,1180,1504,1396,1498,1503,-0.227175,0.360911,-1.218718,-0.245818,-0.457455,-1.276799
2678928,1516,1334,1490,1502,1077,1516,1334,1490,1502,1180,1504,1396,1498,1503,-0.227175,0.360911,-1.218718,-0.244931,-0.479658,-1.278921
2778950,1516,1334,1490,1503,1077,1516,1334,1490,1503,1180,1503,1396,1500,1503,-0.227175,0.360911,-1.218718,-0.248282,-0.501264,-1.282186
2878959,1516,1333,1490,1502,1077,1516,1333,1490,1502,1180,1502,1396,1503,1503,-0.227175,0.360911,-1.218718,-0.253994,-0.523492,-1.284782
2978962,1515,1333,1490,1502,1077,1515,1333,1490,1502,1180,1502,1396,1503,1503,-0.227175,0.360911,-1.218718,-0.258674,-0.547400,-1.284021
3078977,1516,1331,1490,1503,1077,1516,1331,1490,1503,1180,1502,1396,1505,1503,-0.227175,0.360911,-1.218718,-0.263903,-0.561190,-1.283893
3178989,1516,1332,1490,1503,1077,1516,1332,1490,1503,1180,1502,1396,1505,1503,-0.227175,0.360911,-1.218718,-0.267890,-0.567988,-1.284448
3279009,1516,1332,1490,1503,1077,1516,1332,1490,1503,1180,1502,1396,1503,1503,-0.227175,0.360911,-1.218718,-0.270570,-0.573973,-1.288109
3379013,1516,1332,1490,1503,1077,1516,1332,1490,1503,1180,1501,1396,1503,1503,-0.227175,0.360911,-1.218718,-0.271887,-0.577696,-1.290302
3479035,1516,1332,1490,1503,1077,1516,1332,1490,1503,1180,1501,1396,1505,1503,-0.227175,0.360911,-1.218718,-0.273086,-0.575634,-1.291531
3579056,1516,1332,1490,1503,1077,1516,1332,1490,1503,1180,1501,1396,1505,1503,-0.227175,0.360911,-1.218718,-0.273392,-0.572305,-1.290994
3679099,1516,1332,1490,1503,1077,1516,1332,1490,1503,1180,1502,1396,1505,1503,-0.227175,0.360911,-1.218718,-0.271880,-0.571885,-1.287975
3779119,1516,1332,1490,1503,1077,1516,1332,1490,1503,1180,1502,1396,1505,1503,-0.227175,0.360911,-1.218718,-0.269753,-0.570620,-1.284908
3879144,1516,1332,1490,1503,1077,1516,1332,1490,1503,1180,1502,1396,1504,1503,-0.227175,0.360911,-1.218718,-0.269504,-0.571456,-1.283075
3979162,1516,1332,1490,1503,1077,1516,1332,1490,1503,1180,1503,1396,1505,1503,-0.227175,0.360911,-1.218718,-0.270416,-0.574450,-1.283370
4079163,1516,1332,1490,1503,1077,1516,1332,1490,1503,1180,1503,1396,1504,1503,-0.227175,0.360911,-1.218718,-0.272036,-0.574542,-1.281694
4179164,1516,1332,1490,1503,1077,1516,1332,1490,1503,1180,1503,1396,1503,1503,-0.227175,0.360911,-1.218718,-0.271894,-0.572390,-1.281191
4279172,1516,1332,1490,1503,1077,1516,1332,1490,1503,1180,1503,1396,1503,1503,-0.227175,0.360911,-1.218718,-0.270778,-0.569913,-1.281573
4379177,1516,1332,1490,1502,1077,1516,1332,1490,1502,1180,1503,1396,1502,1503,-0.227175,0.360911,-1.218718,-0.269659,-0.565223,-1.281810
4479200,1516,1332,1490,1503,1077,1516,1332,1490,1503,1180,1503,1396,1502,1503,-0.227175,0.360911,-1.218718,-0.269422,-0.555144,-1.282852
4579222,1516,1332,1490,1503,1077,1516,1332,1490,1503,1180,1502,1396,1501,1503,-0.227175,0.360911,-1.218718,-0.271109,-0.540975,-1.284366
4679244,1516,1335,1490,1503,1077,1516,1335,1490,1503,1180,1502,1396,1501,1503,-0.227175,0.360911,-1.218718,-0.272007,-0.529989,-1.285675
4779268,1516,1338,1490,1503,1077,1516,1338,1490,1503,1180,1502,1396,1502,1503,-0.227175,0.360911,-1.218718,-0.270935,-0.522340,-1.287267
4879298,1516,1337,1490,1503,1077,1516,1337,1490,1503,1180,1501,1396,1501,1503,-0.227175,0.360911,-1.218718,-0.268556,-0.517067,-1.289563
4979303,1516,1338,1490,1502,1077,1516,1338,1490,1502,1180,1501,1396,1500,1503,-0.227175,0.360911,-1.218718,-0.266479,-0.514928,-1.289216
5079312,1516,1338,1490,1503,1077,1516,1338,1490,1503,1180,1502,1396,1503,1503,-0.227175,0.360911,-1.218718,-0.264361,-0.515314,-1.287202
5179345,1516,1337,1490,1503,1077,1516,1337,1490,1503,1180,1501,1396,1508,1503,-0.227175,0.360911,-1.218718,-0.263418,-0.513938,-1.289786
5279378,1516,1338,1490,1503,1077,1516,1338,1490,1503,1180,1501,1396,1510,1503,-0.227175,0.360911,-1.218718,-0.262121,-0.503865,-1.293659
5379390,1516,1339,1490,1503,1077,1516,1339,1490,1503,1180,1500,1396,1509,1503,-0.227175,0.360911,-1.218718,-0.259612,-0.486947,-1.296569
5479411,1516,1339,1490,1503,1077,1516,1339,1490,1503,1180,1499,1396,1509,1503,-0.227175,0.360911,-1.218718,-0.256897,-0.462963,-1.299232
5579436,1515,1345,1490,1503,1077,1515,1345,1490,1503,1180,1499,1396,1509,1503,-0.227175,0.360911,-1.218718,-0.255101,-0.435387,-1.301293
5679441,1516,1348,1490,1502,1077,1516,1348,1490,1502,1180,1499,1396,1507,1503,-0.227175,0.360911,-1.218718,-0.253597,-0.395645,-1.302067
5779474,1515,1348,1490,1502,1077,1515,1348,1490,1502,1180,1499,1396,1506,1503,-0.227175,0.360911,-1.218718,-0.252439,-0.346604,-1.299549
5879488,1516,1348,1490,1503,1077,1516,1348,1490,1503,1180,1500,1396,1503,1503,-0.227175,0.360911,-1.218718,-0.251777,-0.290526,-1.295140
5979506,1516,1348,1490,1503,1077,1516,1348,1490,1503,1180,1501,1396,1503,1503,-0.227175,0.360911,-1.218718,-0.252418,-0.243986,-1.291013
6079518,1516,1348,1490,1502,1077,1516,1348,1490,1502,1180,1501,1396,1503,1503,-0.227175,0.360911,-1.218718,-0.252644,-0.197097,-1.290064
6179525,1516,1348,1490,1503,1077,1516,1348,1490,1503,1180,1501,1396,1502,1503,-0.227175,0.360911,-1.218718,-0.251482,-0.158711,-1.293434
6279540,1516,1348,1490,1502,1077,1516,1348,1490,1502,1180,1500,1398,1501,1503,-0.227175,0.360911,-1.218718,-0.246168,-0.131645,-1.295305
6379551,1516,1356,1490,1503,1077,1516,1356,1490,1503,1180,1501,1401,1501,1503,-0.227175,0.360911,-1.218718,-0.239352,-0.113405,-1.292707
6479566,1515,1362,1490,1502,1077,1515,1362,1490,1502,1180,1501,1405,1503,1503,-0.227175,0.360911,-1.218718,-0.232657,-0.098197,-1.289577
6579573,1516,1405,1490,1503,1077,1516,1405,1490,1503,1180,1502,1408,1503,1503,-0.227175,0.360911,-1.218718,-0.223380,-0.078673,-1.286048
6679603,1515,1406,1487,1503,1077,1515,1406,1487,1503,1180,1502,1413,1499,1503,-0.227175,0.360911,-1.218718,-0.214171,-0.054792,-1.286201
6779609,1516,1411,1490,1503,1077,1516,1411,1490,1503,1180,1502,1418,1496,1503,-0.227175,0.360911,-1.218718,-0.209669,-0.028304,-1.288587
6879625,1516,1435,1490,1503,1077,1516,1435,1490,1503,1180,1502,1424,1496,1503,-0.227175,0.360911,-1.218718,-0.206777,0.007982,-1.288156
6979634,1515,1468,1490,1502,1077,1515,1468,1490,1502,1180,1502,1434,1493,1503,-0.227175,0.360911,-1.218718,-0.206990,0.062883,-1.285779
7079640,1516,1493,1490,1503,1077,1516,1493,1490,1503,1180,1502,1443,1492,1503,-0.227175,0.360911,-1.218718,-0.210060,0.104129,-1.285843
7179662,1516,1496,1490,1503,1077,1516,1496,1490,1503,1180,1502,1454,1490,1503,-0.227175,0.360911,-1.218718,-0.213103,0.155608,-1.286877
7279677,1516,1496,1490,1503,1077,1516,1496,1490,1503,1180,1502,1462,1489,1503,-0.227175,0.360911,-1.218718,-0.213082,0.199891,-1.288631
7379682,1516,1496,1490,1503,1077,1516,1496,1490,1503,1180,1501,1470,1488,1503,-0.227175,0.360911,-1.218718,-0.210798,0.235965,-1.290872
7479701,1516,1496,1490,1503,1077,1516,1496,1490,1503,1180,1500,1476,1486,1503,-0.227175,0.360911,-1.218718,-0.205810,0.269537,-1.296191
7579707,1516,1496,1490,1502,1077,1516,1496,1490,1502,1180,1499,1482,1485,1503,-0.227175,0.360911,-1.218718,-0.197771,0.297910,-1.299039
7679709,1515,1496,1490,1503,1077,1515,1496,1490,1503,1180,1499,1487,1483,1503,-0.227175,0.360911,-1.218718,-0.190879,0.320228,-1.299838
7779712,1516,1496,1490,1503,1077,1516,1496,1490,1503,1180,1499,1489,1482,1503,-0.227175,0.360911,-1.218718,-0.186768,0.332750,-1.300451
7879727,1516,1496,1490,1502,1077,1516,1496,1490,1502,1180,1500,1491,1481,1503,-0.227175,0.360911,-1.218718,-0.180469,0.341261,-1.298583
7979728,1516,1496,1490,1502,1077,1516,1496,1490,1502,1180,1500,1492,1479,1503,-0.227175,0.360911,-1.218718,-0.175174,0.346118,-1.294515
8079740,1516,1496,1490,1502,1077,1516,1496,1490,1502,1180,1500,1493,1480,1503,-0.227175,0.360911,-1.218718,-0.177203,0.350310,-1.294140
8179749,1516,1496,1490,1503,1077,1516,1496,1490,1503,1180,1501,1493,1480,1503,-0.227175,0.360911,-1.218718,-0.181466,0.350533,-1.291456
8279766,1516,1496,1490,1503,1077,1516,1496,1490,1503,1180,1501,1493,1481,1503,-0.227175,0.360911,-1.218718,-0.186361,0.349555,-1.289194
8379800,1516,1496,1490,1503,1077,1516,1496,1490,1503,1180,1502,1493,1483,1503,-0.227175,0.360911,-1.218718,-0.192995,0.347910,-1.286900
8479804,1516,1496,1490,1502,1077,1516,1496,1490,1502,1180,1502,1492,1484,1503,-0.227175,0.360911,-1.218718,-0.200038,0.344540,-1.284832
8579817,1516,1496,1490,1502,1077,1516,1496,1490,1502,1180,1502,1491,1485,1503,-0.227175,0.360911,-1.218718,-0.205440,0.341251,-1.283746
8679840,1516,1496,1490,1502,1077,1516,1496,1490,1502,1180,1503,1491,1486,1503,-0.227175,0.360911,-1.218718,-0.210303,0.339104,-1.282688
8779841,1516,1496,1490,1503,1077,1516,1496,1490,1503,1180,1503,1491,1487,1503,-0.227175,0.360911,-1.218718,-0.212797,0.337804,-1.282183
8879873,1516,1496,1490,1503,1077,1516,1496,1490,1503,1180,1503,1491,1487,1503,-0.227175,0.360911,-1.218718,-0.213284,0.338162,-1.281760
8979881,1516,1496,1490,1502,1077,1516,1496,1490,1502,1180,1503,1492,1487,1503,-0.227175,0.360911,-1.218718,-0.214533,0.342634,-1.281748
9079908,1516,1496,1490,1503,1077,1516,1496,1490,1503,1180,1503,1493,1487,1503,-0.227175,0.360911,-1.218718,-0.216399,0.348156,-1.281449
9179935,1516,1496,1490,1503,1077,1516,1496,1490,1503,1180,1503,1494,1487,1503,-0.227175,0.360911,-1.218718,-0.216566,0.355533,-1.279805
9279962,1516,1496,1490,1503,1077,1516,1496,1490,1503,1180,1504,1497,1487,1503,-0.227175,0.360911,-1.218718,-0.215680,0.373011,-1.276682
9379982,1516,1496,1490,1503,1077,1516,1496,1490,1503,1180,1504,1502,1487,1503,-0.227175,0.360911,-1.218718,-0.216713,0.399078,-1.274530
9479987,1516,1498,1490,1503,1077,1516,1498,1490,1503,1180,1505,1509,1487,1503,-0.227175,0.360911,-1.218718,-0.218011,0.432706,-1.271051
9580000,1516,1503,1490,1503,1077,1516,1503,1490,1503,1180,1506,1519,1487,1503,-0.227175,0.360911,-1.218718,-0.217811,0.481251,-1.264658
9680013,1516,1515,1490,1503,1077,1516,1515,1490,1503,1180,1507,1529,1486,1503,-0.227175,0.360911,-1.218718,-0.218072,0.538973,-1.262999
9780046,1516,1516,1490,1503,1077,1516,1516,1490,1503,1180,1507,1539,1486,1503,-0.227175,0.360911,-1.218718,-0.215619,0.585561,-1.263283
9880075,1516,1515,1490,1502,1077,1516,1515,1490,1502,1180,1507,1550,1484,1503,-0.227175,0.360911,-1.218718,-0.211661,0.633204,-1.262577
9980090,1516,1531,1490,1503,1077,1516,1531,1490,1503,1180,1506,1558,1484,1503,-0.227175,0.360911,-1.218718,-0.212332,0.678606,-1.265546
10080119,1516,1553,1490,1503,1077,1516,1553,1490,1503,1180,1506,1565,1485,1503,-0.227175,0.360911,-1.218718,-0.214757,0.710598,-1.268417
10180147,1516,1575,1490,1503,1077,1516,1575,1490,1503,1180,1505,1571,1484,1503,-0.227175,0.360911,-1.218718,-0.216314,0.737201,-1.270206
10280158,1516,1547,1490,1502,1077,1516,1547,1490,1502,1180,1505,1576,1482,1503,-0.227175,0.360911,-1.218718,-0.218238,0.764523,-1.270747
10380159,1516,1551,1490,1503,1077,1516,1551,1490,1503,1180,1505,1579,1479,1503,-0.227175,0.360911,-1.218718,-0.220792,0.784304,-1.273479
10480185,1516,1565,1490,1503,1077,1516,1565,1490,1503,1180,1503,1584,1476,1503,-0.227175,0.360911,-1.218718,-0.221837,0.809214,-1.279289
10580216,1516,1588,1490,1503,1077,1516,1588,1490,1503,1180,1502,1588,1475,1503,-0.227175,0.360911,-1.218718,-0.219240,0.831416,-1.284347
10680237,1516,1589,1490,1503,1077,1516,1589,1490,1503,1180,1502,1595,1476,1503,-0.227175,0.360911,-1.218718,-0.217182,0.863237,-1.285308
10780254,1516,1588,1490,1502,1077,1516,1588,1490,1502,1180,1503,1596,1477,1503,-0.227175,0.360911,-1.218718,-0.216271,0.902744,-1.278671
10880274,1516,1589,1490,1503,1077,1516,1589,1490,1503,1180,1505,1596,1479,1503,-0.227175,0.360911,-1.218718,-0.216786,0.943811,-1.273406
10980277,1515,1595,1490,1503,1077,1515,1595,1490,1503,1180,1505,1596,1481,1503,-0.227175,0.360911,-1.218718,-0.218635,0.988419,-1.273564
11080287,1516,1594,1490,1502,1077,1516,1594,1490,1502,1180,1504,1596,1487,1503,-0.227175,0.360911,-1.218718,-0.218650,1.027405,-1.277028
11180295,1516,1598,1490,1502,1077,1516,1598,1490,1502,1180,1503,1596,1490,1503,-0.227175,0.360911,-1.218718,-0.217193,1.073770,-1.278450
11280321,1516,1600,1490,1503,1077,1516,1600,1490,1503,1180,1503,1596,1491,1503,-0.227175,0.360911,-1.218718,-0.216535,1.109735,-1.280130
11380331,1516,1605,1490,1502,1077,1516,1605,1490,1502,1180,1503,1596,1493,1503,-0.227175,0.360911,-1.218718,-0.217806,1.137151,-1.279456
11480368,1516,1598,1490,1503,1077,1516,1598,1490,1503,1180,1503,1596,1495,1503,-0.227175,0.360911,-1.218718,-0.220295,1.158697,-1.280535
11580372,1515,1593,1490,1502,1077,1515,1593,1490,1502,1180,1502,1596,1493,1503,-0.227175,0.360911,-1.218718,-0.221538,1.169822,-1.283796
11680380,1516,1593,1490,1503,1077,1516,1593,1490,1503,1180,1502,1596,1490,1503,-0.227175,0.360911,-1.218718,-0.225293,1.181459,-1.286016
11780398,1516,1589,1490,1503,1077,1516,1589,1490,1503,1180,1502,1596,1486,1503,-0.227175,0.360911,-1.218718,-0.226762,1.188713,-1.288672
11880414,1516,1597,1490,1503,1077,1516,1597,1490,1503,1180,1502,1596,1486,1503,-0.227175,0.360911,-1.218718,-0.226762,1.188713,-1.288672
11980449,1516,1598,1490,1503,1077,1516,1598,1490,1503,1180,1502,1596,1486,1503,-0.227175,0.360911,-1.218718,-0.226762,1.188713,-1.288672
12080480,1516,1601,1490,1503,1077,1516,1601,1490,1503,1180,1502,1596,1486,1503,-0.227175,0.360911,-1.218718,-0.226762,1.188713,-1.288672
12180491,1516,1603,1490,1503,1077,1516,1603,1490,1503,1180,1502,1596,1486,1503,-0.227175,0.360911,-1.218718,-0.226762,1.188713,-1.288672
12280511,1516,1600,1490,1503,1077,1516,1600,1490,1503,1180,1502,1596,1486,1503,-0.227175,0.360911,-1.218718,-0.226762,1.188713,-1.288672
12380537,1516,1601,1490,1503,1077,1516,1601,1490,1503,1180,1502,1596,1486,1503,-0.227175,0.360911,-1.218718,-0.226762,1.188713,-1.288672
12480550,1516,1600,1490,1502,1077,1516,1600,1490,1502,1180,1502,1596,1486,1503,-0.227175,0.360911,-1.218718,-0.226762,1.188713,-1.288672
12580557,1516,1601,1490,1503,1077,1516,1601,1490,1503,1180,1502,1596,1486,1503,-0.227175,0.360911,-1.218718,-0.226762,1.188713,-1.288672
12680561,1516,1601,1490,1503,1077,1516,1601,1490,1503,1180,1502,1596,1486,1503,-0.227175,0.360911,-1.218718,-0.226762,1.188713,-1.288672
12780583,1516,1607,1490,1503,1077,1516,1607,1490,1503,1180,1502,1596,1486,1503,-0.227175,0.360911,-1.218718,-0.226762,1.188713,-1.288672
12880609,1516,1610,1490,1503,1077,1516,1610,1490,1503,1180,1502,1596,1486,1503,-0.227175,0.360911,-1.218718,-0.226762,1.188713,-1.288672
12980639,1516,1608,1490,1503,1077,1516,1608,1490,1503,1180,1502,1596,1486,1503,-0.227175,0.360911,-1.218718,-0.226762,1.188713,-1.288672
13080658,1515,1607,1490,1503,1077,1515,1607,1490,1503,1180,1502,1596,1486,1503,-0.227175,0.360911,-1.218718,-0.226762,1.188713,-1.288672
13180689,1515,1608,1490,1503,1077,1515,1608,1490,1503,1180,1502,1596,1486,1503,-0.227175,0.360911,-1.218718,-0.226762,1.188713,-1.288672
13280692,1516,1605,1490,1503,1077,1516,1605,1490,1503,1180,1502,1596,1486,1503,-0.227175,0.360911,-1.218718,-0.226762,1.188713,-1.288672
13380712,1516,1605,1490,1503,1077,1516,1605,1490,1503,1180,1502,1596,1486,1503,-0.227175,0.360911,-1.218718,-0.226762,1.188713,-1.288672
13480741,1516,1605,1490,1503,1077,1516,1605,1490,1503,1180,1502,1596,1486,1503,-0.227175,0.360911,-1.218718,-0.226762,1.188713,-1.288672
13580759,1515,1605,1490,1503,1077,1515,1605,1490,1503,1180,1502,1596,1486,1503,-0.227175,0.360911,-1.218718,-0.226762,1.188713,-1.288672
13680765,1516,1604,1490,1502,1077,1516,1604,1490,1502,1180,1502,1596,1486,1503,-0.227175,0.360911,-1.218718,-0.226762,1.188713,-1.288672
13780793,1516,1604,1490,1503,1077,1516,1604,1490,1503,1180,1502,1596,1486,1503,-0.227175,0.360911,-1.218718,-0.226762,1.188713,-1.288672
13880815,1516,1604,1490,1503,1077,1516,1604,1490,1503,1180,1502,1596,1486,1503,-0.227175,0.360911,-1.218718,-0.226762,1.188713,-1.288672
13980838,1516,1604,1490,1503,1077,1516,1604,1490,1503,1180,1501,1596,1480,1503,-0.227175,0.360911,-1.218718,-0.230304,1.135162,-1.292769
14080873,1515,1604,1490,1502,1077,1515,1604,1490,1502,1180,1501,1596,1478,1503,-0.227175,0.360911,-1.218718,-0.223406,1.098467,-1.292503
14180899,1516,1598,1490,1503,1077,1516,1598,1490,1503,1180,1500,1596,1479,1503,-0.227175,0.360911,-1.218718,-0.221789,1.069376,-1.295000
14280918,1516,1598,1490,1503,1077,1516,1598,1490,1503,1180,1500,1596,1483,1503,-0.227175,0.360911,-1.218718,-0.226384,1.045438,-1.297913
14380937,1515,1594,1490,1503,1077,1515,1594,1490,1503,1180,1499,1596,1488,1503,-0.227175,0.360911,-1.218718,-0.236980,1.026333,-1.299128
14480968,1515,1588,1489,1503,1077,1515,1588,1489,1503,1180,1499,1596,1489,1503,-0.227175,0.360911,-1.218718,-0.246762,1.009324,-1.301118
14580996,1516,1588,1490,1503,1077,1516,1588,1490,1503,1180,1499,1596,1491,1503,-0.227175,0.360911,-1.218718,-0.252713,0.988706,-1.298492
14681025,1515,1588,1490,1503,1077,1515,1588,1490,1503,1180,1500,1596,1492,1503,-0.227175,0.360911,-1.218718,-0.255529,0.967526,-1.294494
14781042,1516,1586,1490,1503,1077,1516,1586,1490,1503,1180,1500,1596,1493,1503,-0.227175,0.360911,-1.218718,-0.260466,0.938498,-1.294301
14881058,1516,1585,1490,1503,1077,1516,1585,1490,1503,1180,1500,1596,1495,1503,-0.227175,0.360911,-1.218718,-0.267125,0.896614,-1.294780
14981095,1515,1584,1490,1503,1077,1515,1584,1490,1503,1180,1501,1596,1498,1503,-0.227175,0.360911,-1.218718,-0.268120,0.858718,-1.291405
15081104,1516,1584,1490,1503,1077,1516,1584,1490,1503,1180,1502,1586,1498,1503,-0.227175,0.360911,-1.218718,-0.263023,0.815902,-1.286712
15181140,1516,1583,1490,1503,1077,1516,1583,1490,1503,1180,1502,1579,1494,1503,-0.227175,0.360911,-1.218718,-0.256766,0.776819,-1.286649
15281155,1516,1580,1490,1503,1077,1516,1580,1490,1503,1180,1501,1571,1492,1503,-0.227175,0.360911,-1.218718,-0.253191,0.736565,-1.290688
15381182,1515,1577,1490,1502,1077,1515,1577,1490,1502,1180,1501,1565,1491,1503,-0.227175,0.360911,-1.218718,-0.249654,0.705320,-1.292837
15481206,1515,1577,1490,1503,1077,1515,1577,1490,1503,1180,1500,1561,1491,1503,-0.227175,0.360911,-1.218718,-0.247203,0.684654,-1.294309
15581207,1516,1574,1490,1503,1077,1516,1574,1490,1503,1180,1500,1556,1492,1503,-0.227175,0.360911,-1.218718,-0.247432,0.665300,-1.294877
15681242,1516,1565,1490,1503,1077,1516,1565,1490,1503,1180,1500,1552,1494,1503,-0.227175,0.360911,-1.218718,-0.251185,0.643751,-1.296925
15781275,1515,1554,1490,1502,1077,1515,1554,1490,1502,1180,1500,1549,1495,1503,-0.227175,0.360911,-1.218718,-0.253256,0.623944,-1.295793
15881294,1516,1553,1490,1503,1077,1516,1553,1490,1503,1180,1500,1545,1496,1503,-0.227175,0.360911,-1.218718,-0.255802,0.607283,-1.295795
15981324,1516,1550,1490,1503,1077,1516,1550,1490,1503,1180,1500,1540,1496,1503,-0.227175,0.360911,-1.218718,-0.258693,0.585186,-1.296696
16081359,1516,1540,1490,1503,1077,1516,1540,1490,1503,1180,1500,1535,1496,1503,-0.227175,0.360911,-1.218718,-0.260121,0.555358,-1.295221
16181376,1516,1523,1490,1503,1077,1516,1523,1490,1503,1180,1501,1528,1495,1503,-0.227175,0.360911,-1.218718,-0.261753,0.520702,-1.291335
16281387,1516,1528,1490,1503,1077,1516,1528,1490,1503,1180,1502,1521,1495,1503,-0.227175,0.360911,-1.218718,-0.262480,0.484937,-1.286686
16381410,1515,1528,1490,1503,1077,1515,1528,1490,1503,1180,1502,1513,1495,1503,-0.227175,0.360911,-1.218718,-0.260024,0.444555,-1.285637
16481418,1516,1511,1490,1503,1077,1516,1511,1490,1503,1180,1502,1507,1495,1503,-0.227175,0.360911,-1.218718,-0.258663,0.412343,-1.286421
16581435,1516,1498,1490,1503,1077,1516,1498,1490,1503,1180,1502,1502,1495,1503,-0.227175,0.360911,-1.218718,-0.257442,0.387576,-1.288124
16681442,1515,1498,1490,1502,1077,1515,1498,1490,1502,1180,1501,1497,1495,1503,-0.227175,0.360911,-1.218718,-0.252926,0.365282,-1.290133
16781475,1516,1496,1490,1503,1077,1516,1496,1490,1503,1180,1501,1494,1493,1503,-0.227175,0.360911,-1.218718,-0.245927,0.349913,-1.291060
16881496,1516,1496,1490,1503,1077,1516,1496,1490,1503,1180,1501,1491,1492,1503,-0.227175,0.360911,-1.218718,-0.240528,0.338629,-1.292403
16981517,1516,1496,1490,1503,1077,1516,1496,1490,1503,1180,1501,1490,1491,1503,-0.227175,0.360911,-1.218718,-0.234687,0.331821,-1.292256
17081534,1516,1496,1490,1502,1077,1516,1496,1490,1502,1180,1501,1489,1490,1503,-0.227175,0.360911,-1.218718,-0.230475,0.330469,-1.291979
17181556,1516,1496,1490,1503,1077,1516,1496,1490,1503,1180,1501,1489,1491,1503,-0.227175,0.360911,-1.218718,-0.231001,0.330132,-1.292472
17281560,1516,1496,1490,1503,1077,1516,1496,1490,1503,1180,1501,1489,1491,1503,-0.227175,0.360911,-1.218718,-0.233536,0.327974,-1.291543
17381579,1515,1496,1490,1503,1077,1515,1496,1490,1503,1180,1501,1489,1492,1503,-0.227175,0.360911,-1.218718,-0.236971,0.326286,-1.289320
17481586,1515,1496,1490,1503,1077,1515,1496,1490,1503,1180,1502,1489,1492,1503,-0.227175,0.360911,-1.218718,-0.238874,0.326276,-1.286704
17581596,1516,1496,1490,1503,1077,1516,1496,1490,1503,1180,1502,1489,1492,1503,-0.227175,0.360911,-1.218718,-0.239207,0.327270,-1.285448
17681599,1516,1496,1490,1503,1077,1516,1496,1490,1503,1180,1502,1489,1492,1503,-0.227175,0.360911,-1.218718,-0.239279,0.330102,-1.285228
17781610,1516,1496,1490,1503,1077,1516,1496,1490,1503,1180,1502,1490,1492,1503,-0.227175,0.360911,-1.218718,-0.238550,0.332605,-1.286262
17881642,1516,1496,1490,1503,1077,1516,1496,1490,1503,1180,1502,1491,1492,1503,-0.227175,0.360911,-1.218718,-0.236202,0.335608,-1.288535
17981647,1516,1496,1490,1503,1077,1516,1496,1490,1503,1180,1500,1492,1491,1503,-0.227175,0.360911,-1.218718,-0.232003,0.340990,-1.295348
18081678,1515,1496,1490,1503,1077,1515,1496,1490,1503,1180,1499,1493,1489,1503,-0.227175,0.360911,-1.218718,-0.224523,0.348307,-1.302817
18181688,1516,1496,1490,1503,1077,1516,1496,1490,1503,1180,1498,1494,1487,1503,-0.227175,0.360911,-1.218718,-0.214923,0.352235,-1.307083
18281696,1516,1496,1490,1503,1077,1516,1496,1490,1503,1180,1497,1493,1484,1503,-0.227175,0.360911,-1.218718,-0.197276,0.352020,-1.310605
18381714,1516,1496,1490,1503,1077,1516,1496,1490,1503,1180,1497,1493,1480,1503,-0.227175,0.360911,-1.218718,-0.172782,0.347960,-1.313131
18481731,1516,1496,1474,1502,1077,1516,1496,1474,1502,1180,1497,1491,1473,1503,-0.227175,0.360911,-1.218718,-0.142655,0.343274,-1.312970
18581741,1516,1496,1467,1503,1077,1516,1496,1467,1503,1180,1497,1489,1466,1503,-0.227175,0.360911,-1.218718,-0.106069,0.337867,-1.309948
18681743,1516,1496,1467,1503,1077,1516,1496,1467,1503,1180,1498,1486,1459,1503,-0.227175,0.360911,-1.218718,-0.066258,0.327576,-1.304920
18781754,1515,1496,1466,1503,1077,1515,1496,1466,1503,1180,1499,1484,1452,1503,-0.227175,0.360911,-1.218718,-0.029467,0.317421,-1.301603
18881779,1516,1496,1461,1503,1077,1516,1496,1461,1503,1180,1499,1482,1445,1503,-0.227175,0.360911,-1.218718,0.002134,0.309870,-1.302896
18981794,1515,1496,1458,1502,1077,1515,1496,1458,1502,1180,1498,1481,1439,1503,-0.227175,0.360911,-1.218718,0.032376,0.308151,-1.308830
19081797,1516,1498,1461,1503,1077,1516,1498,1461,1503,1180,1496,1481,1434,1503,-0.227175,0.360911,-1.218718,0.056764,0.310791,-1.315084
19181809,1515,1498,1457,1503,1077,1515,1498,1457,1503,1180,1496,1483,1430,1503,-0.227175,0.360911,-1.218718,0.078714,0.316393,-1.318862
19281843,1516,1498,1455,1503,1077,1516,1498,1455,1503,1180,1495,1485,1425,1503,-0.227175,0.360911,-1.218718,0.095857,0.318881,-1.321607
19381847,1516,1498,1454,1503,1077,1516,1498,1454,1503,1180,1494,1487,1422,1503,-0.227175,0.360911,-1.218718,0.114088,0.327826,-1.323933
19481851,1516,1498,1445,1503,1077,1516,1498,1445,1503,1180,1495,1490,1418,1503,-0.227175,0.360911,-1.218718,0.129738,0.338603,-1.323215
19581867,1515,1498,1445,1503,1077,1515,1498,1445,1503,1180,1495,1493,1415,1503,-0.227175,0.360911,-1.218718,0.146808,0.349030,-1.318949
19681872,1516,1498,1444,1503,1077,1516,1498,1444,1503,1180,1496,1495,1413,1503,-0.227175,0.360911,-1.218718,0.157106,0.352359,-1.316278
19781886,1516,1498,1441,1503,1077,1516,1498,1441,1503,1180,1496,1494,1410,1503,-0.227175,0.360911,-1.218718,0.169568,0.352305,-1.314493
19881917,1516,1498,1442,1503,1077,1516,1498,1442,1503,1180,1497,1492,1407,1503,-0.227175,0.360911,-1.218718,0.190211,0.348663,-1.312064
19981926,1516,1498,1441,1503,1077,1516,1498,1441,1503,1180,1497,1490,1402,1503,-0.227175,0.360911,-1.218718,0.215193,0.342088,-1.311200
20081928,1515,1498,1433,1503,1077,1515,1498,1433,1503,1180,1497,1485,1396,1503,-0.227175,0.360911,-1.218718,0.246602,0.331729,-1.312977
20181971,1515,1498,1432,1503,1077,1515,1498,1432,1503,1180,1496,1484,1393,1503,-0.227175,0.360911,-1.218718,0.258295,0.328336,-1.313839
20281985,1516,1498,1432,1503,1076,1516,1498,1432,1503,1180,1496,1484,1393,1503,-0.227175,0.360911,-1.218718,0.258295,0.328336,-1.313839
20382007,1515,1498,1423,1503,1077,1515,1498,1423,1503,1180,1496,1484,1393,1503,-0.227175,0.360911,-1.218718,0.258295,0.328336,-1.313839
20482012,1516,1498,1428,1503,1077,1516,1498,1428,1503,1180,1496,1484,1393,1503,-0.227175,0.360911,-1.218718,0.258295,0.328336,-1.313839
20582034,1516,1498,1432,1502,1077,1516,1498,1432,1502,1180,1496,1484,1393,1503,-0.227175,0.360911,-1.218718,0.258295,0.328336,-1.313839
20682054,1516,1498,1433,1503,1077,1516,1498,1433,1503,1180,1496,1484,1393,1503,-0.227175,0.360911,-1.218718,0.258295,0.328336,-1.313839
20782098,1515,1498,1436,1503,1077,1515,1498,1436,1503,1180,1496,1484,1393,1503,-0.227175,0.360911,-1.218718,0.258295,0.328336,-1.313839
20882132,1516,1498,1437,1503,1077,1516,1498,1437,1503,1180,1496,1484,1393,1503,-0.227175,0.360911,-1.218718,0.258295,0.328336,-1.313839
20982139,1516,1498,1438,1503,1077,1516,1498,1438,1503,1180,1496,1484,1393,1503,-0.227175,0.360911,-1.218718,0.258295,0.328336,-1.313839
21082152,1516,1498,1438,1503,1077,1516,1498,1438,1503,1180,1496,1484,1393,1503,-0.227175,0.360911,-1.218718,0.258295,0.328336,-1.313839
21182162,1516,1498,1441,1503,1077,1516,1498,1441,1503,1180,1496,1484,1393,1503,-0.227175,0.360911,-1.218718,0.258295,0.328336,-1.313839
21282179,1516,1498,1441,1503,1077,1516,1498,1441,1503,1180,1496,1484,1393,1503,-0.227175,0.360911,-1.218718,0.258295,0.328336,-1.313839
21382192,1515,1498,1443,1503,1077,1515,1498,1443,1503,1180,1496,1484,1393,1503,-0.227175,0.360911,-1.218718,0.258295,0.328336,-1.313839
21482195,1516,1498,1444,1503,1077,1516,1498,1444,1503,1180,1496,1484,1393,1503,-0.227175,0.360911,-1.218718,0.258295,0.328336,-1.313839
21582196,1516,1498,1444,1502,1077,1516,1498,1444,1502,1180,1496,1484,1393,1503,-0.227175,0.360911,-1.218718,0.258295,0.328336,-1.313839
21682218,1516,1498,1444,1503,1077,1516,1498,1444,1503,1180,1496,1484,1393,1503,-0.227175,0.360911,-1.218718,0.258295,0.328336,-1.313839
21782227,1515,1498,1444,1503,1077,1515,1498,1444,1503,1180,1496,1484,1393,1503,-0.227175,0.360911,-1.218718,0.258295,0.328336,-1.313839
21882253,1515,1498,1445,1502,1077,1515,1498,1445,1502,1180,1496,1484,1393,1503,-0.227175,0.360911,-1.218718,0.258295,0.328336,-1.313839
21982260,1516,1498,1445,1503,1077,1516,1498,1445,1503,1180,1496,1484,1393,1503,-0.227175,0.360911,-1.218718,0.258295,0.328336,-1.313839
22082263,1516,1498,1445,1503,1077,1516,1498,1445,1503,1180,1496,1484,1393,1503,-0.227175,0.360911,-1.218718,0.258295,0.328336,-1.313839
22182284,1516,1498,1445,1503,1077,1516,1498,1445,1503,1180,1496,1484,1393,1503,-0.227175,0.360911,-1.218718,0.258295,0.328336,-1.313839
22282291,1515,1498,1445,1502,1077,1515,1498,1445,1502,1180,1496,1484,1393,1503,-0.227175,0.360911,-1.218718,0.258295,0.328336,-1.313839
22382321,1516,1498,1445,1503,1077,1516,1498,1445,1503,1180,1496,1484,1393,1503,-0.227175,0.360911,-1.218718,0.258295,0.328336,-1.313839
22482342,1516,1498,1450,1503,1077,1516,1498,1450,1503,1180,1496,1484,1393,1503,-0.227175,0.360911,-1.218718,0.258295,0.328336,-1.313839
22582356,1516,1498,1454,1503,1077,1516,1498,1454,1503,1180,1496,1484,1393,1503,-0.227175,0.360911,-1.218718,0.258295,0.328336,-1.313839
22682383,1516,1498,1452,1503,1077,1516,1498,1452,1503,1180,1496,1484,1393,1503,-0.227175,0.360911,-1.218718,0.258295,0.328336,-1.313839
22782395,1516,1498,1457,1503,1077,1516,1498,1457,1503,1180,1496,1484,1393,1503,-0.227175,0.360911,-1.218718,0.258295,0.328336,-1.313839
22882429,1516,1498,1457,1503,1077,1516,1498,1457,1503,1180,1496,1484,1393,1503,-0.227175,0.360911,-1.218718,0.258295,0.328336,-1.313839
22982432,1516,1498,1461,1503,1077,1516,1498,1461,1503,1180,1496,1484,1393,1503,-0.227175,0.360911,-1.218718,0.258295,0.328336,-1.313839
23082437,1516,1498,1461,1503,1077,1516,1498,1461,1503,1180,1496,1484,1393,1503,-0.227175,0.360911,-1.218718,0.258295,0.328336,-1.313839
23182447,1516,1498,1464,1503,1077,1516,1498,1464,1503,1180,1496,1484,1393,1503,-0.227175,0.360911,-1.218718,0.258295,0.328336,-1.313839
23282476,1516,1498,1471,1503,1077,1516,1498,1471,1503,1180,1496,1484,1393,1503,-0.227175,0.360911,-1.218718,0.258295,0.328336,-1.313839
23382511,1516,1498,1474,1503,1077,1516,1498,1474,1503,1180,1496,1484,1393,1503,-0.227175,0.360911,-1.218718,0.258295,0.328336,-1.313839
23482539,1516,1498,1476,1503,1077,1516,1498,1476,1503,1180,1496,1484,1393,1503,-0.227175,0.360911,-1.218718,0.258295,0.328336,-1.313839
23582572,1516,1498,1477,1503,1077,1516,1498,1477,1503,1180,1496,1484,1393,1503,-0.227175,0.360911,-1.218718,0.258295,0.328336,-1.313839
23682575,1516,1498,1481,1503,1077,1516,1498,1481,1503,1180,1498,1485,1452,1503,-0.227175,0.360911,-1.218718,-0.037946,0.321787,-1.304543
23782590,1516,1498,1485,1503,1077,1516,1498,1485,1503,1180,1499,1488,1457,1503,-0.227175,0.360911,-1.218718,-0.067282,0.328833,-1.303263
23882618,1516,1499,1485,1503,1077,1516,1499,1485,1503,1180,1499,1490,1462,1503,-0.227175,0.360911,-1.218718,-0.092989,0.335243,-1.302424
23982629,1516,1498,1490,1503,1077,1516,1498,1490,1503,1180,1500,1491,1467,1503,-0.227175,0.360911,-1.218718,-0.118118,0.339090,-1.297520
24082656,1516,1498,1490,1503,1077,1516,1498,1490,1503,1180,1501,1491,1471,1503,-0.227175,0.360911,-1.218718,-0.140706,0.339050,-1.292663
24182669,1516,1498,1491,1503,1077,1516,1498,1491,1503,1180,1501,1491,1476,1503,-0.227175,0.360911,-1.218718,-0.163487,0.338032,-1.288905
24282682,1516,1498,1490,1502,1077,1516,1498,1490,1502,1180,1502,1490,1482,1503,-0.227175,0.360911,-1.218718,-0.188271,0.333687,-1.284437
24382717,1516,1498,1490,1503,1077,1516,1498,1490,1503,1180,1503,1489,1486,1503,-0.227175,0.360911,-1.218718,-0.208640,0.326760,-1.278632
24482744,1516,1498,1490,1502,1077,1516,1498,1490,1502,1180,1504,1487,1489,1503,-0.227175,0.360911,-1.218718,-0.221766,0.320292,-1.276978
24582765,1515,1498,1490,1503,1077,1515,1498,1490,1503,1180,1504,1487,1492,1503,-0.227175,0.360911,-1.218718,-0.238247,0.318418,-1.278440
24682771,1516,1498,1490,1503,1077,1516,1498,1490,1503,1180,1503,1488,1495,1503,-0.227175,0.360911,-1.218718,-0.254469,0.321348,-1.280685
24782781,1516,1498,1490,1502,1077,1516,1498,1490,1502,1180,1504,1489,1497,1503,-0.227175,0.360911,-1.218718,-0.265490,0.326354,-1.277815
24882796,1516,1498,1490,1503,1077,1516,1498,1490,1503,1180,1504,1490,1499,1503,-0.227175,0.360911,-1.218718,-0.272595,0.331057,-1.276306
24982804,1516,1498,1490,1502,1077,1516,1498,1490,1502,1180,1504,1491,1500,1503,-0.227175,0.360911,-1.218718,-0.279862,0.337009,-1.274307
25082815,1516,1498,1490,1503,1077,1516,1498,1490,1503,1180,1505,1492,1502,1503,-0.227175,0.360911,-1.218718,-0.288964,0.342051,-1.270582
25182826,1516,1498,1490,1503,1077,1516,1498,1490,1503,1180,1505,1493,1503,1503,-0.227175,0.360911,-1.218718,-0.296476,0.344542,-1.268476
25282861,1516,1498,1490,1503,1077,1516,1498,1490,1503,1180,1506,1493,1504,1503,-0.227175,0.360911,-1.218718,-0.301829,0.347188,-1.265621
25382878,1516,1498,1490,1503,1077,1516,1498,1490,1503,1180,1506,1494,1505,1503,-0.227175,0.360911,-1.218718,-0.304409,0.348619,-1.264859
25482879,1516,1498,1490,1502,1077,1516,1498,1490,1502,1180,1506,1494,1505,1503,-0.227175,0.360911,-1.218718,-0.304556,0.349721,-1.263678
25582903,1516,1498,1490,1503,1077,1516,1498,1490,1503,1180,1507,1494,1505,1503,-0.227175,0.360911,-1.218718,-0.305674,0.349806,-1.262077
25682911,1516,1498,1490,1503,1077,1516,1498,1490,1503,1180,1507,1494,1506,1503,-0.227175,0.360911,-1.218718,-0.308099,0.350001,-1.260254
25782912,1516,1498,1490,1502,1077,1516,1498,1490,1502,1180,1507,1495,1506,1503,-0.227175,0.360911,-1.218718,-0.312058,0.352610,-1.259243
25882943,1516,1498,1490,1503,1077,1516,1498,1490,1503,1180,1507,1496,1508,1503,-0.227175,0.360911,-1.218718,-0.318151,0.358996,-1.260480
25982964,1516,1498,1490,1503,1077,1516,1498,1490,1503,1180,1507,1498,1510,1503,-0.227175,0.360911,-1.218718,-0.329369,0.368552,-1.262415
26082984,1516,1498,1490,1503,1077,1516,1498,1490,1503,1180,1507,1500,1513,1503,-0.227175,0.360911,-1.218718,-0.347432,0.379471,-1.260909
26183001,1516,1498,1490,1503,1077,1516,1498,1490,1503,1180,1507,1500,1517,1503,-0.227175,0.360911,-1.218718,-0.365727,0.381997,-1.261340
26283006,1515,1498,1492,1503,1077,1515,1498,1492,1503,1180,1506,1500,1522,1503,-0.227175,0.360911,-1.218718,-0.389136,0.377970,-1.264171
26383034,1515,1498,1500,1503,1077,1515,1498,1500,1503,1180,1506,1498,1528,1503,-0.227175,0.360911,-1.218718,-0.422880,0.365948,-1.264701
26483059,1516,1498,1523,1502,1077,1516,1498,1523,1502,1180,1506,1496,1536,1503,-0.227175,0.360911,-1.218718,-0.459655,0.351828,-1.263929
26583092,1515,1498,1525,1503,1077,1515,1498,1525,1503,1180,1507,1495,1545,1503,-0.227175,0.360911,-1.218718,-0.502148,0.338099,-1.262638
26683125,1516,1499,1527,1503,1077,1516,1499,1527,1503,1180,1507,1493,1552,1503,-0.227175,0.360911,-1.218718,-0.540350,0.324560,-1.263386
26783141,1516,1499,1527,1503,1077,1516,1499,1527,1503,1180,1506,1491,1559,1503,-0.227175,0.360911,-1.218718,-0.572486,0.314279,-1.264053
26883152,1515,1499,1528,1503,1077,1515,1499,1528,1503,1180,1506,1491,1565,1503,-0.227175,0.360911,-1.218718,-0.606746,0.311073,-1.266662
26983179,1516,1499,1533,1503,1077,1516,1499,1533,1503,1180,1506,1491,1572,1503,-0.227175,0.360911,-1.218718,-0.642497,0.313195,-1.268393
27083185,1516,1500,1532,1503,1077,1516,1500,1532,1503,1180,1506,1493,1580,1503,-0.227175,0.360911,-1.218718,-0.679888,0.318826,-1.267146
27183212,1516,1499,1536,1503,1077,1516,1499,1536,1503,1180,1507,1496,1589,1503,-0.227175,0.360911,-1.218718,-0.728631,0.330365,-1.261424
27283227,1516,1499,1539,1503,1077,1516,1499,1539,1503,1180,1508,1497,1590,1503,-0.227175,0.360911,-1.218718,-0.769753,0.340440,-1.257746
27383270,1516,1499,1546,1503,1077,1516,1499,1546,1503,1180,1507,1497,1590,1503,-0.227175,0.360911,-1.218718,-0.812932,0.349769,-1.258811
27483305,1516,1499,1551,1503,1077,1516,1499,1551,1503,1180,1507,1496,1590,1503,-0.227175,0.360911,-1.218718,-0.853804,0.358846,-1.262277
27583326,1516,1501,1556,1503,1077,1516,1501,1556,1503,1180,1506,1495,1590,1503,-0.227175,0.360911,-1.218718,-0.889587,0.364147,-1.266686
27683352,1516,1500,1559,1503,1077,1516,1500,1559,1503,1180,1506,1495,1590,1503,-0.227175,0.360911,-1.218718,-0.918444,0.365882,-1.267851
27783356,1516,1500,1561,1502,1077,1516,1500,1561,1502,1180,1506,1495,1590,1503,-0.227175,0.360911,-1.218718,-0.949037,0.363738,-1.266949
27883367,1516,1500,1562,1503,1077,1516,1500,1562,1503,1180,1506,1497,1590,1503,-0.227175,0.360911,-1.218718,-0.976909,0.356887,-1.266207
27983395,1516,1501,1566,1503,1077,1516,1501,1566,1503,1180,1506,1497,1590,1503,-0.227175,0.360911,-1.218718,-1.009201,0.345638,-1.264739
28083428,1516,1500,1567,1502,1077,1516,1500,1567,1502,1180,1506,1496,1590,1503,-0.227175,0.360911,-1.218718,-1.035854,0.337629,-1.264240
28183458,1516,1500,1567,1503,1077,1516,1500,1567,1503,1180,1506,1496,1590,1503,-0.227175,0.360911,-1.218718,-1.056381,0.331794,-1.264222
28283479,1516,1500,1569,1503,1077,1516,1500,1569,1503,1180,1506,1498,1590,1503,-0.227175,0.360911,-1.218718,-1.069402,0.330458,-1.264654
28383488,1516,1500,1571,1503,1077,1516,1500,1571,1503,1180,1507,1500,1590,1503,-0.227175,0.360911,-1.218718,-1.078336,0.331594,-1.262944
28483489,1516,1500,1571,1503,1077,1516,1500,1571,1503,1180,1507,1499,1590,1503,-0.227175,0.360911,-1.218718,-1.086076,0.334071,-1.262521
28583496,1515,1501,1571,1502,1077,1515,1501,1571,1502,1180,1506,1497,1590,1503,-0.227175,0.360911,-1.218718,-1.095598,0.338093,-1.264316
28683504,1516,1501,1570,1503,1077,1516,1501,1570,1503,1180,1506,1497,1590,1503,-0.227175,0.360911,-1.218718,-1.101726,0.340085,-1.265171
28783509,1516,1501,1566,1503,1077,1516,1501,1566,1503,1180,1506,1497,1590,1503,-0.227175,0.360911,-1.218718,-1.107209,0.342390,-1.264270
28883522,1515,1500,1567,1503,1077,1515,1500,1567,1503,1180,1507,1497,1590,1503,-0.227175,0.360911,-1.218718,-1.109997,0.343212,-1.263209
28983544,1515,1500,1566,1503,1077,1515,1500,1566,1503,1180,1507,1497,1590,1503,-0.227175,0.360911,-1.218718,-1.111746,0.342963,-1.262191
29083577,1515,1501,1566,1503,1077,1515,1501,1566,1503,1180,1507,1498,1590,1503,-0.227175,0.360911,-1.218718,-1.114126,0.342669,-1.263218
29183584,1516,1500,1567,1503,1077,1516,1500,1567,1503,1180,1507,1499,1590,1503,-0.227175,0.360911,-1.218718,-1.114476,0.343462,-1.263663
29283618,1516,1501,1566,1503,1077,1516,1501,1566,1503,1180,1506,1501,1590,1503,-0.227175,0.360911,-1.218718,-1.116405,0.345269,-1.264919
29383646,1516,1503,1569,1503,1077,1516,1503,1569,1503,1180,1506,1502,1590,1503,-0.227175,0.360911,-1.218718,-1.118582,0.347544,-1.265044
29483677,1516,1503,1566,1503,1077,1516,1503,1566,1503,1180,1507,1501,1590,1503,-0.227175,0.360911,-1.218718,-1.119260,0.350266,-1.262659
29583705,1516,1503,1567,1503,1077,1516,1503,1567,1503,1180,1507,1501,1590,1503,-0.227175,0.360911,-1.218718,-1.114376,0.351682,-1.260791
29683738,1515,1503,1567,1503,1077,1515,1503,1567,1503,1180,1507,1502,1590,1503,-0.227175,0.360911,-1.218718,-1.104329,0.353426,-1.263125
29783770,1516,1503,1567,1503,1077,1516,1503,1567,1503,1180,1505,1503,1590,1503,-0.227175,0.360911,-1.218718,-1.088368,0.351813,-1.270815
29883802,1516,1502,1567,1502,1077,1516,1502,1567,1502,1180,1504,1505,1590,1503,-0.227175,0.360911,-1.218718,-1.062190,0.345770,-1.276399
29983805,1515,1503,1566,1503,1077,1515,1503,1566,1503,1180,1504,1506,1590,1503,-0.227175,0.360911,-1.218718,-1.034190,0.339121,-1.276836
30083814,1516,1503,1566,1503,1077,1516,1503,1566,1503,1180,1504,1508,1590,1503,-0.227175,0.360911,-1.218718,-0.996830,0.331048,-1.278785
30183837,1516,1502,1567,1502,1077,1516,1502,1567,1502,1180,1503,1509,1590,1503,-0.227175,0.360911,-1.218718,-0.961596,0.324411,-1.282561
30283845,1516,1502,1567,1502,1077,1516,1502,1567,1502,1180,1502,1507,1590,1503,-0.227175,0.360911,-1.218718,-0.921529,0.316568,-1.288326
30383865,1515,1502,1564,1503,1077,1515,1502,1564,1503,1180,1500,1505,1590,1503,-0.227175,0.360911,-1.218718,-0.879970,0.307609,-1.296945
30483872,1515,1502,1560,1503,1077,1515,1502,1560,1503,1180,1499,1504,1590,1503,-0.227175,0.360911,-1.218718,-0.845024,0.306515,-1.301677
30583886,1516,1503,1556,1503,1077,1516,1503,1556,1503,1180,1498,1501,1590,1503,-0.227175,0.360911,-1.218718,-0.804257,0.311220,-1.304955
30683892,1516,1502,1551,1503,1077,1516,1502,1551,1503,1180,1498,1500,1590,1503,-0.227175,0.360911,-1.218718,-0.764650,0.315643,-1.305445
30783912,1516,1503,1554,1503,1077,1516,1503,1554,1503,1180,1499,1498,1590,1503,-0.227175,0.360911,-1.218718,-0.726613,0.321218,-1.303479
30883923,1516,1503,1547,1503,1077,1516,1503,1547,1503,1180,1498,1498,1582,1503,-0.227175,0.360911,-1.218718,-0.687050,0.325830,-1.304589
30983931,1515,1503,1539,1503,1077,1515,1503,1539,1503,1180,1497,1499,1574,1503,-0.227175,0.360911,-1.218718,-0.647585,0.326909,-1.310625
31083956,1516,1503,1537,1502,1077,1516,1503,1537,1502,1180,1496,1498,1568,1503,-0.227175,0.360911,-1.218718,-0.615541,0.327863,-1.315442
31183962,1516,1502,1537,1503,1077,1516,1502,1537,1503,1180,1496,1496,1561,1503,-0.227175,0.360911,-1.218718,-0.578495,0.327146,-1.316561
31283996,1516,1503,1533,1503,1077,1516,1503,1533,1503,1180,1496,1495,1553,1503,-0.227175,0.360911,-1.218718,-0.541631,0.321256,-1.315134
31383999,1516,1502,1536,1502,1077,1516,1502,1536,1502,1180,1497,1494,1546,1503,-0.227175,0.360911,-1.218718,-0.507531,0.313092,-1.312439
31484012,1516,1502,1533,1503,1077,1516,1502,1533,1503,1180,1498,1492,1540,1503,-0.227175,0.360911,-1.218718,-0.472863,0.304472,-1.308376
31584026,1515,1503,1532,1503,1077,1515,1503,1532,1503,1180,1498,1489,1533,1503,-0.227175,0.360911,-1.218718,-0.436762,0.297111,-1.306566
31684035,1516,1503,1532,1503,1077,1516,1503,1532,1503,1180,1497,1487,1528,1503,-0.227175,0.360911,-1.218718,-0.411191,0.292354,-1.309823
31784038,1516,1503,1526,1503,1077,1516,1503,1526,1503,1180,1496,1485,1522,1503,-0.227175,0.360911,-1.218718,-0.384341,0.289487,-1.314123
31884053,1515,1502,1525,1503,1077,1515,1502,1525,1503,1180,1496,1484,1517,1503,-0.227175,0.360911,-1.218718,-0.355662,0.297371,-1.316064
31984070,1516,1503,1518,1503,1077,1516,1503,1518,1503,1180,1496,1486,1512,1503,-0.227175,0.360911,-1.218718,-0.334103,0.309770,-1.314683
32084079,1515,1503,1513,1503,1077,1515,1503,1513,1503,1180,1496,1489,1506,1503,-0.227175,0.360911,-1.218718,-0.306626,0.324044,-1.315156
32184113,1515,1502,1509,1503,1077,1515,1502,1509,1503,1180,1496,1491,1501,1503,-0.227175,0.360911,-1.218718,-0.277691,0.334709,-1.316375
32284130,1516,1502,1509,1503,1077,1516,1502,1509,1503,1180,1496,1491,1495,1503,-0.227175,0.360911,-1.218718,-0.255214,0.338984,-1.316878
32384165,1516,1503,1490,1503,1077,1516,1503,1490,1503,1180,1496,1491,1492,1503,-0.227175,0.360911,-1.218718,-0.237661,0.339719,-1.314449
32484188,1515,1499,1490,1503,1077,1515,1499,1490,1503,1180,1496,1491,1490,1503,-0.227175,0.360911,-1.218718,-0.230113,0.337466,-1.314691
32584196,1516,1496,1490,1503,1077,1516,1496,1490,1503,1180,1497,1491,1490,1503,-0.227175,0.360911,-1.218718,-0.227073,0.336476,-1.312980
32684215,1516,1496,1490,1503,1077,1516,1496,1490,1503,1180,1497,1491,1489,1503,-0.227175,0.360911,-1.218718,-0.222569,0.339040,-1.312133
32784225,1516,1496,1490,1503,1077,1516,1496,1490,1503,1180,1497,1491,1488,1503,-0.227175,0.360911,-1.218718,-0.218891,0.340085,-1.313789
32884255,1516,1496,1490,1503,1077,1516,1496,1490,1503,1180,1496,1491,1488,1503,-0.227175,0.360911,-1.218718,-0.216853,0.339063,-1.316846
32984287,1516,1496,1490,1503,1077,1516,1496,1490,1503,1180,1494,1491,1488,1503,-0.227175,0.360911,-1.218718,-0.220664,0.340187,-1.329956
33084307,1516,1496,1490,1503,1077,1516,1496,1490,1503,1180,1489,1491,1490,1503,-0.227175,0.360911,-1.218718,-0.228824,0.338912,-1.351440
33184314,1516,1496,1490,1502,1077,1516,1496,1490,1502,1180,1481,1490,1491,1503,-0.227175,0.360911,-1.218718,-0.236100,0.334526,-1.392947
33284328,1516,1496,1490,1504,1077,1516,1496,1490,1504,1180,1469,1490,1492,1503,-0.227175,0.360911,-1.218718,-0.237113,0.333049,-1.449352
33384336,1516,1496,1490,1504,1077,1516,1496,1490,1504,1180,1456,1490,1492,1503,-0.227175,0.360911,-1.218718,-0.240782,0.331497,-1.515150
33484357,1499,1496,1490,1505,1077,1499,1496,1490,1505,1180,1444,1489,1493,1503,-0.227175,0.360911,-1.218718,-0.246221,0.327991,-1.578292
33584372,1486,1496,1490,1508,1077,1486,1496,1490,1508,1180,1432,1489,1495,1503,-0.227175,0.360911,-1.218718,-0.253931,0.328378,-1.633773
33684403,1452,1496,1490,1514,1077,1452,1496,1490,1514,1180,1425,1490,1497,1503,-0.227175,0.360911,-1.218718,-0.262239,0.331484,-1.682414
33784406,1452,1496,1490,1518,1077,1452,1496,1490,1518,1180,1425,1490,1499,1503,-0.227175,0.360911,-1.218718,-0.275087,0.330762,-1.734371
33884441,1452,1496,1490,1523,1077,1452,1496,1490,1523,1180,1425,1490,1501,1503,-0.227175,0.360911,-1.218718,-0.282703,0.330489,-1.780703
33984470,1432,1496,1490,1527,1077,1432,1496,1490,1527,1180,1425,1490,1501,1503,-0.227175,0.360911,-1.218718,-0.282703,0.330489,-1.780703
34084472,1419,1496,1490,1537,1077,1419,1496,1490,1537,1180,1425,1490,1501,1503,-0.227175,0.360911,-1.218718,-0.282703,0.330489,-1.780703
34184477,1412,1496,1490,1551,1077,1412,1496,1490,1551,1180,1425,1490,1501,1503,-0.227175,0.360911,-1.218718,-0.282703,0.330489,-1.780703
34284498,1412,1496,1490,1545,1077,1412,1496,1490,1545,1180,1425,1490,1501,1503,-0.227175,0.360911,-1.218718,-0.282703,0.330489,-1.780703
34384534,1401,1496,1490,1537,1077,1401,1496,1490,1537,1180,1425,1490,1501,1503,-0.227175,0.360911,-1.218718,-0.282703,0.330489,-1.780703
34484557,1401,1496,1490,1539,1077,1401,1496,1490,1539,1180,1425,1490,1501,1503,-0.227175,0.360911,-1.218718,-0.282703,0.330489,-1.780703
34584563,1401,1496,1490,1539,1077,1401,1496,1490,1539,1180,1425,1490,1501,1503,-0.227175,0.360911,-1.218718,-0.282703,0.330489,-1.780703
34684577,1401,1496,1490,1538,1077,1401,1496,1490,1538,1180,1425,1490,1501,1503,-0.227175,0.360911,-1.218718,-0.282703,0.330489,-1.780703
34784600,1401,1496,1490,1539,1077,1401,1496,1490,1539,1180,1425,1490,1501,1503,-0.227175,0.360911,-1.218718,-0.282703,0.330489,-1.780703
34884616,1401,1496,1490,1538,1077,1401,1496,1490,1538,1180,1425,1490,1501,1503,-0.227175,0.360911,-1.218718,-0.282703,0.330489,-1.780703
34984637,1401,1496,1490,1538,1077,1401,1496,1490,1538,1180,1425,1490,1501,1503,-0.227175,0.360911,-1.218718,-0.282703,0.330489,-1.780703
35084678,1402,1496,1490,1539,1077,1402,1496,1490,1539,1180,1425,1490,1501,1503,-0.227175,0.360911,-1.218718,-0.282703,0.330489,-1.780703
35184681,1402,1496,1490,1538,1077,1402,1496,1490,1538,1180,1425,1490,1501,1503,-0.227175,0.360911,-1.218718,-0.282703,0.330489,-1.780703
35284687,1401,1496,1490,1538,1077,1401,1496,1490,1538,1180,1425,1490,1501,1503,-0.227175,0.360911,-1.218718,-0.282703,0.330489,-1.780703
35384722,1402,1496,1490,1540,1077,1402,1496,1490,1540,1180,1425,1490,1501,1503,-0.227175,0.360911,-1.218718,-0.282703,0.330489,-1.780703
35484736,1402,1496,1490,1542,1077,1402,1496,1490,1542,1180,1425,1490,1501,1503,-0.227175,0.360911,-1.218718,-0.282703,0.330489,-1.780703
35584775,1402,1496,1490,1542,1077,1402,1496,1490,1542,1180,1425,1490,1501,1503,-0.227175,0.360911,-1.218718,-0.282703,0.330489,-1.780703
35684808,1402,1496,1490,1542,1077,1402,1496,1490,1542,1180,1425,1490,1501,1503,-0.227175,0.360911,-1.218718,-0.282703,0.330489,-1.780703
35784840,1401,1496,1490,1538,1076,1401,1496,1490,1538,1180,1425,1490,1501,1503,-0.227175,0.360911,-1.218718,-0.282703,0.330489,-1.780703
35884874,1402,1496,1490,1539,1077,1402,1496,1490,1539,1180,1425,1490,1501,1503,-0.227175,0.360911,-1.218718,-0.282703,0.330489,-1.780703
35984908,1402,1496,1490,1539,1077,1402,1496,1490,1539,1180,1425,1490,1501,1503,-0.227175,0.360911,-1.218718,-0.282703,0.330489,-1.780703
36084931,1402,1496,1490,1539,1077,1402,1496,1490,1539,1180,1425,1490,1501,1503,-0.227175,0.360911,-1.218718,-0.282703,0.330489,-1.780703
36184955,1394,1496,1490,1538,1077,1394,1496,1490,1538,1180,1425,1490,1501,1503,-0.227175,0.360911,-1.218718,-0.282703,0.330489,-1.780703
36284981,1394,1496,1490,1538,1077,1394,1496,1490,1538,1180,1425,1490,1501,1503,-0.227175,0.360911,-1.218718,-0.282703,0.330489,-1.780703
36384994,1394,1496,1490,1530,1077,1394,1496,1490,1530,1180,1425,1490,1501,1503,-0.227175,0.360911,-1.218718,-0.282703,0.330489,-1.780703
36485011,1394,1496,1490,1530,1077,1394,1496,1490,1530,1180,1425,1490,1501,1503,-0.227175,0.360911,-1.218718,-0.282703,0.330489,-1.780703
36585015,1401,1496,1490,1530,1077,1401,1496,1490,1530,1180,1425,1490,1501,1503,-0.227175,0.360911,-1.218718,-0.282703,0.330489,-1.780703
36685032,1407,1496,1490,1528,1077,1407,1496,1490,1528,1180,1425,1490,1501,1503,-0.227175,0.360911,-1.218718,-0.282703,0.330489,-1.780703
36785046,1416,1496,1490,1526,1077,1416,1496,1490,1526,1180,1425,1490,1501,1503,-0.227175,0.360911,-1.218718,-0.282703,0.330489,-1.780703
36885067,1437,1496,1490,1519,1077,1437,1496,1490,1519,1180,1425,1490,1501,1503,-0.227175,0.360911,-1.218718,-0.282703,0.330489,-1.780703
36985098,1452,1496,1490,1508,1077,1452,1496,1490,1508,1180,1425,1490,1501,1503,-0.227175,0.360911,-1.218718,-0.282703,0.330489,-1.780703
37085117,1452,1496,1490,1509,1077,1452,1496,1490,1509,1180,1425,1490,1501,1503,-0.227175,0.360911,-1.218718,-0.282703,0.330489,-1.780703
37185137,1452,1496,1490,1509,1077,1452,1496,1490,1509,1180,1425,1490,1501,1503,-0.227175,0.360911,-1.218718,-0.282703,0.330489,-1.780703
37285149,1452,1496,1490,1506,1077,1452,1496,1490,1506,1180,1425,1490,1501,1503,-0.227175,0.360911,-1.218718,-0.282703,0.330489,-1.780703
37385152,1466,1496,1490,1506,1077,1466,1496,1490,1506,1180,1425,1490,1501,1503,-0.227175,0.360911,-1.218718,-0.309996,0.333185,-1.603223
37485174,1472,1496,1490,1504,1077,1472,1496,1490,1504,1180,1445,1492,1505,1503,-0.227175,0.360911,-1.218718,-0.301431,0.336382,-1.568041
37585179,1472,1496,1490,1504,1077,1472,1496,1490,1504,1180,1452,1492,1503,1503,-0.227175,0.360911,-1.218718,-0.292099,0.340027,-1.534353
37685215,1472,1496,1490,1504,1077,1472,1496,1490,1504,1180,1459,1493,1501,1503,-0.227175,0.360911,-1.218718,-0.284908,0.345789,-1.495335
37785220,1485,1496,1490,1504,1077,1485,1496,1490,1504,1180,1465,1494,1501,1503,-0.227175,0.360911,-1.218718,-0.283159,0.346828,-1.472599
37885235,1493,1496,1490,1504,1077,1493,1496,1490,1504,1180,1470,1493,1500,1503,-0.227175,0.360911,-1.218718,-0.279922,0.342646,-1.447314
37985253,1501,1496,1490,1504,1077,1501,1496,1490,1504,1180,1475,1492,1499,1503,-0.227175,0.360911,-1.218718,-0.273730,0.337793,-1.420048
38085277,1513,1496,1490,1504,1077,1513,1496,1490,1504,1180,1480,1491,1498,1503,-0.227175,0.360911,-1.218718,-0.265687,0.335905,-1.394298
38185289,1513,1496,1490,1504,1077,1513,1496,1490,1504,1180,1483,1491,1496,1503,-0.227175,0.360911,-1.218718,-0.258975,0.336600,-1.377929
38285320,1514,1496,1490,1502,1077,1514,1496,1490,1502,1180,1484,1491,1496,1503,-0.227175,0.360911,-1.218718,-0.259311,0.337817,-1.373933
38385327,1514,1496,1490,1503,1077,1514,1496,1490,1503,1180,1484,1492,1497,1503,-0.227175,0.360911,-1.218718,-0.264084,0.338027,-1.374547
38485339,1515,1496,1490,1503,1077,1515,1496,1490,1503,1180,1485,1492,1498,1503,-0.227175,0.360911,-1.218718,-0.266592,0.339674,-1.372583
38585348,1514,1496,1490,1503,1077,1514,1496,1490,1503,1180,1486,1493,1498,1503,-0.227175,0.360911,-1.218718,-0.266520,0.343893,-1.367620
38685374,1515,1496,1490,1503,1077,1515,1496,1490,1503,1180,1487,1494,1498,1503,-0.227175,0.360911,-1.218718,-0.268426,0.349189,-1.360540
38785423,1514,1496,1490,1502,1077,1514,1496,1490,1502,1180,1489,1495,1499,1503,-0.227175,0.360911,-1.218718,-0.274324,0.355267,-1.349837
38885428,1514,1496,1490,1503,1077,1514,1496,1490,1503,1180,1492,1496,1500,1503,-0.227175,0.360911,-1.218718,-0.280714,0.358490,-1.332482
38985435,1514,1496,1490,1502,1077,1514,1496,1490,1502,1180,1497,1496,1501,1503,-0.227175,0.360911,-1.218718,-0.282672,0.359091,-1.313443
39085438,1514,1496,1490,1503,1077,1514,1496,1490,1503,1180,1502,1495,1501,1503,-0.227175,0.360911,-1.218718,-0.284137,0.357789,-1.283035
39185467,1516,1496,1490,1503,1077,1516,1496,1490,1503,1180,1511,1495,1501,1503,-0.227175,0.360911,-1.218718,-0.282794,0.355730,-1.241331
39285495,1516,1496,1490,1503,1077,1516,1496,1490,1503,1180,1522,1495,1499,1503,-0.227175,0.360911,-1.218718,-0.274461,0.354321,-1.179508
39385522,1516,1496,1490,1500,1077,1516,1496,1490,1500,1180,1535,1495,1497,1503,-0.227175,0.360911,-1.218718,-0.266156,0.355778,-1.113100
39485550,1525,1496,1490,1498,1077,1525,1496,1490,1498,1180,1552,1495,1496,1503,-0.227175,0.360911,-1.218718,-0.260122,0.358533,-1.030710
39585555,1541,1496,1490,1498,1077,1541,1496,1490,1498,1180,1570,1496,1495,1503,-0.227175,0.360911,-1.218718,-0.252282,0.361794,-0.937455
39685590,1541,1496,1490,1498,1077,1541,1496,1490,1498,1180,1575,1497,1493,1503,-0.227175,0.360911,-1.218718,-0.245963,0.365884,-0.850754
39785608,1556,1496,1490,1498,1077,1556,1496,1490,1498,1180,1575,1497,1492,1503,-0.227175,0.360911,-1.218718,-0.241337,0.366718,-0.775830
39885620,1575,1496,1490,1481,1077,1575,1496,1490,1481,1180,1575,1497,1491,1503,-0.227175,0.360911,-1.218718,-0.235242,0.366109,-0.692720
39985624,1585,1496,1490,1473,1077,1585,1496,1490,1473,1180,1575,1497,1490,1503,-0.227175,0.360911,-1.218718,-0.231504,0.365901,-0.638743
40085628,1594,1496,1490,1470,1077,1594,1496,1490,1470,1180,1575,1497,1490,1503,-0.227175,0.360911,-1.218718,-0.228863,0.368900,-0.589135
40185657,1594,1496,1490,1469,1077,1594,1496,1490,1469,1180,1575,1498,1490,1503,-0.227175,0.360911,-1.218718,-0.227601,0.372120,-0.551768
40285669,1596,1496,1490,1470,1077,1596,1496,1490,1470,1180,1575,1498,1489,1503,-0.227175,0.360911,-1.218718,-0.226496,0.371342,-0.517840
40385698,1596,1496,1490,1470,1077,1596,1496,1490,1470,1180,1575,1497,1489,1503,-0.227175,0.360911,-1.218718,-0.225761,0.368642,-0.486517
40485724,1596,1496,1490,1470,1077,1596,1496,1490,1470,1180,1575,1497,1489,1503,-0.227175,0.360911,-1.218718,-0.226169,0.366137,-0.463311
40585757,1596,1496,1490,1469,1077,1596,1496,1490,1469,1180,1575,1496,1490,1503,-0.227175,0.360911,-1.218718,-0.229654,0.363137,-0.442294
40685793,1596,1496,1490,1470,1077,1596,1496,1490,1470,1180,1575,1495,1490,1503,-0.227175,0.360911,-1.218718,-0.231437,0.359836,-0.429389
40785802,1596,1496,1490,1470,1077,1596,1496,1490,1470,1180,1575,1494,1490,1503,-0.227175,0.360911,-1.218718,-0.229270,0.355226,-0.417602
40885832,1601,1496,1490,1461,1077,1601,1496,1490,1461,1180,1575,1494,1489,1503,-0.227175,0.360911,-1.218718,-0.225536,0.354051,-0.411425
40985836,1602,1496,1490,1462,1077,1602,1496,1490,1462,1180,1575,1494,1489,1503,-0.227175,0.360911,-1.218718,-0.223334,0.355251,-0.407010
41085838,1603,1496,1490,1462,1077,1603,1496,1490,1462,1180,1575,1494,1489,1503,-0.227175,0.360911,-1.218718,-0.224457,0.355272,-0.403251
41185864,1603,1496,1490,1462,1077,1603,1496,1490,1462,1180,1575,1495,1489,1503,-0.227175,0.360911,-1.218718,-0.225134,0.356333,-0.398288
41285882,1605,1496,1490,1462,1077,1605,1496,1490,1462,1180,1575,1494,1489,1503,-0.227175,0.360911,-1.218718,-0.223221,0.355347,-0.394319
41385899,1607,1496,1490,1461,1077,1607,1496,1490,1461,1180,1575,1494,1489,1503,-0.227175,0.360911,-1.218718,-0.222039,0.355067,-0.392304
41485919,1609,1496,1490,1461,1077,1609,1496,1490,1461,1180,1575,1494,1489,1503,-0.227175,0.360911,-1.218718,-0.223360,0.356118,-0.391899
41585951,1608,1496,1490,1461,1077,1608,1496,1490,1461,1180,1575,1495,1489,1503,-0.227175,0.360911,-1.218718,-0.224908,0.356282,-0.394409
41685987,1609,1496,1490,1462,1077,1609,1496,1490,1462,1180,1575,1495,1489,1503,-0.227175,0.360911,-1.218718,-0.226530,0.357009,-0.403275
41785997,1609,1496,1490,1462,1077,1609,1496,1490,1462,1180,1575,1495,1490,1503,-0.227175,0.360911,-1.218718,-0.230002,0.357860,-0.421349
41886005,1609,1496,1490,1466,1077,1609,1496,1490,1466,1180,1575,1495,1491,1503,-0.227175,0.360911,-1.218718,-0.233049,0.358110,-0.450838
41986022,1609,1496,1490,1466,1077,1609,1496,1490,1466,1180,1575,1495,1491,1503,-0.227175,0.360911,-1.218718,-0.233051,0.358725,-0.499687
42086056,1609,1496,1490,1466,1077,1609,1496,1490,1466,1180,1575,1495,1490,1503,-0.227175,0.360911,-1.218718,-0.231251,0.358039,-0.555764
42186068,1609,1496,1490,1466,1077,1609,1496,1490,1466,1180,1575,1494,1490,1503,-0.227175,0.360911,-1.218718,-0.227983,0.354662,-0.629923
42286074,1602,1496,1490,1470,1077,1602,1496,1490,1470,1180,1575,1494,1489,1503,-0.227175,0.360911,-1.218718,-0.223279,0.351792,-0.713810
42386108,1602,1496,1490,1475,1077,1602,1496,1490,1475,1180,1575,1493,1488,1503,-0.227175,0.360911,-1.218718,-0.219115,0.350432,-0.805473
42486129,1589,1496,1490,1495,1077,1589,1496,1490,1495,1180,1575,1493,1488,1503,-0.227175,0.360911,-1.218718,-0.218407,0.345543,-0.902876
42586163,1578,1496,1490,1495,1077,1578,1496,1490,1495,1180,1559,1491,1488,1503,-0.227175,0.360911,-1.218718,-0.217838,0.338940,-1.000761
42686189,1530,1496,1490,1494,1077,1530,1496,1490,1494,1180,1543,1491,1487,1503,-0.227175,0.360911,-1.218718,-0.216073,0.336837,-1.090501
42786204,1520,1496,1490,1494,1077,1520,1496,1490,1494,1180,1527,1491,1488,1503,-0.227175,0.360911,-1.218718,-0.217024,0.336963,-1.167072
42886206,1516,1496,1490,1500,1077,1516,1496,1490,1500,1180,1514,1491,1489,1503,-0.227175,0.360911,-1.218718,-0.225106,0.336780,-1.228360
42986240,1516,1496,1490,1500,1077,1516,1496,1490,1500,1180,1506,1491,1490,1503,-0.227175,0.360911,-1.218718,-0.229388,0.340784,-1.269738
43086271,1516,1496,1490,1500,1077,1516,1496,1490,1500,1180,1500,1492,1490,1503,-0.227175,0.360911,-1.218718,-0.229595,0.343955,-1.297243
43186295,1516,1496,1490,1501,1077,1516,1496,1490,1501,1180,1497,1493,1491,1503,-0.227175,0.360911,-1.218718,-0.233046,0.348920,-1.313680
43286308,1516,1496,1490,1500,1077,1516,1496,1490,1500,1180,1495,1494,1492,1503,-0.227175,0.360911,-1.218718,-0.239265,0.355020,-1.323332
43386320,1516,1496,1490,1500,1077,1516,1496,1490,1500,1180,1494,1494,1492,1503,-0.227175,0.360911,-1.218718,-0.241357,0.355709,-1.325704
43486327,1516,1496,1491,1500,1077,1516,1496,1491,1500,1180,1495,1494,1493,1503,-0.227175,0.360911,-1.218718,-0.242822,0.355396,-1.322972
43586359,1516,1496,1490,1501,1077,1516,1496,1490,1501,1180,1495,1494,1494,1503,-0.227175,0.360911,-1.218718,-0.249767,0.351223,-1.321338
43686392,1516,1496,1490,1501,1077,1516,1496,1490,1501,1180,1495,1492,1495,1503,-0.227175,0.360911,-1.218718,-0.255837,0.344520,-1.318878
43786396,1516,1496,1490,1500,1077,1516,1496,1490,1500,1180,1496,1491,1496,1503,-0.227175,0.360911,-1.218718,-0.261581,0.338818,-1.315976
43886404,1516,1496,1490,1501,1077,1516,1496,1490,1501,1180,1497,1490,1497,1503,-0.227175,0.360911,-1.218718,-0.263535,0.332766,-1.312524
43986440,1516,1496,1490,1500,1077,1516,1496,1490,1500,1180,1497,1489,1496,1503,-0.227175,0.360911,-1.218718,-0.259083,0.329741,-1.309194
44086472,1515,1496,1490,1500,1077,1515,1496,1490,1500,1180,1498,1489,1495,1503,-0.227175,0.360911,-1.218718,-0.252665,0.329396,-1.308321
44186473,1516,1496,1490,1501,1077,1516,1496,1490,1501,1180,1497,1489,1494,1503,-0.227175,0.360911,-1.218718,-0.250207,0.328079,-1.309668
44286490,1516,1496,1490,1500,1077,1516,1496,1490,1500,1180,1498,1489,1494,1503,-0.227175,0.360911,-1.218718,-0.249347,0.326167,-1.308348
44386498,1516,1496,1490,1500,1077,1516,1496,1490,1500,1180,1498,1488,1493,1503,-0.227175,0.360911,-1.218718,-0.246593,0.323297,-1.305765
44486521,1516,1496,1490,1501,1077,1516,1496,1490,1501,1180,1498,1487,1493,1503,-0.227175,0.360911,-1.218718,-0.242842,0.320230,-1.305217
44586523,1516,1496,1490,1501,1077,1516,1496,1490,1501,1180,1498,1487,1492,1503,-0.227175,0.360911,-1.218718,-0.240453,0.317963,-1.306706
44686524,1516,1496,1490,1500,1077,1516,1496,1490,1500,1180,1498,1487,1492,1503,-0.227175,0.360911,-1.218718,-0.241049,0.317174,-1.308090
44786554,1516,1496,1490,1500,1077,1516,1496,1490,1500,1180,1498,1487,1493,1503,-0.227175,0.360911,-1.218718,-0.244032,0.318286,-1.307642
44886571,1516,1496,1490,1500,1077,1516,1496,1490,1500,1180,1498,1487,1493,1503,-0.227175,0.360911,-1.218718,-0.246614,0.320223,-1.306061
44986579,1516,1496,1490,1500,1077,1516,1496,1490,1500,1180,1498,1488,1494,1503,-0.227175,0.360911,-1.218718,-0.247519,0.322647,-1.304058
45086602,1516,1496,1490,1501,1077,1516,1496,1490,1501,1180,1499,1488,1494,1503,-0.227175,0.360911,-1.218718,-0.247803,0.324667,-1.302630
45186637,1516,1496,1490,1500,1077,1516,1496,1490,1500,1180,1499,1489,1494,1503,-0.227175,0.360911,-1.218718,-0.248170,0.326788,-1.302231
45286649,1516,1496,1490,1500,1077,1516,1496,1490,1500,1180,1499,1489,1494,1503,-0.227175,0.360911,-1.218718,-0.248273,0.328602,-1.301737
45386657,1516,1496,1490,1500,1077,1516,1496,1490,1500,1180,1499,1489,1494,1503,-0.227175,0.360911,-1.218718,-0.247734,0.330575,-1.301116
45486687,1516,1496,1490,1501,1077,1516,1496,1490,1501,1180,1499,1490,1493,1503,-0.227175,0.360911,-1.218718,-0.246304,0.332156,-1.300450
45586708,1516,1496,1490,1500,1077,1516,1496,1490,1500,1180,1499,1490,1493,1503,-0.227175,0.360911,-1.218718,-0.245038,0.331626,-1.300417
45686736,1516,1496,1490,1501,1077,1516,1496,1490,1501,1180,1499,1489,1493,1503,-0.227175,0.360911,-1.218718,-0.244381,0.330143,-1.300049
45786768,1516,1496,1490,1501,1077,1516,1496,1490,1501,1180,1499,1489,1493,1503,-0.227175,0.360911,-1.218718,-0.244888,0.329481,-1.299257
45886799,1515,1496,1490,1500,1077,1515,1496,1490,1500,1180,1500,1489,1493,1503,-0.227175,0.360911,-1.218718,-0.245318,0.329019,-1.298070
45986830,1516,1496,1490,1501,1077,1516,1496,1490,1501,1180,1500,1489,1493,1503,-0.227175,0.360911,-1.218718,-0.245133,0.328971,-1.297183
46086856,1516,1496,1490,1500,1077,1516,1496,1490,1500,1180,1500,1489,1493,1503,-0.227175,0.360911,-1.218718,-0.245285,0.329170,-1.296817
46186860,1516,1496,1490,1500,1077,1516,1496,1490,1500,1180,1500,1489,1494,1503,-0.227175,0.360911,-1.218718,-0.246761,0.329219,-1.297417
46286866,1516,1496,1490,1501,1077,1516,1496,1490,1501,1180,1500,1489,1494,1503,-0.227175,0.360911,-1.218718,-0.248212,0.329372,-1.297147
46386873,1516,1496,1490,1500,1077,1516,1496,1490,1500,1180,1500,1489,1494,1503,-0.227175,0.360911,-1.218718,-0.248958,0.329554,-1.296877
46486890,1515,1496,1490,1500,1077,1515,1496,1490,1500,1180,1500,1489,1494,1503,-0.227175,0.360911,-1.218718,-0.248786,0.329932,-1.296640
46586922,1516,1496,1490,1500,1077,1516,1496,1490,1500,1180,1500,1489,1494,1503,-0.227175,0.360911,-1.218718,-0.248130,0.330142,-1.296477
46686928,1516,1496,1490,1500,1077,1516,1496,1490,1500,1180,1500,1489,1494,1503,-0.227175,0.360911,-1.218718,-0.247643,0.330326,-1.296921
46786948,1516,1496,1490,1501,1077,1516,1496,1490,1501,1180,1500,1490,1494,1503,-0.227175,0.360911,-1.218718,-0.247546,0.330882,-1.298060
46886963,1516,1496,1490,1500,1077,1516,1496,1490,1500,1180,1499,1490,1494,1503,-0.227175,0.360911,-1.218718,-0.247354,0.330949,-1.299054
46986993,1516,1496,1490,1501,1077,1516,1496,1490,1501,1180,1500,1490,1493,1503,-0.227175,0.360911,-1.218718,-0.246653,0.331469,-1.298028
47086994,1516,1496,1490,1500,1077,1516,1496,1490,1500,1180,1500,1490,1493,1503,-0.227175,0.360911,-1.218718,-0.246321,0.333977,-1.295720
47187019,1516,1496,1490,1500,1077,1516,1496,1490,1500,1180,1500,1491,1493,1503,-0.227175,0.360911,-1.218718,-0.247093,0.336713,-1.295414
47287024,1516,1496,1490,1500,1077,1516,1496,1490,1500,1180,1500,1491,1494,1503,-0.227175,0.360911,-1.218718,-0.249120,0.338645,-1.296947
47387035,1516,1496,1490,1500,1077,1516,1496,1490,1500,1180,1500,1491,1494,1503,-0.227175,0.360911,-1.218718,-0.252270,0.341033,-1.296994
47487036,1516,1496,1490,1500,1077,1516,1496,1490,1500,1180,1500,1492,1495,1503,-0.227175,0.360911,-1.218718,-0.257375,0.344604,-1.296909
47587060,1516,1496,1490,1501,1077,1516,1496,1490,1501,1180,1500,1493,1496,1503,-0.227175,0.360911,-1.218718,-0.262484,0.348955,-1.296472
47687112,1515,1496,1490,1500,1077,1515,1496,1490,1500,1180,1500,1494,1498,1503,-0.227175,0.360911,-1.218718,-0.268637,0.354618,-1.295009
47787135,1516,1496,1490,1500,1077,1516,1496,1490,1500,1180,1501,1495,1499,1503,-0.227175,0.360911,-1.218718,-0.275572,0.358018,-1.292691
47887169,1515,1496,1490,1500,1077,1515,1496,1490,1500,1180,1501,1494,1501,1503,-0.227175,0.360911,-1.218718,-0.283317,0.358199,-1.290850
47987170,1515,1496,1490,1500,1077,1515,1496,1490,1500,1180,1502,1493,1502,1503,-0.227175,0.360911,-1.218718,-0.293165,0.354478,-1.286828
48087189,1516,1496,1490,1501,1077,1516,1496,1490,1501,1180,1503,1492,1504,1503,-0.227175,0.360911,-1.218718,-0.303789,0.348000,-1.281665
48187202,1516,1496,1490,1500,1077,1516,1496,1490,1500,1180,1504,1490,1507,1503,-0.227175,0.360911,-1.218718,-0.316742,0.339260,-1.275864
48287225,1516,1496,1490,1501,1077,1516,1496,1490,1501,1180,1505,1488,1510,1503,-0.227175,0.360911,-1.218718,-0.331911,0.328847,-1.269931
48387230,1516,1496,1490,1500,1077,1516,1496,1490,1500,1180,1506,1485,1513,1503,-0.227175,0.360911,-1.218718,-0.350960,0.313085,-1.266791
