-1441071289,1498,1488,1487,1498,1073,1498,1488,1487,1498,1180,1570,1494,1412,1500,0.000000,0.000000,0.000000,0.438806,-0.023160,0.351205
-1440971259,1497,1487,1488,1498,1073,1497,1487,1488,1498,1180,1570,1494,1412,1500,0.000000,0.000000,0.000000,0.438691,-0.023252,0.351196
-1440871251,1498,1488,1487,1498,1074,1498,1488,1487,1498,1180,1570,1494,1412,1500,0.000000,0.000000,0.000000,0.438816,-0.023170,0.351229
-1440771215,1497,1488,1487,1497,1074,1497,1488,1487,1497,1180,1570,1494,1412,1500,0.000000,0.000000,0.000000,0.438700,-0.023185,0.351217
-1440671202,1498,1488,1487,1498,1074,1498,1488,1487,1498,1180,1570,1494,1412,1500,0.000000,0.000000,0.000000,0.438823,-0.023197,0.351238
-1440571158,1498,1487,1488,1497,1073,1498,1487,1488,1497,1180,1570,1494,1412,1500,0.000000,0.000000,0.000000,0.438712,-0.023175,0.351227
-1430869053,1498,1487,1488,1498,1073,1498,1487,1488,1498,1180,1570,1494,1412,1500,0.000000,0.000000,0.000000,0.438946,-0.023399,0.351506
-1430769035,1498,1487,1488,1498,1073,1498,1487,1488,1498,1180,1570,1494,1412,1500,0.000000,0.000000,0.000000,0.438844,-0.023249,0.351513
-1430669014,1498,1488,1488,1498,1074,1498,1488,1488,1498,1180,1570,1494,1412,1500,0.000000,0.000000,0.000000,0.438909,-0.023051,0.350793
-1430568978,1497,1488,1487,1498,1073,1497,1488,1487,1498,1180,1570,1494,1412,1500,0.000000,0.000000,0.000000,0.438775,-0.023113,0.351274
-1430468928,1498,1488,1487,1498,1074,1498,1488,1487,1498,1180,1570,1494,1412,1500,0.000000,0.000000,0.000000,0.438741,-0.023185,0.351649
-1430368910,1497,1488,1487,1498,1074,1497,1488,1487,1498,1180,1570,1494,1412,1500,0.000000,0.000000,0.000000,0.438855,-0.023162,0.351160
-1430268899,1498,1488,1487,1498,1074,1498,1488,1487,1498,1180,1570,1494,1412,1500,0.000000,0.000000,0.000000,0.438885,-0.023078,0.350934
-1430168868,1498,1487,1488,1498,1074,1498,1487,1488,1498,1180,1570,1494,1412,1500,0.000000,0.000000,0.000000,0.438814,-0.023211,0.351524
-1430068847,1497,1488,1487,1498,1074,1497,1488,1487,1498,1180,1570,1494,1412,1500,0.000000,0.000000,0.000000,0.438850,-0.023233,0.351438
-1429968836,1497,1488,1487,1498,1074,1497,1488,1487,1498,1180,1570,1494,1412,1500,0.000000,0.000000,0.000000,0.438898,-0.023127,0.350986
-1429868817,1498,1487,1488,1498,1074,1498,1487,1488,1498,1180,1570,1494,1412,1500,0.000000,0.000000,0.000000,0.438830,-0.023148,0.351191
-1429768816,1498,1488,1487,1498,1074,1498,1488,1487,1498,1180,1570,1494,1412,1500,0.000000,0.000000,0.000000,0.438836,-0.023237,0.351535
-1429668786,1497,1488,1487,1498,1074,1497,1488,1487,1498,1180,1570,1494,1412,1500,0.000000,0.000000,0.000000,0.438860,-0.023185,0.351260
-1429568768,1498,1488,1487,1498,1074,1498,1488,1487,1498,1180,1570,1494,1412,1500,0.000000,0.000000,0.000000,0.438850,-0.023088,0.351024
-1429468750,1498,1488,1487,1498,1074,1498,1488,1487,1498,1180,1570,1494,1412,1500,0.000000,0.000000,0.000000,0.438818,-0.023181,0.351383
-1429368733,1498,1487,1488,1498,1073,1498,1487,1488,1498,1180,1570,1494,1412,1500,0.000000,0.000000,0.000000,0.438831,-0.023244,0.351508
-1429268702,1498,1487,1488,1498,1073,1498,1487,1488,1498,1180,1570,1494,1412,1500,0.000000,0.000000,0.000000,0.438855,-0.023149,0.351136
-1429168679,1498,1487,1488,1498,1074,1498,1487,1488,1498,1180,1570,1494,1412,1500,0.000000,0.000000,0.000000,0.438838,-0.023107,0.351107
-1429068662,1498,1487,1487,1498,1074,1498,1487,1487,1498,1180,1570,1494,1412,1500,0.000000,0.000000,0.000000,0.438820,-0.023224,0.351504
-1428968640,1498,1487,1488,1498,1073,1498,1487,1488,1498,1180,1570,1494,1412,1500,0.000000,0.000000,0.000000,0.438845,-0.023232,0.351417
-1428868636,1498,1487,1488,1498,1073,1498,1487,1488,1498,1180,1570,1494,1412,1500,0.000000,0.000000,0.000000,0.438879,-0.023116,0.351041
-1428768612,1498,1488,1487,1498,1074,1498,1488,1487,1498,1180,1570,1494,1412,1500,0.000000,0.000000,0.000000,0.438841,-0.023126,0.351188
-1428668592,1498,1487,1488,1498,1074,1498,1487,1488,1498,1180,1570,1494,1412,1500,0.000000,0.000000,0.000000,0.438831,-0.023234,0.351495
-1428568572,1498,1486,1488,1498,1073,1498,1486,1488,1498,1180,1570,1494,1412,1500,0.000000,0.000000,0.000000,0.438869,-0.023189,0.351243
-1428468542,1498,1488,1488,1497,1073,1498,1488,1488,1497,1180,1570,1494,1412,1500,0.000000,0.000000,0.000000,0.438869,-0.023089,0.351036
-1428368537,1498,1488,1487,1498,1074,1498,1488,1487,1498,1180,1570,1494,1412,1500,0.000000,0.000000,0.000000,0.438796,-0.023129,0.351346
-1428268510,1498,1488,1487,1498,1073,1498,1488,1487,1498,1180,1570,1494,1412,1500,0.000000,0.000000,0.000000,0.438777,-0.023259,0.351423
-1428168497,1498,1488,1487,1498,1074,1498,1488,1487,1498,1180,1570,1494,1412,1500,0.000000,0.000000,0.000000,0.438876,-0.023144,0.351115
-1428068485,1498,1488,1487,1498,1074,1498,1488,1487,1498,1180,1570,1494,1412,1500,0.000000,0.000000,0.000000,0.438829,-0.023099,0.351128
-1427968452,1497,1488,1487,1498,1073,1497,1488,1487,1498,1180,1575,1499,1500,1500,0.438808,-0.023149,-0.148672,0.438702,-0.023273,0.351402
-1427868420,1498,1488,1487,1498,1074,1498,1488,1487,1498,1180,1575,1499,1501,1500,0.438808,-0.023149,-0.148672,0.433420,-0.024469,0.350574
-1427768375,1498,1487,1488,1498,1074,1498,1487,1488,1498,1180,1575,1499,1500,1500,0.438808,-0.023149,-0.148672,0.435648,-0.024371,0.350443
-1427668362,1498,1488,1487,1498,1074,1498,1488,1487,1498,1180,1575,1499,1500,1500,0.438808,-0.023149,-0.148672,0.438589,-0.023992,0.351532
-1427568345,1498,1487,1488,1498,1074,1498,1487,1488,1498,1180,1575,1499,1499,1500,0.438808,-0.023149,-0.148672,0.439508,-0.024112,0.351714
-1427468319,1498,1488,1487,1498,1074,1498,1488,1487,1498,1180,1575,1499,1500,1500,0.438808,-0.023149,-0.148672,0.438217,-0.024010,0.351319
-1427368309,1498,1487,1487,1498,1074,1498,1487,1487,1498,1180,1575,1499,1499,1500,0.438808,-0.023149,-0.148672,0.439383,-0.023938,0.351414
-1427268276,1498,1487,1488,1498,1073,1498,1487,1488,1498,1180,1575,1499,1500,1500,0.438808,-0.023149,-0.148672,0.438297,-0.024004,0.351399
-1427168247,1498,1488,1488,1498,1073,1498,1488,1488,1498,1180,1575,1499,1499,1500,0.438808,-0.023149,-0.148672,0.438995,-0.024042,0.351624
-1427068235,1498,1487,1488,1498,1073,1498,1487,1488,1498,1180,1575,1499,1500,1500,0.438808,-0.023149,-0.148672,0.438616,-0.024005,0.351314
-1426968222,1498,1488,1487,1498,1074,1498,1488,1487,1498,1180,1575,1499,1499,1500,0.438808,-0.023149,-0.148672,0.438950,-0.023926,0.351368
-1426868202,1498,1487,1488,1498,1073,1498,1487,1488,1498,1180,1575,1499,1500,1500,0.438808,-0.023149,-0.148672,0.438673,-0.024038,0.351482
-1426768196,1498,1487,1488,1497,1073,1498,1487,1488,1497,1180,1575,1499,1500,1500,0.438808,-0.023149,-0.148672,0.438649,-0.024088,0.351467
-1426668164,1498,1487,1488,1498,1073,1498,1487,1488,1498,1180,1575,1499,1499,1500,0.438808,-0.023149,-0.148672,0.438905,-0.023963,0.351355
-1426568158,1498,1488,1487,1498,1074,1498,1488,1487,1498,1180,1575,1499,1500,1500,0.438808,-0.023149,-0.148672,0.438630,-0.023995,0.351349
-1426468137,1497,1488,1487,1498,1073,1497,1488,1487,1498,1180,1575,1499,1499,1500,0.438808,-0.023149,-0.148672,0.439170,-0.024073,0.351608
-1426368112,1498,1488,1487,1498,1074,1498,1488,1487,1498,1180,1575,1499,1500,1500,0.438808,-0.023149,-0.148672,0.438371,-0.024013,0.351279
-1426268078,1498,1487,1487,1498,1074,1498,1487,1487,1498,1180,1575,1499,1500,1500,0.438808,-0.023149,-0.148672,0.436984,-0.023552,0.350647
-1426168067,1498,1487,1488,1498,1074,1498,1487,1488,1498,1180,1575,1499,1500,1500,0.438808,-0.023149,-0.148672,0.436292,-0.023664,0.350708
-1426068036,1498,1487,1487,1498,1074,1498,1487,1487,1498,1180,1575,1499,1499,1500,0.438808,-0.023149,-0.148672,0.439298,-0.023974,0.351576
-1425968016,1498,1488,1487,1498,1074,1498,1488,1487,1498,1180,1575,1499,1500,1500,0.438808,-0.023149,-0.148672,0.438675,-0.023877,0.351365
-1425867999,1498,1487,1488,1498,1074,1498,1487,1488,1498,1180,1575,1499,1500,1500,0.438808,-0.023149,-0.148672,0.436484,-0.024144,0.350887
-1425767991,1498,1487,1488,1498,1074,1498,1487,1488,1498,1180,1575,1499,1501,1500,0.438808,-0.023149,-0.148672,0.430730,-0.025176,0.349797
-1425667944,1498,1487,1488,1498,1073,1498,1487,1488,1498,1180,1575,1499,1502,1500,0.438808,-0.023149,-0.148672,0.427207,-0.027834,0.348626
-1425567940,1497,1488,1487,1498,1073,1497,1488,1487,1498,1180,1575,1499,1502,1500,0.438808,-0.023149,-0.148672,0.428823,-0.025674,0.348864
-1425467929,1498,1486,1488,1497,1073,1498,1486,1488,1497,1180,1575,1499,1501,1500,0.438808,-0.023149,-0.148672,0.431302,-0.024314,0.349235
-1425367897,1498,1487,1488,1497,1073,1498,1487,1488,1497,1180,1575,1499,1501,1500,0.438808,-0.023149,-0.148672,0.431805,-0.025398,0.349764
-1425267868,1498,1488,1487,1498,1074,1498,1488,1487,1498,1180,1575,1499,1501,1500,0.438808,-0.023149,-0.148672,0.431740,-0.025074,0.349961
-1425167865,1498,1487,1488,1498,1074,1498,1487,1488,1498,1180,1575,1499,1501,1500,0.438808,-0.023149,-0.148672,0.431224,-0.024536,0.349423
-1425067857,1498,1487,1488,1498,1073,1498,1487,1488,1498,1180,1575,1499,1501,1500,0.438808,-0.023149,-0.148672,0.429729,-0.026137,0.348784
-1424967829,1498,1487,1487,1498,1074,1498,1487,1487,1498,1180,1575,1499,1502,1500,0.438808,-0.023149,-0.148672,0.426321,-0.025248,0.346746
-1424867827,1497,1487,1487,1498,1073,1497,1487,1487,1498,1180,1575,1499,1503,1500,0.438808,-0.023149,-0.148672,0.418859,-0.026423,0.342592
-1424767807,1498,1487,1488,1498,1074,1498,1487,1488,1498,1180,1575,1499,1505,1500,0.438808,-0.023149,-0.148672,0.412115,-0.027544,0.336750
-1424667795,1498,1487,1488,1498,1073,1498,1487,1488,1498,1180,1575,1499,1507,1500,0.438808,-0.023149,-0.148672,0.402822,-0.026891,0.330143
-1424567792,1498,1487,1487,1498,1074,1498,1487,1487,1498,1180,1575,1499,1508,1500,0.438808,-0.023149,-0.148672,0.395752,-0.027293,0.313852
-1424467765,1498,1488,1487,1498,1074,1498,1488,1487,1498,1180,1575,1499,1508,1500,0.438808,-0.023149,-0.148672,0.398305,-0.027639,0.286738
-1424367757,1498,1487,1488,1497,1073,1498,1487,1488,1497,1180,1575,1498,1507,1500,0.438808,-0.023149,-0.148672,0.403527,-0.030204,0.252780
-1424267738,1498,1487,1487,1498,1073,1498,1487,1487,1498,1180,1572,1497,1505,1500,0.438808,-0.023149,-0.148672,0.411329,-0.034022,0.208136
-1424167725,1498,1487,1488,1497,1073,1498,1487,1488,1497,1180,1560,1497,1503,1500,0.438808,-0.023149,-0.148672,0.423312,-0.037849,0.140301
-1424067724,1498,1488,1487,1498,1074,1498,1488,1487,1498,1180,1543,1495,1500,1500,0.438808,-0.023149,-0.148672,0.436369,-0.044677,0.068347
-1423967701,1498,1488,1487,1498,1074,1498,1488,1487,1498,1180,1527,1492,1497,1500,0.438808,-0.023149,-0.148672,0.455217,-0.064471,-0.026454
-1423867690,1498,1487,1488,1498,1073,1498,1487,1488,1498,1180,1507,1487,1492,1500,0.438808,-0.023149,-0.148672,0.473516,-0.084589,-0.113066
-1423767685,1498,1486,1488,1498,1073,1498,1486,1488,1498,1180,1488,1485,1487,1500,0.438808,-0.023149,-0.148672,0.496752,-0.102860,-0.212793
-1423667684,1498,1488,1487,1498,1074,1498,1488,1487,1498,1180,1467,1481,1480,1500,0.438808,-0.023149,-0.148672,0.526719,-0.122859,-0.310002
-1423567669,1498,1487,1488,1497,1073,1498,1487,1488,1497,1180,1450,1477,1473,1500,0.438808,-0.023149,-0.148672,0.566645,-0.147030,-0.410177
-1423467642,1497,1487,1488,1498,1074,1497,1487,1488,1498,1180,1433,1473,1465,1500,0.438808,-0.023149,-0.148672,0.605165,-0.167560,-0.484944
-1423367611,1497,1488,1487,1498,1073,1497,1488,1487,1498,1180,1425,1468,1456,1500,0.438808,-0.023149,-0.148672,0.647756,-0.193095,-0.546032
-1423267591,1497,1488,1487,1498,1073,1497,1488,1487,1498,1180,1425,1461,1448,1500,0.438808,-0.023149,-0.148672,0.688523,-0.223306,-0.583265
-1423167584,1498,1486,1488,1498,1074,1498,1486,1488,1498,1180,1425,1453,1443,1500,0.438808,-0.023149,-0.148672,0.727147,-0.256154,-0.604995
-1423067573,1498,1487,1488,1498,1073,1498,1487,1488,1498,1180,1425,1446,1435,1500,0.438808,-0.023149,-0.148672,0.764771,-0.285075,-0.621722
-1422967562,1498,1487,1488,1497,1073,1498,1487,1488,1497,1180,1425,1443,1428,1500,0.438808,-0.023149,-0.148672,0.798763,-0.309078,-0.640694
-1422867547,1498,1487,1488,1498,1074,1498,1487,1488,1498,1180,1425,1438,1421,1500,0.438808,-0.023149,-0.148672,0.829582,-0.333589,-0.652226
-1422767532,1498,1488,1487,1498,1073,1498,1488,1487,1498,1180,1425,1431,1417,1500,0.438808,-0.023149,-0.148672,0.856391,-0.359060,-0.650265
-1422667510,1498,1488,1487,1498,1074,1498,1488,1487,1498,1180,1425,1425,1413,1500,0.438808,-0.023149,-0.148672,0.887023,-0.384167,-0.644653
-1422567498,1498,1488,1487,1498,1074,1498,1488,1487,1498,1180,1425,1420,1408,1500,0.438808,-0.023149,-0.148672,0.915813,-0.402971,-0.643290
-1422467489,1497,1488,1487,1498,1074,1497,1488,1487,1498,1180,1425,1413,1404,1500,0.438808,-0.023149,-0.148672,0.946794,-0.425370,-0.647227
-1422367483,1498,1486,1488,1498,1073,1498,1486,1488,1498,1180,1425,1406,1402,1500,0.438808,-0.023149,-0.148672,0.969301,-0.445888,-0.650132
-1422267480,1498,1488,1488,1498,1073,1498,1488,1488,1498,1180,1425,1400,1403,1500,0.438808,-0.023149,-0.148672,0.988655,-0.473870,-0.651566
-1422167461,1497,1488,1487,1498,1073,1497,1488,1487,1498,1180,1425,1400,1410,1500,0.438808,-0.023149,-0.148672,0.998962,-0.508170,-0.649873
-1422067437,1498,1488,1487,1498,1074,1498,1488,1487,1498,1180,1425,1400,1415,1500,0.438808,-0.023149,-0.148672,1.007642,-0.536920,-0.648010
-1421967414,1498,1488,1488,1498,1073,1498,1488,1488,1498,1180,1425,1400,1415,1500,0.438808,-0.023149,-0.148672,1.017785,-0.559852,-0.645922
-1421867401,1498,1487,1488,1498,1074,1498,1487,1488,1498,1180,1425,1400,1417,1500,0.438808,-0.023149,-0.148672,1.023661,-0.577920,-0.645073
-1421767378,1497,1488,1487,1498,1073,1497,1488,1487,1498,1180,1425,1400,1413,1500,0.438808,-0.023149,-0.148672,1.031743,-0.589461,-0.645407
-1421667346,1498,1488,1487,1498,1074,1498,1488,1487,1498,1180,1425,1400,1408,1500,0.438808,-0.023149,-0.148672,1.041029,-0.596723,-0.650546
-1421567312,1498,1487,1487,1498,1074,1498,1487,1487,1498,1180,1425,1400,1408,1500,0.438808,-0.023149,-0.148672,1.046128,-0.601616,-0.657803
-1421467310,1498,1488,1488,1497,1073,1498,1488,1488,1497,1180,1425,1400,1407,1500,0.438808,-0.023149,-0.148672,1.054289,-0.602769,-0.660686
-1421367290,1497,1488,1487,1498,1074,1497,1488,1487,1498,1180,1425,1400,1404,1500,0.438808,-0.023149,-0.148672,1.063803,-0.602142,-0.660202
-1421267287,1497,1488,1487,1498,1074,1497,1488,1487,1498,1180,1425,1400,1402,1500,0.438808,-0.023149,-0.148672,1.071694,-0.600407,-0.659047
-1421167282,1498,1487,1488,1498,1074,1498,1487,1488,1498,1180,1425,1400,1401,1500,0.438808,-0.023149,-0.148672,1.075674,-0.598160,-0.659440
-1421067269,1498,1488,1488,1498,1073,1498,1488,1488,1498,1180,1425,1400,1400,1500,0.438808,-0.023149,-0.148672,1.077564,-0.596652,-0.659292
-1420967244,1498,1486,1488,1498,1073,1498,1486,1488,1498,1180,1425,1400,1400,1500,0.438808,-0.023149,-0.148672,1.077714,-0.596701,-0.658517
-1420867217,1498,1488,1487,1498,1073,1498,1488,1487,1498,1180,1425,1400,1400,1500,0.438808,-0.023149,-0.148672,1.077040,-0.597303,-0.657675
-1420767183,1498,1486,1487,1498,1073,1498,1486,1487,1498,1180,1425,1400,1400,1500,0.438808,-0.023149,-0.148672,1.076498,-0.598196,-0.657055
-1420667170,1497,1488,1487,1498,1074,1497,1488,1487,1498,1180,1425,1400,1400,1500,0.438808,-0.023149,-0.148672,1.074964,-0.599448,-0.656144
-1420567136,1498,1487,1488,1498,1074,1498,1487,1488,1498,1180,1425,1400,1400,1500,0.438808,-0.023149,-0.148672,1.072755,-0.600633,-0.654983
-1420467110,1498,1486,1488,1498,1073,1498,1486,1488,1498,1180,1425,1400,1400,1500,0.438808,-0.023149,-0.148672,1.070533,-0.601875,-0.653783
-1420367109,1498,1487,1487,1498,1074,1498,1487,1487,1498,1180,1425,1400,1400,1500,0.438808,-0.023149,-0.148672,1.066995,-0.603019,-0.653414
-1420267064,1498,1486,1487,1498,1073,1498,1486,1487,1498,1180,1425,1400,1401,1500,0.438808,-0.023149,-0.148672,1.063273,-0.603282,-0.653064
-1420167026,1498,1488,1488,1498,1074,1498,1488,1488,1498,1180,1425,1400,1403,1500,0.438808,-0.023149,-0.148672,1.059272,-0.602632,-0.652545
-1420066998,1498,1487,1488,1498,1074,1498,1487,1488,1498,1180,1425,1400,1405,1500,0.438808,-0.023149,-0.148672,1.056068,-0.601506,-0.651900
-1419966986,1498,1487,1488,1498,1073,1498,1487,1488,1498,1180,1425,1400,1407,1500,0.438808,-0.023149,-0.148672,1.052698,-0.601353,-0.652955
-1419866975,1498,1487,1488,1498,1074,1498,1487,1488,1498,1180,1425,1400,1409,1500,0.438808,-0.023149,-0.148672,1.049365,-0.602242,-0.653859
-1419766959,1498,1487,1488,1498,1074,1498,1487,1488,1498,1180,1425,1400,1412,1500,0.438808,-0.023149,-0.148672,1.047306,-0.602995,-0.654069
-1419666930,1498,1486,1488,1498,1073,1498,1486,1488,1498,1180,1425,1400,1413,1500,0.438808,-0.023149,-0.148672,1.045912,-0.603482,-0.653456
-1419566925,1498,1486,1488,1497,1073,1498,1486,1488,1497,1180,1425,1400,1414,1500,0.438808,-0.023149,-0.148672,1.044706,-0.604375,-0.652273
-1419466917,1498,1487,1488,1497,1073,1498,1487,1488,1497,1180,1425,1400,1415,1500,0.438808,-0.023149,-0.148672,1.044386,-0.606082,-0.651237
-1419366911,1498,1487,1488,1498,1073,1498,1487,1488,1498,1180,1425,1400,1416,1500,0.438808,-0.023149,-0.148672,1.044260,-0.606619,-0.651747
-1419266877,1498,1487,1488,1498,1073,1498,1487,1488,1498,1180,1425,1400,1418,1500,0.438808,-0.023149,-0.148672,1.047228,-0.607139,-0.651603
-1419166862,1498,1487,1488,1498,1073,1498,1487,1488,1498,1180,1425,1400,1418,1500,0.438808,-0.023149,-0.148672,1.054265,-0.608765,-0.648537
-1419066840,1497,1487,1487,1498,1074,1497,1487,1487,1498,1180,1425,1400,1417,1500,0.438808,-0.023149,-0.148672,1.061764,-0.610600,-0.642414
-1418966831,1498,1486,1488,1498,1073,1498,1486,1488,1498,1180,1425,1400,1418,1500,0.438808,-0.023149,-0.148672,1.062750,-0.610265,-0.640457
-1418866808,1498,1487,1488,1498,1074,1498,1487,1488,1498,1180,1425,1400,1419,1500,0.438808,-0.023149,-0.148672,1.059887,-0.609185,-0.644404
-1418766777,1498,1488,1487,1498,1074,1498,1488,1487,1498,1180,1425,1400,1421,1500,0.438808,-0.023149,-0.148672,1.055427,-0.608547,-0.649875
-1418666746,1498,1487,1488,1498,1073,1498,1487,1488,1498,1180,1425,1400,1423,1500,0.438808,-0.023149,-0.148672,1.048730,-0.605519,-0.647266
-1418566714,1498,1488,1487,1498,1073,1498,1488,1487,1498,1180,1425,1400,1427,1500,0.438808,-0.023149,-0.148672,1.038422,-0.599361,-0.640728
-1418466693,1498,1487,1488,1498,1073,1498,1487,1488,1498,1180,1425,1400,1429,1500,0.438808,-0.023149,-0.148672,1.030135,-0.590803,-0.634675
-1418366664,1498,1487,1488,1498,1074,1498,1487,1488,1498,1180,1425,1400,1429,1500,0.438808,-0.023149,-0.148672,1.016530,-0.573014,-0.634661
-1418266646,1498,1487,1488,1498,1074,1498,1487,1488,1498,1180,1425,1400,1429,1500,0.438808,-0.023149,-0.148672,1.006273,-0.560843,-0.634665
-1418166645,1498,1488,1487,1498,1074,1500,1500,1500,1500,1180,1425,1400,1429,1500,0.438808,-0.023149,-0.148672,1.006273,-0.560843,-0.634665
-1418066621,1498,1486,1488,1498,1074,1500,1500,1500,1500,1180,1425,1400,1429,1500,0.438808,-0.023149,-0.148672,1.006273,-0.560843,-0.634665
-1417966613,1498,1488,1487,1498,1074,1500,1500,1500,1500,1180,1425,1400,1429,1500,0.438808,-0.023149,-0.148672,1.006273,-0.560843,-0.634665
-1417866596,1498,1487,1488,1497,1073,1498,1487,1488,1497,1180,1425,1400,1427,1500,0.438808,-0.023149,-0.148672,0.914828,-0.428152,-0.617904
-1417766572,1498,1488,1487,1497,1073,1498,1488,1487,1497,1180,1425,1404,1430,1500,0.438808,-0.023149,-0.148672,0.895369,-0.401861,-0.608732
-1417666550,1498,1488,1487,1498,1073,1498,1488,1487,1498,1180,1425,1408,1432,1500,0.438808,-0.023149,-0.148672,0.879170,-0.381561,-0.597201
-1417566531,1498,1487,1488,1498,1073,1498,1487,1488,1498,1180,1425,1412,1432,1500,0.438808,-0.023149,-0.148672,0.869786,-0.366045,-0.589345
-1417466530,1497,1488,1487,1498,1074,1497,1488,1487,1498,1180,1425,1418,1430,1500,0.438808,-0.023149,-0.148672,0.862107,-0.349344,-0.582284
-1417366502,1498,1487,1488,1498,1074,1498,1487,1488,1498,1180,1425,1422,1430,1500,0.438808,-0.023149,-0.148672,0.855271,-0.334806,-0.573727
-1417266485,1498,1487,1488,1497,1073,1498,1487,1488,1497,1180,1425,1425,1431,1500,0.438808,-0.023149,-0.148672,0.848521,-0.320653,-0.563890
-1417166470,1497,1488,1487,1498,1074,1497,1488,1487,1498,1180,1425,1428,1432,1500,0.438808,-0.023149,-0.148672,0.837250,-0.306422,-0.553897
-1417066465,1497,1486,1487,1498,1073,1497,1486,1487,1498,1180,1425,1433,1432,1500,0.438808,-0.023149,-0.148672,0.824835,-0.295015,-0.544759
-1416966450,1498,1487,1488,1498,1073,1498,1487,1488,1498,1180,1425,1437,1431,1500,0.438808,-0.023149,-0.148672,0.817958,-0.287196,-0.539434
-1416866444,1498,1487,1487,1497,1073,1498,1487,1487,1497,1180,1425,1440,1431,1500,0.438808,-0.023149,-0.148672,0.810536,-0.280797,-0.536589
-1416766417,1498,1486,1488,1498,1073,1498,1486,1488,1498,1180,1425,1442,1432,1500,0.438808,-0.023149,-0.148672,0.803072,-0.276172,-0.531911
-1416666406,1498,1488,1488,1498,1073,1498,1488,1488,1498,1180,1425,1443,1433,1500,0.438808,-0.023149,-0.148672,0.796457,-0.273371,-0.524426
-1416566401,1498,1486,1488,1498,1073,1498,1486,1488,1498,1180,1426,1443,1436,1500,0.438808,-0.023149,-0.148672,0.782883,-0.270012,-0.517732
-1416466387,1498,1488,1487,1498,1073,1498,1488,1487,1498,1180,1426,1444,1439,1500,0.438808,-0.023149,-0.148672,0.765978,-0.267524,-0.513612
-1416366383,1498,1488,1487,1498,1074,1498,1488,1487,1498,1180,1427,1444,1444,1500,0.438808,-0.023149,-0.148672,0.744567,-0.263115,-0.509995
-1416266377,1497,1487,1488,1498,1073,1497,1487,1488,1498,1180,1428,1446,1449,1500,0.438808,-0.023149,-0.148672,0.718085,-0.256630,-0.505196
-1416166368,1498,1487,1488,1497,1073,1498,1487,1488,1497,1180,1429,1448,1454,1500,0.438808,-0.023149,-0.148672,0.694501,-0.252290,-0.502737
-1416066341,1498,1487,1488,1498,1074,1498,1487,1488,1498,1180,1429,1449,1458,1500,0.438808,-0.023149,-0.148672,0.671642,-0.248733,-0.502708
-1415966310,1498,1488,1487,1498,1074,1498,1488,1487,1498,1180,1429,1450,1463,1500,0.438808,-0.023149,-0.148672,0.651508,-0.246517,-0.503438
-1415866285,1498,1487,1488,1498,1074,1498,1487,1488,1498,1180,1428,1450,1467,1500,0.438808,-0.023149,-0.148672,0.630691,-0.244937,-0.505657
-1415766268,1498,1488,1487,1498,1074,1498,1488,1487,1498,1180,1427,1452,1472,1500,0.438808,-0.023149,-0.148672,0.607937,-0.242341,-0.511498
-1415666263,1498,1488,1487,1498,1074,1498,1488,1487,1498,1180,1425,1453,1476,1500,0.438808,-0.023149,-0.148672,0.585272,-0.236417,-0.520241
-1415566226,1497,1488,1487,1498,1073,1497,1488,1487,1498,1180,1425,1456,1479,1500,0.438808,-0.023149,-0.148672,0.569551,-0.228457,-0.526259
-1415466207,1498,1488,1487,1498,1074,1498,1488,1487,1498,1180,1425,1458,1481,1500,0.438808,-0.023149,-0.148672,0.554284,-0.218050,-0.530635
-1415366193,1498,1487,1488,1498,1074,1498,1487,1488,1498,1180,1425,1461,1484,1500,0.438808,-0.023149,-0.148672,0.538408,-0.204310,-0.534369
-1415266172,1498,1488,1488,1498,1073,1498,1488,1488,1498,1180,1425,1465,1486,1500,0.438808,-0.023149,-0.148672,0.521495,-0.186438,-0.538814
-1415166170,1498,1488,1488,1498,1073,1498,1488,1488,1498,1180,1425,1469,1487,1500,0.438808,-0.023149,-0.148672,0.511427,-0.171149,-0.543475
-1415066168,1498,1487,1488,1498,1074,1498,1487,1488,1498,1180,1425,1473,1487,1500,0.438808,-0.023149,-0.148672,0.505752,-0.154865,-0.546649
-1414966165,1497,1488,1487,1498,1073,1497,1488,1487,1498,1180,1425,1476,1487,1500,0.438808,-0.023149,-0.148672,0.502247,-0.138128,-0.549294
-1414866162,1497,1488,1487,1498,1074,1497,1488,1487,1498,1180,1425,1480,1488,1500,0.438808,-0.023149,-0.148672,0.494954,-0.120962,-0.553833
-1414766137,1498,1487,1488,1498,1073,1498,1487,1488,1498,1180,1425,1484,1490,1500,0.438808,-0.023149,-0.148672,0.484970,-0.102217,-0.558023
-1414666127,1497,1488,1487,1498,1073,1497,1488,1487,1498,1180,1425,1487,1492,1500,0.438808,-0.023149,-0.148672,0.474848,-0.084477,-0.558511
-1414566098,1498,1488,1487,1498,1074,1498,1488,1487,1498,1180,1425,1490,1494,1500,0.438808,-0.023149,-0.148672,0.464483,-0.070032,-0.560628
-1414466091,1498,1488,1488,1498,1073,1498,1488,1488,1498,1180,1425,1492,1496,1500,0.438808,-0.023149,-0.148672,0.455895,-0.059679,-0.563255
-1414366087,1498,1487,1488,1498,1073,1498,1487,1488,1498,1180,1425,1494,1497,1500,0.438808,-0.023149,-0.148672,0.449467,-0.052728,-0.561300
-1414266053,1498,1488,1488,1498,1074,1498,1488,1488,1498,1180,1425,1494,1498,1500,0.438808,-0.023149,-0.148672,0.442279,-0.048510,-0.555658
-1414166027,1498,1488,1487,1498,1073,1498,1488,1487,1498,1180,1425,1495,1501,1500,0.438808,-0.023149,-0.148672,0.428567,-0.046865,-0.551029
-1414065999,1498,1488,1487,1498,1074,1498,1488,1487,1498,1180,1425,1494,1505,1500,0.438808,-0.023149,-0.148672,0.410607,-0.048562,-0.551186
-1413965966,1497,1488,1487,1498,1074,1497,1488,1487,1498,1180,1425,1494,1508,1500,0.438808,-0.023149,-0.148672,0.395732,-0.051439,-0.550553
-1413865937,1498,1488,1487,1498,1073,1498,1488,1487,1498,1180,1425,1493,1510,1500,0.438808,-0.023149,-0.148672,0.384576,-0.054811,-0.547189
-1413765918,1498,1486,1488,1498,1074,1498,1486,1488,1498,1180,1425,1492,1512,1500,0.438808,-0.023149,-0.148672,0.376234,-0.058287,-0.543593
-1413665906,1498,1488,1487,1498,1074,1498,1488,1487,1498,1180,1425,1492,1513,1500,0.438808,-0.023149,-0.148672,0.367859,-0.061557,-0.541106
-1413565872,1498,1487,1488,1498,1073,1498,1487,1488,1498,1180,1425,1492,1516,1500,0.438808,-0.023149,-0.148672,0.358291,-0.064746,-0.540421
-1413465853,1498,1488,1488,1498,1073,1498,1488,1488,1498,1180,1425,1491,1517,1500,0.438808,-0.023149,-0.148672,0.349879,-0.068014,-0.540285
-1413365846,1498,1488,1488,1498,1073,1498,1488,1488,1498,1180,1425,1491,1519,1500,0.438808,-0.023149,-0.148672,0.343240,-0.071417,-0.537690
-1413265818,1498,1487,1488,1498,1073,1498,1487,1488,1498,1180,1425,1490,1521,1500,0.438808,-0.023149,-0.148672,0.336132,-0.074225,-0.532447
-1413165793,1498,1488,1488,1498,1073,1498,1488,1488,1498,1180,1425,1491,1522,1500,0.438808,-0.023149,-0.148672,0.330353,-0.074257,-0.522520
-1413065763,1498,1488,1487,1498,1074,1498,1488,1487,1498,1180,1427,1491,1522,1500,0.438808,-0.023149,-0.148672,0.328432,-0.070918,-0.507545
-1412965732,1498,1488,1487,1498,1073,1498,1488,1487,1498,1180,1431,1492,1522,1500,0.438808,-0.023149,-0.148672,0.329933,-0.066927,-0.486776
-1412865702,1498,1487,1488,1498,1074,1498,1487,1488,1498,1180,1436,1492,1521,1500,0.438808,-0.023149,-0.148672,0.333417,-0.064597,-0.464999
-1412765687,1498,1487,1487,1498,1073,1498,1487,1487,1498,1180,1439,1493,1520,1500,0.438808,-0.023149,-0.148672,0.337102,-0.063590,-0.449776
-1412665682,1498,1487,1488,1497,1073,1498,1487,1488,1497,1180,1441,1493,1519,1500,0.438808,-0.023149,-0.148672,0.340969,-0.061578,-0.441854
-1412565669,1498,1487,1488,1498,1073,1498,1487,1488,1498,1180,1441,1493,1519,1500,0.438808,-0.023149,-0.148672,0.343372,-0.060962,-0.438606
-1412465654,1498,1487,1488,1498,1073,1498,1487,1488,1498,1180,1442,1492,1519,1500,0.438808,-0.023149,-0.148672,0.341296,-0.060929,-0.438558
-1412365637,1497,1488,1487,1498,1073,1497,1488,1487,1498,1180,1441,1493,1521,1500,0.438808,-0.023149,-0.148672,0.333145,-0.060076,-0.442460
-1412265628,1498,1488,1487,1498,1073,1498,1488,1487,1498,1180,1440,1493,1523,1500,0.438808,-0.023149,-0.148672,0.322282,-0.060189,-0.447438
-1412165624,1498,1488,1487,1498,1073,1498,1488,1487,1498,1180,1440,1493,1525,1500,0.438808,-0.023149,-0.148672,0.312243,-0.059911,-0.445811
-1412065594,1497,1486,1487,1498,1073,1497,1486,1487,1498,1180,1441,1494,1527,1500,0.438808,-0.023149,-0.148672,0.300069,-0.057048,-0.441247
-1411965582,1498,1487,1488,1498,1074,1498,1487,1488,1498,1180,1442,1495,1530,1500,0.438808,-0.023149,-0.148672,0.286378,-0.052524,-0.434217
-1411865562,1498,1487,1487,1498,1074,1498,1487,1487,1498,1180,1444,1496,1532,1500,0.438808,-0.023149,-0.148672,0.277126,-0.048709,-0.426149
-1411765555,1498,1487,1488,1498,1073,1498,1487,1488,1498,1180,1446,1496,1533,1500,0.438808,-0.023149,-0.148672,0.268974,-0.046316,-0.417390
-1411665519,1498,1488,1487,1498,1074,1498,1488,1487,1498,1180,1447,1496,1534,1500,0.438808,-0.023149,-0.148672,0.265231,-0.045167,-0.411832
-1411565500,1498,1487,1488,1498,1073,1498,1487,1488,1498,1180,1447,1496,1533,1500,0.438808,-0.023149,-0.148672,0.272173,-0.044712,-0.411908
-1411465467,1498,1487,1488,1498,1073,1498,1487,1488,1498,1180,1448,1496,1530,1500,0.438808,-0.023149,-0.148672,0.288517,-0.044902,-0.405342
-1411365440,1498,1487,1488,1497,1073,1498,1487,1488,1497,1180,1451,1496,1525,1500,0.438808,-0.023149,-0.148672,0.312516,-0.043899,-0.389025
-1411265424,1498,1487,1488,1498,1074,1498,1487,1488,1498,1180,1454,1496,1522,1500,0.438808,-0.023149,-0.148672,0.327381,-0.041195,-0.377478
-1411165391,1498,1487,1488,1498,1073,1498,1487,1488,1498,1180,1455,1496,1521,1500,0.438808,-0.023149,-0.148672,0.333717,-0.039335,-0.368819
-1411065367,1498,1487,1488,1498,1073,1498,1487,1488,1498,1180,1457,1496,1519,1500,0.438808,-0.023149,-0.148672,0.339148,-0.038605,-0.360526
-1410965354,1498,1488,1488,1498,1073,1498,1488,1488,1498,1180,1459,1497,1519,1500,0.438808,-0.023149,-0.148672,0.341431,-0.038233,-0.349286
-1410865343,1498,1488,1487,1498,1074,1498,1488,1487,1498,1180,1462,1497,1519,1500,0.438808,-0.023149,-0.148672,0.340192,-0.036011,-0.334253
-1410765312,1498,1487,1488,1498,1073,1498,1487,1488,1498,1180,1465,1497,1519,1500,0.438808,-0.023149,-0.148672,0.339960,-0.033526,-0.322358
-1410665284,1498,1488,1487,1498,1074,1498,1488,1487,1498,1180,1467,1498,1519,1500,0.438808,-0.023149,-0.148672,0.339408,-0.032052,-0.311828
-1410565273,1498,1487,1488,1498,1074,1498,1487,1488,1498,1180,1469,1498,1519,1500,0.438808,-0.023149,-0.148672,0.342042,-0.030776,-0.301802
-1410465265,1498,1488,1488,1498,1073,1498,1488,1488,1498,1180,1470,1499,1518,1500,0.438808,-0.023149,-0.148672,0.345883,-0.028085,-0.294607
-1410365245,1498,1487,1488,1498,1073,1498,1487,1488,1498,1180,1471,1499,1518,1500,0.438808,-0.023149,-0.148672,0.347374,-0.027625,-0.291462
-1410265227,1498,1487,1488,1498,1073,1498,1487,1488,1498,1180,1472,1499,1518,1500,0.438808,-0.023149,-0.148672,0.348705,-0.028085,-0.287537
-1410165210,1498,1488,1487,1498,1073,1498,1488,1487,1498,1180,1473,1499,1517,1500,0.438808,-0.023149,-0.148672,0.350136,-0.027772,-0.282737
-1410065184,1498,1488,1488,1498,1073,1498,1488,1488,1498,1180,1474,1499,1517,1500,0.438808,-0.023149,-0.148672,0.351620,-0.027717,-0.277949
-1409965174,1498,1487,1488,1498,1074,1498,1487,1488,1498,1180,1474,1499,1517,1500,0.438808,-0.023149,-0.148672,0.351410,-0.027572,-0.273938
-1409865164,1498,1487,1487,1498,1074,1498,1487,1487,1498,1180,1475,1499,1517,1500,0.438808,-0.023149,-0.148672,0.351193,-0.027500,-0.270501
-1409765143,1498,1487,1488,1498,1074,1498,1487,1488,1498,1180,1476,1499,1517,1500,0.438808,-0.023149,-0.148672,0.349979,-0.027940,-0.268025
-1409665138,1498,1488,1487,1498,1074,1498,1488,1487,1498,1180,1476,1498,1518,1500,0.438808,-0.023149,-0.148672,0.343856,-0.030139,-0.266354
-1409565108,1498,1487,1487,1498,1074,1498,1487,1487,1498,1180,1425,1498,1520,1500,0.438808,-0.023149,0.351328,0.337828,-0.033881,-0.264653
-1409465085,1497,1487,1488,1498,1073,1497,1487,1488,1498,1180,1425,1497,1521,1500,0.438808,-0.023149,0.351328,0.331405,-0.037439,-0.260744
-1409365071,1498,1488,1487,1498,1073,1498,1488,1487,1498,1180,1425,1496,1522,1500,0.438808,-0.023149,0.351328,0.323941,-0.040689,-0.253390
-1409265037,1498,1488,1487,1498,1073,1498,1488,1487,1498,1180,1425,1495,1524,1500,0.438808,-0.023149,0.351328,0.317309,-0.043724,-0.241530
-1409165034,1498,1487,1488,1498,1074,1498,1487,1488,1498,1180,1425,1495,1524,1500,0.438808,-0.023149,0.351328,0.315980,-0.044853,-0.229745
-1409065013,1498,1487,1488,1497,1073,1498,1487,1488,1497,1180,1425,1495,1523,1500,0.438808,-0.023149,0.351328,0.318837,-0.043430,-0.221729
-1408965007,1497,1486,1487,1498,1073,1497,1486,1487,1498,1180,1425,1495,1523,1500,0.438808,-0.023149,0.351328,0.322489,-0.042058,-0.220144
-1408865002,1497,1488,1487,1498,1073,1497,1488,1487,1498,1180,1425,1495,1522,1500,0.438808,-0.023149,0.351328,0.325853,-0.041973,-0.220708
-1408764987,1498,1487,1487,1498,1074,1498,1487,1487,1498,1180,1425,1496,1521,1500,0.438808,-0.023149,0.351328,0.329016,-0.041005,-0.220508
-1408664971,1498,1488,1487,1498,1073,1498,1488,1487,1498,1180,1425,1496,1521,1500,0.438808,-0.023149,0.351328,0.331428,-0.038073,-0.218806
-1408564953,1498,1487,1488,1498,1074,1498,1487,1488,1498,1180,1425,1497,1521,1500,0.438808,-0.023149,0.351328,0.333487,-0.034621,-0.214496
-1408464942,1498,1488,1487,1498,1073,1498,1488,1487,1498,1180,1425,1498,1520,1500,0.438808,-0.023149,0.351328,0.334665,-0.031762,-0.206835
-1408364910,1498,1488,1487,1498,1073,1498,1488,1487,1498,1180,1425,1498,1520,1500,0.438808,-0.023149,0.351328,0.334534,-0.029453,-0.197780
-1408264898,1497,1486,1487,1498,1073,1497,1486,1487,1498,1180,1425,1499,1520,1500,0.438808,-0.023149,0.351328,0.334153,-0.027808,-0.191375
-1408164880,1498,1488,1487,1498,1073,1498,1488,1487,1498,1180,1425,1499,1520,1500,0.438808,-0.023149,0.351328,0.335893,-0.026146,-0.184188
-1408064874,1498,1487,1488,1498,1074,1498,1487,1488,1498,1180,1425,1499,1519,1500,0.438808,-0.023149,0.351328,0.339134,-0.024721,-0.176809
-1407964854,1498,1488,1487,1498,1073,1498,1488,1487,1498,1180,1425,1500,1519,1500,0.438808,-0.023149,0.351328,0.341502,-0.023184,-0.168065
-1407864830,1498,1487,1488,1498,1073,1498,1487,1488,1498,1180,1425,1500,1519,1500,0.438808,-0.023149,0.351328,0.342445,-0.021376,-0.157700
-1407764803,1498,1486,1488,1498,1074,1498,1486,1488,1498,1180,1425,1501,1519,1500,0.438808,-0.023149,0.351328,0.342868,-0.019394,-0.145029
-1407664796,1498,1486,1487,1498,1073,1498,1486,1487,1498,1180,1425,1501,1519,1500,0.438808,-0.023149,0.351328,0.342658,-0.016756,-0.131190
-1407564770,1498,1488,1487,1498,1073,1498,1488,1487,1498,1180,1425,1501,1519,1500,0.438808,-0.023149,0.351328,0.340456,-0.013551,-0.118957
-1407464748,1498,1487,1487,1498,1074,1498,1487,1487,1498,1180,1425,1502,1520,1500,0.438808,-0.023149,0.351328,0.337542,-0.011606,-0.109762
-1407364743,1498,1488,1487,1498,1074,1498,1488,1487,1498,1180,1425,1502,1520,1500,0.438808,-0.023149,0.351328,0.336837,-0.010426,-0.101804
-1407264731,1498,1488,1487,1498,1073,1498,1488,1487,1498,1180,1425,1503,1519,1500,0.438808,-0.023149,0.351328,0.339076,-0.007953,-0.094031
-1407164703,1498,1487,1488,1498,1074,1498,1487,1488,1498,1180,1425,1503,1519,1500,0.438808,-0.023149,0.351328,0.342368,-0.005258,-0.085667
-1407064692,1498,1486,1488,1498,1073,1498,1486,1488,1498,1180,1425,1503,1518,1500,0.438808,-0.023149,0.351328,0.345346,-0.004423,-0.075655
-1406964678,1498,1488,1488,1498,1073,1498,1488,1488,1498,1180,1425,1503,1518,1500,0.438808,-0.023149,0.351328,0.346129,-0.004002,-0.067334
-1406864669,1498,1487,1488,1498,1074,1498,1487,1488,1498,1180,1425,1504,1519,1500,0.438808,-0.023149,0.351328,0.342484,-0.001968,-0.061922
-1406764652,1497,1488,1487,1498,1073,1497,1488,1487,1498,1180,1425,1504,1519,1500,0.438808,-0.023149,0.351328,0.338899,0.000738,-0.055931
-1406664621,1498,1488,1487,1498,1074,1498,1488,1487,1498,1180,1425,1505,1520,1500,0.438808,-0.023149,0.351328,0.336847,0.002908,-0.045844
-1406564597,1498,1487,1488,1498,1074,1498,1487,1488,1498,1180,1425,1505,1520,1500,0.438808,-0.023149,0.351328,0.335601,0.004744,-0.029858
-1406464570,1498,1488,1487,1498,1074,1498,1488,1487,1498,1180,1426,1505,1520,1500,0.438808,-0.023149,0.351328,0.334365,0.004671,-0.014645
-1406364564,1498,1488,1488,1498,1073,1498,1488,1488,1498,1180,1429,1504,1521,1500,0.438808,-0.023149,0.351328,0.330937,0.001024,-0.001413
-1406264562,1498,1487,1488,1498,1073,1498,1487,1488,1498,1180,1431,1502,1522,1500,0.438808,-0.023149,0.351328,0.325202,-0.005871,0.010290
-1406164501,1498,1488,1487,1498,1074,1498,1488,1487,1498,1180,1433,1501,1523,1500,0.438808,-0.023149,0.351328,0.320527,-0.011540,0.021042
-1406064482,1498,1488,1487,1498,1074,1498,1488,1487,1498,1180,1436,1500,1524,1500,0.438808,-0.023149,0.351328,0.318838,-0.016095,0.035795
-1405964449,1498,1487,1487,1498,1074,1498,1487,1487,1498,1180,1439,1500,1523,1500,0.438808,-0.023149,0.351328,0.321394,-0.017982,0.050288
-1405864429,1498,1488,1487,1498,1074,1498,1488,1487,1498,1180,1441,1500,1522,1500,0.438808,-0.023149,0.351328,0.326376,-0.018786,0.060971
-1405764417,1497,1488,1487,1498,1074,1497,1488,1487,1498,1180,1442,1500,1521,1500,0.438808,-0.023149,0.351328,0.331782,-0.018383,0.065752
-1405664396,1498,1488,1487,1498,1074,1498,1488,1487,1498,1180,1443,1501,1519,1500,0.438808,-0.023149,0.351328,0.340487,-0.016346,0.068149
-1405564390,1498,1488,1488,1498,1073,1498,1488,1488,1498,1180,1444,1501,1518,1500,0.438808,-0.023149,0.351328,0.344658,-0.014942,0.071917
-1405464369,1498,1488,1487,1498,1074,1498,1488,1487,1498,1180,1445,1502,1519,1500,0.438808,-0.023149,0.351328,0.342869,-0.012873,0.079967
-1405364347,1498,1488,1487,1498,1074,1498,1488,1487,1498,1180,1447,1502,1520,1500,0.438808,-0.023149,0.351328,0.336583,-0.010008,0.089359
-1405264321,1498,1488,1488,1498,1073,1498,1488,1488,1498,1180,1449,1503,1522,1500,0.438808,-0.023149,0.351328,0.325007,-0.005710,0.099037
-1405164305,1498,1488,1488,1498,1073,1498,1488,1488,1498,1180,1450,1504,1524,1500,0.438808,-0.023149,0.351328,0.314499,-0.001872,0.106004
-1405064276,1498,1488,1488,1498,1074,1498,1488,1488,1498,1180,1452,1505,1526,1500,0.438808,-0.023149,0.351328,0.304523,0.000355,0.115919
-1404964244,1498,1488,1487,1498,1074,1498,1488,1487,1498,1180,1454,1506,1528,1500,0.438808,-0.023149,0.351328,0.296747,0.002328,0.124619
-1404864216,1498,1488,1487,1498,1074,1498,1488,1487,1498,1180,1456,1506,1529,1500,0.438808,-0.023149,0.351328,0.289542,0.003730,0.133615
-1404764198,1498,1487,1488,1498,1073,1498,1487,1488,1498,1180,1458,1506,1531,1500,0.438808,-0.023149,0.351328,0.281653,0.006174,0.142065
-1404664167,1498,1486,1487,1498,1073,1498,1486,1487,1498,1180,1459,1507,1532,1500,0.438808,-0.023149,0.351328,0.273208,0.008010,0.150672
-1404564148,1498,1486,1488,1498,1074,1498,1486,1488,1498,1180,1460,1508,1533,1500,0.438808,-0.023149,0.351328,0.267831,0.011548,0.156628
-1404464122,1498,1488,1487,1498,1074,1498,1488,1487,1498,1180,1461,1510,1534,1500,0.438808,-0.023149,0.351328,0.264439,0.015807,0.160182
-1404364112,1498,1487,1488,1498,1073,1498,1487,1488,1498,1180,1462,1511,1534,1500,0.438808,-0.023149,0.351328,0.263591,0.018434,0.162483
-1404264098,1498,1487,1488,1498,1073,1498,1487,1488,1498,1180,1462,1510,1533,1500,0.438808,-0.023149,0.351328,0.265538,0.017844,0.163556
-1404164070,1498,1487,1487,1498,1073,1498,1487,1487,1498,1180,1462,1510,1532,1500,0.438808,-0.023149,0.351328,0.271192,0.015948,0.164340
-1404064067,1498,1487,1488,1498,1073,1498,1487,1488,1498,1180,1462,1509,1532,1500,0.438808,-0.023149,0.351328,0.276172,0.013873,0.163948
-1403964060,1498,1486,1488,1498,1073,1498,1486,1488,1498,1180,1462,1509,1531,1500,0.438808,-0.023149,0.351328,0.281291,0.013199,0.162108
-1403864036,1498,1487,1488,1498,1073,1498,1487,1488,1498,1180,1461,1508,1529,1500,0.438808,-0.023149,0.351328,0.289433,0.012547,0.160798
-1403764007,1498,1487,1488,1498,1073,1498,1487,1488,1498,1180,1462,1508,1527,1500,0.438808,-0.023149,0.351328,0.300166,0.011492,0.161862
-1403664005,1498,1487,1488,1498,1074,1498,1487,1488,1498,1180,1462,1508,1526,1500,0.438808,-0.023149,0.351328,0.305178,0.014937,0.162011
-1403563971,1498,1487,1488,1498,1073,1498,1487,1488,1498,1180,1461,1511,1525,1500,0.438808,-0.023149,0.351328,0.307247,0.028259,0.159598
-1403463964,1498,1486,1487,1498,1073,1498,1486,1487,1498,1180,1460,1514,1525,1500,0.438808,-0.023149,0.351328,0.308513,0.045734,0.154709
-1403363955,1498,1488,1487,1498,1073,1498,1488,1487,1498,1180,1459,1517,1524,1500,0.438808,-0.023149,0.351328,0.313191,0.061502,0.148292
-1403263936,1498,1486,1487,1498,1073,1498,1486,1487,1498,1180,1458,1519,1522,1500,0.438808,-0.023149,0.351328,0.320072,0.068546,0.142103
-1403163902,1498,1487,1488,1498,1073,1498,1487,1488,1498,1180,1457,1520,1520,1500,0.438808,-0.023149,0.351328,0.326599,0.071940,0.139696
-1403063889,1497,1488,1487,1498,1074,1497,1488,1487,1498,1180,1457,1520,1519,1500,0.438808,-0.023149,0.351328,0.330946,0.073085,0.138957
-1402963869,1498,1487,1488,1498,1074,1498,1487,1488,1498,1180,1457,1520,1519,1500,0.438808,-0.023149,0.351328,0.332881,0.070133,0.138587
-1402863842,1498,1487,1487,1498,1074,1498,1487,1487,1498,1180,1457,1518,1519,1500,0.438808,-0.023149,0.351328,0.336020,0.063168,0.138872
-1402763824,1498,1487,1488,1497,1073,1498,1487,1488,1497,1180,1457,1516,1518,1500,0.438808,-0.023149,0.351328,0.339843,0.053833,0.138514
-1402663818,1498,1487,1488,1498,1074,1498,1487,1488,1498,1180,1457,1514,1518,1500,0.438808,-0.023149,0.351328,0.343969,0.043774,0.137515
-1402563787,1498,1488,1487,1498,1073,1498,1488,1487,1498,1180,1457,1513,1517,1500,0.438808,-0.023149,0.351328,0.346298,0.036851,0.136551
-1402463767,1498,1487,1488,1498,1073,1498,1487,1488,1498,1180,1456,1511,1517,1500,0.438808,-0.023149,0.351328,0.349416,0.030817,0.135018
-1402363745,1498,1487,1488,1496,1074,1498,1487,1488,1496,1180,1456,1511,1516,1500,0.438808,-0.023149,0.351328,0.353019,0.027179,0.133521
-1402263710,1498,1487,1488,1498,1073,1498,1487,1488,1498,1180,1455,1510,1515,1500,0.438808,-0.023149,0.351328,0.356709,0.025371,0.130934
-1402163679,1498,1487,1488,1498,1073,1498,1487,1488,1498,1180,1455,1510,1515,1500,0.438808,-0.023149,0.351328,0.359406,0.026046,0.128409
-1402063662,1498,1488,1487,1498,1074,1498,1488,1487,1498,1180,1455,1511,1515,1500,0.438808,-0.023149,0.351328,0.359449,0.029842,0.128065
-1401963658,1498,1488,1487,1498,1074,1498,1488,1487,1498,1180,1455,1511,1516,1500,0.438808,-0.023149,0.351328,0.356207,0.034084,0.130550
-1401863636,1498,1487,1488,1498,1073,1498,1487,1488,1498,1180,1456,1512,1516,1500,0.438808,-0.023149,0.351328,0.353360,0.037465,0.134197
-1401763606,1498,1487,1487,1498,1074,1498,1487,1487,1498,1180,1457,1513,1516,1500,0.438808,-0.023149,0.351328,0.353920,0.041289,0.137861
-1401663599,1498,1487,1488,1498,1074,1498,1487,1488,1498,1180,1457,1515,1515,1500,0.438808,-0.023149,0.351328,0.356029,0.047778,0.138899
-1401563592,1498,1488,1488,1498,1073,1498,1488,1488,1498,1180,1457,1516,1515,1500,0.438808,-0.023149,0.351328,0.356551,0.056528,0.137059
-1401463580,1498,1487,1488,1498,1073,1498,1487,1488,1498,1180,1456,1519,1515,1500,0.438808,-0.023149,0.351328,0.354903,0.067728,0.133760
-1401363574,1498,1487,1488,1498,1073,1498,1487,1488,1498,1180,1456,1521,1515,1500,0.438808,-0.023149,0.351328,0.352985,0.077746,0.133880
-1401263566,1498,1487,1488,1498,1073,1498,1487,1488,1498,1180,1456,1523,1515,1500,0.438808,-0.023149,0.351328,0.352072,0.085507,0.133463
-1401163534,1498,1487,1488,1498,1074,1498,1487,1488,1498,1180,1456,1524,1514,1500,0.438808,-0.023149,0.351328,0.354469,0.092774,0.133690
-1401063514,1498,1487,1488,1498,1073,1498,1487,1488,1498,1180,1456,1525,1513,1500,0.438808,-0.023149,0.351328,0.357655,0.097093,0.134983
-1400963508,1498,1487,1488,1498,1074,1498,1487,1488,1498,1180,1457,1526,1514,1500,0.438808,-0.023149,0.351328,0.354759,0.101370,0.136416
-1400863486,1497,1488,1487,1498,1073,1497,1488,1487,1498,1180,1457,1527,1515,1500,0.438808,-0.023149,0.351328,0.352113,0.105989,0.136380
-1400763462,1498,1487,1488,1498,1073,1498,1487,1488,1498,1180,1456,1527,1516,1500,0.438808,-0.023149,0.351328,0.350536,0.111357,0.134847
-1400663436,1498,1488,1488,1498,1073,1498,1488,1488,1498,1180,1455,1528,1516,1500,0.438808,-0.023149,0.351328,0.350369,0.116460,0.131229
-1400563414,1498,1487,1487,1498,1074,1498,1487,1487,1498,1180,1455,1529,1515,1500,0.438808,-0.023149,0.351328,0.353586,0.121469,0.127401
-1400463380,1498,1488,1487,1497,1074,1498,1488,1487,1497,1180,1454,1531,1514,1500,0.438808,-0.023149,0.351328,0.358576,0.128024,0.123577
-1400363368,1498,1487,1488,1498,1073,1498,1487,1488,1498,1180,1453,1532,1512,1500,0.438808,-0.023149,0.351328,0.367974,0.137969,0.121142
-1400263345,1498,1488,1487,1498,1073,1498,1488,1487,1498,1180,1454,1534,1510,1500,0.438808,-0.023149,0.351328,0.375752,0.149049,0.122303
-1400163340,1498,1487,1488,1498,1073,1498,1487,1488,1498,1180,1454,1537,1509,1500,0.438808,-0.023149,0.351328,0.382546,0.161708,0.124165
-1400063330,1498,1487,1488,1498,1073,1498,1487,1488,1498,1180,1454,1538,1507,1500,0.438808,-0.023149,0.351328,0.389687,0.169286,0.125217
-1399963306,1498,1488,1487,1498,1073,1498,1488,1487,1498,1180,1455,1539,1505,1500,0.438808,-0.023149,0.351328,0.395777,0.172916,0.127203
-1399863290,1498,1488,1487,1498,1073,1498,1488,1487,1498,1180,1455,1540,1505,1500,0.438808,-0.023149,0.351328,0.396675,0.175041,0.128874
-1399763273,1497,1488,1487,1498,1074,1497,1488,1487,1498,1180,1455,1540,1506,1500,0.438808,-0.023149,0.351328,0.395235,0.178790,0.128280
-1399663238,1498,1488,1487,1498,1073,1498,1488,1487,1498,1180,1454,1541,1507,1500,0.438808,-0.023149,0.351328,0.396159,0.185264,0.125308
-1399563214,1498,1488,1487,1498,1074,1498,1488,1487,1498,1180,1454,1543,1507,1500,0.438808,-0.023149,0.351328,0.396975,0.192963,0.123116
-1399463212,1498,1487,1488,1498,1074,1498,1487,1488,1498,1180,1454,1545,1507,1500,0.438808,-0.023149,0.351328,0.397948,0.201079,0.123501
-1399363176,1497,1488,1487,1498,1074,1497,1488,1487,1498,1180,1454,1546,1506,1500,0.438808,-0.023149,0.351328,0.398603,0.208041,0.124279
-1399263158,1498,1488,1487,1498,1074,1498,1488,1487,1498,1180,1454,1548,1507,1500,0.438808,-0.023149,0.351328,0.396311,0.218088,0.121697
-1399163147,1498,1488,1487,1498,1073,1498,1488,1487,1498,1180,1453,1550,1507,1500,0.438808,-0.023149,0.351328,0.394291,0.229109,0.117512
-1399063124,1498,1488,1487,1498,1074,1498,1488,1487,1498,1180,1452,1552,1507,1500,0.438808,-0.023149,0.351328,0.393159,0.240835,0.114359
-1398963120,1498,1487,1487,1498,1074,1498,1487,1487,1498,1180,1452,1555,1507,1500,0.438808,-0.023149,0.351328,0.391420,0.252037,0.111180
-1398863101,1498,1488,1487,1498,1074,1498,1488,1487,1498,1180,1451,1557,1506,1500,0.438808,-0.023149,0.351328,0.391196,0.265144,0.108784
-1398763068,1498,1488,1487,1498,1074,1498,1488,1487,1498,1180,1450,1560,1504,1500,0.438808,-0.023149,0.351328,0.391514,0.280696,0.104555
-1398663035,1498,1488,1488,1498,1073,1498,1488,1488,1498,1180,1449,1564,1502,1500,0.438808,-0.023149,0.351328,0.396253,0.295531,0.100345
-1398563016,1498,1487,1488,1498,1074,1498,1487,1488,1498,1180,1449,1566,1500,1500,0.438808,-0.023149,0.351328,0.400924,0.307560,0.096181
-1398463002,1498,1488,1487,1498,1074,1498,1488,1487,1498,1180,1448,1569,1497,1500,0.438808,-0.023149,0.351328,0.403896,0.320829,0.092644
-1398362985,1497,1488,1487,1498,1073,1497,1488,1487,1498,1180,1447,1570,1495,1500,0.438808,-0.023149,0.351328,0.408213,0.332103,0.089433
-1398262956,1498,1487,1487,1498,1074,1498,1487,1487,1498,1180,1446,1572,1493,1500,0.438808,-0.023149,0.351328,0.415072,0.341156,0.083348
-1398162947,1498,1488,1488,1498,1073,1498,1488,1488,1498,1180,1445,1573,1491,1500,0.438808,-0.023149,0.351328,0.421913,0.347596,0.077541
-1398062928,1498,1488,1488,1498,1073,1498,1488,1488,1498,1180,1444,1574,1489,1500,0.438808,-0.023149,0.351328,0.425792,0.354396,0.072882
-1397962908,1498,1488,1487,1498,1074,1498,1488,1487,1498,1180,1443,1575,1486,1500,0.438808,-0.023149,0.351328,0.429936,0.362794,0.066726
-1397862903,1498,1488,1487,1498,1074,1498,1488,1487,1498,1180,1442,1576,1484,1500,0.438808,-0.023149,0.351328,0.437095,0.367860,0.062203
-1397762879,1498,1488,1488,1498,1073,1498,1488,1488,1498,1180,1441,1576,1481,1500,0.438808,-0.023149,0.351328,0.443175,0.371488,0.057362
-1397662860,1498,1488,1487,1498,1073,1498,1488,1487,1498,1180,1439,1578,1480,1500,0.438808,-0.023149,0.351328,0.445986,0.381631,0.051015
-1397562828,1498,1488,1487,1498,1074,1498,1488,1487,1498,1180,1439,1580,1480,1500,0.438808,-0.023149,0.351328,0.452095,0.393902,0.048517
-1397462793,1498,1487,1487,1498,1074,1498,1487,1487,1498,1180,1440,1582,1481,1500,0.438808,-0.023149,0.351328,0.458498,0.401936,0.051866
-1397362761,1498,1488,1487,1498,1074,1498,1488,1487,1498,1180,1440,1583,1481,1500,0.438808,-0.023149,0.351328,0.462101,0.404765,0.055611
-1397262726,1498,1488,1487,1498,1073,1498,1488,1487,1498,1180,1441,1584,1481,1500,0.438808,-0.023149,0.351328,0.460731,0.406233,0.057242
-1397162718,1498,1488,1487,1498,1073,1498,1488,1487,1498,1180,1441,1584,1482,1500,0.438808,-0.023149,0.351328,0.453992,0.406860,0.057819
-1397062708,1498,1488,1487,1498,1074,1498,1488,1487,1498,1180,1441,1584,1483,1500,0.438808,-0.023149,0.351328,0.444007,0.406338,0.057114
-1396962673,1498,1488,1488,1498,1073,1498,1488,1488,1498,1180,1441,1584,1485,1500,0.438808,-0.023149,0.351328,0.433114,0.403828,0.057026
-1396862672,1497,1488,1487,1498,1074,1497,1488,1487,1498,1180,1441,1584,1487,1500,0.438808,-0.023149,0.351328,0.423910,0.401324,0.056261
-1396762642,1497,1487,1488,1498,1074,1497,1487,1488,1498,1180,1440,1584,1489,1500,0.438808,-0.023149,0.351328,0.415896,0.399765,0.055134
-1396662627,1498,1487,1488,1498,1074,1498,1487,1488,1498,1180,1441,1583,1490,1500,0.438808,-0.023149,0.351328,0.408448,0.398241,0.057131
-1396562612,1498,1487,1487,1498,1073,1498,1487,1487,1498,1180,1441,1584,1491,1500,0.438808,-0.023149,0.351328,0.403818,0.398204,0.062055
-1396462603,1498,1488,1487,1497,1074,1498,1488,1487,1497,1180,1442,1584,1492,1500,0.438808,-0.023149,0.351328,0.400627,0.400453,0.065973
-1396362598,1498,1488,1487,1498,1074,1498,1488,1487,1498,1180,1443,1584,1491,1500,0.438808,-0.023149,0.351328,0.398576,0.401689,0.068410
-1396262590,1498,1487,1488,1497,1073,1498,1487,1488,1497,1180,1444,1584,1490,1500,0.438808,-0.023149,0.351328,0.398188,0.402197,0.071784
-1396162586,1498,1487,1488,1498,1073,1498,1487,1488,1498,1180,1444,1585,1490,1500,0.438808,-0.023149,0.351328,0.399629,0.405075,0.074133
-1396062552,1498,1487,1488,1498,1073,1498,1487,1488,1498,1180,1444,1586,1489,1500,0.438808,-0.023149,0.351328,0.401034,0.409492,0.074636
-1395962522,1498,1487,1488,1498,1074,1498,1487,1488,1498,1180,1444,1586,1488,1500,0.438808,-0.023149,0.351328,0.403267,0.412616,0.075313
-1395862520,1498,1488,1488,1498,1073,1498,1488,1488,1498,1180,1445,1586,1487,1500,0.438808,-0.023149,0.351328,0.406525,0.413692,0.077178
-1395762491,1498,1487,1488,1498,1073,1498,1487,1488,1498,1180,1445,1586,1486,1500,0.438808,-0.023149,0.351328,0.409917,0.411931,0.079489
-1395662486,1498,1487,1488,1498,1073,1498,1487,1488,1498,1180,1446,1584,1485,1500,0.438808,-0.023149,0.351328,0.413426,0.404236,0.082132
-1395562468,1498,1488,1487,1498,1073,1498,1488,1487,1498,1180,1446,1581,1482,1500,0.438808,-0.023149,0.351328,0.416754,0.390307,0.084295
-1395462434,1498,1488,1487,1498,1074,1498,1488,1487,1498,1180,1446,1576,1480,1500,0.438808,-0.023149,0.351328,0.420382,0.372170,0.084612
-1395362422,1498,1487,1488,1498,1073,1498,1487,1488,1498,1180,1446,1572,1479,1500,0.438808,-0.023149,0.351328,0.426486,0.349661,0.085649
-1395262385,1498,1488,1487,1498,1074,1498,1488,1487,1498,1180,1447,1566,1479,1500,0.438808,-0.023149,0.351328,0.434889,0.322780,0.087264
-1395162367,1498,1486,1488,1498,1073,1498,1486,1488,1498,1180,1447,1562,1480,1500,0.438808,-0.023149,0.351328,0.434197,0.300085,0.089210
-1395062338,1498,1488,1488,1498,1073,1498,1488,1488,1498,1180,1448,1557,1483,1500,0.438808,-0.023149,0.351328,0.431429,0.274539,0.095685
-1394962335,1497,1488,1487,1498,1074,1497,1488,1487,1498,1180,1449,1554,1487,1500,0.438808,-0.023149,0.351328,0.425710,0.254093,0.099126
-1394862305,1498,1486,1488,1498,1074,1498,1486,1488,1498,1180,1449,1550,1492,1500,0.438808,-0.023149,0.351328,0.418955,0.231505,0.099038
-1394762286,1498,1488,1488,1498,1073,1498,1488,1488,1498,1180,1449,1545,1497,1500,0.438808,-0.023149,0.351328,0.410453,0.203198,0.099924
-1394662265,1498,1487,1488,1497,1073,1498,1487,1488,1497,1180,1449,1541,1501,1500,0.438808,-0.023149,0.351328,0.398279,0.176864,0.099523
-1394562264,1498,1488,1488,1498,1073,1498,1488,1488,1498,1180,1449,1537,1504,1500,0.438808,-0.023149,0.351328,0.388823,0.153601,0.095940
-1394462233,1498,1487,1487,1498,1074,1498,1487,1487,1498,1180,1448,1532,1506,1500,0.438808,-0.023149,0.351328,0.385789,0.129662,0.093395
-1394362213,1498,1487,1488,1498,1073,1498,1487,1488,1498,1180,1449,1525,1506,1500,0.438808,-0.023149,0.351328,0.391225,0.101094,0.096496
-1394262169,1498,1486,1488,1497,1073,1498,1486,1488,1497,1180,1449,1521,1507,1500,0.438808,-0.023149,0.351328,0.393362,0.077795,0.098370
-1394162156,1498,1487,1488,1498,1074,1498,1487,1488,1498,1180,1449,1518,1508,1500,0.438808,-0.023149,0.351328,0.387685,0.063249,0.100354
-1394062129,1498,1487,1488,1498,1074,1498,1487,1488,1498,1180,1450,1516,1509,1500,0.438808,-0.023149,0.351328,0.384341,0.053880,0.103103
-1393962102,1498,1488,1488,1498,1073,1498,1488,1488,1498,1180,1450,1515,1509,1500,0.438808,-0.023149,0.351328,0.384231,0.050778,0.104813
-1393862073,1498,1486,1487,1498,1073,1498,1486,1487,1498,1180,1451,1515,1509,1500,0.438808,-0.023149,0.351328,0.386560,0.051166,0.106404
-1393762039,1498,1488,1487,1498,1074,1498,1488,1487,1498,1180,1451,1515,1509,1500,0.438808,-0.023149,0.351328,0.389730,0.052121,0.106509
-1393662037,1498,1487,1488,1498,1073,1498,1487,1488,1498,1180,1451,1515,1508,1500,0.438808,-0.023149,0.351328,0.392896,0.053494,0.107018
-1393562019,1498,1487,1488,1498,1074,1498,1487,1488,1498,1180,1451,1516,1507,1500,0.438808,-0.023149,0.351328,0.394550,0.056187,0.108365
-1393462014,1498,1488,1487,1498,1073,1498,1488,1487,1498,1180,1451,1516,1507,1500,0.438808,-0.023149,0.351328,0.394997,0.059399,0.109867
-1393362005,1498,1488,1487,1498,1074,1498,1488,1487,1498,1180,1451,1517,1507,1500,0.438808,-0.023149,0.351328,0.395316,0.062464,0.111166
-1393261987,1498,1487,1488,1498,1074,1498,1487,1488,1498,1180,1452,1517,1507,1500,0.438808,-0.023149,0.351328,0.395460,0.064270,0.113351
-1393161977,1498,1488,1487,1498,1074,1498,1488,1487,1498,1180,1452,1518,1507,1500,0.438808,-0.023149,0.351328,0.393771,0.065243,0.116366
-1393061949,1498,1488,1487,1498,1073,1498,1488,1487,1498,1180,1453,1518,1508,1500,0.438808,-0.023149,0.351328,0.389836,0.064982,0.119092
-1392961928,1498,1487,1488,1498,1073,1498,1487,1488,1498,1180,1455,1517,1509,1500,0.438808,-0.023149,0.351328,0.387403,0.062977,0.127511
-1392861906,1498,1488,1487,1498,1073,1498,1488,1487,1498,1180,1457,1517,1510,1500,0.438808,-0.023149,0.351328,0.385506,0.062261,0.140649
-1392761854,1498,1488,1487,1497,1074,1498,1488,1487,1497,1180,1460,1517,1511,1500,0.438808,-0.023149,0.351328,0.380830,0.063551,0.155523
-1392661836,1498,1488,1488,1498,1073,1498,1488,1488,1498,1180,1463,1516,1512,1500,0.438808,-0.023149,0.351328,0.380402,0.061552,0.171955
-1392561808,1498,1488,1487,1498,1074,1498,1488,1487,1498,1180,1467,1514,1509,1500,0.438808,-0.023149,0.351328,0.392999,0.050345,0.188956
-1392461799,1498,1487,1488,1498,1074,1498,1487,1488,1498,1180,1469,1511,1507,1500,0.438808,-0.023149,0.351328,0.405293,0.033182,0.200285
-1392361772,1498,1487,1488,1498,1074,1498,1487,1488,1498,1180,1470,1508,1506,1500,0.438808,-0.023149,0.351328,0.410459,0.021670,0.203810
-1392261747,1498,1487,1488,1498,1073,1498,1487,1488,1498,1180,1472,1506,1504,1500,0.438808,-0.023149,0.351328,0.420993,0.010394,0.211991
-1392161711,1498,1488,1487,1498,1073,1498,1488,1487,1498,1180,1474,1505,1504,1500,0.438808,-0.023149,0.351328,0.416043,0.002416,0.225414
-1392061703,1498,1488,1487,1498,1074,1498,1488,1487,1498,1180,1477,1504,1505,1500,0.438808,-0.023149,0.351328,0.411998,-0.002540,0.238402
-1391961699,1498,1487,1488,1498,1073,1498,1487,1488,1498,1180,1480,1503,1504,1500,0.438808,-0.023149,0.351328,0.413539,-0.004880,0.253482
-1391861697,1498,1487,1488,1498,1073,1498,1487,1488,1498,1180,1482,1504,1505,1500,0.438808,-0.023149,0.351328,0.410405,-0.004132,0.268630
-1391761685,1498,1487,1488,1498,1073,1498,1487,1488,1498,1180,1485,1504,1506,1500,0.438808,-0.023149,0.351328,0.403519,-0.002899,0.281869
-1391661664,1498,1487,1488,1498,1073,1498,1487,1488,1498,1180,1487,1505,1507,1500,0.438808,-0.023149,0.351328,0.397841,-0.000087,0.289891
-1391561636,1498,1488,1487,1498,1074,1498,1488,1487,1498,1180,1488,1505,1509,1500,0.438808,-0.023149,0.351328,0.388751,0.003778,0.294872
-1391461601,1498,1487,1488,1498,1073,1498,1487,1488,1498,1180,1489,1507,1511,1500,0.438808,-0.023149,0.351328,0.377612,0.009148,0.297264
-1391361592,1498,1487,1488,1498,1074,1498,1487,1488,1498,1180,1575,1508,1513,1500,0.438808,-0.023149,-0.148672,0.366723,0.013505,0.295812
-1391261560,1498,1488,1487,1498,1074,1498,1488,1487,1498,1180,1575,1509,1516,1500,0.438808,-0.023149,-0.148672,0.352712,0.015639,0.294236
-1391161553,1498,1488,1487,1498,1074,1498,1488,1487,1498,1180,1575,1509,1519,1500,0.438808,-0.023149,-0.148672,0.335245,0.015352,0.294953
-1391061543,1498,1488,1488,1497,1073,1498,1488,1488,1497,1180,1575,1509,1522,1500,0.438808,-0.023149,-0.148672,0.320708,0.015420,0.299088
-1390961514,1498,1488,1487,1498,1074,1498,1488,1487,1498,1180,1575,1509,1525,1500,0.438808,-0.023149,-0.148672,0.310526,0.017090,0.309748
-1390861504,1498,1487,1488,1498,1074,1498,1487,1488,1498,1180,1575,1508,1525,1500,0.438808,-0.023149,-0.148672,0.308200,0.012780,0.316391
-1390761488,1498,1488,1487,1498,1074,1498,1488,1487,1498,1180,1575,1508,1525,1500,0.438808,-0.023149,-0.148672,0.307991,0.009507,0.319455
-1390661470,1498,1488,1487,1498,1074,1498,1488,1487,1498,1180,1575,1508,1525,1500,0.438808,-0.023149,-0.148672,0.307613,0.011120,0.319305
-1390561460,1498,1486,1488,1498,1073,1498,1486,1488,1498,1180,1575,1508,1525,1500,0.438808,-0.023149,-0.148672,0.310063,0.010169,0.319555
-1390461449,1498,1488,1488,1498,1073,1498,1488,1488,1498,1180,1575,1508,1524,1500,0.438808,-0.023149,-0.148672,0.312537,0.010030,0.320137
-1390361436,1497,1488,1487,1498,1074,1497,1488,1487,1498,1180,1575,1508,1524,1500,0.438808,-0.023149,-0.148672,0.315170,0.010593,0.320779
-1390261426,1498,1487,1488,1498,1073,1498,1487,1488,1498,1180,1575,1508,1524,1500,0.438808,-0.023149,-0.148672,0.315750,0.010914,0.320745
-1390161402,1498,1488,1487,1498,1074,1498,1488,1487,1498,1180,1575,1508,1523,1500,0.438808,-0.023149,-0.148672,0.316310,0.010431,0.320987
-1390061375,1498,1488,1487,1498,1074,1498,1488,1487,1498,1180,1575,1508,1523,1500,0.438808,-0.023149,-0.148672,0.318437,0.011127,0.321575
-1389961372,1498,1487,1487,1498,1074,1498,1487,1487,1498,1180,1575,1508,1522,1500,0.438808,-0.023149,-0.148672,0.321711,0.010784,0.322605
-1389861343,1497,1488,1487,1498,1073,1497,1488,1487,1498,1180,1575,1508,1521,1500,0.438808,-0.023149,-0.148672,0.326021,0.009957,0.322654
-1389761305,1497,1488,1488,1498,1073,1497,1488,1488,1498,1180,1575,1508,1522,1500,0.438808,-0.023149,-0.148672,0.324668,0.009140,0.323523
-1389661300,1498,1488,1488,1498,1073,1498,1488,1488,1498,1180,1575,1508,1521,1500,0.438808,-0.023149,-0.148672,0.330082,0.010804,0.325167
-1389561284,1498,1488,1487,1498,1073,1498,1488,1487,1498,1180,1575,1508,1520,1500,0.438808,-0.023149,-0.148672,0.334291,0.010525,0.326055
-1389461272,1498,1487,1488,1498,1074,1498,1487,1488,1498,1180,1575,1508,1520,1500,0.438808,-0.023149,-0.148672,0.331689,0.010070,0.325136
-1389361269,1497,1488,1487,1498,1073,1497,1488,1487,1498,1180,1575,1507,1521,1500,0.438808,-0.023149,-0.148672,0.328616,0.008511,0.324577
-1389261258,1498,1487,1488,1498,1074,1498,1487,1488,1498,1180,1575,1507,1521,1500,0.438808,-0.023149,-0.148672,0.326498,0.008615,0.324027
-1389161244,1498,1488,1488,1498,1073,1498,1488,1488,1498,1180,1575,1508,1521,1500,0.438808,-0.023149,-0.148672,0.327400,0.010429,0.323900
-1389061231,1498,1487,1488,1498,1073,1498,1487,1488,1498,1180,1575,1508,1521,1500,0.438808,-0.023149,-0.148672,0.328788,0.011418,0.323929
-1388961200,1497,1488,1487,1498,1074,1497,1488,1487,1498,1180,1575,1508,1520,1500,0.438808,-0.023149,-0.148672,0.332372,0.012753,0.324394
-1388861179,1498,1488,1488,1498,1073,1498,1488,1488,1498,1180,1575,1508,1520,1500,0.438808,-0.023149,-0.148672,0.333208,0.013226,0.324227
-1388761167,1497,1488,1487,1498,1074,1497,1488,1487,1498,1180,1575,1508,1521,1500,0.438808,-0.023149,-0.148672,0.329600,0.011797,0.323673
-1388661163,1498,1488,1487,1497,1073,1498,1488,1487,1497,1180,1575,1508,1522,1500,0.438808,-0.023149,-0.148672,0.325167,0.009465,0.323400
-1388561149,1498,1488,1487,1498,1074,1498,1488,1487,1498,1180,1575,1507,1522,1500,0.438808,-0.023149,-0.148672,0.321347,0.008605,0.322650
-1388461147,1498,1488,1487,1498,1074,1498,1488,1487,1498,1180,1575,1507,1523,1500,0.438808,-0.023149,-0.148672,0.318199,0.008330,0.321702
-1388361131,1498,1487,1488,1498,1073,1498,1487,1488,1498,1180,1575,1508,1524,1500,0.438808,-0.023149,-0.148672,0.315749,0.009158,0.320699
-1388261107,1498,1488,1487,1498,1074,1498,1488,1487,1498,1180,1575,1508,1524,1500,0.438808,-0.023149,-0.148672,0.314201,0.008800,0.320401
-1388161072,1498,1488,1488,1498,1073,1498,1488,1488,1498,1180,1575,1507,1524,1500,0.438808,-0.023149,-0.148672,0.312332,0.008024,0.319790
-1388061038,1498,1487,1488,1497,1073,1498,1487,1488,1497,1180,1575,1508,1525,1500,0.438808,-0.023149,-0.148672,0.308825,0.008956,0.318572
-1387961024,1498,1487,1488,1498,1073,1498,1487,1488,1498,1180,1575,1508,1525,1500,0.438808,-0.023149,-0.148672,0.306618,0.009340,0.318065
-1387861012,1498,1487,1488,1498,1073,1498,1487,1488,1498,1180,1575,1507,1525,1500,0.438808,-0.023149,-0.148672,0.307385,0.007629,0.318603
-1387761007,1498,1488,1487,1498,1074,1498,1488,1487,1498,1180,1575,1508,1525,1500,0.438808,-0.023149,-0.148672,0.306288,0.008629,0.318155
-1387660980,1498,1488,1487,1498,1073,1498,1488,1487,1498,1180,1575,1508,1526,1500,0.438808,-0.023149,-0.148672,0.304370,0.009280,0.317381
-1387560944,1498,1487,1488,1498,1073,1498,1487,1488,1498,1180,1575,1508,1526,1500,0.438808,-0.023149,-0.148672,0.302881,0.009054,0.316997
-1387460941,1497,1488,1487,1498,1073,1497,1488,1487,1498,1180,1575,1508,1527,1500,0.438808,-0.023149,-0.148672,0.299147,0.009809,0.316047
-1387360909,1498,1488,1487,1498,1073,1498,1488,1487,1498,1180,1575,1508,1528,1500,0.438808,-0.023149,-0.148672,0.295702,0.009146,0.315225
-1387260904,1497,1486,1487,1498,1073,1497,1486,1487,1498,1180,1575,1508,1528,1500,0.438808,-0.023149,-0.148672,0.292216,0.008828,0.314573
-1387160872,1498,1487,1488,1497,1073,1498,1487,1488,1497,1180,1575,1508,1529,1500,0.438808,-0.023149,-0.148672,0.289630,0.008762,0.313778
-1387060849,1498,1487,1488,1498,1073,1498,1487,1488,1498,1180,1575,1508,1529,1500,0.438808,-0.023149,-0.148672,0.287575,0.008985,0.313282
-1386960820,1498,1488,1487,1498,1074,1498,1488,1487,1498,1180,1575,1508,1530,1500,0.438808,-0.023149,-0.148672,0.285790,0.009194,0.313025
-1386860816,1498,1488,1487,1498,1074,1498,1488,1487,1498,1180,1575,1508,1530,1500,0.438808,-0.023149,-0.148672,0.283193,0.008454,0.312831
-1386760799,1498,1487,1488,1497,1073,1498,1487,1488,1497,1180,1575,1508,1530,1500,0.438808,-0.023149,-0.148672,0.282614,0.007237,0.313454
-1386660791,1498,1488,1488,1498,1073,1498,1488,1488,1498,1180,1575,1507,1529,1500,0.438808,-0.023149,-0.148672,0.287799,0.006215,0.314608
-1386560756,1498,1487,1488,1498,1073,1498,1487,1488,1498,1180,1575,1507,1528,1500,0.438808,-0.023149,-0.148672,0.294640,0.007658,0.315692
-1386460743,1498,1487,1488,1498,1074,1498,1487,1488,1498,1180,1575,1507,1526,1500,0.438808,-0.023149,-0.148672,0.302209,0.007769,0.317663
-1386360738,1498,1487,1488,1498,1074,1498,1487,1488,1498,1180,1575,1507,1525,1500,0.438808,-0.023149,-0.148672,0.313096,0.007076,0.320869
-1386260715,1498,1488,1487,1498,1073,1498,1488,1487,1498,1180,1575,1507,1522,1500,0.438808,-0.023149,-0.148672,0.324558,0.007885,0.324364
-1386160696,1498,1487,1488,1498,1073,1498,1487,1488,1498,1180,1575,1507,1519,1500,0.438808,-0.023149,-0.148672,0.340435,0.008202,0.329807
-1386060663,1498,1487,1488,1498,1073,1498,1487,1488,1498,1180,1575,1507,1516,1500,0.438808,-0.023149,-0.148672,0.353848,0.009091,0.335291
-1385960655,1498,1487,1488,1498,1074,1498,1487,1488,1498,1180,1575,1506,1515,1500,0.438808,-0.023149,-0.148672,0.360105,0.006724,0.339244
-1385860642,1498,1488,1487,1498,1073,1498,1488,1487,1498,1180,1575,1506,1515,1500,0.438808,-0.023149,-0.148672,0.362260,0.005176,0.340113
-1385760620,1498,1488,1487,1498,1074,1498,1488,1487,1498,1180,1575,1506,1512,1500,0.438808,-0.023149,-0.148672,0.373970,0.008172,0.344799
-1385660587,1497,1488,1487,1498,1073,1497,1488,1487,1498,1180,1575,1506,1512,1500,0.438808,-0.023149,-0.148672,0.376096,0.008983,0.345894
-1385560556,1498,1487,1487,1498,1074,1498,1487,1487,1498,1180,1575,1506,1512,1500,0.438808,-0.023149,-0.148672,0.376019,0.008021,0.346088
-1385460536,1498,1487,1487,1498,1074,1498,1487,1487,1498,1180,1575,1506,1512,1500,0.438808,-0.023149,-0.148672,0.376867,0.008170,0.346767
-1385360496,1498,1488,1487,1498,1073,1498,1488,1487,1498,1180,1575,1506,1511,1500,0.438808,-0.023149,-0.148672,0.378593,0.007270,0.347986
-1385260480,1498,1487,1488,1498,1074,1498,1487,1488,1498,1180,1575,1506,1511,1500,0.438808,-0.023149,-0.148672,0.380345,0.007613,0.348365
-1385160477,1497,1486,1487,1498,1073,1497,1486,1487,1498,1180,1575,1506,1510,1500,0.438808,-0.023149,-0.148672,0.383048,0.008477,0.350024
-1385060454,1498,1488,1487,1498,1074,1498,1488,1487,1498,1180,1575,1506,1509,1500,0.438808,-0.023149,-0.148672,0.390130,0.009410,0.351196
-1384960447,1498,1488,1487,1498,1074,1498,1488,1487,1498,1180,1575,1506,1510,1500,0.438808,-0.023149,-0.148672,0.386041,0.009424,0.350547
-1384860424,1498,1487,1488,1498,1073,1498,1487,1488,1498,1180,1575,1506,1510,1500,0.438808,-0.023149,-0.148672,0.387703,0.009128,0.351092
-1384760408,1498,1487,1488,1498,1074,1498,1487,1488,1498,1180,1575,1506,1509,1500,0.438808,-0.023149,-0.148672,0.391289,0.008256,0.351562
-1384660375,1498,1488,1487,1498,1073,1498,1488,1487,1498,1180,1575,1506,1510,1500,0.438808,-0.023149,-0.148672,0.386786,0.008312,0.350747
-1384560370,1498,1486,1488,1498,1074,1498,1486,1488,1498,1180,1575,1506,1509,1500,0.438808,-0.023149,-0.148672,0.388372,0.008283,0.351112
-1384460350,1498,1487,1488,1498,1074,1498,1487,1488,1498,1180,1575,1506,1509,1500,0.438808,-0.023149,-0.148672,0.389094,0.008334,0.351222
-1384360329,1498,1488,1487,1498,1073,1498,1488,1487,1498,1180,1575,1506,1509,1500,0.438808,-0.023149,-0.148672,0.387607,0.008266,0.350939
-1384260314,1497,1488,1487,1498,1073,1497,1488,1487,1498,1180,1575,1506,1509,1500,0.438808,-0.023149,-0.148672,0.388925,0.008330,0.351153
-1384160293,1498,1487,1488,1498,1073,1498,1487,1488,1498,1180,1575,1506,1509,1500,0.438808,-0.023149,-0.148672,0.387925,0.008306,0.351010
-1384060285,1497,1487,1488,1498,1073,1497,1487,1488,1498,1180,1575,1506,1509,1500,0.438808,-0.023149,-0.148672,0.388716,0.008262,0.351187
-1383960279,1498,1487,1488,1498,1074,1498,1487,1488,1498,1180,1575,1506,1509,1500,0.438808,-0.023149,-0.148672,0.388233,0.008300,0.351023
-1383860273,1498,1488,1487,1498,1074,1498,1488,1487,1498,1180,1575,1506,1509,1500,0.438808,-0.023149,-0.148672,0.388381,0.008306,0.351060
-1383760251,1498,1487,1488,1498,1074,1498,1487,1488,1498,1180,1575,1506,1509,1500,0.438808,-0.023149,-0.148672,0.388486,0.008265,0.351165
-1383660235,1497,1487,1488,1498,1073,1497,1487,1488,1498,1180,1575,1506,1509,1500,0.438808,-0.023149,-0.148672,0.388311,0.008299,0.351105
-1383560217,1498,1488,1487,1498,1074,1498,1488,1487,1498,1180,1575,1506,1509,1500,0.438808,-0.023149,-0.148672,0.388518,0.008297,0.351103
-1383460204,1498,1487,1488,1498,1073,1498,1487,1488,1498,1180,1575,1506,1509,1500,0.438808,-0.023149,-0.148672,0.388240,0.008281,0.351071
-1383360172,1498,1488,1487,1498,1073,1498,1488,1487,1498,1180,1575,1506,1509,1500,0.438808,-0.023149,-0.148672,0.388557,0.008252,0.351164
-1383260151,1497,1488,1487,1498,1073,1497,1488,1487,1498,1180,1575,1506,1509,1500,0.438808,-0.023149,-0.148672,0.388245,0.008292,0.351061
-1383160147,1498,1487,1487,1498,1074,1498,1487,1487,1498,1180,1575,1506,1509,1500,0.438808,-0.023149,-0.148672,0.388513,0.008324,0.351073
-1383060117,1498,1487,1488,1498,1073,1498,1487,1488,1498,1180,1575,1506,1509,1500,0.438808,-0.023149,-0.148672,0.388312,0.008299,0.351085
-1382960111,1498,1488,1487,1498,1073,1498,1488,1487,1498,1180,1575,1506,1509,1500,0.438808,-0.023149,-0.148672,0.388500,0.008284,0.351146
-1382860078,1498,1488,1488,1498,1073,1498,1488,1488,1498,1180,1575,1506,1509,1500,0.438808,-0.023149,-0.148672,0.388318,0.008334,0.351025
-1382760073,1497,1487,1487,1498,1073,1497,1487,1487,1498,1180,1575,1506,1509,1500,0.438808,-0.023149,-0.148672,0.388461,0.008315,0.351069
-1382660059,1498,1488,1488,1498,1073,1498,1488,1488,1498,1180,1575,1506,1509,1500,0.438808,-0.023149,-0.148672,0.388372,0.008280,0.351104
-1382560055,1498,1488,1487,1498,1074,1498,1488,1487,1498,1180,1575,1506,1509,1500,0.438808,-0.023149,-0.148672,0.388436,0.008304,0.351111
-1382460037,1498,1487,1487,1498,1073,1498,1487,1487,1498,1180,1575,1506,1509,1500,0.438808,-0.023149,-0.148672,0.388379,0.008328,0.351037
-1382360009,1497,1488,1487,1498,1073,1497,1488,1487,1498,1180,1575,1506,1509,1500,0.438808,-0.023149,-0.148672,0.388472,0.008294,0.351117
-1382259975,1498,1487,1488,1498,1074,1498,1487,1488,1498,1180,1575,1506,1509,1500,0.438808,-0.023149,-0.148672,0.388447,0.008239,0.351181
-1382159967,1497,1488,1487,1498,1073,1497,1488,1487,1498,1180,1575,1506,1509,1500,0.438808,-0.023149,-0.148672,0.388453,0.008273,0.351135
-1382059944,1497,1488,1487,1498,1073,1497,1488,1487,1498,1180,1575,1506,1509,1500,0.438808,-0.023149,-0.148672,0.388464,0.008292,0.351096
-1381959914,1498,1488,1488,1498,1073,1498,1488,1488,1498,1180,1575,1506,1509,1500,0.438808,-0.023149,-0.148672,0.388465,0.008254,0.351160
-1381859884,1497,1487,1487,1498,1074,1497,1487,1487,1498,1180,1575,1506,1509,1500,0.438808,-0.023149,-0.148672,0.388414,0.008269,0.351117
-1381759881,1498,1487,1488,1498,1074,1498,1487,1488,1498,1180,1575,1506,1509,1500,0.438808,-0.023149,-0.148672,0.388416,0.008332,0.350995
-1381659876,1497,1488,1487,1498,1074,1497,1488,1487,1498,1180,1575,1506,1509,1500,0.438808,-0.023149,-0.148672,0.388439,0.008305,0.351024
-1381559852,1497,1488,1487,1498,1073,1497,1488,1487,1498,1180,1575,1506,1509,1500,0.438808,-0.023149,-0.148672,0.388385,0.008282,0.351019
-1381459833,1498,1488,1487,1498,1074,1498,1488,1487,1498,1180,1575,1506,1509,1500,0.438808,-0.023149,-0.148672,0.388425,0.008289,0.351015
-1381359826,1497,1487,1487,1498,1073,1497,1487,1487,1498,1180,1575,1506,1509,1500,0.438808,-0.023149,-0.148672,0.388415,0.008321,0.351001
-1381259822,1498,1487,1487,1498,1073,1498,1487,1487,1498,1180,1575,1506,1509,1500,0.438808,-0.023149,-0.148672,0.388461,0.008320,0.351040
-1381159793,1498,1487,1487,1498,1074,1498,1487,1487,1498,1180,1575,1506,1509,1500,0.438808,-0.023149,-0.148672,0.388427,0.008351,0.351152
-1381059774,1498,1486,1487,1498,1074,1498,1486,1487,1498,1180,1575,1506,1509,1500,0.438808,-0.023149,-0.148672,0.388596,0.008161,0.351263
-1380959741,1498,1487,1488,1497,1073,1498,1487,1488,1497,1180,1575,1506,1509,1500,0.438808,-0.023149,-0.148672,0.388400,0.008362,0.351117
-1380859739,1497,1488,1487,1498,1073,1497,1488,1487,1498,1180,1575,1506,1509,1500,0.438808,-0.023149,-0.148672,0.388455,0.008271,0.351163
-1380759737,1498,1486,1487,1498,1073,1498,1486,1487,1498,1180,1575,1506,1509,1500,0.438808,-0.023149,-0.148672,0.388443,0.008289,0.351179
-1380659719,1498,1487,1487,1498,1074,1498,1487,1487,1498,1180,1575,1506,1509,1500,0.438808,-0.023149,-0.148672,0.388469,0.008309,0.351172
-1380559713,1498,1488,1487,1497,1073,1498,1488,1487,1497,1180,1575,1506,1509,1500,0.438808,-0.023149,-0.148672,0.388426,0.008293,0.351156
-1380459686,1498,1487,1488,1497,1073,1498,1487,1488,1497,1180,1575,1506,1509,1500,0.438808,-0.023149,-0.148672,0.388471,0.008256,0.351202
-1380359659,1497,1488,1487,1498,1074,1497,1488,1487,1498,1180,1575,1506,1509,1500,0.438808,-0.023149,-0.148672,0.388407,0.008287,0.351180
-1380259651,1498,1487,1488,1498,1073,1498,1487,1488,1498,1180,1575,1506,1509,1500,0.438808,-0.023149,-0.148672,0.388454,0.008292,0.351052
-1380159641,1498,1487,1488,1497,1073,1498,1487,1488,1497,1180,1575,1506,1509,1500,0.438808,-0.023149,-0.148672,0.388434,0.008259,0.351094
-1380059629,1497,1488,1487,1498,1073,1497,1488,1487,1498,1180,1575,1506,1509,1500,0.438808,-0.023149,-0.148672,0.388463,0.008249,0.351143
-1379959616,1498,1486,1488,1497,1073,1498,1486,1488,1497,1180,1575,1506,1509,1500,0.438808,-0.023149,-0.148672,0.388434,0.008277,0.351081
-1379859603,1498,1487,1487,1497,1073,1498,1487,1487,1497,1180,1575,1506,1509,1500,0.438808,-0.023149,-0.148672,0.388465,0.008274,0.351069
-1379759586,1498,1487,1488,1498,1073,1498,1487,1488,1498,1180,1575,1506,1509,1500,0.438808,-0.023149,-0.148672,0.388445,0.008239,0.351124
-1379659581,1498,1487,1488,1498,1074,1498,1487,1488,1498,1180,1575,1506,1509,1500,0.438808,-0.023149,-0.148672,0.388460,0.008268,0.351131
-1379559553,1498,1487,1487,1498,1074,1498,1487,1487,1498,1180,1575,1506,1509,1500,0.438808,-0.023149,-0.148672,0.388439,0.008290,0.351063
-1379459541,1498,1488,1488,1498,1073,1498,1488,1488,1498,1180,1575,1506,1509,1500,0.438808,-0.023149,-0.148672,0.388453,0.008261,0.351070
-1379359514,1497,1488,1487,1498,1073,1497,1488,1487,1498,1180,1575,1506,1509,1500,0.438808,-0.023149,-0.148672,0.388442,0.008241,0.351130
-1379259486,1498,1487,1488,1498,1073,1498,1487,1488,1498,1180,1575,1506,1509,1500,0.438808,-0.023149,-0.148672,0.388460,0.008234,0.351071
-1379159483,1498,1487,1488,1497,1073,1498,1487,1488,1497,1180,1575,1506,1509,1500,0.438808,-0.023149,-0.148672,0.388468,0.008282,0.351037
-1379059475,1498,1487,1488,1497,1073,1498,1487,1488,1497,1180,1575,1506,1509,1500,0.438808,-0.023149,-0.148672,0.388486,0.008257,0.351122
-1378959423,1498,1487,1487,1498,1074,1498,1487,1487,1498,1180,1575,1506,1509,1500,0.438808,-0.023149,-0.148672,0.388470,0.008248,0.351162
-1378859422,1497,1487,1487,1498,1074,1497,1487,1487,1498,1180,1575,1506,1509,1500,0.438808,-0.023149,-0.148672,0.388523,0.008196,0.351129
-1378759413,1497,1486,1487,1498,1073,1497,1486,1487,1498,1180,1575,1506,1509,1500,0.438808,-0.023149,-0.148672,0.388450,0.008284,0.351072
-1378659398,1498,1487,1487,1497,1073,1498,1487,1487,1497,1180,1575,1506,1509,1500,0.438808,-0.023149,-0.148672,0.388435,0.008263,0.351111
-1378559367,1498,1488,1488,1498,1074,1498,1488,1488,1498,1180,1575,1506,1509,1500,0.438808,-0.023149,-0.148672,0.388416,0.008266,0.351107
-1378459361,1498,1487,1488,1497,1073,1498,1487,1488,1497,1180,1575,1506,1509,1500,0.438808,-0.023149,-0.148672,0.388435,0.008265,0.351073
-1378359351,1498,1488,1488,1498,1073,1498,1488,1488,1498,1180,1575,1506,1509,1500,0.438808,-0.023149,-0.148672,0.388429,0.008267,0.351089
-1378259336,1498,1487,1488,1498,1073,1498,1487,1488,1498,1180,1575,1506,1509,1500,0.438808,-0.023149,-0.148672,0.388441,0.008261,0.351161
-1378159302,1497,1487,1488,1498,1073,1497,1487,1488,1498,1180,1575,1506,1509,1500,0.438808,-0.023149,-0.148672,0.388452,0.008282,0.351107
-1378059296,1497,1488,1487,1498,1073,1497,1488,1487,1498,1180,1575,1506,1509,1500,0.438808,-0.023149,-0.148672,0.388443,0.008290,0.351078
-1377959268,1498,1487,1488,1497,1073,1498,1487,1488,1497,1180,1575,1506,1509,1500,0.438808,-0.023149,-0.148672,0.388448,0.008265,0.351106
-1377859248,1498,1488,1487,1498,1074,1498,1488,1487,1498,1180,1575,1506,1509,1500,0.438808,-0.023149,-0.148672,0.388453,0.008255,0.351147
-1377759231,1498,1487,1488,1498,1074,1498,1487,1488,1498,1180,1575,1506,1509,1500,0.438808,-0.023149,-0.148672,0.388454,0.008283,0.351111
-1377659196,1497,1488,1487,1498,1073,1497,1488,1487,1498,1180,1575,1506,1509,1500,0.438808,-0.023149,-0.148672,0.388439,0.008283,0.351086
-1377559194,1497,1488,1487,1498,1074,1497,1488,1487,1498,1180,1575,1506,1509,1500,0.438808,-0.023149,-0.148672,0.388450,0.008270,0.351149
-1377459178,1497,1488,1487,1498,1073,1497,1488,1487,1498,1180,1575,1506,1509,1500,0.438808,-0.023149,-0.148672,0.388449,0.008278,0.351145
-1377359146,1498,1487,1488,1498,1074,1498,1487,1488,1498,1180,1575,1506,1509,1500,0.438808,-0.023149,-0.148672,0.388455,0.008285,0.351102
-1377259122,1498,1486,1487,1497,1073,1498,1486,1487,1497,1180,1575,1506,1509,1500,0.438808,-0.023149,-0.148672,0.388444,0.008277,0.351101
-1377159104,1498,1487,1487,1498,1073,1498,1487,1487,1498,1180,1575,1506,1509,1500,0.438808,-0.023149,-0.148672,0.388452,0.008263,0.351166
-1377059077,1498,1487,1488,1498,1074,1498,1487,1488,1498,1180,1575,1506,1509,1500,0.438808,-0.023149,-0.148672,0.388448,0.008275,0.351145
-1376959057,1498,1487,1488,1498,1074,1498,1487,1488,1498,1180,1575,1506,1509,1500,0.438808,-0.023149,-0.148672,0.388449,0.008285,0.351088
-1376859030,1497,1488,1487,1498,1074,1497,1488,1487,1498,1180,1575,1506,1509,1500,0.438808,-0.023149,-0.148672,0.388455,0.008270,0.351120
-1376759009,1497,1487,1487,1498,1073,1497,1487,1487,1498,1180,1575,1506,1509,1500,0.438808,-0.023149,-0.148672,0.388468,0.008264,0.351162
-1376658974,1498,1486,1488,1498,1074,1498,1486,1488,1498,1180,1575,1506,1509,1500,0.438808,-0.023149,-0.148672,0.388451,0.008283,0.351121
-1376558954,1498,1487,1487,1498,1073,1498,1487,1487,1498,1180,1575,1506,1509,1500,0.438808,-0.023149,-0.148672,0.388449,0.008278,0.351097
-1376458922,1498,1488,1487,1498,1074,1498,1488,1487,1498,1180,1575,1506,1509,1500,0.438808,-0.023149,-0.148672,0.388462,0.008264,0.351148
-1376358908,1497,1487,1487,1498,1074,1497,1487,1487,1498,1180,1575,1506,1509,1500,0.438808,-0.023149,-0.148672,0.388462,0.008263,0.351148
-1376258905,1498,1487,1488,1498,1073,1498,1487,1488,1498,1180,1575,1506,1509,1500,0.438808,-0.023149,-0.148672,0.388447,0.008279,0.351091
-1376158870,1497,1488,1487,1498,1073,1497,1488,1487,1498,1180,1575,1506,1509,1500,0.438808,-0.023149,-0.148672,0.388457,0.008284,0.351106
-1376058843,1498,1488,1487,1498,1074,1498,1488,1487,1498,1180,1575,1506,1509,1500,0.438808,-0.023149,-0.148672,0.388463,0.008265,0.351165
-1375958821,1497,1487,1487,1498,1074,1497,1487,1487,1498,1180,1575,1506,1509,1500,0.438808,-0.023149,-0.148672,0.388454,0.008283,0.351155
-1375858799,1498,1486,1487,1498,1074,1498,1486,1487,1498,1180,1575,1506,1509,1500,0.438808,-0.023149,-0.148672,0.388462,0.008286,0.351107
-1375758789,1497,1487,1488,1498,1073,1497,1487,1488,1498,1180,1575,1506,1509,1500,0.438808,-0.023149,-0.148672,0.388466,0.008266,0.351134
-1375658754,1498,1487,1488,1497,1073,1498,1487,1488,1497,1180,1575,1506,1509,1500,0.438808,-0.023149,-0.148672,0.388465,0.008283,0.351185
-1375558734,1497,1487,1488,1497,1073,1497,1487,1488,1497,1180,1575,1506,1509,1500,0.438808,-0.023149,-0.148672,0.388468,0.008300,0.351159
-1375458723,1497,1488,1487,1498,1074,1497,1488,1487,1498,1180,1575,1506,1509,1500,0.438808,-0.023149,-0.148672,0.388466,0.008301,0.351128
-1375358718,1498,1486,1488,1498,1074,1498,1486,1488,1498,1180,1575,1506,1509,1500,0.438808,-0.023149,-0.148672,0.388471,0.008273,0.351163
-1375258693,1498,1486,1488,1497,1073,1498,1486,1488,1497,1180,1575,1506,1509,1500,0.438808,-0.023149,-0.148672,0.388462,0.008264,0.351167
-1375158681,1497,1488,1487,1498,1073,1497,1488,1487,1498,1180,1575,1506,1509,1500,0.438808,-0.023149,-0.148672,0.388473,0.008266,0.351137
-1375058652,1498,1488,1487,1498,1074,1498,1488,1487,1498,1180,1575,1506,1509,1500,0.438808,-0.023149,-0.148672,0.388476,0.008276,0.351093
-1374958618,1498,1488,1487,1498,1074,1498,1488,1487,1498,1180,1575,1506,1509,1500,0.438808,-0.023149,-0.148672,0.388465,0.008294,0.351120
-1374858612,1497,1488,1487,1498,1074,1497,1488,1487,1498,1180,1575,1506,1509,1500,0.438808,-0.023149,-0.148672,0.388460,0.008297,0.351130
-1374758586,1498,1487,1488,1498,1074,1498,1487,1488,1498,1180,1575,1506,1509,1500,0.438808,-0.023149,-0.148672,0.388464,0.008308,0.351074
-1374658576,1498,1487,1487,1497,1073,1498,1487,1487,1497,1180,1575,1506,1509,1500,0.438808,-0.023149,-0.148672,0.388471,0.008309,0.351109
-1374558566,1498,1488,1487,1498,1074,1498,1488,1487,1498,1180,1575,1506,1509,1500,0.438808,-0.023149,-0.148672,0.388467,0.008285,0.351158
-1374458548,1497,1487,1487,1497,1073,1497,1487,1487,1497,1180,1575,1506,1509,1500,0.438808,-0.023149,-0.148672,0.388477,0.008314,0.351127
-1374358544,1498,1488,1487,1498,1074,1498,1488,1487,1498,1180,1575,1506,1509,1500,0.438808,-0.023149,-0.148672,0.388466,0.008323,0.351077
-1374258536,1498,1487,1488,1498,1074,1498,1487,1488,1498,1180,1575,1506,1509,1500,0.438808,-0.023149,-0.148672,0.388471,0.008307,0.351133
-1374158526,1498,1488,1487,1498,1074,1498,1488,1487,1498,1180,1575,1506,1509,1500,0.438808,-0.023149,-0.148672,0.388485,0.008287,0.351172
-1374058520,1498,1487,1487,1498,1074,1498,1487,1487,1498,1180,1575,1506,1509,1500,0.438808,-0.023149,-0.148672,0.388480,0.008274,0.351131
-1373958497,1498,1488,1487,1498,1074,1498,1488,1487,1498,1180,1575,1506,1509,1500,0.438808,-0.023149,-0.148672,0.388494,0.008284,0.351135
-1373858492,1498,1488,1487,1498,1074,1498,1488,1487,1498,1180,1575,1506,1509,1500,0.438808,-0.023149,-0.148672,0.388486,0.008260,0.351168
-1373758468,1498,1488,1487,1498,1074,1498,1488,1487,1498,1180,1575,1506,1509,1500,0.438808,-0.023149,-0.148672,0.388474,0.008267,0.351171
-1373658457,1497,1487,1487,1498,1073,1497,1487,1487,1498,1180,1575,1506,1509,1500,0.438808,-0.023149,-0.148672,0.388478,0.008289,0.351107
-1373558449,1498,1487,1488,1498,1073,1498,1487,1488,1498,1180,1575,1506,1509,1500,0.438808,-0.023149,-0.148672,0.388474,0.008278,0.351129
-1373458425,1498,1487,1487,1498,1074,1498,1487,1487,1498,1180,1575,1506,1509,1500,0.438808,-0.023149,-0.148672,0.388452,0.008274,0.351166
-1373358401,1498,1488,1487,1497,1073,1498,1488,1487,1497,1180,1575,1506,1509,1500,0.438808,-0.023149,-0.148672,0.388457,0.008274,0.351141
-1373258372,1498,1488,1488,1498,1073,1498,1488,1488,1498,1180,1575,1506,1509,1500,0.438808,-0.023149,-0.148672,0.388460,0.008304,0.351085
-1373158362,1498,1488,1487,1498,1073,1498,1488,1487,1498,1180,1575,1506,1509,1500,0.438808,-0.023149,-0.148672,0.388456,0.008279,0.351136
-1373058334,1497,1488,1487,1498,1074,1497,1488,1487,1498,1180,1575,1506,1509,1500,0.438808,-0.023149,-0.148672,0.388468,0.008255,0.351178
-1372958330,1498,1488,1488,1498,1073,1498,1488,1488,1498,1180,1575,1506,1509,1500,0.438808,-0.023149,-0.148672,0.388472,0.008278,0.351112
-1372858319,1498,1487,1488,1497,1073,1498,1487,1488,1497,1180,1575,1506,1509,1500,0.438808,-0.023149,-0.148672,0.388450,0.008285,0.351083
-1372758298,1498,1487,1488,1498,1073,1498,1487,1488,1498,1180,1575,1506,1509,1500,0.438808,-0.023149,-0.148672,0.388457,0.008270,0.351161
-1372658286,1498,1488,1488,1498,1073,1498,1488,1488,1498,1180,1575,1506,1509,1500,0.438808,-0.023149,-0.148672,0.388462,0.008267,0.351159
-1372558276,1497,1488,1487,1498,1074,1497,1488,1487,1498,1180,1575,1506,1509,1500,0.438808,-0.023149,-0.148672,0.388479,0.008294,0.351101
-1372458251,1498,1487,1487,1498,1074,1498,1487,1487,1498,1180,1575,1506,1509,1500,0.438808,-0.023149,-0.148672,0.388475,0.008287,0.351144
-1372358245,1498,1487,1488,1498,1074,1498,1487,1488,1498,1180,1575,1506,1509,1500,0.438808,-0.023149,-0.148672,0.388482,0.008255,0.351188
-1372258234,1498,1488,1487,1498,1073,1498,1488,1487,1498,1180,1575,1506,1509,1500,0.438808,-0.023149,-0.148672,0.388478,0.008308,0.351046
-1372158199,1498,1487,1488,1497,1073,1498,1487,1488,1497,1180,1575,1506,1509,1500,0.438808,-0.023149,-0.148672,0.388477,0.008309,0.351053
-1372058176,1498,1488,1487,1498,1074,1498,1488,1487,1498,1180,1575,1506,1509,1500,0.438808,-0.023149,-0.148672,0.388475,0.008300,0.351080
-1371958173,1498,1487,1488,1498,1074,1498,1487,1488,1498,1180,1575,1506,1509,1500,0.438808,-0.023149,-0.148672,0.388477,0.008299,0.351082
-1371858171,1498,1486,1487,1498,1074,1498,1486,1487,1498,1180,1575,1506,1509,1500,0.438808,-0.023149,-0.148672,0.388480,0.008308,0.351030
-1371758163,1498,1487,1487,1498,1074,1498,1487,1487,1498,1180,1575,1506,1509,1500,0.438808,-0.023149,-0.148672,0.388481,0.008318,0.351060
-1371658149,1498,1488,1487,1498,1074,1498,1488,1487,1498,1180,1575,1506,1509,1500,0.438808,-0.023149,-0.148672,0.388483,0.008308,0.351086
-1371558139,1497,1487,1487,1498,1073,1497,1487,1487,1498,1180,1575,1506,1509,1500,0.438808,-0.023149,-0.148672,0.388481,0.008299,0.351088
-1371458102,1497,1487,1488,1497,1073,1497,1487,1488,1497,1180,1575,1506,1509,1500,0.438808,-0.023149,-0.148672,0.388488,0.008305,0.351047
-1371358069,1498,1487,1488,1497,1073,1498,1487,1488,1497,1180,1575,1506,1509,1500,0.438808,-0.023149,-0.148672,0.388493,0.008298,0.351083
-1371258046,1498,1488,1487,1498,1074,1498,1488,1487,1498,1180,1575,1506,1509,1500,0.438808,-0.023149,-0.148672,0.388481,0.008293,0.351096
-1371158015,1498,1487,1487,1498,1074,1498,1487,1487,1498,1180,1575,1506,1509,1500,0.438808,-0.023149,-0.148672,0.388489,0.008294,0.351060
