812333155,1498,1486,1500,1497,1074,1498,1486,1500,1497,1180,1500,1500,1500,1500,0.000000,0.000000,0.000000,0.147938,1.059293,-0.666777
812433184,1498,1486,1500,1496,1074,1498,1486,1500,1496,1180,1500,1500,1500,1500,0.000000,0.000000,0.000000,0.147951,1.059518,-0.666733
812533209,1498,1486,1501,1496,1073,1498,1486,1501,1496,1180,1500,1500,1500,1500,0.000000,0.000000,0.000000,0.148006,1.059494,-0.666645
812633218,1498,1486,1500,1497,1073,1498,1486,1500,1497,1180,1500,1500,1500,1500,0.000000,0.000000,0.000000,0.148005,1.059391,-0.666705
812733246,1498,1486,1500,1496,1073,1498,1486,1500,1496,1180,1500,1500,1500,1500,0.000000,0.000000,0.000000,0.147968,1.059253,-0.666834
812833262,1498,1486,1500,1497,1074,1498,1486,1500,1497,1180,1500,1500,1500,1500,0.000000,0.000000,0.000000,0.147921,1.059167,-0.666860
812933278,1498,1486,1500,1497,1073,1498,1486,1500,1497,1180,1500,1500,1500,1500,0.000000,0.000000,0.000000,0.147961,1.059333,-0.666828
813033307,1498,1487,1500,1496,1074,1498,1487,1500,1496,1180,1500,1500,1500,1500,0.000000,0.000000,0.000000,0.147973,1.059322,-0.666592
813133339,1498,1487,1500,1496,1074,1498,1487,1500,1496,1180,1500,1500,1500,1500,0.000000,0.000000,0.000000,0.148005,1.059580,-0.666736
813233364,1498,1486,1500,1496,1073,1498,1486,1500,1496,1180,1500,1500,1500,1500,0.000000,0.000000,0.000000,0.148010,1.059351,-0.666658
813333383,1497,1486,1501,1497,1073,1497,1486,1501,1497,1180,1500,1500,1500,1500,0.000000,0.000000,0.000000,0.147967,1.059220,-0.666832
813433401,1498,1486,1500,1496,1073,1498,1486,1500,1496,1180,1500,1500,1500,1500,0.000000,0.000000,0.000000,0.147900,1.059229,-0.666886
813533431,1498,1486,1500,1497,1074,1498,1486,1500,1497,1180,1500,1500,1500,1500,0.000000,0.000000,0.000000,0.147735,1.058899,-0.666902
813633449,1498,1486,1501,1497,1073,1498,1486,1501,1497,1180,1500,1500,1500,1500,0.000000,0.000000,0.000000,0.147957,1.059170,-0.666619
813733468,1498,1486,1500,1497,1074,1498,1486,1500,1497,1180,1500,1500,1500,1500,0.000000,0.000000,0.000000,0.147986,1.059343,-0.666683
813833499,1497,1486,1500,1497,1074,1497,1486,1500,1497,1180,1500,1500,1500,1500,0.000000,0.000000,0.000000,0.147979,1.059192,-0.666720
813933510,1498,1486,1500,1496,1074,1498,1486,1500,1496,1180,1500,1500,1500,1500,0.000000,0.000000,0.000000,0.147910,1.059186,-0.666810
814033538,1498,1486,1500,1497,1073,1498,1486,1500,1497,1180,1500,1500,1500,1500,0.000000,0.000000,0.000000,0.147981,1.059269,-0.666840
814133567,1498,1486,1500,1497,1073,1498,1486,1500,1497,1180,1500,1500,1500,1500,0.000000,0.000000,0.000000,0.147947,1.059252,-0.666707
814233572,1498,1486,1500,1497,1074,1498,1486,1500,1497,1180,1500,1500,1500,1500,0.000000,0.000000,0.000000,0.147989,1.059509,-0.666670
814333599,1498,1486,1500,1497,1073,1498,1486,1500,1497,1180,1500,1500,1500,1500,0.000000,0.000000,0.000000,0.147965,1.059588,-0.666750
814433618,1498,1486,1500,1496,1074,1498,1486,1500,1496,1180,1500,1500,1500,1500,0.000000,0.000000,0.000000,0.147953,1.059329,-0.666721
814533646,1498,1486,1500,1497,1074,1498,1486,1500,1497,1180,1500,1500,1500,1500,0.000000,0.000000,0.000000,0.147950,1.059302,-0.666877
814633667,1497,1486,1501,1497,1073,1497,1486,1501,1497,1180,1500,1500,1500,1500,0.000000,0.000000,0.000000,0.147922,1.059157,-0.666748
814733688,1498,1486,1500,1496,1074,1498,1486,1500,1496,1180,1500,1500,1500,1500,0.000000,0.000000,0.000000,0.148006,1.059255,-0.666710
814833713,1497,1486,1501,1497,1073,1497,1486,1501,1497,1180,1500,1500,1500,1500,0.000000,0.000000,0.000000,0.148013,1.059368,-0.666648
814933737,1498,1487,1500,1496,1073,1498,1487,1500,1496,1180,1500,1500,1500,1500,0.000000,0.000000,0.000000,0.148023,1.059622,-0.666803
815033762,1498,1486,1500,1497,1073,1498,1486,1500,1497,1180,1500,1500,1500,1500,0.000000,0.000000,0.000000,0.148008,1.059251,-0.666745
815133765,1498,1486,1500,1497,1074,1498,1486,1500,1497,1180,1500,1500,1500,1500,0.000000,0.000000,0.000000,0.147984,1.058997,-0.666862
815233781,1498,1486,1500,1497,1074,1498,1486,1500,1497,1180,1500,1500,1500,1500,0.000000,0.000000,0.000000,0.147996,1.059160,-0.666747
815333816,1498,1487,1500,1496,1074,1498,1487,1500,1496,1180,1500,1500,1500,1500,0.000000,0.000000,0.000000,0.148007,1.059145,-0.666727
815433826,1498,1487,1500,1497,1074,1498,1487,1500,1497,1180,1500,1500,1500,1500,0.000000,0.000000,0.000000,0.148056,1.059297,-0.666705
815533848,1498,1486,1500,1497,1074,1498,1486,1500,1497,1180,1500,1500,1500,1500,0.000000,0.000000,0.000000,0.147982,1.059329,-0.666773
815633855,1498,1486,1500,1497,1074,1498,1486,1500,1497,1180,1500,1500,1500,1500,0.000000,0.000000,0.000000,0.147969,1.058873,-0.666897
815733888,1498,1486,1500,1497,1074,1498,1486,1500,1497,1180,1500,1500,1500,1500,0.000000,0.000000,0.000000,0.147972,1.058907,-0.666838
815833903,1498,1487,1500,1496,1074,1498,1487,1500,1496,1180,1500,1500,1500,1500,0.000000,0.000000,0.000000,0.147908,1.058900,-0.666934
815933904,1498,1486,1500,1497,1073,1498,1486,1500,1497,1180,1500,1500,1500,1500,0.000000,0.000000,0.000000,0.148066,1.058696,-0.666802
816033937,1498,1487,1500,1496,1073,1498,1487,1500,1496,1180,1500,1500,1500,1500,0.000000,0.000000,0.000000,0.148043,1.058935,-0.666760
816133939,1498,1487,1500,1496,1073,1498,1487,1500,1496,1180,1500,1500,1500,1500,0.000000,0.000000,0.000000,0.147950,1.058977,-0.666910
816233954,1498,1486,1500,1497,1074,1498,1486,1500,1497,1180,1500,1500,1500,1500,0.000000,0.000000,0.000000,0.148040,1.058615,-0.666785
816333955,1497,1486,1501,1497,1073,1497,1486,1501,1497,1180,1500,1500,1500,1500,0.000000,0.000000,0.000000,0.147904,1.058644,-0.666972
816433974,1498,1486,1500,1497,1074,1498,1486,1500,1497,1180,1500,1500,1500,1500,0.000000,0.000000,0.000000,0.148070,1.058722,-0.666805
816533996,1498,1486,1500,1497,1073,1498,1486,1500,1497,1180,1500,1500,1500,1500,0.000000,0.000000,0.000000,0.147942,1.058769,-0.666802
816634009,1498,1486,1500,1497,1074,1498,1486,1500,1497,1180,1500,1500,1500,1500,0.000000,0.000000,0.000000,0.148057,1.058956,-0.666783
816734016,1498,1486,1500,1496,1074,1498,1486,1500,1496,1180,1500,1500,1500,1500,0.000000,0.000000,0.000000,0.148005,1.059103,-0.666737
816834033,1498,1486,1500,1496,1073,1498,1486,1500,1496,1180,1500,1500,1500,1500,0.000000,0.000000,0.000000,0.147947,1.058969,-0.666889
816934050,1498,1486,1500,1497,1074,1498,1486,1500,1497,1180,1500,1500,1500,1500,0.000000,0.000000,0.000000,0.147979,1.059042,-0.666804
817034054,1498,1487,1500,1496,1074,1498,1487,1500,1496,1180,1500,1500,1500,1500,0.000000,0.000000,0.000000,0.147942,1.059152,-0.666860
817134089,1498,1486,1501,1496,1073,1498,1486,1501,1496,1180,1500,1500,1500,1500,0.000000,0.000000,0.000000,0.148025,1.059292,-0.666736
817234098,1497,1486,1501,1497,1073,1497,1486,1501,1497,1180,1500,1500,1500,1500,0.000000,0.000000,0.000000,0.147989,1.059371,-0.666747
817334116,1498,1486,1500,1497,1073,1498,1486,1500,1497,1180,1500,1500,1500,1500,0.000000,0.000000,0.000000,0.147949,1.059345,-0.666766
817434126,1498,1486,1500,1497,1074,1498,1486,1500,1497,1180,1500,1500,1500,1500,0.000000,0.000000,0.000000,0.147947,1.059328,-0.666834
817534158,1498,1486,1500,1497,1073,1498,1486,1500,1497,1180,1500,1500,1500,1500,0.000000,0.000000,0.000000,0.147934,1.059379,-0.666870
817634193,1498,1487,1500,1496,1073,1498,1487,1500,1496,1180,1500,1500,1500,1500,0.000000,0.000000,0.000000,0.147936,1.059786,-0.666796
817734200,1498,1486,1500,1497,1073,1498,1486,1500,1497,1180,1500,1500,1500,1500,0.000000,0.000000,0.000000,0.147901,1.059738,-0.666889
817834228,1497,1486,1501,1497,1073,1497,1486,1501,1497,1180,1500,1500,1500,1500,0.000000,0.000000,0.000000,0.148020,1.059387,-0.666489
817934247,1498,1486,1500,1497,1074,1498,1486,1500,1497,1180,1500,1500,1500,1500,0.000000,0.000000,0.000000,0.147893,1.060369,-0.667007
818034258,1497,1486,1501,1497,1073,1497,1486,1501,1497,1180,1500,1500,1500,1500,0.000000,0.000000,0.000000,0.147871,1.059784,-0.666903
818134266,1497,1486,1501,1497,1073,1497,1486,1501,1497,1180,1500,1500,1500,1500,0.000000,0.000000,0.000000,0.148028,1.058814,-0.666656
818234293,1498,1487,1500,1497,1074,1498,1487,1500,1497,1180,1500,1500,1500,1500,0.000000,0.000000,0.000000,0.147877,1.060250,-0.666980
818334302,1498,1486,1500,1497,1073,1498,1486,1500,1497,1180,1500,1500,1500,1500,0.000000,0.000000,0.000000,0.147928,1.060204,-0.666881
818434312,1498,1486,1500,1497,1074,1498,1486,1500,1497,1180,1500,1500,1500,1500,0.000000,0.000000,0.000000,0.148017,1.059226,-0.666547
818534322,1498,1487,1500,1496,1073,1498,1487,1500,1496,1180,1500,1500,1500,1500,0.000000,0.000000,0.000000,0.147844,1.059961,-0.666839
818634352,1498,1486,1500,1497,1073,1498,1486,1500,1497,1180,1500,1500,1500,1500,0.000000,0.000000,0.000000,0.147911,1.060068,-0.667079
818734365,1498,1487,1500,1496,1074,1498,1487,1500,1496,1180,1500,1500,1500,1500,0.000000,0.000000,0.000000,0.147967,1.059354,-0.666652
818834374,1498,1487,1500,1496,1073,1498,1487,1500,1496,1180,1500,1500,1500,1500,0.000000,0.000000,0.000000,0.147987,1.059876,-0.666957
818934389,1498,1486,1500,1496,1074,1498,1486,1500,1496,1180,1500,1500,1500,1500,0.000000,0.000000,0.000000,0.147981,1.060239,-0.666727
819034393,1497,1486,1501,1497,1073,1497,1486,1501,1497,1180,1500,1500,1500,1500,0.000000,0.000000,0.000000,0.147952,1.059691,-0.666756
819134402,1498,1486,1501,1497,1073,1498,1486,1501,1497,1180,1500,1500,1500,1500,0.000000,0.000000,0.000000,0.147917,1.059771,-0.666741
819234421,1498,1486,1500,1497,1074,1498,1486,1500,1497,1180,1500,1500,1500,1500,0.000000,0.000000,0.000000,0.147821,1.059965,-0.666982
819334442,1498,1486,1500,1497,1074,1498,1486,1500,1497,1180,1500,1500,1500,1500,0.000000,0.000000,0.000000,0.147958,1.059670,-0.666800
819434455,1497,1486,1501,1497,1073,1497,1486,1501,1497,1180,1500,1500,1500,1500,0.000000,0.000000,0.000000,0.147950,1.059849,-0.666765
819534473,1498,1486,1500,1497,1073,1498,1486,1500,1497,1180,1499,1500,1499,1500,0.147996,1.059889,-0.666787,0.147999,1.059855,-0.666782
819634491,1498,1486,1500,1496,1073,1498,1486,1500,1496,1180,1499,1500,1499,1500,0.147996,1.059889,-0.666787,0.147950,1.059796,-0.666669
819734504,1497,1486,1501,1497,1073,1497,1486,1501,1497,1180,1499,1500,1499,1500,0.147996,1.059889,-0.666787,0.147921,1.059747,-0.666915
819834505,1498,1486,1500,1496,1073,1498,1486,1500,1496,1180,1499,1500,1499,1500,0.147996,1.059889,-0.666787,0.147942,1.059890,-0.666848
819934520,1498,1486,1500,1496,1073,1498,1486,1500,1496,1180,1499,1500,1499,1500,0.147996,1.059889,-0.666787,0.147937,1.059491,-0.666894
820034537,1498,1486,1500,1496,1073,1498,1486,1500,1496,1180,1499,1500,1499,1500,0.147996,1.059889,-0.666787,0.148022,1.059682,-0.666635
820134570,1498,1486,1500,1497,1074,1498,1486,1500,1497,1180,1499,1500,1499,1500,0.147996,1.059889,-0.666787,0.147904,1.060139,-0.666909
820234573,1497,1486,1500,1497,1073,1497,1486,1500,1497,1180,1499,1500,1499,1500,0.147996,1.059889,-0.666787,0.148010,1.059352,-0.666669
820334582,1498,1486,1500,1497,1073,1498,1486,1500,1497,1180,1499,1500,1499,1500,0.147996,1.059889,-0.666787,0.147967,1.059430,-0.666743
820434598,1498,1486,1500,1496,1073,1498,1486,1500,1496,1180,1499,1500,1499,1500,0.147996,1.059889,-0.666787,0.147845,1.060098,-0.667083
820534629,1498,1486,1500,1497,1073,1498,1486,1500,1497,1180,1499,1500,1499,1500,0.147996,1.059889,-0.666787,0.148043,1.059234,-0.666622
820634679,1498,1486,1500,1497,1074,1498,1486,1500,1497,1180,1499,1500,1499,1500,0.147996,1.059889,-0.666787,0.147985,1.059268,-0.666673
820734683,1497,1486,1501,1497,1073,1497,1486,1501,1497,1180,1499,1500,1499,1500,0.147996,1.059889,-0.666787,0.147983,1.060268,-0.666848
820834705,1498,1486,1500,1497,1074,1498,1486,1500,1497,1180,1499,1500,1499,1500,0.147996,1.059889,-0.666787,0.148016,1.059344,-0.666748
820934716,1498,1486,1500,1497,1074,1498,1486,1500,1497,1180,1499,1500,1499,1500,0.147996,1.059889,-0.666787,0.148004,1.059218,-0.666640
821034731,1498,1486,1500,1497,1074,1498,1486,1500,1497,1180,1499,1500,1499,1500,0.147996,1.059889,-0.666787,0.147902,1.060150,-0.667104
821134737,1498,1486,1500,1497,1074,1498,1486,1500,1497,1180,1499,1500,1499,1500,0.147996,1.059889,-0.666787,0.147973,1.059337,-0.666692
821234750,1498,1486,1500,1496,1073,1498,1486,1500,1496,1180,1499,1500,1499,1500,0.147996,1.059889,-0.666787,0.148068,1.059352,-0.666629
821334754,1498,1486,1500,1497,1073,1498,1486,1500,1497,1180,1499,1500,1499,1500,0.147996,1.059889,-0.666787,0.147923,1.060172,-0.666915
821434782,1498,1486,1500,1497,1074,1498,1486,1500,1497,1180,1499,1500,1499,1500,0.147996,1.059889,-0.666787,0.147978,1.059510,-0.666729
821534794,1498,1486,1500,1496,1073,1498,1486,1500,1496,1180,1499,1500,1499,1500,0.147996,1.059889,-0.666787,0.147986,1.059318,-0.666810
821634806,1498,1486,1500,1496,1074,1498,1486,1500,1496,1180,1499,1500,1499,1500,0.147996,1.059889,-0.666787,0.147882,1.059863,-0.666946
821734810,1498,1486,1501,1497,1073,1498,1486,1501,1497,1180,1499,1500,1499,1500,0.147996,1.059889,-0.666787,0.148040,1.059405,-0.666749
821834823,1498,1486,1500,1496,1073,1498,1486,1500,1496,1180,1499,1500,1499,1500,0.147996,1.059889,-0.666787,0.147996,1.059581,-0.666712
821934841,1497,1486,1500,1497,1074,1497,1486,1500,1497,1180,1499,1500,1499,1500,0.147996,1.059889,-0.666787,0.147960,1.059840,-0.666843
822034845,1498,1487,1500,1497,1074,1498,1487,1500,1497,1180,1499,1500,1499,1500,0.147996,1.059889,-0.666787,0.147960,1.059462,-0.666761
822134859,1498,1486,1500,1497,1074,1498,1486,1500,1497,1180,1499,1500,1499,1500,0.147996,1.059889,-0.666787,0.147976,1.059342,-0.666791
822234891,1498,1486,1500,1496,1073,1498,1486,1500,1496,1180,1499,1500,1499,1500,0.147996,1.059889,-0.666787,0.147929,1.059597,-0.666918
822334908,1498,1486,1499,1497,1074,1498,1486,1499,1497,1180,1499,1500,1499,1500,0.147996,1.059889,-0.666787,0.147975,1.059330,-0.666669
822434928,1497,1486,1501,1497,1073,1497,1486,1501,1497,1180,1499,1500,1499,1500,0.147996,1.059889,-0.666787,0.148073,1.059395,-0.666757
822534950,1498,1486,1500,1497,1074,1498,1486,1500,1497,1180,1499,1500,1499,1500,0.147996,1.059889,-0.666787,0.147957,1.059683,-0.666811
822634965,1485,1486,1499,1497,1074,1485,1486,1499,1497,1180,1499,1500,1499,1500,0.147996,1.059889,-0.666787,0.147985,1.059422,-0.666820
822734984,1335,1486,1383,1496,1074,1335,1486,1383,1496,1180,1499,1500,1499,1500,0.147996,1.059889,-0.666787,0.147940,1.059288,-0.666787
822835000,1072,1490,1069,1495,1074,1072,1490,1069,1495,1180,1499,1500,1499,1500,0.147996,1.059889,-0.666787,0.147905,1.059479,-0.666839
822935014,1064,1489,1069,1495,1074,1064,1489,1069,1495,1180,1499,1500,1499,1500,0.147996,1.059889,-0.666787,0.148006,1.059425,-0.666746
823035025,1064,1560,1069,1370,1073,1064,1560,1069,1370,1180,1499,1500,1499,1500,0.147996,1.059889,-0.666787,0.147985,1.059507,-0.666744
823135071,1064,1797,1068,1135,1073,1064,1797,1068,1135,1180,1499,1500,1499,1500,0.147996,1.059889,-0.666787,0.147968,1.059664,-0.666834
823235074,1064,1874,1069,1092,1073,1064,1874,1069,1092,1180,1499,1500,1499,1500,0.147996,1.059889,-0.666787,0.147922,1.059522,-0.666787
823335083,1064,1874,1068,1092,1073,1064,1874,1068,1092,1180,1499,1500,1499,1500,0.147996,1.059889,-0.666787,0.147952,1.059343,-0.666795
823435114,1064,1879,1068,1092,1073,1064,1879,1068,1092,1180,1499,1500,1499,1500,0.147996,1.059889,-0.666787,0.147960,1.059500,-0.666827
823535143,1064,1879,1068,1092,1073,1064,1879,1068,1092,1180,1499,1500,1499,1500,0.147996,1.059889,-0.666787,0.147991,1.059468,-0.666795
823635144,1064,1880,1068,1092,1073,1064,1880,1068,1092,1180,1499,1500,1499,1500,0.147996,1.059889,-0.666787,0.148027,1.059463,-0.666727
823735168,1064,1881,1069,1092,1073,1064,1881,1069,1092,1180,1499,1500,1499,1500,0.147996,1.059889,-0.666787,0.147997,1.059682,-0.666871
823835190,1064,1885,1068,1092,1073,1064,1885,1068,1092,1180,1499,1500,1499,1500,0.147996,1.059889,-0.666787,0.148012,1.059454,-0.667048
823935204,1064,1861,1069,1098,1074,1064,1861,1069,1098,1180,1499,1500,1499,1500,0.147996,1.059889,-0.666787,0.148028,1.059412,-0.666971
824035224,1289,1587,1201,1500,1073,1289,1587,1201,1500,1180,1499,1500,1499,1500,0.147996,1.059889,-0.666787,0.148101,1.059564,-0.667116
824135229,1497,1490,1406,1497,1074,1497,1490,1406,1497,1180,1499,1500,1499,1500,0.147996,1.059889,-0.666787,0.148007,1.059580,-0.667065
824235232,1498,1488,1500,1497,1074,1498,1488,1500,1497,1180,1499,1500,1499,1500,0.147996,1.059889,-0.666787,0.148065,1.059575,-0.667091
824335243,1498,1487,1500,1497,1074,1498,1487,1500,1497,1180,1499,1500,1499,1500,0.147996,1.059889,-0.666787,0.148025,1.059633,-0.667125
824435258,1498,1487,1500,1496,1074,1498,1487,1500,1496,1180,1499,1500,1499,1500,0.147996,1.059889,-0.666787,0.147930,1.059658,-0.667194
824535268,1498,1488,1500,1496,1073,1498,1488,1500,1496,1180,1499,1500,1499,1500,0.147996,1.059889,-0.666787,0.147974,1.059536,-0.667200
824635291,1498,1488,1500,1496,1073,1498,1488,1500,1496,1180,1499,1500,1499,1500,0.147996,1.059889,-0.666787,0.148004,1.059536,-0.667172
824735326,1498,1488,1500,1496,1074,1498,1488,1500,1496,1180,1499,1500,1499,1500,0.147996,1.059889,-0.666787,0.148047,1.059703,-0.667247
824835359,1498,1487,1500,1497,1074,1498,1487,1500,1497,1180,1499,1500,1499,1500,0.147996,1.059889,-0.666787,0.148043,1.059658,-0.667194
824935388,1498,1487,1500,1497,1073,1498,1487,1500,1497,1180,1499,1500,1499,1500,0.147996,1.059889,-0.666787,0.147966,1.059624,-0.667253
825035400,1497,1488,1501,1497,1073,1497,1488,1501,1497,1180,1499,1500,1499,1500,0.147996,1.059889,-0.666787,0.147976,1.059685,-0.667277
825135425,1497,1487,1498,1497,1073,1497,1487,1498,1497,1180,1499,1500,1499,1500,0.147996,1.059889,-0.666787,0.147961,1.059555,-0.667287
825235457,1498,1487,1500,1497,1074,1498,1487,1500,1497,1180,1499,1500,1499,1500,0.147996,1.059889,-0.666787,0.148028,1.059630,-0.667234
825335483,1498,1487,1499,1496,1073,1498,1487,1499,1496,1180,1499,1500,1499,1500,0.147996,1.059889,-0.666787,0.148033,1.059739,-0.667299
825435514,1498,1487,1499,1497,1074,1498,1487,1499,1497,1180,1499,1500,1499,1500,0.147996,1.059889,-0.666787,0.147992,1.059596,-0.667210
825535547,1498,1487,1500,1497,1073,1498,1487,1500,1497,1180,1499,1500,1499,1500,0.147996,1.059889,-0.666787,0.147989,1.059751,-0.667338
825635555,1498,1487,1500,1497,1074,1498,1487,1500,1497,1180,1499,1500,1499,1500,0.147996,1.059889,-0.666787,0.147957,1.059680,-0.667372
825735586,1498,1488,1500,1496,1074,1498,1488,1500,1496,1180,1499,1500,1499,1500,0.147996,1.059889,-0.666787,0.148072,1.059506,-0.667299
825835602,1498,1487,1500,1497,1074,1498,1487,1500,1497,1180,1499,1500,1499,1500,0.147996,1.059889,-0.666787,0.148035,1.059757,-0.667364
825935630,1498,1487,1500,1496,1074,1498,1487,1500,1496,1180,1499,1500,1499,1500,0.147996,1.059889,-0.666787,0.148070,1.059626,-0.667242
826035649,1498,1487,1500,1494,1073,1498,1487,1500,1494,1180,1499,1500,1499,1500,0.147996,1.059889,-0.666787,0.148033,1.059569,-0.667227
826135678,1498,1487,1500,1495,1074,1498,1487,1500,1495,1180,1499,1500,1499,1500,0.147996,1.059889,-0.666787,0.147949,1.059749,-0.667331
826235708,1498,1488,1500,1495,1074,1498,1488,1500,1495,1180,1499,1500,1499,1500,0.147996,1.059889,-0.666787,0.147987,1.059595,-0.667292
826335725,1497,1487,1501,1494,1073,1497,1487,1501,1494,1180,1499,1500,1499,1500,0.147996,1.059889,-0.666787,0.147996,1.059536,-0.667284
826435746,1497,1488,1500,1494,1073,1497,1488,1500,1494,1180,1499,1500,1499,1500,0.147996,1.059889,-0.666787,0.148016,1.059785,-0.667269
826535752,1522,1487,1501,1493,1073,1522,1487,1501,1493,1180,1499,1500,1499,1500,0.147996,1.059889,-0.666787,0.148016,1.059752,-0.667289
826635774,1524,1488,1500,1493,1074,1524,1488,1500,1493,1180,1499,1500,1499,1500,0.147996,1.059889,-0.666787,0.147992,1.059511,-0.667198
826735800,1539,1487,1500,1493,1073,1539,1487,1500,1493,1180,1499,1500,1499,1500,0.147996,1.059889,-0.666787,0.147954,1.059792,-0.667360
826835815,1552,1487,1500,1493,1073,1552,1487,1500,1493,1180,1499,1500,1499,1500,0.147996,1.059889,-0.666787,0.147949,1.059668,-0.667521
826935841,1559,1487,1500,1493,1074,1559,1487,1500,1493,1180,1499,1500,1499,1500,0.147996,1.059889,-0.666787,0.148039,1.059617,-0.667770
827035849,1558,1488,1500,1493,1074,1558,1488,1500,1493,1180,1499,1500,1499,1500,0.147996,1.059889,-0.666787,0.147980,1.059777,-0.668035
827135851,1577,1488,1500,1493,1073,1577,1488,1500,1493,1180,1499,1500,1499,1500,0.147996,1.059889,-0.666787,0.147903,1.059684,-0.668084
827235855,1583,1488,1500,1492,1074,1583,1488,1500,1492,1180,1499,1500,1499,1500,0.147996,1.059889,-0.666787,0.147915,1.059560,-0.668281
827335867,1584,1487,1500,1492,1074,1584,1487,1500,1492,1180,1499,1500,1499,1500,0.147996,1.059889,-0.666787,0.147803,1.059609,-0.668503
827435877,1591,1488,1498,1492,1074,1591,1488,1498,1492,1180,1499,1500,1499,1500,0.147996,1.059889,-0.666787,0.147889,1.059581,-0.668673
827535895,1590,1487,1499,1492,1074,1590,1487,1499,1492,1180,1499,1500,1499,1500,0.147996,1.059889,-0.666787,0.147956,1.059516,-0.668840
827635915,1591,1487,1499,1492,1074,1591,1487,1499,1492,1180,1499,1500,1499,1500,0.147996,1.059889,-0.666787,0.147908,1.059512,-0.669028
827735936,1591,1487,1499,1492,1074,1591,1487,1499,1492,1180,1499,1500,1499,1500,0.147996,1.059889,-0.666787,0.147838,1.059556,-0.669331
827835968,1591,1487,1499,1492,1074,1591,1487,1499,1492,1180,1499,1500,1499,1500,0.147996,1.059889,-0.666787,0.147715,1.059640,-0.669651
827935984,1592,1488,1499,1492,1074,1592,1488,1499,1492,1180,1499,1500,1499,1500,0.147996,1.059889,-0.666787,0.147720,1.059483,-0.669882
828035990,1601,1487,1499,1492,1074,1601,1487,1499,1492,1180,1499,1500,1499,1500,0.147996,1.059889,-0.666787,0.147607,1.059423,-0.670018
828135991,1601,1488,1499,1492,1073,1601,1488,1499,1492,1180,1499,1500,1499,1500,0.147996,1.059889,-0.666787,0.147613,1.059547,-0.670427
828236002,1610,1487,1499,1492,1074,1610,1487,1499,1492,1180,1499,1500,1499,1500,0.147996,1.059889,-0.666787,0.147707,1.059616,-0.670688
828336034,1613,1487,1499,1492,1074,1613,1487,1499,1492,1180,1499,1500,1499,1500,0.147996,1.059889,-0.666787,0.147554,1.059474,-0.670784
828436050,1613,1488,1499,1492,1074,1613,1488,1499,1492,1180,1499,1500,1499,1500,0.147996,1.059889,-0.666787,0.147684,1.059943,-0.671112
828536054,1613,1488,1500,1492,1073,1613,1488,1500,1492,1180,1499,1500,1499,1500,0.147996,1.059889,-0.666787,0.147621,1.059917,-0.671619
828636080,1622,1487,1500,1492,1074,1622,1487,1500,1492,1180,1499,1500,1499,1500,0.147996,1.059889,-0.666787,0.147601,1.059743,-0.671596
828736097,1622,1488,1499,1492,1074,1622,1488,1499,1492,1180,1499,1500,1499,1500,0.147996,1.059889,-0.666787,0.147627,1.060032,-0.672238
828836111,1624,1488,1500,1492,1073,1624,1488,1500,1492,1180,1499,1500,1499,1500,0.147996,1.059889,-0.666787,0.147507,1.059970,-0.672195
828936139,1625,1487,1500,1492,1074,1625,1487,1500,1492,1180,1498,1500,1499,1500,0.147996,1.059889,-0.666787,0.147704,1.059776,-0.672607
829036143,1629,1487,1500,1492,1074,1629,1487,1500,1492,1180,1498,1500,1499,1500,0.147996,1.059889,-0.666787,0.147432,1.060175,-0.672968
829136176,1630,1487,1500,1492,1074,1630,1487,1500,1492,1180,1498,1500,1499,1500,0.147996,1.059889,-0.666787,0.147521,1.060047,-0.673298
829236204,1635,1487,1500,1492,1073,1635,1487,1500,1492,1180,1498,1500,1499,1500,0.147996,1.059889,-0.666787,0.147635,1.059954,-0.673310
829336211,1640,1487,1499,1492,1073,1640,1487,1499,1492,1180,1498,1500,1499,1500,0.147996,1.059889,-0.666787,0.147566,1.060158,-0.673819
829436228,1640,1487,1500,1492,1073,1640,1487,1500,1492,1180,1498,1500,1499,1500,0.147996,1.059889,-0.666787,0.147739,1.059697,-0.673963
829536251,1640,1487,1501,1492,1073,1640,1487,1501,1492,1180,1498,1500,1499,1500,0.147996,1.059889,-0.666787,0.147303,1.059446,-0.674134
829636269,1648,1487,1500,1492,1074,1648,1487,1500,1492,1180,1498,1500,1500,1500,0.147996,1.059889,-0.666787,0.147283,1.060014,-0.674731
829736291,1648,1487,1500,1492,1073,1648,1487,1500,1492,1180,1498,1500,1499,1500,0.147996,1.059889,-0.666787,0.147397,1.059873,-0.674955
829836306,1651,1487,1500,1492,1074,1651,1487,1500,1492,1180,1498,1500,1500,1500,0.147996,1.059889,-0.666787,0.146971,1.059714,-0.675483
829936313,1650,1488,1500,1492,1074,1650,1488,1500,1492,1180,1498,1500,1499,1500,0.147996,1.059889,-0.666787,0.147372,1.060095,-0.675621
830036327,1651,1488,1500,1492,1073,1651,1488,1500,1492,1180,1498,1500,1500,1500,0.147996,1.059889,-0.666787,0.147144,1.059962,-0.676339
830136346,1659,1487,1500,1492,1073,1659,1487,1500,1492,1180,1498,1500,1500,1500,0.147996,1.059889,-0.666787,0.146848,1.059725,-0.676060
830236361,1661,1488,1500,1492,1073,1661,1488,1500,1492,1180,1498,1500,1500,1500,0.147996,1.059889,-0.666787,0.146506,1.059453,-0.676831
830336370,1661,1487,1500,1492,1074,1661,1487,1500,1492,1180,1498,1500,1500,1500,0.147996,1.059889,-0.666787,0.146128,1.059079,-0.677111
830436394,1663,1487,1500,1492,1074,1663,1487,1500,1492,1180,1498,1500,1500,1500,0.147996,1.059889,-0.666787,0.145251,1.059275,-0.678592
830536418,1662,1487,1500,1492,1074,1662,1487,1500,1492,1180,1497,1500,1500,1500,0.147996,1.059889,-0.666787,0.142990,1.059056,-0.681343
830636442,1663,1488,1500,1492,1073,1663,1488,1500,1492,1180,1496,1500,1501,1500,0.147996,1.059889,-0.666787,0.138596,1.057734,-0.689408
830736459,1662,1487,1501,1492,1073,1662,1487,1501,1492,1180,1494,1500,1502,1500,0.147996,1.059889,-0.666787,0.129670,1.055215,-0.711220
830836461,1663,1488,1500,1492,1073,1663,1488,1500,1492,1180,1491,1499,1503,1500,0.147996,1.059889,-0.666787,0.122029,1.052489,-0.732870
830936488,1662,1486,1503,1492,1073,1662,1486,1503,1492,1180,1486,1499,1504,1500,0.147996,1.059889,-0.666787,0.112004,1.049330,-0.773223
831036498,1662,1486,1504,1492,1073,1662,1486,1504,1492,1180,1479,1498,1506,1500,0.147996,1.059889,-0.666787,0.095856,1.043679,-0.843091
831136506,1633,1486,1504,1492,1074,1633,1486,1504,1492,1180,1470,1498,1508,1500,0.147996,1.059889,-0.666787,0.082372,1.038141,-0.906105
831236524,1589,1486,1513,1493,1074,1589,1486,1513,1493,1180,1461,1497,1509,1500,0.147996,1.059889,-0.666787,0.063161,1.030530,-0.993164
831336539,1563,1486,1537,1493,1074,1563,1486,1537,1493,1180,1450,1496,1512,1500,0.147996,1.059889,-0.666787,0.041159,1.021889,-1.086047
831436559,1536,1486,1541,1493,1073,1536,1486,1541,1493,1180,1440,1495,1515,1500,0.147996,1.059889,-0.666787,0.018169,1.012481,-1.175499
831536587,1516,1487,1541,1493,1074,1516,1487,1541,1493,1180,1440,1494,1518,1500,0.147996,1.059889,-0.666787,-0.004978,1.004400,-1.253554
831636621,1517,1487,1537,1493,1073,1517,1487,1537,1493,1180,1440,1493,1520,1500,0.147996,1.059889,-0.666787,-0.028414,0.996149,-1.320593
831736640,1516,1486,1539,1493,1073,1516,1486,1539,1493,1180,1440,1492,1520,1500,0.147996,1.059889,-0.666787,-0.051538,0.989566,-1.376727
831836674,1517,1486,1525,1493,1073,1517,1486,1525,1493,1180,1440,1492,1520,1500,0.147996,1.059889,-0.666787,-0.079643,0.982235,-1.425690
831936691,1516,1486,1528,1495,1073,1516,1486,1528,1495,1180,1440,1491,1520,1500,0.147996,1.059889,-0.666787,-0.108808,0.974642,-1.458948
832036697,1517,1486,1560,1494,1074,1517,1486,1560,1494,1180,1440,1490,1520,1500,0.147996,1.059889,-0.666787,-0.130128,0.969626,-1.474033
832136708,1517,1486,1537,1494,1074,1517,1486,1537,1494,1180,1440,1490,1520,1500,0.147996,1.059889,-0.666787,-0.154843,0.964197,-1.483463
832236713,1503,1486,1525,1495,1073,1503,1486,1525,1495,1180,1440,1489,1520,1500,0.147996,1.059889,-0.666787,-0.175241,0.960438,-1.486226
832336714,1498,1487,1601,1496,1073,1498,1487,1601,1496,1180,1440,1489,1520,1500,0.147996,1.059889,-0.666787,-0.199051,0.956604,-1.485847
832436724,1498,1487,1566,1496,1074,1498,1487,1566,1496,1180,1440,1488,1520,1500,0.147996,1.059889,-0.666787,-0.221692,0.953496,-1.480413
832536729,1498,1487,1500,1496,1073,1498,1487,1500,1496,1180,1440,1488,1520,1500,0.147996,1.059889,-0.666787,-0.243254,0.951146,-1.472097
832636741,1498,1487,1500,1496,1073,1498,1487,1500,1496,1180,1440,1488,1520,1500,0.147996,1.059889,-0.666787,-0.264895,0.949227,-1.465006
832736742,1498,1488,1500,1496,1073,1498,1488,1500,1496,1180,1440,1488,1520,1500,0.147996,1.059889,-0.666787,-0.284650,0.947620,-1.457434
832836744,1498,1488,1500,1496,1074,1498,1488,1500,1496,1180,1440,1487,1520,1500,0.147996,1.059889,-0.666787,-0.303365,0.946211,-1.450179
832936761,1498,1487,1500,1496,1074,1498,1487,1500,1496,1180,1440,1487,1520,1500,0.147996,1.059889,-0.666787,-0.322319,0.945181,-1.444242
833036776,1498,1487,1500,1495,1074,1498,1487,1500,1495,1180,1440,1487,1520,1500,0.147996,1.059889,-0.666787,-0.342427,0.944248,-1.439716
833136786,1498,1485,1525,1496,1073,1498,1485,1525,1496,1180,1440,1487,1520,1500,0.147996,1.059889,-0.666787,-0.363875,0.944364,-1.436426
833236810,1498,1463,1500,1496,1074,1498,1463,1500,1496,1180,1440,1488,1520,1500,0.147996,1.059889,-0.666787,-0.390712,0.944596,-1.434276
833336813,1498,1486,1500,1496,1073,1498,1486,1500,1496,1180,1440,1488,1520,1500,0.147996,1.059889,-0.666787,-0.415654,0.945013,-1.433258
833436817,1498,1490,1583,1495,1074,1498,1490,1583,1495,1180,1440,1488,1520,1500,0.147996,1.059889,-0.666787,-0.436974,0.945089,-1.433393
833536818,1498,1512,1627,1495,1074,1498,1512,1627,1495,1180,1440,1488,1520,1500,0.147996,1.059889,-0.666787,-0.463519,0.945436,-1.433667
833636825,1498,1490,1513,1495,1074,1498,1490,1513,1495,1180,1440,1488,1520,1500,0.147996,1.059889,-0.666787,-0.488066,0.946049,-1.432671
833736859,1497,1486,1500,1495,1073,1497,1486,1500,1495,1180,1440,1488,1520,1500,0.147996,1.059889,-0.666787,-0.511133,0.946611,-1.435240
833836876,1498,1486,1500,1496,1073,1498,1486,1500,1496,1180,1440,1488,1520,1500,0.147996,1.059889,-0.666787,-0.532239,0.946491,-1.440159
833936897,1497,1486,1500,1495,1073,1497,1486,1500,1495,1180,1440,1489,1520,1500,0.147996,1.059889,-0.666787,-0.555169,0.946334,-1.443810
834036922,1498,1486,1500,1496,1074,1498,1486,1500,1496,1180,1440,1489,1520,1500,0.147996,1.059889,-0.666787,-0.571804,0.945259,-1.446072
834136944,1498,1486,1500,1495,1074,1498,1486,1500,1495,1180,1440,1489,1520,1500,0.147996,1.059889,-0.666787,-0.595041,0.944401,-1.450337
834236978,1497,1486,1500,1495,1073,1497,1486,1500,1495,1180,1440,1489,1520,1500,0.147996,1.059889,-0.666787,-0.612500,0.943993,-1.454111
834337000,1498,1486,1507,1496,1073,1498,1486,1507,1496,1180,1440,1489,1520,1500,0.147996,1.059889,-0.666787,-0.633974,0.943591,-1.459685
834437012,1498,1486,1507,1495,1074,1498,1486,1507,1495,1180,1440,1489,1520,1500,0.147996,1.059889,-0.666787,-0.657309,0.943386,-1.464784
834537024,1502,1486,1507,1492,1074,1502,1486,1507,1492,1180,1440,1490,1520,1500,0.147996,1.059889,-0.666787,-0.682743,0.943597,-1.469656
834637031,1497,1486,1513,1496,1073,1497,1486,1513,1496,1180,1440,1490,1520,1500,0.147996,1.059889,-0.666787,-0.710294,0.944021,-1.474984
834737063,1498,1486,1513,1495,1074,1498,1486,1513,1495,1180,1440,1490,1520,1500,0.147996,1.059889,-0.666787,-0.738550,0.944668,-1.481281
834837087,1498,1486,1513,1496,1074,1498,1486,1513,1496,1180,1440,1490,1520,1500,0.147996,1.059889,-0.666787,-0.767937,0.944885,-1.487508
834937109,1498,1487,1520,1493,1073,1498,1487,1520,1493,1180,1440,1491,1520,1500,0.147996,1.059889,-0.666787,-0.798484,0.944964,-1.493737
835037136,1498,1488,1520,1496,1073,1498,1488,1520,1496,1180,1440,1491,1520,1500,0.147996,1.059889,-0.666787,-0.830649,0.945260,-1.499392
835137168,1498,1486,1520,1496,1074,1498,1486,1520,1496,1180,1440,1491,1520,1500,0.147996,1.059889,-0.666787,-0.864426,0.946044,-1.505045
835237181,1497,1532,1560,1495,1073,1497,1532,1560,1495,1180,1440,1492,1520,1500,0.147996,1.059889,-0.666787,-0.905688,0.946432,-1.512627
835337199,1498,1562,1651,1496,1073,1498,1562,1651,1496,1180,1440,1492,1520,1500,0.147996,1.059889,-0.666787,-0.935071,0.947343,-1.517460
835437209,1498,1487,1560,1496,1074,1498,1487,1560,1496,1180,1440,1492,1520,1500,0.147996,1.059889,-0.666787,-0.968702,0.946169,-1.519471
835537212,1497,1495,1528,1496,1073,1497,1495,1528,1496,1180,1440,1492,1520,1500,0.147996,1.059889,-0.666787,-1.000785,0.942792,-1.524938
835637216,1498,1494,1556,1495,1074,1498,1494,1556,1495,1180,1440,1493,1520,1500,0.147996,1.059889,-0.666787,-1.031802,0.938445,-1.536601
835737226,1497,1490,1649,1495,1073,1497,1490,1649,1495,1180,1440,1493,1520,1500,0.147996,1.059889,-0.666787,-1.060828,0.933336,-1.545126
835837253,1497,1490,1704,1495,1073,1497,1490,1704,1495,1180,1440,1493,1520,1500,0.147996,1.059889,-0.666787,-1.087147,0.929083,-1.550343
835937286,1498,1490,1651,1495,1074,1498,1490,1651,1495,1180,1440,1494,1520,1500,0.147996,1.059889,-0.666787,-1.107225,0.925830,-1.551201
836037289,1498,1490,1597,1495,1074,1498,1490,1597,1495,1180,1440,1494,1520,1500,0.147996,1.059889,-0.666787,-1.118605,0.922912,-1.555354
836137320,1498,1490,1568,1495,1074,1498,1490,1568,1495,1180,1440,1495,1520,1500,0.147996,1.059889,-0.666787,-1.118019,0.920918,-1.561506
836237329,1498,1487,1523,1496,1073,1498,1487,1523,1496,1180,1440,1495,1520,1500,0.147996,1.059889,-0.666787,-1.108623,0.918754,-1.569361
836337336,1497,1486,1520,1496,1073,1497,1486,1520,1496,1180,1440,1495,1520,1500,0.147996,1.059889,-0.666787,-1.093834,0.917346,-1.577402
836437366,1498,1486,1520,1495,1074,1498,1486,1520,1495,1180,1440,1495,1520,1500,0.147996,1.059889,-0.666787,-1.075811,0.916953,-1.584453
836537382,1498,1486,1520,1495,1074,1498,1486,1520,1495,1180,1440,1494,1520,1500,0.147996,1.059889,-0.666787,-1.055485,0.916762,-1.589713
836637384,1497,1486,1520,1496,1073,1497,1486,1520,1496,1180,1440,1493,1520,1500,0.147996,1.059889,-0.666787,-1.033360,0.915863,-1.593980
836737419,1498,1486,1520,1496,1073,1498,1486,1520,1496,1180,1440,1492,1520,1500,0.147996,1.059889,-0.666787,-1.010113,0.914303,-1.596490
836837450,1498,1486,1520,1495,1074,1498,1486,1520,1495,1180,1440,1491,1520,1500,0.147996,1.059889,-0.666787,-0.988583,0.911781,-1.599916
836937476,1497,1486,1520,1496,1073,1497,1486,1520,1496,1180,1440,1490,1520,1500,0.147996,1.059889,-0.666787,-0.966606,0.909422,-1.601173
837037494,1498,1486,1520,1496,1074,1498,1486,1520,1496,1180,1440,1489,1520,1500,0.147996,1.059889,-0.666787,-0.952811,0.907684,-1.600989
837137498,1498,1486,1520,1495,1074,1498,1486,1520,1495,1180,1440,1488,1520,1500,0.147996,1.059889,-0.666787,-0.935469,0.904884,-1.600004
837237520,1498,1486,1520,1495,1074,1498,1486,1520,1495,1180,1440,1487,1520,1500,0.147996,1.059889,-0.666787,-0.923554,0.902781,-1.599349
837337527,1497,1486,1520,1495,1073,1497,1486,1520,1495,1180,1440,1486,1520,1500,0.147996,1.059889,-0.666787,-0.909295,0.899211,-1.598909
837437532,1498,1486,1520,1496,1073,1498,1486,1520,1496,1180,1440,1485,1520,1500,0.147996,1.059889,-0.666787,-0.897544,0.894373,-1.598861
837537538,1498,1486,1520,1496,1074,1498,1486,1520,1496,1180,1440,1484,1520,1500,0.147996,1.059889,-0.666787,-0.888696,0.889795,-1.597828
837637539,1497,1487,1520,1496,1073,1497,1487,1520,1496,1180,1440,1484,1520,1500,0.147996,1.059889,-0.666787,-0.881451,0.885108,-1.595993
837737571,1498,1486,1520,1496,1074,1498,1486,1520,1496,1180,1440,1483,1520,1500,0.147996,1.059889,-0.666787,-0.878980,0.881114,-1.594961
837837602,1498,1486,1520,1495,1074,1498,1486,1520,1495,1180,1440,1483,1520,1500,0.147996,1.059889,-0.666787,-0.874846,0.877224,-1.594340
837937605,1498,1487,1520,1495,1074,1498,1487,1520,1495,1180,1440,1483,1520,1500,0.147996,1.059889,-0.666787,-0.871278,0.872761,-1.593622
838037608,1498,1486,1520,1495,1074,1498,1486,1520,1495,1180,1440,1482,1520,1500,0.147996,1.059889,-0.666787,-0.869860,0.868017,-1.593369
838137628,1498,1486,1520,1496,1074,1498,1486,1520,1496,1180,1440,1482,1520,1500,0.147996,1.059889,-0.666787,-0.870308,0.864298,-1.593120
838237634,1498,1486,1520,1495,1074,1498,1486,1520,1495,1180,1440,1482,1520,1500,0.147996,1.059889,-0.666787,-0.872979,0.861433,-1.593270
838337661,1498,1486,1520,1495,1074,1498,1486,1520,1495,1180,1440,1482,1520,1500,0.147996,1.059889,-0.666787,-0.876202,0.859826,-1.593569
838437666,1498,1486,1520,1495,1074,1498,1486,1520,1495,1180,1440,1482,1520,1500,0.147996,1.059889,-0.666787,-0.880907,0.858738,-1.594735
838537686,1498,1486,1527,1495,1074,1498,1486,1527,1495,1180,1440,1482,1520,1500,0.147996,1.059889,-0.666787,-0.887071,0.859096,-1.596125
838637721,1497,1487,1527,1496,1073,1497,1487,1527,1496,1180,1440,1482,1520,1500,0.147996,1.059889,-0.666787,-0.892450,0.860445,-1.597523
838737723,1497,1486,1527,1495,1073,1497,1486,1527,1495,1180,1440,1482,1520,1500,0.147996,1.059889,-0.666787,-0.901313,0.862476,-1.599443
838837739,1497,1486,1527,1495,1073,1497,1486,1527,1495,1180,1440,1482,1520,1500,0.147996,1.059889,-0.666787,-0.912383,0.865231,-1.601634
838937758,1498,1486,1527,1495,1074,1498,1486,1527,1495,1180,1440,1483,1520,1500,0.147996,1.059889,-0.666787,-0.925039,0.868781,-1.602814
839037774,1497,1486,1527,1496,1073,1497,1486,1527,1496,1180,1440,1484,1520,1500,0.147996,1.059889,-0.666787,-0.939294,0.872910,-1.603458
839137783,1498,1486,1527,1495,1074,1498,1486,1527,1495,1180,1440,1485,1520,1500,0.147996,1.059889,-0.666787,-0.954850,0.878038,-1.603499
839237809,1498,1486,1527,1495,1074,1498,1486,1527,1495,1180,1440,1485,1520,1500,0.147996,1.059889,-0.666787,-0.971781,0.883573,-1.603265
839337842,1497,1486,1534,1496,1073,1497,1486,1534,1496,1180,1440,1486,1520,1500,0.147996,1.059889,-0.666787,-0.990507,0.889826,-1.603036
839437853,1497,1486,1534,1495,1074,1497,1486,1534,1495,1180,1440,1487,1520,1500,0.147996,1.059889,-0.666787,-1.011782,0.896631,-1.602468
839537885,1498,1486,1534,1495,1073,1498,1486,1534,1495,1180,1440,1488,1520,1500,0.147996,1.059889,-0.666787,-1.039168,0.905769,-1.600072
839637905,1498,1490,1634,1495,1073,1498,1490,1634,1495,1180,1440,1490,1520,1500,0.147996,1.059889,-0.666787,-1.060006,0.912801,-1.597975
839737939,1498,1539,1679,1495,1074,1498,1539,1679,1495,1180,1440,1491,1520,1500,0.147996,1.059889,-0.666787,-1.084154,0.921977,-1.593775
839837945,1498,1537,1607,1495,1074,1498,1537,1607,1495,1180,1440,1492,1520,1500,0.147996,1.059889,-0.666787,-1.104257,0.931213,-1.587174
839937974,1498,1500,1587,1495,1074,1498,1500,1587,1495,1180,1440,1493,1520,1500,0.147996,1.059889,-0.666787,-1.119752,0.939527,-1.581929
840037976,1498,1491,1573,1496,1073,1498,1491,1573,1496,1180,1440,1495,1520,1500,0.147996,1.059889,-0.666787,-1.129864,0.948795,-1.580975
840137984,1498,1522,1560,1496,1074,1498,1522,1560,1496,1180,1440,1496,1520,1500,0.147996,1.059889,-0.666787,-1.132468,0.954529,-1.579467
840238020,1498,1581,1564,1496,1074,1498,1581,1564,1496,1180,1440,1496,1520,1500,0.147996,1.059889,-0.666787,-1.130957,0.959136,-1.577460
840338035,1497,1563,1587,1495,1073,1497,1563,1587,1495,1180,1440,1496,1520,1500,0.147996,1.059889,-0.666787,-1.124523,0.962929,-1.574362
840438065,1498,1513,1584,1496,1074,1498,1513,1584,1496,1180,1440,1496,1520,1500,0.147996,1.059889,-0.666787,-1.111024,0.963760,-1.568957
840538066,1498,1487,1534,1495,1074,1498,1487,1534,1495,1180,1440,1496,1520,1500,0.147996,1.059889,-0.666787,-1.097869,0.961157,-1.567493
840638067,1497,1488,1534,1495,1073,1497,1488,1534,1495,1180,1440,1495,1520,1500,0.147996,1.059889,-0.666787,-1.076760,0.954897,-1.566832
840738073,1498,1486,1534,1496,1074,1498,1486,1534,1496,1180,1440,1493,1520,1500,0.147996,1.059889,-0.666787,-1.061286,0.949303,-1.565764
840838091,1498,1487,1534,1496,1074,1498,1487,1534,1496,1180,1440,1492,1520,1500,0.147996,1.059889,-0.666787,-1.042284,0.941969,-1.562834
840938126,1498,1486,1534,1496,1074,1498,1486,1534,1496,1180,1440,1490,1520,1500,0.147996,1.059889,-0.666787,-1.023203,0.933667,-1.558488
841038150,1498,1486,1535,1495,1074,1498,1486,1535,1495,1180,1440,1489,1520,1500,0.147996,1.059889,-0.666787,-1.001368,0.922869,-1.553784
841138178,1497,1486,1535,1496,1073,1497,1486,1535,1496,1180,1440,1488,1520,1500,0.147996,1.059889,-0.666787,-0.986140,0.914860,-1.550070
841238183,1497,1487,1535,1495,1073,1497,1487,1535,1495,1180,1440,1486,1520,1500,0.147996,1.059889,-0.666787,-0.968842,0.905237,-1.545639
841338203,1498,1486,1534,1495,1074,1498,1486,1534,1495,1180,1440,1485,1520,1500,0.147996,1.059889,-0.666787,-0.951210,0.894739,-1.539470
841438208,1497,1486,1535,1496,1073,1497,1486,1535,1496,1180,1440,1484,1520,1500,0.147996,1.059889,-0.666787,-0.939623,0.887846,-1.534606
841538233,1497,1486,1534,1496,1073,1497,1486,1534,1496,1180,1440,1483,1520,1500,0.147996,1.059889,-0.666787,-0.927373,0.880054,-1.528306
841638255,1498,1486,1534,1496,1073,1498,1486,1534,1496,1180,1440,1482,1520,1500,0.147996,1.059889,-0.666787,-0.915273,0.872565,-1.522775
841738263,1497,1486,1535,1496,1073,1497,1486,1535,1496,1180,1440,1481,1520,1500,0.147996,1.059889,-0.666787,-0.903400,0.864528,-1.517676
841838287,1498,1486,1535,1495,1074,1498,1486,1535,1495,1180,1440,1480,1520,1500,0.147996,1.059889,-0.666787,-0.891202,0.855145,-1.511678
841938290,1498,1486,1541,1496,1073,1498,1486,1541,1496,1180,1440,1480,1520,1500,0.147996,1.059889,-0.666787,-0.881307,0.846404,-1.505186
842038314,1498,1486,1541,1496,1073,1498,1486,1541,1496,1180,1440,1480,1520,1500,0.147996,1.059889,-0.666787,-0.875354,0.840944,-1.500379
842138324,1497,1486,1541,1495,1073,1497,1486,1541,1495,1180,1440,1480,1520,1500,0.147996,1.059889,-0.666787,-0.871008,0.835792,-1.495329
842238333,1497,1486,1541,1495,1073,1497,1486,1541,1495,1180,1440,1480,1520,1500,0.147996,1.059889,-0.666787,-0.865852,0.829954,-1.489779
842338349,1498,1486,1542,1495,1074,1498,1486,1542,1495,1180,1440,1480,1520,1500,0.147996,1.059889,-0.666787,-0.861623,0.823401,-1.484940
842438364,1498,1487,1541,1496,1074,1498,1487,1541,1496,1180,1440,1480,1520,1500,0.147996,1.059889,-0.666787,-0.857954,0.816753,-1.479853
842538373,1497,1486,1541,1496,1073,1497,1486,1541,1496,1180,1440,1480,1520,1500,0.147996,1.059889,-0.666787,-0.856670,0.812401,-1.476174
842638392,1498,1487,1541,1496,1073,1498,1487,1541,1496,1180,1440,1480,1520,1500,0.147996,1.059889,-0.666787,-0.855905,0.809141,-1.472136
842738398,1498,1487,1541,1495,1073,1498,1487,1541,1495,1180,1440,1480,1520,1500,0.147996,1.059889,-0.666787,-0.855911,0.807135,-1.469571
842838431,1498,1486,1541,1496,1074,1498,1486,1541,1496,1180,1440,1480,1520,1500,0.147996,1.059889,-0.666787,-0.855480,0.806259,-1.467230
842938437,1497,1488,1547,1495,1074,1497,1488,1547,1495,1180,1440,1480,1520,1500,0.147996,1.059889,-0.666787,-0.854911,0.805611,-1.465679
843038448,1498,1487,1547,1496,1074,1498,1487,1547,1496,1180,1440,1480,1520,1500,0.147996,1.059889,-0.666787,-0.854751,0.805268,-1.463437
843138480,1498,1487,1547,1496,1074,1498,1487,1547,1496,1180,1440,1480,1520,1500,0.147996,1.059889,-0.666787,-0.854981,0.804662,-1.460998
843238502,1498,1487,1547,1495,1074,1498,1487,1547,1495,1180,1440,1480,1520,1500,0.147996,1.059889,-0.666787,-0.855655,0.804711,-1.459441
843338538,1497,1486,1548,1495,1073,1497,1486,1548,1495,1180,1440,1480,1520,1500,0.147996,1.059889,-0.666787,-0.856384,0.804276,-1.457057
843438573,1498,1486,1547,1495,1074,1498,1486,1547,1495,1180,1440,1480,1520,1500,0.147996,1.059889,-0.666787,-0.857018,0.804337,-1.454694
843538576,1498,1486,1547,1495,1074,1498,1486,1547,1495,1180,1440,1480,1520,1500,0.147996,1.059889,-0.666787,-0.857613,0.804351,-1.452417
843638595,1497,1486,1548,1496,1073,1497,1486,1548,1496,1180,1440,1480,1520,1500,0.147996,1.059889,-0.666787,-0.858280,0.804464,-1.449930
843738609,1497,1486,1548,1496,1073,1497,1486,1548,1496,1180,1440,1480,1520,1500,0.147996,1.059889,-0.666787,-0.859207,0.804038,-1.446353
843838644,1498,1486,1548,1496,1073,1498,1486,1548,1496,1180,1440,1480,1520,1500,0.147996,1.059889,-0.666787,-0.859825,0.803527,-1.443051
843938659,1498,1487,1547,1495,1074,1498,1487,1547,1495,1180,1440,1480,1520,1500,0.147996,1.059889,-0.666787,-0.861610,0.802592,-1.438373
844038673,1497,1487,1547,1495,1074,1497,1487,1547,1495,1180,1440,1480,1520,1500,0.147996,1.059889,-0.666787,-0.863555,0.801098,-1.433643
844138678,1498,1487,1547,1495,1074,1498,1487,1547,1495,1180,1440,1480,1520,1500,0.147996,1.059889,-0.666787,-0.865563,0.798813,-1.429465
844238699,1498,1487,1547,1495,1074,1498,1487,1547,1495,1180,1440,1480,1520,1500,0.147996,1.059889,-0.666787,-0.868409,0.795122,-1.423450
844338739,1498,1486,1547,1496,1074,1498,1486,1547,1496,1180,1440,1480,1520,1500,0.147996,1.059889,-0.666787,-0.869943,0.792150,-1.417828
844438745,1498,1486,1547,1495,1074,1498,1486,1547,1495,1180,1440,1480,1520,1500,0.147996,1.059889,-0.666787,-0.871782,0.790174,-1.412910
844538748,1498,1486,1547,1496,1073,1498,1486,1547,1496,1180,1440,1480,1520,1500,0.147996,1.059889,-0.666787,-0.875632,0.786883,-1.401323
844638763,1498,1487,1547,1496,1074,1498,1487,1547,1496,1180,1440,1480,1520,1500,0.147996,1.059889,-0.666787,-0.878053,0.786287,-1.393116
844738785,1497,1486,1548,1496,1073,1497,1486,1548,1496,1180,1440,1480,1520,1500,0.147996,1.059889,-0.666787,-0.879511,0.786683,-1.382881
844838790,1497,1486,1548,1496,1073,1497,1486,1548,1496,1180,1440,1480,1520,1500,0.147996,1.059889,-0.666787,-0.881094,0.787639,-1.373124
844938812,1498,1487,1547,1496,1074,1498,1487,1547,1496,1180,1440,1480,1520,1500,0.147996,1.059889,-0.666787,-0.882835,0.789525,-1.363274
845038844,1498,1486,1547,1495,1074,1498,1486,1547,1495,1180,1440,1480,1520,1500,0.147996,1.059889,-0.666787,-0.884523,0.792081,-1.351801
845138859,1497,1486,1548,1496,1073,1497,1486,1548,1496,1180,1440,1480,1520,1500,0.147996,1.059889,-0.666787,-0.886037,0.794447,-1.343356
845238862,1497,1486,1554,1496,1073,1497,1486,1554,1496,1180,1440,1480,1520,1500,0.147996,1.059889,-0.666787,-0.887593,0.796892,-1.333974
845338872,1498,1486,1554,1496,1073,1498,1486,1554,1496,1180,1440,1480,1520,1500,0.147996,1.059889,-0.666787,-0.889626,0.799341,-1.323064
845438888,1498,1486,1554,1496,1073,1498,1486,1554,1496,1180,1440,1480,1520,1500,0.147996,1.059889,-0.666787,-0.890790,0.800575,-1.314729
845538918,1498,1486,1554,1496,1073,1498,1486,1554,1496,1180,1440,1480,1520,1500,0.147996,1.059889,-0.666787,-0.892665,0.801946,-1.304849
845638947,1498,1487,1554,1495,1074,1498,1487,1554,1495,1180,1440,1480,1520,1500,0.147996,1.059889,-0.666787,-0.893913,0.803251,-1.293833
845738949,1497,1486,1554,1496,1073,1497,1486,1554,1496,1180,1440,1480,1520,1500,0.147996,1.059889,-0.666787,-0.894490,0.804158,-1.285632
845838965,1497,1486,1554,1496,1073,1497,1486,1554,1496,1180,1440,1480,1520,1500,0.147996,1.059889,-0.666787,-0.894775,0.805631,-1.275666
845938971,1498,1486,1554,1496,1073,1498,1486,1554,1496,1180,1440,1480,1520,1500,0.147996,1.059889,-0.666787,-0.894689,0.807888,-1.265685
846038972,1497,1486,1554,1496,1073,1497,1486,1554,1496,1180,1440,1480,1520,1500,0.147996,1.059889,-0.666787,-0.894103,0.810562,-1.255487
846139008,1498,1487,1554,1495,1074,1498,1487,1554,1495,1180,1440,1480,1520,1500,0.147996,1.059889,-0.666787,-0.892404,0.814052,-1.243774
846239030,1498,1486,1554,1495,1073,1498,1486,1554,1495,1180,1440,1480,1520,1500,0.147996,1.059889,-0.666787,-0.890525,0.816810,-1.235692
846339053,1497,1486,1554,1496,1073,1497,1486,1554,1496,1180,1440,1480,1520,1500,0.147996,1.059889,-0.666787,-0.887648,0.820826,-1.224232
846439061,1498,1486,1554,1496,1073,1498,1486,1554,1496,1180,1440,1480,1520,1500,0.147996,1.059889,-0.666787,-0.884826,0.823600,-1.216642
846539076,1497,1486,1554,1496,1073,1497,1486,1554,1496,1180,1440,1480,1520,1500,0.147996,1.059889,-0.666787,-0.880556,0.826964,-1.208296
846639079,1498,1486,1554,1496,1074,1498,1486,1554,1496,1180,1440,1480,1520,1500,0.147996,1.059889,-0.666787,-0.873847,0.830452,-1.198424
846739098,1498,1486,1554,1496,1074,1498,1486,1554,1496,1180,1440,1480,1520,1500,0.147996,1.059889,-0.666787,-0.866814,0.833175,-1.189569
846839130,1498,1486,1554,1496,1073,1498,1486,1554,1496,1180,1440,1480,1520,1500,0.147996,1.059889,-0.666787,-0.858707,0.835030,-1.179772
846939132,1498,1486,1554,1496,1073,1498,1486,1554,1496,1180,1440,1480,1520,1500,0.147996,1.059889,-0.666787,-0.848469,0.837009,-1.168263
847039137,1498,1486,1554,1496,1073,1498,1486,1554,1496,1180,1440,1480,1520,1500,0.147996,1.059889,-0.666787,-0.841990,0.837795,-1.161133
847139148,1498,1487,1554,1496,1073,1498,1487,1554,1496,1180,1440,1480,1520,1500,0.147996,1.059889,-0.666787,-0.828300,0.839253,-1.147215
847239171,1497,1486,1554,1496,1073,1497,1486,1554,1496,1180,1440,1480,1520,1500,0.147996,1.059889,-0.666787,-0.814180,0.840807,-1.135420
847339196,1498,1486,1554,1496,1073,1498,1486,1554,1496,1180,1440,1480,1520,1500,0.147996,1.059889,-0.666787,-0.797432,0.842380,-1.122608
847439225,1497,1486,1554,1496,1073,1497,1486,1554,1496,1180,1440,1480,1520,1500,0.147996,1.059889,-0.666787,-0.782349,0.843254,-1.111651
847539245,1498,1487,1554,1495,1074,1498,1487,1554,1495,1180,1440,1480,1520,1500,0.147996,1.059889,-0.666787,-0.761906,0.844459,-1.098636
847639277,1498,1486,1554,1496,1073,1498,1486,1554,1496,1180,1440,1480,1520,1500,0.147996,1.059889,-0.666787,-0.739326,0.845106,-1.085472
847739302,1497,1486,1554,1496,1073,1497,1486,1554,1496,1180,1440,1480,1520,1500,0.147996,1.059889,-0.666787,-0.714983,0.845645,-1.071181
847839307,1515,1486,1554,1493,1073,1515,1486,1554,1493,1180,1440,1480,1520,1500,0.147996,1.059889,-0.666787,-0.684526,0.846799,-1.053793
847939336,1625,1486,1552,1493,1073,1625,1486,1552,1493,1180,1440,1480,1520,1500,0.147996,1.059889,-0.666787,-0.662018,0.847970,-1.041784
848039337,1626,1487,1552,1492,1073,1626,1487,1552,1492,1180,1440,1480,1520,1500,0.147996,1.059889,-0.666787,-0.634108,0.849301,-1.030673
848139366,1626,1487,1552,1492,1074,1626,1487,1552,1492,1180,1440,1480,1520,1500,0.147996,1.059889,-0.666787,-0.601060,0.850202,-1.033409
848239388,1612,1488,1552,1492,1074,1612,1488,1552,1492,1180,1440,1480,1520,1500,0.147996,1.059889,-0.666787,-0.571711,0.850098,-1.049500
848339408,1562,1488,1552,1492,1074,1562,1488,1552,1492,1180,1440,1480,1520,1500,0.147996,1.059889,-0.666787,-0.542127,0.849062,-1.078064
848439436,1500,1487,1552,1492,1074,1500,1487,1552,1492,1180,1440,1480,1520,1500,0.147996,1.059889,-0.666787,-0.517474,0.848452,-1.106977
848539441,1497,1490,1538,1492,1074,1497,1490,1538,1492,1180,1440,1480,1520,1500,0.147996,1.059889,-0.666787,-0.486323,0.848350,-1.139393
848639460,1503,1490,1494,1492,1073,1503,1490,1494,1492,1180,1440,1480,1520,1500,0.147996,1.059889,-0.666787,-0.454786,0.848296,-1.166528
848739488,1502,1490,1491,1493,1074,1502,1490,1491,1493,1180,1440,1480,1520,1500,0.147996,1.059889,-0.666787,-0.418979,0.849250,-1.191757
848839511,1502,1490,1507,1493,1074,1502,1490,1507,1493,1180,1440,1480,1520,1500,0.147996,1.059889,-0.666787,-0.393936,0.850110,-1.205136
848939514,1503,1490,1528,1493,1073,1503,1490,1528,1493,1180,1440,1480,1520,1500,0.147996,1.059889,-0.666787,-0.365163,0.851390,-1.216521
849039519,1503,1490,1461,1493,1074,1503,1490,1461,1493,1180,1440,1480,1520,1500,0.147996,1.059889,-0.666787,-0.337002,0.853146,-1.222710
849139525,1503,1491,1433,1494,1073,1503,1491,1433,1494,1180,1440,1480,1520,1500,0.147996,1.059889,-0.666787,-0.306114,0.856246,-1.225526
849239557,1503,1491,1435,1493,1073,1503,1491,1435,1493,1180,1440,1480,1520,1500,0.147996,1.059889,-0.666787,-0.281523,0.859383,-1.226583
849339563,1516,1491,1414,1493,1074,1516,1491,1414,1493,1180,1440,1480,1520,1500,0.147996,1.059889,-0.666787,-0.259112,0.863744,-1.224843
849439572,1567,1491,1431,1493,1074,1567,1491,1431,1493,1180,1440,1480,1520,1500,0.147996,1.059889,-0.666787,-0.244563,0.868101,-1.221453
849539604,1577,1491,1504,1492,1073,1577,1491,1504,1492,1180,1440,1480,1520,1500,0.147996,1.059889,-0.666787,-0.228976,0.874858,-1.214711
849639608,1570,1490,1549,1494,1073,1570,1490,1549,1494,1180,1440,1480,1520,1500,0.147996,1.059889,-0.666787,-0.219755,0.882032,-1.212040
849739611,1551,1488,1552,1493,1074,1551,1488,1552,1493,1180,1440,1480,1520,1500,0.147996,1.059889,-0.666787,-0.214064,0.890388,-1.214675
849839644,1544,1487,1552,1493,1074,1544,1487,1552,1493,1180,1440,1480,1520,1500,0.147996,1.059889,-0.666787,-0.209840,0.900751,-1.219856
849939676,1554,1486,1552,1493,1074,1554,1486,1552,1493,1180,1440,1480,1520,1500,0.147996,1.059889,-0.666787,-0.206846,0.913118,-1.224711
850039689,1529,1488,1552,1493,1074,1529,1488,1552,1493,1180,1440,1480,1520,1500,0.147996,1.059889,-0.666787,-0.204667,0.924604,-1.228969
850139717,1529,1599,1552,1496,1073,1529,1599,1552,1496,1180,1440,1480,1520,1500,0.147996,1.059889,-0.666787,-0.201666,0.941633,-1.235111
850239743,1528,1654,1552,1496,1073,1528,1654,1552,1496,1180,1440,1480,1520,1500,0.147996,1.059889,-0.666787,-0.197888,0.954932,-1.236988
850339744,1528,1586,1554,1494,1073,1528,1586,1554,1494,1180,1440,1480,1520,1500,0.147996,1.059889,-0.666787,-0.193026,0.963493,-1.232847
850439761,1503,1498,1554,1495,1073,1503,1498,1554,1495,1180,1440,1480,1520,1500,0.147996,1.059889,-0.666787,-0.186938,0.965982,-1.232163
850539783,1498,1490,1554,1496,1073,1498,1490,1554,1496,1180,1440,1480,1520,1500,0.147996,1.059889,-0.666787,-0.180959,0.962330,-1.232119
850639785,1498,1488,1554,1496,1073,1498,1488,1554,1496,1180,1440,1480,1520,1500,0.147996,1.059889,-0.666787,-0.174542,0.955584,-1.229523
850739820,1498,1488,1554,1496,1074,1498,1488,1554,1496,1180,1440,1480,1520,1500,0.147996,1.059889,-0.666787,-0.165604,0.943957,-1.222069
850839868,1498,1488,1554,1495,1074,1498,1488,1554,1495,1180,1440,1480,1520,1500,0.147996,1.059889,-0.666787,-0.157066,0.932041,-1.213938
850939881,1498,1488,1554,1495,1074,1498,1488,1554,1495,1180,1440,1480,1520,1500,0.147996,1.059889,-0.666787,-0.147119,0.917967,-1.205068
851039899,1498,1488,1554,1494,1074,1498,1488,1554,1494,1180,1440,1480,1520,1500,0.147996,1.059889,-0.666787,-0.137468,0.904559,-1.198737
851139924,1498,1488,1554,1494,1074,1498,1488,1554,1494,1180,1440,1480,1520,1500,0.147996,1.059889,-0.666787,-0.122246,0.884591,-1.189886
851239955,1498,1488,1554,1494,1074,1498,1488,1554,1494,1180,1440,1480,1520,1500,0.147996,1.059889,-0.666787,-0.107795,0.867575,-1.182195
851339977,1498,1488,1554,1495,1074,1498,1488,1554,1495,1180,1440,1480,1520,1500,0.147996,1.059889,-0.666787,-0.092573,0.851808,-1.174757
851440002,1498,1488,1554,1496,1073,1498,1488,1554,1496,1180,1440,1480,1520,1500,0.147996,1.059889,-0.666787,-0.076547,0.836301,-1.167181
851540037,1498,1488,1554,1495,1074,1498,1488,1554,1495,1180,1440,1480,1520,1500,0.147996,1.059889,-0.666787,-0.059237,0.820045,-1.160616
851640060,1497,1487,1554,1496,1073,1497,1487,1554,1496,1180,1440,1480,1520,1500,0.147996,1.059889,-0.666787,-0.040169,0.802256,-1.154824
851740095,1498,1488,1554,1495,1074,1498,1488,1554,1495,1180,1440,1480,1520,1500,0.147996,1.059889,-0.666787,-0.019494,0.783686,-1.149269
851840104,1498,1488,1554,1496,1074,1498,1488,1554,1496,1180,1440,1480,1520,1500,0.147996,1.059889,-0.666787,0.001972,0.764895,-1.142310
851940121,1498,1486,1554,1495,1074,1498,1486,1554,1495,1180,1440,1480,1520,1500,0.147996,1.059889,-0.666787,0.029093,0.745089,-1.134768
852040156,1498,1488,1554,1496,1073,1498,1488,1554,1496,1180,1440,1480,1520,1500,0.147996,1.059889,-0.666787,0.049155,0.732381,-1.129553
852140181,1498,1487,1554,1495,1074,1498,1487,1554,1495,1180,1440,1480,1520,1500,0.147996,1.059889,-0.666787,0.075716,0.717975,-1.122537
852240209,1498,1487,1554,1496,1073,1498,1487,1554,1496,1180,1440,1480,1520,1500,0.147996,1.059889,-0.666787,0.104085,0.703395,-1.115961
852340221,1498,1487,1554,1496,1073,1498,1487,1554,1496,1180,1440,1480,1520,1500,0.147996,1.059889,-0.666787,0.128313,0.691134,-1.110815
852440244,1498,1488,1554,1495,1074,1498,1488,1554,1495,1180,1440,1480,1520,1500,0.147996,1.059889,-0.666787,0.159781,0.676625,-1.106071
852540279,1498,1488,1554,1495,1074,1498,1488,1554,1495,1180,1440,1480,1520,1500,0.147996,1.059889,-0.666787,0.197288,0.660498,-1.098811
852640286,1498,1486,1554,1496,1073,1498,1486,1554,1496,1180,1440,1480,1518,1500,0.147996,1.059889,-0.666787,0.230886,0.648984,-1.093024
852740319,1498,1488,1554,1495,1074,1498,1488,1554,1495,1180,1440,1480,1514,1500,0.147996,1.059889,-0.666787,0.265175,0.639485,-1.087242
852840348,1497,1486,1554,1496,1073,1497,1486,1554,1496,1180,1440,1480,1509,1500,0.147996,1.059889,-0.666787,0.299421,0.631784,-1.082047
852940353,1497,1488,1552,1496,1073,1497,1488,1552,1496,1180,1440,1480,1505,1500,0.147996,1.059889,-0.666787,0.334338,0.625831,-1.077941
853040391,1498,1487,1539,1495,1074,1498,1487,1539,1495,1180,1440,1480,1500,1500,0.147996,1.059889,-0.666787,0.370039,0.620730,-1.074499
853140398,1498,1491,1469,1495,1074,1498,1491,1469,1495,1180,1440,1480,1496,1500,0.147996,1.059889,-0.666787,0.399801,0.616779,-1.073154
853240433,1498,1491,1460,1496,1074,1498,1491,1460,1496,1180,1440,1480,1491,1500,0.147996,1.059889,-0.666787,0.439673,0.613166,-1.073185
853340457,1498,1487,1554,1496,1073,1498,1487,1554,1496,1180,1440,1480,1487,1500,0.147996,1.059889,-0.666787,0.471976,0.611364,-1.074564
853440470,1498,1486,1554,1496,1073,1498,1486,1554,1496,1180,1440,1480,1483,1500,0.147996,1.059889,-0.666787,0.497988,0.610882,-1.076181
853540495,1498,1486,1554,1496,1074,1498,1486,1554,1496,1180,1440,1480,1480,1500,0.147996,1.059889,-0.666787,0.532874,0.610248,-1.078705
853640521,1498,1486,1554,1496,1074,1498,1486,1554,1496,1180,1440,1480,1480,1500,0.147996,1.059889,-0.666787,0.557919,0.609022,-1.080467
853740539,1498,1486,1554,1496,1074,1498,1486,1554,1496,1180,1440,1480,1480,1500,0.147996,1.059889,-0.666787,0.592858,0.607560,-1.083475
853840541,1497,1486,1554,1496,1073,1497,1486,1554,1496,1180,1440,1480,1480,1500,0.147996,1.059889,-0.666787,0.622088,0.606235,-1.086299
853940555,1498,1486,1554,1495,1074,1498,1486,1554,1495,1180,1440,1480,1480,1500,0.147996,1.059889,-0.666787,0.652132,0.605774,-1.087616
854040580,1498,1486,1554,1496,1074,1498,1486,1554,1496,1180,1440,1480,1480,1500,0.147996,1.059889,-0.666787,0.678123,0.605964,-1.089286
854140613,1498,1486,1547,1495,1074,1498,1486,1547,1495,1180,1440,1480,1480,1500,0.147996,1.059889,-0.666787,0.715240,0.608071,-1.092173
854240648,1497,1486,1547,1495,1073,1497,1486,1547,1495,1180,1440,1480,1480,1500,0.147996,1.059889,-0.666787,0.742809,0.610336,-1.094097
854340656,1498,1586,1317,1496,1074,1498,1586,1317,1496,1180,1440,1480,1480,1500,0.147996,1.059889,-0.666787,0.783146,0.614170,-1.095739
854440672,1498,1532,1415,1496,1073,1498,1532,1415,1496,1180,1440,1480,1480,1500,0.147996,1.059889,-0.666787,0.815518,0.615050,-1.097857
854540701,1497,1524,1454,1496,1073,1497,1524,1454,1496,1180,1440,1480,1480,1500,0.147996,1.059889,-0.666787,0.842806,0.612858,-1.103302
854640733,1498,1514,1486,1495,1074,1498,1514,1486,1495,1180,1440,1480,1480,1500,0.147996,1.059889,-0.666787,0.865901,0.608115,-1.106782
854740758,1498,1491,1532,1496,1073,1498,1491,1532,1496,1180,1440,1480,1480,1500,0.147996,1.059889,-0.666787,0.883001,0.601567,-1.107774
854840771,1498,1490,1546,1496,1073,1498,1490,1546,1496,1180,1440,1480,1480,1500,0.147996,1.059889,-0.666787,0.896148,0.594030,-1.106793
854940794,1498,1490,1546,1496,1074,1498,1490,1546,1496,1180,1440,1480,1480,1500,0.147996,1.059889,-0.666787,0.907039,0.585558,-1.105345
855040827,1498,1491,1524,1495,1074,1498,1491,1524,1495,1180,1440,1480,1480,1500,0.147996,1.059889,-0.666787,0.916071,0.575004,-1.102572
855140849,1498,1491,1546,1495,1074,1498,1491,1546,1495,1180,1440,1480,1480,1500,0.147996,1.059889,-0.666787,0.922309,0.562073,-1.099612
855240884,1498,1487,1546,1496,1073,1498,1487,1546,1496,1180,1440,1480,1480,1500,0.147996,1.059889,-0.666787,0.926142,0.547141,-1.096220
855340918,1498,1486,1546,1495,1074,1498,1486,1546,1495,1180,1440,1480,1480,1500,0.147996,1.059889,-0.666787,0.929990,0.532410,-1.092538
855440924,1498,1486,1546,1496,1073,1498,1486,1546,1496,1180,1440,1480,1480,1500,0.147996,1.059889,-0.666787,0.935025,0.518143,-1.089847
855540946,1498,1486,1546,1495,1074,1498,1486,1546,1495,1180,1440,1480,1480,1500,0.147996,1.059889,-0.666787,0.940855,0.503414,-1.087436
855640966,1497,1486,1546,1496,1074,1497,1486,1546,1496,1180,1440,1480,1480,1500,0.147996,1.059889,-0.666787,0.948215,0.488468,-1.084949
855740994,1498,1486,1546,1495,1074,1498,1486,1546,1495,1180,1440,1480,1480,1500,0.147996,1.059889,-0.666787,0.953561,0.474969,-1.082157
855841017,1497,1486,1546,1496,1073,1497,1486,1546,1496,1180,1440,1480,1480,1500,0.147996,1.059889,-0.666787,0.960820,0.453744,-1.079030
855941043,1497,1486,1546,1495,1073,1497,1486,1546,1495,1180,1440,1480,1480,1500,0.147996,1.059889,-0.666787,0.966743,0.434586,-1.076882
856041066,1497,1486,1546,1495,1073,1497,1486,1546,1495,1180,1440,1480,1480,1500,0.147996,1.059889,-0.666787,0.973776,0.415261,-1.074510
856141089,1498,1486,1546,1495,1074,1498,1486,1546,1495,1180,1440,1480,1480,1500,0.147996,1.059889,-0.666787,0.982446,0.395902,-1.072434
856241090,1498,1485,1546,1495,1074,1498,1485,1546,1495,1180,1440,1480,1480,1500,0.147996,1.059889,-0.666787,0.992083,0.376677,-1.070968
856341118,1498,1450,1546,1495,1074,1498,1450,1546,1495,1180,1440,1480,1480,1500,0.147996,1.059889,-0.666787,0.999386,0.360857,-1.070766
856441143,1498,1421,1546,1495,1074,1498,1421,1546,1495,1180,1440,1480,1480,1500,0.147996,1.059889,-0.666787,1.010173,0.336796,-1.071490
856541153,1497,1474,1546,1496,1073,1497,1474,1546,1496,1180,1440,1480,1480,1500,0.147996,1.059889,-0.666787,1.018824,0.316013,-1.072926
856641186,1498,1486,1546,1495,1074,1498,1486,1546,1495,1180,1440,1480,1480,1500,0.147996,1.059889,-0.666787,1.027264,0.298737,-1.074070
856741201,1497,1448,1547,1495,1073,1497,1448,1547,1495,1180,1440,1480,1480,1500,0.147996,1.059889,-0.666787,1.040140,0.276016,-1.075053
856841231,1498,1462,1546,1496,1073,1498,1462,1546,1496,1180,1440,1480,1480,1500,0.147996,1.059889,-0.666787,1.052614,0.258594,-1.077568
856941232,1497,1434,1546,1495,1073,1497,1434,1546,1495,1180,1440,1480,1480,1500,0.147996,1.059889,-0.666787,1.067704,0.239497,-1.081011
857041233,1497,1415,1547,1496,1073,1497,1415,1547,1496,1180,1440,1480,1480,1500,0.147996,1.059889,-0.666787,1.077899,0.226594,-1.083544
857141257,1497,1485,1546,1495,1073,1497,1485,1546,1495,1180,1440,1480,1480,1500,0.147996,1.059889,-0.666787,1.090522,0.212581,-1.088463
857241264,1498,1486,1546,1495,1074,1498,1486,1546,1495,1180,1440,1480,1480,1500,0.147996,1.059889,-0.666787,1.103213,0.199996,-1.092094
857341279,1498,1486,1546,1496,1073,1498,1486,1546,1496,1180,1440,1480,1480,1500,0.147996,1.059889,-0.666787,1.116374,0.188335,-1.095768
857441289,1498,1487,1524,1495,1074,1498,1487,1524,1495,1180,1440,1480,1480,1500,0.147996,1.059889,-0.666787,1.129988,0.179872,-1.099241
857541315,1497,1490,1446,1495,1073,1497,1490,1446,1495,1180,1440,1480,1480,1500,0.147996,1.059889,-0.666787,1.140727,0.174408,-1.102538
857641328,1498,1490,1481,1495,1074,1498,1490,1481,1495,1180,1440,1480,1480,1500,0.147996,1.059889,-0.666787,1.154616,0.167224,-1.105902
857741346,1498,1490,1508,1496,1074,1498,1490,1508,1496,1180,1440,1480,1480,1500,0.147996,1.059889,-0.666787,1.164937,0.161713,-1.107663
857841361,1498,1490,1527,1496,1073,1498,1490,1527,1496,1180,1440,1480,1480,1500,0.147996,1.059889,-0.666787,1.173648,0.156209,-1.108117
857941366,1498,1490,1538,1495,1074,1498,1490,1538,1495,1180,1440,1480,1480,1500,0.147996,1.059889,-0.666787,1.180669,0.150545,-1.107263
858041388,1498,1490,1546,1496,1074,1498,1490,1546,1496,1180,1440,1480,1480,1500,0.147996,1.059889,-0.666787,1.186584,0.145521,-1.104408
858141390,1497,1490,1491,1495,1073,1497,1490,1491,1495,1180,1440,1480,1480,1500,0.147996,1.059889,-0.666787,1.190595,0.141339,-1.100871
858241415,1498,1490,1532,1496,1074,1498,1490,1532,1496,1180,1440,1480,1480,1500,0.147996,1.059889,-0.666787,1.193731,0.135079,-1.095167
858341432,1498,1486,1546,1495,1074,1498,1486,1546,1495,1180,1440,1480,1480,1500,0.147996,1.059889,-0.666787,1.194320,0.130505,-1.090266
858441454,1498,1486,1547,1496,1073,1498,1486,1547,1496,1180,1440,1480,1480,1500,0.147996,1.059889,-0.666787,1.193710,0.124469,-1.081790
858541483,1497,1486,1547,1496,1073,1497,1486,1547,1496,1180,1440,1480,1480,1500,0.147996,1.059889,-0.666787,1.192481,0.119518,-1.073354
858641484,1498,1486,1547,1496,1074,1498,1486,1547,1496,1180,1440,1480,1480,1500,0.147996,1.059889,-0.666787,1.191410,0.115503,-1.064571
858741514,1498,1486,1547,1497,1074,1498,1486,1547,1497,1180,1440,1480,1480,1500,0.147996,1.059889,-0.666787,1.191350,0.112516,-1.054837
858841533,1498,1486,1548,1496,1073,1498,1486,1548,1496,1180,1440,1480,1480,1500,0.147996,1.059889,-0.666787,1.191660,0.110908,-1.044025
858941567,1498,1486,1548,1496,1074,1498,1486,1548,1496,1180,1440,1480,1480,1500,0.147996,1.059889,-0.666787,1.192168,0.110715,-1.032719
859041588,1498,1486,1548,1496,1073,1498,1486,1548,1496,1180,1440,1480,1480,1500,0.147996,1.059889,-0.666787,1.192816,0.111820,-1.021037
859141608,1498,1486,1546,1497,1074,1498,1486,1546,1497,1180,1440,1480,1480,1500,0.147996,1.059889,-0.666787,1.194390,0.113671,-1.010842
859241622,1498,1487,1546,1497,1074,1498,1487,1546,1497,1180,1440,1480,1480,1500,0.147996,1.059889,-0.666787,1.198433,0.117358,-0.996106
859341632,1498,1486,1539,1498,1074,1498,1486,1539,1498,1180,1440,1480,1480,1500,0.147996,1.059889,-0.666787,1.202687,0.120144,-0.985421
859441641,1497,1486,1541,1497,1073,1497,1486,1541,1497,1180,1440,1480,1480,1500,0.147996,1.059889,-0.666787,1.208793,0.125273,-0.970047
859541666,1498,1486,1539,1497,1073,1498,1486,1539,1497,1180,1440,1480,1480,1500,0.147996,1.059889,-0.666787,1.213874,0.129932,-0.957307
859641688,1497,1486,1539,1496,1073,1497,1486,1539,1496,1180,1440,1480,1480,1500,0.147996,1.059889,-0.666787,1.218062,0.134577,-0.945375
859741717,1498,1486,1541,1497,1074,1498,1486,1541,1497,1180,1440,1480,1480,1500,0.147996,1.059889,-0.666787,1.222349,0.139362,-0.933661
859841723,1498,1487,1541,1497,1073,1498,1487,1541,1497,1180,1440,1480,1480,1500,0.147996,1.059889,-0.666787,1.227026,0.143853,-0.921875
859941727,1497,1486,1541,1497,1073,1497,1486,1541,1497,1180,1440,1480,1480,1500,0.147996,1.059889,-0.666787,1.230636,0.147511,-0.912336
860041761,1498,1486,1541,1497,1073,1498,1486,1541,1497,1180,1441,1480,1480,1500,0.147996,1.059889,-0.666787,1.235007,0.151960,-0.901182
860141775,1498,1486,1539,1497,1074,1498,1486,1539,1497,1180,1443,1480,1480,1500,0.147996,1.059889,-0.666787,1.240208,0.156214,-0.888686
860241810,1498,1486,1539,1497,1073,1498,1486,1539,1497,1180,1444,1480,1480,1500,0.147996,1.059889,-0.666787,1.244002,0.159115,-0.878315
860341815,1497,1486,1539,1497,1073,1497,1486,1539,1497,1180,1445,1480,1480,1500,0.147996,1.059889,-0.666787,1.248469,0.162200,-0.869050
860441851,1498,1486,1541,1496,1073,1498,1486,1541,1496,1180,1446,1480,1480,1500,0.147996,1.059889,-0.666787,1.253430,0.165629,-0.860379
860541877,1497,1486,1541,1497,1073,1497,1486,1541,1497,1180,1447,1480,1480,1500,0.147996,1.059889,-0.666787,1.258415,0.168955,-0.852599
860641908,1497,1486,1541,1497,1073,1497,1486,1541,1497,1180,1448,1480,1480,1500,0.147996,1.059889,-0.666787,1.263726,0.172838,-0.845737
860741938,1498,1487,1539,1497,1074,1498,1487,1539,1497,1180,1449,1480,1480,1500,0.147996,1.059889,-0.666787,1.269220,0.177031,-0.839965
860841954,1498,1488,1539,1497,1073,1498,1488,1539,1497,1180,1449,1480,1480,1500,0.147996,1.059889,-0.666787,1.274304,0.180946,-0.834775
860941974,1498,1490,1526,1497,1073,1498,1490,1526,1497,1180,1450,1480,1480,1500,0.147996,1.059889,-0.666787,1.278697,0.183974,-0.831082
861041975,1498,1490,1490,1496,1073,1498,1490,1490,1496,1180,1450,1480,1480,1500,0.147996,1.059889,-0.666787,1.284085,0.188758,-0.826986
861142004,1498,1490,1504,1497,1074,1498,1490,1504,1497,1180,1451,1480,1480,1500,0.147996,1.059889,-0.666787,1.287602,0.192619,-0.824447
861242033,1498,1490,1539,1496,1074,1498,1490,1539,1496,1180,1451,1480,1480,1500,0.147996,1.059889,-0.666787,1.291394,0.196372,-0.823552
861342047,1497,1491,1539,1497,1073,1497,1491,1539,1497,1180,1451,1480,1480,1500,0.147996,1.059889,-0.666787,1.293261,0.198933,-0.823792
861442071,1495,1524,1490,1496,1073,1495,1524,1490,1496,1180,1450,1480,1480,1500,0.147996,1.059889,-0.666787,1.295912,0.203288,-0.825659
861542101,1496,1520,1519,1497,1073,1496,1520,1519,1497,1180,1450,1480,1480,1500,0.147996,1.059889,-0.666787,1.296054,0.206045,-0.826330
861642137,1496,1494,1536,1497,1074,1496,1494,1536,1497,1180,1450,1480,1480,1500,0.147996,1.059889,-0.666787,1.294332,0.208409,-0.827716
861742185,1496,1487,1541,1497,1073,1496,1487,1541,1497,1180,1450,1480,1480,1500,0.147996,1.059889,-0.666787,1.291721,0.210434,-0.829949
861842187,1496,1488,1541,1497,1074,1496,1488,1541,1497,1180,1450,1480,1480,1500,0.147996,1.059889,-0.666787,1.289382,0.212363,-0.832069
861942204,1495,1533,1513,1497,1073,1495,1533,1513,1497,1180,1449,1480,1480,1500,0.147996,1.059889,-0.666787,1.287199,0.213953,-0.835468
862042208,1496,1514,1513,1497,1074,1496,1514,1513,1497,1180,1449,1480,1480,1500,0.147996,1.059889,-0.666787,1.284574,0.215806,-0.837820
862142215,1495,1512,1490,1496,1073,1495,1512,1490,1496,1180,1449,1480,1480,1500,0.147996,1.059889,-0.666787,1.280698,0.217303,-0.838756
862242236,1496,1522,1507,1497,1074,1496,1522,1507,1497,1180,1449,1480,1480,1500,0.147996,1.059889,-0.666787,1.275207,0.218993,-0.839720
862342268,1496,1491,1539,1496,1074,1496,1491,1539,1496,1180,1449,1480,1480,1500,0.147996,1.059889,-0.666787,1.269203,0.219236,-0.839174
862442274,1495,1524,1525,1497,1074,1495,1524,1525,1497,1180,1449,1480,1480,1500,0.147996,1.059889,-0.666787,1.263938,0.218592,-0.838318
862542310,1495,1549,1507,1496,1073,1495,1549,1507,1496,1180,1449,1480,1480,1500,0.147996,1.059889,-0.666787,1.259083,0.217633,-0.838722
862642331,1495,1491,1539,1497,1073,1495,1491,1539,1497,1180,1449,1480,1480,1500,0.147996,1.059889,-0.666787,1.253735,0.215065,-0.838553
862742351,1495,1487,1539,1497,1073,1495,1487,1539,1497,1180,1449,1480,1480,1500,0.147996,1.059889,-0.666787,1.246831,0.211826,-0.839757
862842359,1496,1486,1539,1497,1074,1496,1486,1539,1497,1180,1448,1480,1480,1500,0.147996,1.059889,-0.666787,1.239770,0.207604,-0.841972
862942361,1496,1487,1539,1497,1074,1496,1487,1539,1497,1180,1448,1480,1480,1500,0.147996,1.059889,-0.666787,1.227774,0.200389,-0.844178
863042388,1498,1486,1539,1495,1074,1498,1486,1539,1495,1180,1448,1480,1480,1500,0.147996,1.059889,-0.666787,1.217391,0.193785,-0.846401
863142415,1498,1486,1539,1493,1074,1498,1486,1539,1493,1180,1448,1480,1480,1500,0.147996,1.059889,-0.666787,1.206367,0.187318,-0.850110
863242466,1498,1486,1539,1493,1074,1498,1486,1539,1493,1180,1447,1480,1480,1500,0.147996,1.059889,-0.666787,1.195043,0.181755,-0.854045
863342491,1498,1486,1539,1493,1073,1498,1486,1539,1493,1180,1447,1480,1480,1500,0.147996,1.059889,-0.666787,1.183933,0.177766,-0.857834
863442525,1498,1487,1539,1495,1073,1498,1487,1539,1495,1180,1446,1480,1480,1500,0.147996,1.059889,-0.666787,1.171959,0.173928,-0.862348
863542538,1498,1508,1499,1494,1074,1498,1508,1499,1494,1180,1446,1480,1480,1500,0.147996,1.059889,-0.666787,1.160514,0.169946,-0.866777
863642556,1498,1533,1484,1494,1074,1498,1533,1484,1494,1180,1445,1480,1480,1500,0.147996,1.059889,-0.666787,1.150480,0.167834,-0.871536
863742568,1498,1505,1516,1495,1074,1498,1505,1516,1495,1180,1445,1480,1480,1500,0.147996,1.059889,-0.666787,1.140977,0.164994,-0.874419
863842594,1498,1490,1539,1495,1074,1498,1490,1539,1495,1180,1444,1480,1480,1500,0.147996,1.059889,-0.666787,1.130063,0.161302,-0.877611
863942617,1498,1490,1539,1495,1074,1498,1490,1539,1495,1180,1444,1480,1480,1500,0.147996,1.059889,-0.666787,1.118006,0.158096,-0.881942
864042652,1498,1491,1539,1495,1074,1498,1491,1539,1495,1180,1443,1480,1480,1500,0.147996,1.059889,-0.666787,1.107570,0.155723,-0.885347
864142676,1498,1491,1528,1496,1073,1498,1491,1528,1496,1180,1443,1480,1480,1500,0.147996,1.059889,-0.666787,1.094919,0.152107,-0.889446
864242690,1498,1491,1523,1495,1074,1498,1491,1523,1495,1180,1442,1480,1480,1500,0.147996,1.059889,-0.666787,1.083717,0.149468,-0.892574
864342703,1498,1491,1539,1495,1073,1498,1491,1539,1495,1180,1442,1480,1480,1500,0.147996,1.059889,-0.666787,1.067078,0.144661,-0.897314
864442722,1498,1488,1539,1495,1074,1498,1488,1539,1495,1180,1441,1480,1480,1500,0.147996,1.059889,-0.666787,1.052143,0.140858,-0.900959
864542744,1498,1486,1539,1495,1074,1498,1486,1539,1495,1180,1441,1480,1480,1500,0.147996,1.059889,-0.666787,1.034819,0.136646,-0.904800
864642770,1498,1486,1539,1497,1074,1498,1486,1539,1497,1180,1441,1480,1480,1500,0.147996,1.059889,-0.666787,1.020324,0.132620,-0.907173
864742824,1498,1486,1539,1497,1074,1498,1486,1539,1497,1180,1441,1480,1480,1500,0.147996,1.059889,-0.666787,1.002582,0.128169,-0.908409
864842857,1497,1486,1539,1497,1074,1497,1486,1539,1497,1180,1440,1480,1480,1500,0.147996,1.059889,-0.666787,0.983304,0.123699,-0.908780
864942899,1498,1486,1539,1497,1074,1498,1486,1539,1497,1180,1441,1480,1480,1500,0.147996,1.059889,-0.666787,0.966572,0.119323,-0.907944
865042932,1497,1486,1539,1497,1073,1497,1486,1539,1497,1180,1441,1480,1480,1500,0.147996,1.059889,-0.666787,0.947122,0.113755,-0.906871
865142940,1498,1487,1539,1497,1074,1498,1487,1539,1497,1180,1441,1480,1480,1500,0.147996,1.059889,-0.666787,0.923952,0.106955,-0.905142
865242951,1498,1486,1539,1497,1073,1498,1486,1539,1497,1180,1441,1480,1480,1500,0.147996,1.059889,-0.666787,0.907541,0.102331,-0.904383
865342972,1497,1486,1539,1497,1073,1497,1486,1539,1497,1180,1441,1480,1480,1500,0.147996,1.059889,-0.666787,0.883318,0.095329,-0.903572
865442995,1498,1486,1539,1497,1074,1498,1486,1539,1497,1180,1441,1480,1480,1500,0.147996,1.059889,-0.666787,0.865062,0.090442,-0.903165
865543018,1498,1486,1539,1497,1074,1498,1486,1539,1497,1180,1441,1480,1480,1500,0.147996,1.059889,-0.666787,0.840286,0.083984,-0.902682
865643040,1498,1486,1539,1497,1073,1498,1486,1539,1497,1180,1441,1480,1480,1500,0.147996,1.059889,-0.666787,0.820756,0.079677,-0.903347
865743054,1498,1486,1542,1496,1074,1498,1486,1542,1496,1180,1441,1480,1480,1500,0.147996,1.059889,-0.666787,0.802600,0.076931,-0.905073
865843076,1498,1487,1539,1497,1074,1498,1487,1539,1497,1180,1441,1480,1480,1500,0.147996,1.059889,-0.666787,0.784783,0.074191,-0.906299
865943081,1497,1487,1539,1497,1074,1497,1487,1539,1497,1180,1441,1480,1480,1500,0.147996,1.059889,-0.666787,0.765219,0.071435,-0.908300
866043093,1497,1486,1539,1497,1073,1497,1486,1539,1497,1180,1440,1480,1480,1500,0.147996,1.059889,-0.666787,0.745464,0.068974,-0.911600
866143104,1497,1487,1542,1496,1074,1497,1487,1542,1496,1180,1440,1480,1480,1500,0.147996,1.059889,-0.666787,0.726258,0.067161,-0.914919
866243126,1498,1486,1542,1496,1073,1498,1486,1542,1496,1180,1440,1480,1480,1500,0.147996,1.059889,-0.666787,0.708245,0.066515,-0.918223
866343155,1497,1486,1541,1497,1073,1497,1486,1541,1497,1180,1440,1480,1480,1500,0.147996,1.059889,-0.666787,0.690072,0.065639,-0.922565
866443173,1497,1486,1541,1497,1073,1497,1486,1541,1497,1180,1440,1480,1480,1500,0.147996,1.059889,-0.666787,0.671462,0.063734,-0.925116
866543188,1498,1487,1542,1496,1074,1498,1487,1542,1496,1180,1440,1480,1480,1500,0.147996,1.059889,-0.666787,0.653767,0.062343,-0.929646
866643207,1498,1488,1544,1496,1073,1498,1488,1544,1496,1180,1440,1480,1480,1500,0.147996,1.059889,-0.666787,0.636417,0.061281,-0.933342
866743208,1498,1488,1546,1497,1074,1498,1488,1546,1497,1180,1440,1480,1480,1500,0.147996,1.059889,-0.666787,0.622303,0.060525,-0.935847
866843226,1498,1488,1546,1497,1073,1498,1488,1546,1497,1180,1440,1480,1480,1500,0.147996,1.059889,-0.666787,0.604876,0.061265,-0.939355
866943257,1498,1487,1544,1496,1074,1498,1487,1544,1496,1180,1440,1480,1480,1500,0.147996,1.059889,-0.666787,0.590662,0.061815,-0.940524
867043264,1498,1487,1544,1495,1074,1498,1487,1544,1495,1180,1440,1480,1480,1500,0.147996,1.059889,-0.666787,0.579991,0.062932,-0.942647
867143281,1498,1488,1541,1496,1074,1498,1488,1541,1496,1180,1440,1480,1480,1500,0.147996,1.059889,-0.666787,0.566474,0.064179,-0.944950
867243313,1498,1488,1541,1496,1073,1498,1488,1541,1496,1180,1440,1480,1480,1500,0.147996,1.059889,-0.666787,0.555386,0.064937,-0.946912
867343319,1498,1505,1542,1495,1074,1498,1505,1542,1495,1180,1440,1480,1480,1500,0.147996,1.059889,-0.666787,0.544241,0.065213,-0.947742
867443336,1498,1529,1541,1496,1073,1498,1529,1541,1496,1180,1440,1480,1480,1500,0.147996,1.059889,-0.666787,0.536206,0.067475,-0.952500
867543372,1498,1534,1539,1496,1073,1498,1534,1539,1496,1180,1440,1480,1480,1500,0.147996,1.059889,-0.666787,0.525617,0.070378,-0.957586
867643401,1498,1490,1541,1496,1073,1498,1490,1541,1496,1180,1440,1480,1480,1500,0.147996,1.059889,-0.666787,0.517593,0.073663,-0.960855
867743434,1497,1487,1541,1496,1073,1497,1487,1541,1496,1180,1440,1480,1480,1500,0.147996,1.059889,-0.666787,0.509607,0.076370,-0.963572
867843452,1498,1490,1539,1496,1074,1498,1490,1539,1496,1180,1440,1480,1480,1500,0.147996,1.059889,-0.666787,0.501204,0.077780,-0.964828
867943477,1498,1558,1526,1496,1073,1498,1558,1526,1496,1180,1440,1480,1480,1500,0.147996,1.059889,-0.666787,0.493325,0.079655,-0.964653
868043508,1498,1551,1532,1496,1073,1498,1551,1532,1496,1180,1440,1480,1480,1500,0.147996,1.059889,-0.666787,0.484909,0.079962,-0.961218
868143520,1498,1490,1539,1496,1074,1498,1490,1539,1496,1180,1440,1480,1480,1500,0.147996,1.059889,-0.666787,0.479753,0.080041,-0.961171
868243535,1498,1487,1539,1496,1073,1498,1487,1539,1496,1180,1440,1480,1480,1500,0.147996,1.059889,-0.666787,0.471199,0.077123,-0.960268
868343554,1498,1488,1541,1495,1073,1498,1488,1541,1495,1180,1440,1480,1480,1500,0.147996,1.059889,-0.666787,0.463189,0.072014,-0.958644
868443568,1497,1487,1543,1497,1073,1497,1487,1543,1497,1180,1440,1480,1480,1500,0.147996,1.059889,-0.666787,0.454893,0.065401,-0.954450
868543591,1498,1486,1544,1496,1073,1498,1486,1544,1496,1180,1440,1480,1480,1500,0.147996,1.059889,-0.666787,0.446979,0.058610,-0.946988
868643608,1498,1486,1544,1496,1074,1498,1486,1544,1496,1180,1440,1480,1480,1500,0.147996,1.059889,-0.666787,0.439439,0.051182,-0.940395
868743626,1497,1486,1543,1497,1073,1497,1486,1543,1497,1180,1440,1480,1480,1500,0.147996,1.059889,-0.666787,0.435773,0.045310,-0.933789
868843641,1498,1486,1544,1496,1074,1498,1486,1544,1496,1180,1440,1480,1480,1500,0.147996,1.059889,-0.666787,0.431707,0.038400,-0.928439
868943671,1498,1486,1544,1495,1074,1498,1486,1544,1495,1180,1440,1480,1480,1500,0.147996,1.059889,-0.666787,0.428588,0.030993,-0.921967
869043689,1497,1486,1543,1497,1073,1497,1486,1543,1497,1180,1440,1480,1480,1500,0.147996,1.059889,-0.666787,0.420864,0.017705,-0.913793
869143708,1498,1486,1544,1497,1074,1498,1486,1544,1497,1180,1441,1480,1480,1500,0.147996,1.059889,-0.666787,0.417283,0.008917,-0.906312
869243716,1498,1486,1544,1496,1073,1498,1486,1544,1496,1180,1442,1480,1480,1500,0.147996,1.059889,-0.666787,0.415586,0.001293,-0.897608
869343731,1498,1486,1544,1497,1074,1498,1486,1544,1497,1180,1443,1480,1480,1500,0.147996,1.059889,-0.666787,0.417198,-0.004856,-0.888573
869443761,1498,1486,1541,1496,1073,1498,1486,1541,1496,1180,1444,1480,1480,1500,0.147996,1.059889,-0.666787,0.417652,-0.012836,-0.880517
869543785,1498,1487,1541,1497,1074,1498,1487,1541,1497,1180,1445,1480,1480,1500,0.147996,1.059889,-0.666787,0.418928,-0.021867,-0.873048
869643808,1498,1488,1539,1495,1074,1498,1488,1539,1495,1180,1446,1480,1480,1500,0.147996,1.059889,-0.666787,0.420248,-0.031422,-0.864687
869743826,1498,1487,1539,1496,1073,1498,1487,1539,1496,1180,1447,1480,1480,1500,0.147996,1.059889,-0.666787,0.424172,-0.039135,-0.855579
869843831,1497,1487,1525,1495,1073,1497,1487,1525,1495,1180,1448,1480,1480,1500,0.147996,1.059889,-0.666787,0.429686,-0.045989,-0.847551
869943848,1498,1490,1488,1496,1074,1498,1490,1488,1496,1180,1448,1480,1480,1500,0.147996,1.059889,-0.666787,0.435437,-0.050350,-0.841885
870043882,1498,1490,1508,1495,1074,1498,1490,1508,1495,1180,1449,1480,1480,1500,0.147996,1.059889,-0.666787,0.443439,-0.056008,-0.832473
870143892,1498,1490,1526,1496,1073,1498,1490,1526,1496,1180,1450,1480,1480,1500,0.147996,1.059889,-0.666787,0.446422,-0.063354,-0.823596
870243911,1498,1490,1532,1497,1074,1498,1490,1532,1497,1180,1452,1480,1480,1500,0.147996,1.059889,-0.666787,0.447887,-0.069429,-0.816620
870343922,1498,1490,1537,1497,1074,1498,1490,1537,1497,1180,1453,1480,1480,1500,0.147996,1.059889,-0.666787,0.450133,-0.076447,-0.806147
870443955,1495,1490,1528,1495,1074,1495,1490,1528,1495,1180,1454,1480,1480,1500,0.147996,1.059889,-0.666787,0.451847,-0.082857,-0.795609
870543973,1495,1490,1511,1495,1073,1495,1490,1511,1495,1180,1455,1480,1480,1500,0.147996,1.059889,-0.666787,0.455773,-0.086787,-0.786935
870643993,1495,1490,1525,1496,1073,1495,1490,1525,1496,1180,1456,1480,1480,1500,0.147996,1.059889,-0.666787,0.456361,-0.093235,-0.776488
870743999,1495,1490,1539,1495,1074,1495,1490,1539,1495,1180,1458,1480,1480,1500,0.147996,1.059889,-0.666787,0.454851,-0.101155,-0.763128
870844032,1496,1490,1539,1496,1073,1496,1490,1539,1496,1180,1460,1480,1480,1500,0.147996,1.059889,-0.666787,0.453296,-0.108321,-0.749902
870944039,1496,1490,1539,1495,1073,1496,1490,1539,1495,1180,1461,1480,1480,1500,0.147996,1.059889,-0.666787,0.452184,-0.114299,-0.737096
871044069,1495,1490,1539,1495,1074,1495,1490,1539,1495,1180,1462,1480,1480,1500,0.147996,1.059889,-0.666787,0.453863,-0.117323,-0.725405
871144097,1478,1490,1539,1497,1074,1478,1490,1539,1497,1180,1464,1480,1480,1500,0.147996,1.059889,-0.666787,0.450957,-0.124071,-0.711810
871244116,1478,1487,1539,1497,1073,1478,1487,1539,1497,1180,1465,1480,1480,1500,0.147996,1.059889,-0.666787,0.450030,-0.128999,-0.698867
871344137,1478,1487,1539,1497,1073,1478,1487,1539,1497,1180,1467,1480,1480,1500,0.147996,1.059889,-0.666787,0.449675,-0.133096,-0.686015
871444164,1478,1487,1539,1497,1073,1478,1487,1539,1497,1180,1469,1480,1480,1500,0.147996,1.059889,-0.666787,0.447479,-0.137940,-0.673172
871544184,1468,1488,1539,1496,1074,1468,1488,1539,1496,1180,1470,1480,1480,1500,0.147996,1.059889,-0.666787,0.446143,-0.141135,-0.660753
871644208,1466,1488,1539,1497,1074,1466,1488,1539,1497,1180,1472,1480,1480,1500,0.147996,1.059889,-0.666787,0.445679,-0.143213,-0.648262
871744233,1468,1488,1539,1496,1074,1468,1488,1539,1496,1180,1473,1480,1480,1500,0.147996,1.059889,-0.666787,0.446830,-0.144769,-0.636889
871844242,1469,1487,1539,1497,1073,1469,1487,1539,1497,1180,1474,1480,1480,1500,0.147996,1.059889,-0.666787,0.445880,-0.149731,-0.627487
871944249,1466,1488,1539,1497,1074,1466,1488,1539,1497,1180,1475,1480,1480,1500,0.147996,1.059889,-0.666787,0.446667,-0.155342,-0.617450
872044253,1457,1487,1539,1497,1073,1457,1487,1539,1497,1180,1476,1480,1480,1500,0.147996,1.059889,-0.666787,0.448930,-0.158676,-0.611707
872144270,1451,1487,1539,1497,1073,1451,1487,1539,1497,1180,1477,1480,1480,1500,0.147996,1.059889,-0.666787,0.452730,-0.162043,-0.604502
872244291,1436,1487,1539,1498,1073,1436,1487,1539,1498,1180,1478,1480,1480,1500,0.147996,1.059889,-0.666787,0.459722,-0.163382,-0.598455
872344315,1405,1488,1539,1498,1074,1405,1488,1539,1498,1180,1479,1480,1480,1500,0.147996,1.059889,-0.666787,0.467095,-0.166333,-0.592623
872444346,1389,1488,1539,1498,1074,1389,1488,1539,1498,1180,1480,1480,1480,1500,0.147996,1.059889,-0.666787,0.475956,-0.169329,-0.581150
872544374,1397,1488,1539,1498,1073,1397,1488,1539,1498,1180,1482,1480,1480,1500,0.147996,1.059889,-0.666787,0.486156,-0.172106,-0.557612
872644394,1406,1487,1539,1498,1073,1406,1487,1539,1498,1180,1486,1480,1480,1500,0.147996,1.059889,-0.666787,0.498573,-0.173445,-0.521505
872744413,1411,1488,1539,1498,1074,1411,1488,1539,1498,1180,1492,1480,1480,1500,0.147996,1.059889,-0.666787,0.513899,-0.173525,-0.474314
872844434,1424,1487,1539,1498,1073,1424,1487,1539,1498,1180,1498,1480,1480,1500,0.147996,1.059889,-0.666787,0.532562,-0.172048,-0.421257
872944469,1424,1487,1539,1498,1074,1424,1487,1539,1498,1180,1506,1480,1480,1500,0.147996,1.059889,-0.666787,0.550811,-0.170599,-0.358224
873044472,1424,1487,1539,1498,1074,1424,1487,1539,1498,1180,1514,1480,1480,1500,0.147996,1.059889,-0.666787,0.570457,-0.168378,-0.294410
873144510,1383,1487,1539,1498,1073,1383,1487,1539,1498,1180,1516,1480,1480,1500,0.147996,1.059889,-0.666787,0.583753,-0.145483,-0.295563
873244542,1349,1487,1539,1497,1074,1349,1487,1539,1497,1180,1514,1480,1480,1500,0.147996,1.059889,-0.666787,0.593524,-0.116136,-0.307430
873344551,1316,1487,1539,1498,1074,1316,1487,1539,1498,1180,1514,1480,1480,1500,0.147996,1.059889,-0.666787,0.606025,-0.085758,-0.302521
873444582,1244,1487,1539,1500,1074,1244,1487,1539,1500,1180,1517,1480,1480,1500,0.147996,1.059889,-0.666787,0.619204,-0.060156,-0.282670
873544586,1105,1490,1501,1495,1074,1105,1490,1501,1495,1180,1516,1480,1480,1500,0.147996,1.059889,-0.666787,0.616856,-0.047093,-0.294935
873644599,1105,1613,1340,1412,1074,1105,1613,1340,1412,1180,1516,1480,1480,1500,0.147996,1.059889,-0.666787,0.611364,-0.047640,-0.290924
873744642,1105,1782,1069,1219,1074,1105,1782,1069,1219,1180,1517,1480,1480,1500,0.147996,1.059889,-0.666787,0.598442,-0.060846,-0.288532
873844664,1105,1865,1068,1101,1073,1105,1865,1068,1101,1180,1517,1480,1480,1500,0.147996,1.059889,-0.666787,0.585755,-0.062046,-0.290771
873944681,1105,1897,1069,1092,1074,1105,1897,1069,1092,1180,1517,1480,1480,1500,0.147996,1.059889,-0.666787,0.590994,-0.059474,-0.288747
874044716,1105,1899,1069,1092,1073,1105,1899,1069,1092,1180,1518,1480,1480,1500,0.147996,1.059889,-0.666787,0.604215,-0.056150,-0.285367
874144731,1105,1905,1073,1092,1073,1105,1905,1073,1092,1180,1518,1480,1480,1500,0.147996,1.059889,-0.666787,0.606814,-0.056812,-0.284935
874244766,1105,1905,1072,1092,1073,1105,1905,1072,1092,1180,1518,1480,1480,1500,0.147996,1.059889,-0.666787,0.598923,-0.057006,-0.285736
874344779,1105,1907,1073,1092,1073,1105,1907,1073,1092,1180,1518,1480,1480,1500,0.147996,1.059889,-0.666787,0.593803,-0.057605,-0.286776
874444801,1105,1907,1073,1092,1073,1105,1907,1073,1092,1180,1519,1480,1480,1500,0.147996,1.059889,-0.666787,0.596764,-0.057082,-0.286088
874544827,1105,1907,1073,1092,1073,1105,1907,1073,1092,1180,1519,1480,1480,1500,0.147996,1.059889,-0.666787,0.602465,-0.055782,-0.284737
874644857,1105,1907,1072,1092,1074,1105,1907,1072,1092,1180,1519,1480,1480,1500,0.147996,1.059889,-0.666787,0.599522,-0.056134,-0.285124
874744873,1105,1907,1072,1092,1074,1105,1907,1072,1092,1180,1519,1480,1480,1500,0.147996,1.059889,-0.666787,0.597663,-0.056272,-0.285478
874844903,1105,1907,1073,1092,1073,1105,1907,1073,1092,1180,1520,1480,1480,1500,0.147996,1.059889,-0.666787,0.600077,-0.055982,-0.285021
874944937,1104,1907,1072,1091,1073,1104,1907,1072,1091,1180,1520,1480,1480,1500,0.147996,1.059889,-0.666787,0.600919,-0.055820,-0.284758
875044965,1105,1907,1072,1092,1074,1105,1907,1072,1092,1180,1520,1480,1480,1500,0.147996,1.059889,-0.666787,0.598429,-0.056815,-0.285104
875144967,1105,1902,1072,1092,1073,1105,1902,1072,1092,1180,1520,1480,1480,1500,0.147996,1.059889,-0.666787,0.599454,-0.055794,-0.285012
875244985,1105,1807,1068,1098,1073,1105,1807,1068,1098,1180,1520,1480,1480,1500,0.147996,1.059889,-0.666787,0.600146,-0.055504,-0.284664
875345016,1105,1579,1068,1402,1073,1105,1579,1068,1402,1180,1521,1480,1480,1500,0.147996,1.059889,-0.666787,0.599118,-0.055770,-0.284900
875445032,1105,1522,1069,1508,1074,1105,1522,1069,1508,1180,1521,1480,1480,1500,0.147996,1.059889,-0.666787,0.599659,-0.055701,-0.284898
875545058,1105,1555,1069,1495,1074,1105,1555,1069,1495,1180,1521,1480,1480,1500,0.147996,1.059889,-0.666787,0.599953,-0.055626,-0.284655
875645092,1266,1507,1513,1496,1074,1266,1507,1513,1496,1180,1521,1480,1480,1500,0.147996,1.059889,-0.666787,0.599518,-0.055859,-0.284997
875745108,1498,1487,1539,1496,1074,1498,1487,1539,1496,1180,1521,1480,1480,1500,0.147996,1.059889,-0.666787,0.599937,-0.055589,-0.284706
875845135,1497,1487,1539,1497,1073,1497,1487,1539,1497,1180,1522,1480,1480,1500,0.147996,1.059889,-0.666787,0.599683,-0.055464,-0.284660
875945147,1498,1487,1539,1497,1073,1498,1487,1539,1497,1180,1522,1480,1480,1500,0.147996,1.059889,-0.666787,0.599690,-0.055509,-0.284693
876045179,1498,1487,1539,1497,1073,1498,1487,1539,1497,1180,1522,1480,1480,1500,0.147996,1.059889,-0.666787,0.599928,-0.055617,-0.284797
876145192,1498,1487,1539,1497,1073,1498,1487,1539,1497,1180,1522,1480,1480,1500,0.147996,1.059889,-0.666787,0.599843,-0.055626,-0.284765
876245224,1498,1487,1539,1497,1074,1498,1487,1539,1497,1180,1522,1480,1480,1500,0.147996,1.059889,-0.666787,0.599992,-0.055492,-0.284627
876345233,1498,1487,1539,1497,1073,1498,1487,1539,1497,1180,1523,1480,1480,1500,0.147996,1.059889,-0.666787,0.599828,-0.055569,-0.284658
876445268,1498,1487,1539,1497,1073,1498,1487,1539,1497,1180,1523,1480,1480,1500,0.147996,1.059889,-0.666787,0.599716,-0.055417,-0.284609
876545301,1498,1487,1539,1497,1074,1498,1487,1539,1497,1180,1523,1480,1480,1500,0.147996,1.059889,-0.666787,0.599756,-0.055496,-0.284681
876645313,1497,1487,1539,1496,1074,1497,1487,1539,1496,1180,1523,1480,1480,1500,0.147996,1.059889,-0.666787,0.599683,-0.055610,-0.284805
876745330,1497,1487,1539,1497,1073,1497,1487,1539,1497,1180,1523,1480,1480,1500,0.147996,1.059889,-0.666787,0.599998,-0.055608,-0.284672
876845363,1498,1487,1539,1497,1073,1498,1487,1539,1497,1180,1523,1480,1480,1500,0.147996,1.059889,-0.666787,0.599745,-0.055689,-0.284833
876945376,1498,1487,1539,1497,1073,1498,1487,1539,1497,1180,1524,1480,1480,1500,0.147996,1.059889,-0.666787,0.599779,-0.055497,-0.284640
877045377,1498,1488,1539,1497,1074,1498,1488,1539,1497,1180,1524,1480,1480,1500,0.147996,1.059889,-0.666787,0.599838,-0.055402,-0.284583
877145410,1498,1487,1539,1497,1074,1498,1487,1539,1497,1180,1524,1480,1480,1500,0.147996,1.059889,-0.666787,0.599762,-0.055438,-0.284695
877245416,1497,1487,1539,1497,1073,1497,1487,1539,1497,1180,1524,1480,1480,1500,0.147996,1.059889,-0.666787,0.599661,-0.055631,-0.284864
877345447,1497,1487,1539,1497,1073,1497,1487,1539,1497,1180,1524,1480,1480,1500,0.147996,1.059889,-0.666787,0.599748,-0.055711,-0.284919
877445449,1498,1487,1539,1497,1074,1498,1487,1539,1497,1180,1525,1480,1480,1500,0.147996,1.059889,-0.666787,0.599811,-0.055611,-0.284780
877545495,1498,1487,1539,1496,1074,1498,1487,1539,1496,1180,1525,1480,1480,1500,0.147996,1.059889,-0.666787,0.599812,-0.055451,-0.284586
877645531,1498,1487,1539,1496,1074,1498,1487,1539,1496,1180,1525,1480,1480,1500,0.147996,1.059889,-0.666787,0.599798,-0.055388,-0.284551
877745541,1498,1487,1539,1497,1073,1498,1487,1539,1497,1180,1525,1480,1480,1500,0.147996,1.059889,-0.666787,0.599757,-0.055437,-0.284687
877845569,1498,1487,1539,1497,1074,1498,1487,1539,1497,1180,1525,1480,1480,1500,0.147996,1.059889,-0.666787,0.599759,-0.055680,-0.284808
877945575,1498,1488,1539,1497,1074,1498,1488,1539,1497,1180,1526,1480,1480,1500,0.147996,1.059889,-0.666787,0.599967,-0.055549,-0.284631
878045588,1498,1487,1539,1496,1074,1498,1487,1539,1496,1180,1526,1480,1480,1500,0.147996,1.059889,-0.666787,0.599770,-0.055660,-0.284737
878145593,1497,1487,1539,1497,1073,1497,1487,1539,1497,1180,1526,1480,1480,1500,0.147996,1.059889,-0.666787,0.599834,-0.055475,-0.284576
878245595,1498,1487,1539,1496,1074,1498,1487,1539,1496,1180,1526,1480,1480,1500,0.147996,1.059889,-0.666787,0.599824,-0.055422,-0.284580
878345605,1497,1487,1539,1497,1073,1497,1487,1539,1497,1180,1526,1480,1480,1500,0.147996,1.059889,-0.666787,0.599753,-0.055530,-0.284734
878445635,1498,1488,1539,1497,1074,1498,1488,1539,1497,1180,1527,1480,1480,1500,0.147996,1.059889,-0.666787,0.599741,-0.055711,-0.284887
878545639,1498,1488,1539,1496,1074,1498,1488,1539,1496,1180,1527,1480,1480,1500,0.147996,1.059889,-0.666787,0.599970,-0.055499,-0.284616
878645657,1498,1488,1539,1497,1073,1498,1488,1539,1497,1180,1527,1480,1480,1500,0.147996,1.059889,-0.666787,0.599833,-0.055640,-0.284722
878745663,1498,1488,1539,1497,1074,1498,1488,1539,1497,1180,1527,1480,1480,1500,0.147996,1.059889,-0.666787,0.599897,-0.055491,-0.284598
878845682,1498,1488,1539,1497,1074,1498,1488,1539,1497,1180,1527,1480,1480,1500,0.147996,1.059889,-0.666787,0.599838,-0.055473,-0.284637
878945717,1497,1487,1539,1497,1073,1497,1487,1539,1497,1180,1527,1480,1480,1500,0.147996,1.059889,-0.666787,0.599769,-0.055519,-0.284740
879045731,1498,1488,1539,1497,1074,1498,1488,1539,1497,1180,1528,1480,1480,1500,0.147996,1.059889,-0.666787,0.599989,-0.055493,-0.284652
879145734,1498,1488,1539,1496,1074,1498,1488,1539,1496,1180,1528,1480,1480,1500,0.147996,1.059889,-0.666787,0.599861,-0.055888,-0.284797
879245745,1498,1488,1539,1497,1073,1498,1488,1539,1497,1180,1528,1480,1480,1500,0.147996,1.059889,-0.666787,0.599840,-0.055644,-0.284690
879345771,1497,1487,1539,1497,1073,1497,1487,1539,1497,1180,1528,1480,1480,1500,0.147996,1.059889,-0.666787,0.599864,-0.055476,-0.284574
879445792,1496,1488,1539,1496,1074,1496,1488,1539,1496,1180,1528,1480,1480,1500,0.147996,1.059889,-0.666787,0.599825,-0.055485,-0.284618
879545822,1496,1487,1539,1497,1074,1496,1487,1539,1497,1180,1529,1480,1480,1500,0.147996,1.059889,-0.666787,0.599786,-0.055574,-0.284749
879645826,1496,1488,1539,1497,1074,1496,1488,1539,1497,1180,1529,1480,1480,1500,0.147996,1.059889,-0.666787,0.600096,-0.055502,-0.284606
879745832,1495,1487,1539,1497,1073,1495,1487,1539,1497,1180,1529,1480,1480,1500,0.147996,1.059889,-0.666787,0.600425,-0.055439,-0.284479
879845859,1496,1487,1539,1497,1074,1496,1487,1539,1497,1180,1529,1480,1480,1500,0.147996,1.059889,-0.666787,0.599758,-0.055634,-0.284700
879945878,1496,1487,1539,1497,1073,1496,1487,1539,1497,1180,1529,1480,1480,1500,0.147996,1.059889,-0.666787,0.599954,-0.055443,-0.284573
880045901,1496,1487,1539,1497,1074,1496,1487,1539,1497,1180,1530,1480,1480,1500,0.147996,1.059889,-0.666787,0.599966,-0.055442,-0.284609
880145908,1496,1487,1539,1497,1073,1496,1487,1539,1497,1180,1530,1480,1480,1500,0.147996,1.059889,-0.666787,0.599736,-0.055573,-0.284802
880245932,1496,1487,1539,1497,1073,1496,1487,1539,1497,1180,1530,1480,1480,1500,0.147996,1.059889,-0.666787,0.600099,-0.055489,-0.284610
880345937,1495,1487,1539,1497,1073,1495,1487,1539,1497,1180,1530,1480,1480,1500,0.147996,1.059889,-0.666787,0.599148,-0.056321,-0.284575
880445966,1497,1487,1539,1496,1074,1497,1487,1539,1496,1180,1530,1480,1480,1500,0.147996,1.059889,-0.666787,0.599966,-0.055570,-0.284598
880545983,1497,1487,1539,1496,1074,1497,1487,1539,1496,1180,1531,1480,1480,1500,0.147996,1.059889,-0.666787,0.599857,-0.055446,-0.284579
880645990,1497,0,0,0,0,1497,0,0,0,1180,1531,1480,1480,1500,0.147996,1.059889,-0.666787,0.599722,-0.055504,-0.284655
880746004,1497,0,0,0,0,1497,0,0,0,1180,1531,1480,1480,1500,0.147996,1.059889,-0.666787,0.600184,-0.055413,-0.284535
