268699952,1508,1493,1493,1494,1179,1508,1493,1493,1494,1180,1500,1500,1500,1500,0.000000,0.000000,0.000000,-0.150334,0.010727,0.004195
268799982,1508,1493,1493,1494,1180,1508,1493,1493,1494,1180,1500,1500,1500,1500,0.000000,0.000000,0.000000,-0.150317,0.010842,0.004207
268900026,1508,1493,1493,1494,1179,1508,1493,1493,1494,1180,1500,1500,1500,1500,0.000000,0.000000,0.000000,-0.150333,0.010836,0.004197
269000074,1508,1493,1494,1495,1179,1508,1493,1494,1495,1180,1500,1500,1500,1500,0.000000,0.000000,0.000000,-0.150344,0.010833,0.004204
269100104,1508,1493,1495,1494,1179,1508,1493,1495,1494,1180,1500,1500,1500,1500,0.000000,0.000000,0.000000,-0.150339,0.010810,0.004176
269200113,1508,1493,1493,1494,1180,1508,1493,1493,1494,1180,1500,1500,1500,1500,0.000000,0.000000,0.000000,-0.150316,0.010746,0.004193
269300133,1508,1493,1493,1494,1179,1508,1493,1493,1494,1180,1500,1500,1500,1500,0.000000,0.000000,0.000000,-0.150332,0.010753,0.004189
269400151,1509,1493,1493,1495,1179,1509,1493,1493,1495,1180,1500,1500,1500,1500,0.000000,0.000000,0.000000,-0.150331,0.010773,0.004188
269500196,1508,1493,1493,1494,1179,1508,1493,1493,1494,1180,1500,1500,1500,1500,0.000000,0.000000,0.000000,-0.150347,0.010831,0.004200
269600229,1508,1493,1494,1494,1179,1508,1493,1494,1494,1180,1500,1500,1500,1500,0.000000,0.000000,0.000000,-0.150334,0.010832,0.004201
269700242,1508,1493,1493,1495,1180,1508,1493,1493,1495,1180,1500,1500,1500,1500,0.000000,0.000000,0.000000,-0.150339,0.010740,0.004183
269800256,1508,1493,1493,1494,1179,1508,1493,1493,1494,1180,1500,1500,1500,1500,0.000000,0.000000,0.000000,-0.150338,0.010794,0.004186
269900275,1508,1493,1494,1494,1179,1508,1493,1494,1494,1180,1500,1500,1500,1500,0.000000,0.000000,0.000000,-0.150306,0.010758,0.004220
270000291,1508,1494,1494,1494,1179,1508,1494,1494,1494,1180,1500,1500,1500,1500,0.000000,0.000000,0.000000,-0.150342,0.010763,0.004209
270100302,1508,1493,1494,1494,1179,1508,1493,1494,1494,1180,1500,1500,1500,1500,0.000000,0.000000,0.000000,-0.151110,0.010568,0.003720
270200323,1508,1493,1493,1494,1180,1508,1493,1493,1494,1180,1500,1500,1500,1500,0.000000,0.000000,0.000000,-0.149437,0.012672,0.003114
270300330,1509,1493,1493,1495,1179,1509,1493,1493,1495,1180,1500,1500,1500,1500,0.000000,0.000000,0.000000,-0.149146,0.012915,0.003687
270400334,1508,1493,1494,1494,1180,1508,1493,1494,1494,1180,1500,1500,1500,1500,0.000000,0.000000,0.000000,-0.148210,0.013630,0.002826
270500338,1508,1493,1493,1494,1179,1508,1493,1493,1494,1180,1500,1500,1500,1500,0.000000,0.000000,0.000000,-0.146338,0.016393,0.003060
270600361,1509,1493,1493,1494,1179,1509,1493,1493,1494,1180,1500,1500,1500,1500,0.000000,0.000000,0.000000,-0.146258,0.016359,0.003337
270700381,1508,1493,1493,1494,1179,1508,1493,1493,1494,1180,1500,1500,1500,1500,0.000000,0.000000,0.000000,-0.146406,0.016449,0.002555
270800405,1508,1493,1493,1494,1180,1508,1493,1493,1494,1180,1500,1500,1500,1500,0.000000,0.000000,0.000000,-0.154487,0.015518,-0.010487
270900406,1508,1493,1493,1494,1179,1508,1493,1493,1494,1180,1500,1500,1500,1500,0.000000,0.000000,0.000000,-0.162230,0.017340,-0.020205
271000437,1508,1493,1493,1494,1179,1508,1493,1493,1494,1180,1500,1500,1500,1500,0.000000,0.000000,0.000000,-0.167666,0.056984,-0.047464
271100442,1508,1494,1494,1494,1179,1508,1494,1494,1494,1180,1500,1500,1500,1500,0.000000,0.000000,0.000000,-0.162407,0.081100,-0.131373
271200454,1508,1493,1494,1494,1179,1508,1493,1494,1494,1180,1500,1500,1500,1500,0.000000,0.000000,0.000000,-0.153245,0.102165,-0.303106
271300473,1508,1493,1494,1494,1179,1508,1493,1494,1494,1180,1500,1500,1500,1500,0.000000,0.000000,0.000000,-0.142075,0.077076,-0.497287
271400498,1508,1493,1493,1494,1179,1508,1493,1493,1494,1180,1500,1500,1500,1500,0.000000,0.000000,0.000000,-0.142401,0.057404,-0.633917
271500527,1509,1493,1493,1495,1179,1509,1493,1493,1495,1180,1500,1500,1500,1500,0.000000,0.000000,0.000000,-0.141826,0.061565,-0.697285
271600552,1508,1493,1495,1494,1179,1508,1493,1495,1494,1180,1500,1500,1500,1500,0.000000,0.000000,0.000000,-0.121479,0.064807,-0.672876
271700587,1508,1493,1493,1495,1179,1508,1493,1493,1495,1180,1500,1500,1500,1500,0.000000,0.000000,0.000000,-0.099720,0.068073,-0.627765
271800608,1508,1493,1493,1494,1179,1508,1493,1493,1494,1180,1500,1500,1500,1500,0.000000,0.000000,0.000000,-0.084271,0.079222,-0.625375
271900612,1508,1493,1493,1495,1179,1508,1493,1493,1495,1180,1500,1500,1500,1500,0.000000,0.000000,0.000000,-0.084192,0.083377,-0.624152
272000647,1508,1493,1494,1494,1179,1508,1493,1494,1494,1180,1500,1500,1500,1500,0.000000,0.000000,0.000000,-0.074220,0.088118,-0.617103
272100672,1508,1493,1493,1494,1180,1508,1493,1493,1494,1180,1500,1500,1500,1500,0.000000,0.000000,0.000000,-0.071251,0.086106,-0.621128
272200707,1508,1493,1493,1494,1179,1508,1493,1493,1494,1180,1500,1500,1500,1500,0.000000,0.000000,0.000000,-0.075690,0.082792,-0.622182
272300741,1508,1493,1493,1494,1180,1508,1493,1493,1494,1180,1499,1500,1500,1500,-0.076223,0.080435,-0.626504,-0.076002,0.080303,-0.626712
272400777,1508,1493,1493,1494,1179,1508,1493,1493,1494,1180,1499,1500,1500,1500,-0.076223,0.080435,-0.626504,-0.073036,0.079846,-0.626603
272500793,1508,1493,1493,1496,1179,1508,1493,1493,1496,1180,1499,1500,1500,1500,-0.076223,0.080435,-0.626504,-0.068027,0.081018,-0.625453
272600824,1508,1493,1493,1495,1179,1508,1493,1493,1495,1180,1501,1500,1500,1500,-0.076223,0.080435,-0.626504,-0.065040,0.082385,-0.622382
272700835,1508,1493,1493,1494,1179,1508,1493,1493,1494,1180,1499,1500,1500,1500,-0.076223,0.080435,-0.626504,-0.065726,0.083310,-0.619903
272800864,1508,1493,1494,1494,1179,1508,1493,1494,1494,1180,1499,1500,1500,1500,-0.076223,0.080435,-0.626504,-0.067407,0.083814,-0.619542
272900868,1508,1493,1493,1495,1179,1508,1493,1493,1495,1180,1499,1500,1500,1500,-0.076223,0.080435,-0.626504,-0.069397,0.083774,-0.619642
273000898,1508,1493,1494,1494,1179,1508,1493,1494,1494,1180,1499,1500,1500,1500,-0.076223,0.080435,-0.626504,-0.071078,0.084336,-0.618357
273100919,1508,1493,1493,1494,1179,1508,1493,1493,1494,1180,1499,1500,1499,1500,-0.076223,0.080435,-0.626504,-0.071363,0.085222,-0.617617
273200954,1508,1493,1494,1495,1179,1508,1493,1494,1495,1180,1499,1500,1500,1500,-0.076223,0.080435,-0.626504,-0.071722,0.085576,-0.617190
273300982,1508,1493,1494,1494,1179,1508,1493,1494,1494,1180,1499,1500,1499,1500,-0.076223,0.080435,-0.626504,-0.071856,0.085264,-0.616577
273400998,1508,1493,1495,1494,1179,1508,1493,1495,1494,1180,1499,1500,1499,1500,-0.076223,0.080435,-0.626504,-0.070875,0.085088,-0.616374
273501025,1508,1493,1493,1495,1180,1508,1493,1493,1495,1180,1499,1500,1499,1500,-0.076223,0.080435,-0.626504,-0.070611,0.085228,-0.616000
273601036,1508,1493,1493,1494,1179,1508,1493,1493,1494,1180,1499,1500,1499,1500,-0.076223,0.080435,-0.626504,-0.072323,0.085025,-0.615926
273701041,1508,1493,1494,1494,1179,1508,1493,1494,1494,1180,1499,1500,1499,1500,-0.076223,0.080435,-0.626504,-0.073501,0.085049,-0.616344
273801061,1508,1493,1493,1494,1180,1508,1493,1493,1494,1180,1499,1500,1499,1500,-0.076223,0.080435,-0.626504,-0.074356,0.084721,-0.616646
273901082,1508,1494,1493,1494,1180,1508,1494,1493,1494,1180,1499,1500,1499,1500,-0.076223,0.080435,-0.626504,-0.073216,0.084335,-0.616448
274001114,1508,1493,1493,1494,1179,1508,1493,1493,1494,1180,1499,1500,1499,1500,-0.076223,0.080435,-0.626504,-0.070811,0.084096,-0.615913
274101131,1508,1493,1493,1494,1179,1508,1493,1493,1494,1180,1499,1500,1499,1500,-0.076223,0.080435,-0.626504,-0.069660,0.083857,-0.614842
274201135,1508,1493,1493,1494,1180,1508,1493,1493,1494,1180,1499,1500,1499,1500,-0.076223,0.080435,-0.626504,-0.069850,0.083922,-0.614243
274301151,1508,1493,1494,1494,1180,1508,1493,1494,1494,1180,1499,1500,1499,1500,-0.076223,0.080435,-0.626504,-0.069961,0.084442,-0.613657
274401163,1508,1493,1493,1494,1179,1508,1493,1493,1494,1180,1499,1500,1499,1500,-0.076223,0.080435,-0.626504,-0.068973,0.084625,-0.613213
274501171,1508,1493,1494,1494,1179,1508,1493,1494,1494,1180,1499,1500,1499,1500,-0.076223,0.080435,-0.626504,-0.063883,0.084529,-0.612490
274601172,1508,1493,1493,1494,1180,1508,1493,1493,1494,1180,1499,1500,1499,1500,-0.076223,0.080435,-0.626504,-0.046157,0.084375,-0.611701
274701181,1509,1493,1495,1495,1179,1509,1493,1495,1495,1180,1500,1500,1499,1500,-0.076223,0.080435,-0.626504,-0.014656,0.085195,-0.611812
274801190,1508,1493,1493,1494,1179,1508,1493,1493,1494,1180,1499,1500,1499,1500,-0.076223,0.080435,-0.626504,0.024226,0.087283,-0.613555
274901206,1508,1493,1493,1495,1179,1508,1493,1493,1495,1180,1499,1500,1499,1500,-0.076223,0.080435,-0.626504,0.067821,0.087817,-0.619832
275001207,1508,1493,1495,1495,1179,1508,1493,1495,1495,1180,1499,1500,1499,1500,-0.076223,0.080435,-0.626504,0.138165,0.088001,-0.630442
275101208,1508,1493,1493,1494,1179,1508,1493,1493,1494,1180,1499,1500,1499,1500,-0.076223,0.080435,-0.626504,0.228067,0.085706,-0.634549
275201232,1508,1493,1493,1495,1179,1508,1493,1493,1495,1180,1499,1500,1499,1500,-0.076223,0.080435,-0.626504,0.294224,0.077990,-0.636304
275301258,1508,1493,1493,1494,1179,1508,1493,1493,1494,1180,1498,1500,1496,1500,-0.076223,0.080435,-0.626504,0.321798,0.070694,-0.638747
275401295,1509,1493,1495,1495,1179,1509,1493,1495,1495,1180,1499,1499,1498,1500,-0.076223,0.080435,-0.626504,0.297581,0.070225,-0.641200
275501325,1508,1493,1494,1495,1179,1508,1493,1494,1495,1180,1499,1499,1498,1500,-0.076223,0.080435,-0.626504,0.225073,0.077540,-0.641679
275601330,1508,1493,1493,1494,1179,1508,1493,1493,1494,1180,1499,1499,1497,1500,-0.076223,0.080435,-0.626504,0.123870,0.086578,-0.641177
275701343,1508,1493,1493,1495,1179,1508,1493,1493,1495,1180,1501,1499,1555,1500,-0.076223,0.080435,-0.626504,0.012471,0.090163,-0.640443
275801383,1508,1493,1493,1494,1179,1508,1493,1493,1494,1180,1499,1499,1497,1500,-0.076223,0.080435,-0.626504,-0.098334,0.086550,-0.635993
275901409,1508,1493,1494,1494,1179,1508,1493,1494,1494,1180,1499,1499,1497,1500,-0.076223,0.080435,-0.626504,-0.196068,0.082683,-0.631595
276001437,1509,1493,1493,1495,1179,1509,1493,1493,1495,1180,1499,1499,1497,1500,-0.076223,0.080435,-0.626504,-0.278811,0.080470,-0.623514
276101445,1508,1493,1493,1494,1180,1508,1493,1493,1494,1180,1501,1499,1514,1500,-0.076223,0.080435,-0.626504,-0.339304,0.075676,-0.616027
276201470,1508,1493,1493,1494,1179,1508,1493,1493,1494,1180,1499,1499,1498,1500,-0.076223,0.080435,-0.626504,-0.366795,0.069591,-0.612010
276301477,1508,1493,1493,1494,1180,1508,1493,1493,1494,1180,1499,1499,1498,1500,-0.076223,0.080435,-0.626504,-0.353590,0.070231,-0.609700
276401479,1508,1493,1493,1496,1179,1508,1493,1493,1496,1180,1499,1499,1498,1500,-0.076223,0.080435,-0.626504,-0.304905,0.079664,-0.604037
276501493,1508,1493,1494,1495,1179,1508,1493,1494,1495,1180,1499,1499,1499,1500,-0.076223,0.080435,-0.626504,-0.247678,0.084504,-0.599413
276601512,1508,1493,1494,1494,1179,1508,1493,1494,1494,1180,1499,1499,1499,1500,-0.076223,0.080435,-0.626504,-0.180869,0.087781,-0.598110
276701522,1508,1494,1494,1494,1180,1508,1494,1494,1494,1180,1499,1499,1499,1500,-0.076223,0.080435,-0.626504,-0.115355,0.088477,-0.603300
276801524,1508,1493,1493,1494,1179,1508,1493,1493,1494,1180,1499,1499,1499,1500,-0.076223,0.080435,-0.626504,-0.066357,0.085722,-0.607047
276901532,1508,1493,1493,1494,1179,1508,1493,1493,1494,1180,1499,1499,1499,1500,-0.076223,0.080435,-0.626504,-0.034194,0.081074,-0.603424
277001547,1508,1493,1493,1494,1179,1508,1493,1493,1494,1180,1499,1499,1499,1500,-0.076223,0.080435,-0.626504,-0.023803,0.079496,-0.594659
277101549,1508,1493,1494,1494,1180,1508,1493,1494,1494,1180,1499,1499,1499,1500,-0.076223,0.080435,-0.626504,-0.022728,0.083166,-0.591319
277201560,1508,1494,1494,1494,1180,1508,1494,1494,1494,1180,1499,1499,1499,1500,-0.076223,0.080435,-0.626504,-0.024431,0.083259,-0.595169
277301570,1508,1493,1493,1494,1180,1508,1493,1493,1494,1180,1499,1499,1498,1500,-0.076223,0.080435,-0.626504,-0.024562,0.080336,-0.598753
277401597,1508,1493,1493,1494,1180,1508,1493,1493,1494,1180,1499,1499,1498,1500,-0.076223,0.080435,-0.626504,-0.024148,0.077704,-0.599648
277501608,1509,1493,1494,1495,1179,1509,1493,1494,1495,1180,1499,1499,1498,1500,-0.076223,0.080435,-0.626504,-0.023753,0.076679,-0.600091
277601611,1509,1493,1493,1496,1179,1509,1493,1493,1496,1180,1500,1499,1498,1500,-0.076223,0.080435,-0.626504,-0.022280,0.076817,-0.599520
277701616,1508,1493,1493,1495,1179,1508,1493,1493,1495,1180,1500,1499,1498,1500,-0.076223,0.080435,-0.626504,-0.020274,0.077610,-0.598352
277801648,1508,1493,1493,1494,1180,1508,1493,1493,1494,1180,1500,1499,1498,1500,-0.076223,0.080435,-0.626504,-0.017765,0.078166,-0.597897
277901684,1508,1493,1493,1494,1179,1508,1493,1493,1494,1180,1500,1499,1498,1500,-0.076223,0.080435,-0.626504,-0.016254,0.078523,-0.596965
278001701,1508,1493,1493,1494,1180,1508,1493,1493,1494,1180,1500,1499,1498,1500,-0.076223,0.080435,-0.626504,-0.016696,0.079589,-0.595345
278101720,1508,1493,1493,1494,1179,1508,1493,1493,1494,1180,1500,1499,1498,1500,-0.076223,0.080435,-0.626504,-0.019077,0.079972,-0.593656
278201731,1508,1494,1493,1494,1180,1508,1494,1493,1494,1180,1500,1499,1498,1500,-0.076223,0.080435,-0.626504,-0.021621,0.079596,-0.593406
278301757,1508,1493,1494,1494,1179,1508,1493,1494,1494,1180,1500,1499,1498,1500,-0.076223,0.080435,-0.626504,-0.022585,0.078588,-0.594256
278401783,1509,1493,1493,1494,1179,1509,1493,1493,1494,1180,1500,1499,1498,1500,-0.076223,0.080435,-0.626504,-0.022643,0.077960,-0.595237
278501819,1508,1493,1493,1495,1179,1508,1493,1493,1495,1180,1500,1499,1498,1500,-0.076223,0.080435,-0.626504,-0.022697,0.077766,-0.595128
278601853,1509,1493,1494,1495,1179,1509,1493,1494,1495,1180,1500,1499,1498,1500,-0.076223,0.080435,-0.626504,-0.023982,0.077046,-0.595438
278701888,1508,1493,1493,1494,1179,1508,1493,1493,1494,1180,1500,1499,1498,1500,-0.076223,0.080435,-0.626504,-0.024328,0.076530,-0.596367
278801921,1508,1493,1494,1494,1179,1508,1493,1494,1494,1180,1500,1499,1498,1500,-0.076223,0.080435,-0.626504,-0.023533,0.076290,-0.596575
278901926,1508,1493,1493,1494,1179,1508,1493,1493,1494,1180,1500,1499,1498,1500,-0.076223,0.080435,-0.626504,-0.022752,0.076399,-0.595610
279001937,1508,1493,1493,1494,1180,1508,1493,1493,1494,1180,1500,1499,1498,1500,-0.076223,0.080435,-0.626504,-0.023008,0.076389,-0.594444
279101944,1508,1493,1493,1494,1180,1508,1493,1493,1494,1180,1500,1499,1498,1500,-0.076223,0.080435,-0.626504,-0.023600,0.076535,-0.593784
279201953,1508,1493,1493,1494,1180,1508,1493,1493,1494,1180,1500,1499,1498,1500,-0.076223,0.080435,-0.626504,-0.022782,0.076928,-0.593481
279301987,1508,1493,1494,1494,1179,1508,1493,1494,1494,1180,1500,1499,1498,1500,-0.076223,0.080435,-0.626504,-0.021905,0.077706,-0.593048
279401994,1508,1493,1493,1494,1179,1508,1493,1493,1494,1180,1500,1499,1498,1500,-0.076223,0.080435,-0.626504,-0.022114,0.078200,-0.592259
279501995,1508,1493,1493,1494,1179,1508,1493,1493,1494,1180,1500,1499,1497,1500,-0.076223,0.080435,-0.626504,-0.022942,0.078802,-0.591919
279602010,1508,1493,1493,1494,1179,1508,1493,1493,1494,1180,1500,1499,1497,1500,-0.076223,0.080435,-0.626504,-0.023693,0.078913,-0.592587
279702024,1508,1493,1493,1494,1179,1508,1493,1493,1494,1180,1500,1499,1497,1500,-0.076223,0.080435,-0.626504,-0.025159,0.079216,-0.593429
279802055,1509,1493,1493,1494,1179,1509,1493,1493,1494,1180,1500,1499,1497,1500,-0.076223,0.080435,-0.626504,-0.025804,0.079570,-0.594397
279902058,1508,1493,1493,1494,1179,1508,1493,1493,1494,1180,1500,1499,1497,1500,-0.076223,0.080435,-0.626504,-0.026092,0.079973,-0.594055
280002085,1508,1493,1493,1495,1179,1508,1493,1493,1495,1180,1500,1499,1497,1500,-0.076223,0.080435,-0.626504,-0.026029,0.080304,-0.592790
280102136,1508,1493,1493,1494,1180,1508,1493,1493,1494,1180,1500,1499,1497,1500,-0.076223,0.080435,-0.626504,-0.024967,0.080592,-0.592589
280202145,1508,1493,1494,1494,1180,1508,1493,1494,1494,1180,1500,1499,1497,1500,-0.076223,0.080435,-0.626504,-0.023929,0.080574,-0.593015
280302158,1508,1493,1493,1494,1180,1508,1493,1493,1494,1180,1500,1499,1497,1500,-0.076223,0.080435,-0.626504,-0.022595,0.080659,-0.592832
280402167,1508,1493,1493,1494,1179,1508,1493,1493,1494,1180,1500,1499,1497,1500,-0.076223,0.080435,-0.626504,-0.020975,0.080687,-0.592772
280502195,1508,1493,1493,1494,1179,1508,1493,1493,1494,1180,1500,1499,1497,1500,-0.076223,0.080435,-0.626504,-0.020334,0.080754,-0.592683
280602216,1508,1493,1493,1494,1179,1508,1493,1493,1494,1180,1500,1499,1497,1500,-0.076223,0.080435,-0.626504,-0.020421,0.080801,-0.592496
280702228,1508,1493,1495,1494,1179,1508,1493,1495,1494,1180,1500,1499,1497,1500,-0.076223,0.080435,-0.626504,-0.021102,0.081348,-0.591408
280802254,1508,1493,1493,1494,1179,1508,1493,1493,1494,1180,1500,1499,1497,1500,-0.076223,0.080435,-0.626504,-0.021388,0.081679,-0.590678
280902261,1508,1493,1493,1494,1179,1508,1493,1493,1494,1180,1500,1499,1497,1500,-0.076223,0.080435,-0.626504,-0.020759,0.081621,-0.590908
281002284,1508,1493,1493,1494,1179,1508,1493,1493,1494,1180,1500,1499,1497,1500,-0.076223,0.080435,-0.626504,-0.020140,0.081221,-0.591882
281102286,1508,1493,1493,1494,1179,1508,1493,1493,1494,1180,1500,1499,1497,1500,-0.076223,0.080435,-0.626504,-0.019518,0.081302,-0.591810
281202308,1508,1493,1493,1495,1179,1508,1493,1493,1495,1180,1500,1499,1497,1500,-0.076223,0.080435,-0.626504,-0.019759,0.081346,-0.591265
281302332,1508,1493,1493,1494,1179,1508,1493,1493,1494,1180,1501,1499,1497,1500,-0.076223,0.080435,-0.626504,-0.020134,0.080935,-0.591984
281402335,1508,1493,1494,1494,1180,1508,1493,1494,1494,1180,1501,1499,1497,1500,-0.076223,0.080435,-0.626504,-0.019535,0.080530,-0.593122
281502361,1508,1493,1493,1494,1179,1508,1493,1493,1494,1180,1501,1499,1497,1500,-0.076223,0.080435,-0.626504,-0.018646,0.080182,-0.592974
281602384,1508,1493,1494,1494,1180,1508,1493,1494,1494,1180,1501,1499,1497,1500,-0.076223,0.080435,-0.626504,-0.017969,0.079526,-0.592941
281702412,1508,1493,1493,1494,1179,1508,1493,1493,1494,1180,1501,1499,1496,1500,-0.076223,0.080435,-0.626504,-0.016083,0.078699,-0.594182
281802424,1508,1493,1493,1495,1180,1508,1493,1493,1495,1180,1501,1499,1496,1500,-0.076223,0.080435,-0.626504,-0.014948,0.078073,-0.594990
281902442,1508,1493,1495,1494,1179,1508,1493,1495,1494,1180,1501,1499,1496,1500,-0.076223,0.080435,-0.626504,-0.015124,0.078191,-0.593979
282002444,1508,1493,1493,1494,1179,1508,1493,1493,1494,1180,1501,1499,1496,1500,-0.076223,0.080435,-0.626504,-0.015986,0.078595,-0.592809
282102469,1508,1493,1493,1494,1179,1508,1493,1493,1494,1180,1501,1499,1496,1500,-0.076223,0.080435,-0.626504,-0.016564,0.078897,-0.592533
282202478,1509,1493,1493,1494,1179,1509,1493,1493,1494,1180,1501,1499,1496,1500,-0.076223,0.080435,-0.626504,-0.016799,0.079232,-0.591560
282302507,1509,1493,1493,1494,1179,1509,1493,1493,1494,1180,1501,1499,1496,1500,-0.076223,0.080435,-0.626504,-0.017358,0.079577,-0.590661
282402528,1509,1493,1493,1494,1179,1509,1493,1493,1494,1180,1501,1499,1496,1500,-0.076223,0.080435,-0.626504,-0.018223,0.079786,-0.590194
282502532,1508,1493,1494,1494,1179,1508,1493,1494,1494,1180,1501,1499,1496,1500,-0.076223,0.080435,-0.626504,-0.018823,0.079960,-0.590242
282602564,1508,1493,1493,1494,1179,1508,1493,1493,1494,1180,1501,1499,1496,1500,-0.076223,0.080435,-0.626504,-0.019387,0.079841,-0.591081
282702583,1508,1493,1493,1494,1179,1508,1493,1493,1494,1180,1501,1499,1496,1500,-0.076223,0.080435,-0.626504,-0.020266,0.080379,-0.589774
282802617,1509,1493,1493,1494,1179,1509,1493,1493,1494,1180,1501,1499,1496,1500,-0.076223,0.080435,-0.626504,-0.020853,0.080764,-0.588916
282902648,1508,1493,1493,1495,1179,1508,1493,1493,1495,1180,1501,1499,1496,1500,-0.076223,0.080435,-0.626504,-0.020426,0.080861,-0.588841
283002656,1508,1493,1494,1494,1179,1508,1493,1494,1494,1180,1501,1499,1496,1500,-0.076223,0.080435,-0.626504,-0.019027,0.081047,-0.589144
283102689,1508,1493,1493,1494,1180,1508,1493,1493,1494,1180,1501,1499,1496,1500,-0.076223,0.080435,-0.626504,-0.017448,0.081145,-0.589242
283202718,1508,1493,1493,1495,1179,1508,1493,1493,1495,1180,1501,1499,1496,1500,-0.076223,0.080435,-0.626504,-0.016219,0.080901,-0.589629
283302753,1509,1493,1494,1494,1179,1509,1493,1494,1494,1180,1501,1499,1496,1500,-0.076223,0.080435,-0.626504,-0.015691,0.080461,-0.589981
283402780,1508,1493,1493,1495,1179,1508,1493,1493,1495,1180,1501,1499,1496,1500,-0.076223,0.080435,-0.626504,-0.015892,0.080292,-0.589934
283502796,1508,1493,1493,1494,1179,1508,1493,1493,1494,1180,1501,1499,1496,1500,-0.076223,0.080435,-0.626504,-0.016072,0.080190,-0.590143
283602813,1508,1493,1493,1496,1179,1508,1493,1493,1496,1180,1501,1499,1496,1500,-0.076223,0.080435,-0.626504,-0.015975,0.080013,-0.590384
283702822,1508,1493,1493,1495,1179,1508,1493,1493,1495,1180,1501,1499,1495,1500,-0.076223,0.080435,-0.626504,-0.015407,0.079759,-0.590451
283802823,1508,1493,1493,1494,1179,1508,1493,1493,1494,1180,1501,1499,1489,1500,-0.076223,0.080435,-0.626504,-0.006941,0.078477,-0.591156
283902828,1508,1493,1494,1494,1180,1508,1493,1494,1494,1180,1501,1499,1495,1500,-0.076223,0.080435,-0.626504,0.027856,0.074131,-0.592991
284002863,1508,1493,1493,1494,1179,1508,1493,1493,1494,1180,1501,1499,1495,1500,-0.076223,0.080435,-0.626504,0.090115,0.061692,-0.595747
284102893,1508,1493,1494,1494,1179,1508,1493,1494,1494,1180,1501,1499,1495,1500,-0.076223,0.080435,-0.626504,0.162491,0.051232,-0.600316
284202908,1508,1493,1493,1494,1179,1508,1493,1493,1494,1180,1501,1499,1495,1500,-0.076223,0.080435,-0.626504,0.223061,0.041343,-0.606316
284302938,1508,1493,1494,1494,1179,1508,1493,1494,1494,1180,1501,1499,1494,1500,-0.076223,0.080435,-0.626504,0.269220,0.033365,-0.611153
284402953,1508,1493,1493,1494,1179,1508,1493,1493,1494,1180,1501,1499,1494,1500,-0.076223,0.080435,-0.626504,0.311091,0.027968,-0.615202
284502984,1508,1493,1493,1494,1179,1508,1493,1493,1494,1180,1501,1499,1494,1500,-0.076223,0.080435,-0.626504,0.324112,0.023726,-0.619558
284602987,1508,1493,1493,1494,1179,1508,1493,1493,1494,1180,1501,1499,1494,1500,-0.076223,0.080435,-0.626504,0.308200,0.022549,-0.619297
284702988,1509,1493,1493,1494,1179,1509,1493,1493,1494,1180,1501,1499,1493,1500,-0.076223,0.080435,-0.626504,0.280639,0.026184,-0.615982
284803005,1508,1493,1493,1494,1180,1508,1493,1493,1494,1180,1501,1499,1493,1500,-0.076223,0.080435,-0.626504,0.206547,0.047145,-0.598568
284903006,1508,1493,1493,1494,1179,1508,1493,1493,1494,1180,1502,1499,1493,1500,-0.076223,0.080435,-0.626504,0.095160,0.081580,-0.557121
285003029,1508,1493,1493,1494,1179,1508,1493,1493,1494,1180,1502,1499,1493,1500,-0.076223,0.080435,-0.626504,-0.005302,0.104900,-0.483052
285103039,1509,1493,1493,1494,1179,1509,1493,1493,1494,1180,1502,1499,1493,1500,-0.076223,0.080435,-0.626504,-0.026175,0.093894,-0.415913
285203060,1508,1493,1493,1494,1179,1508,1493,1493,1494,1180,1502,1499,1493,1500,-0.076223,0.080435,-0.626504,0.027145,0.035871,-0.385687
285303079,1509,1493,1493,1494,1180,1509,1493,1493,1494,1180,1502,1499,1492,1500,-0.076223,0.080435,-0.626504,0.119218,-0.065022,-0.359721
285403102,1508,1493,1494,1494,1180,1508,1493,1494,1494,1180,1502,1499,1492,1500,-0.076223,0.080435,-0.626504,0.177245,-0.140371,-0.314723
285503118,1508,1493,1493,1494,1179,1508,1493,1493,1494,1180,1503,1499,1492,1500,-0.076223,0.080435,-0.626504,0.177245,-0.140371,-0.314723
285603137,1509,1493,1495,1495,1179,1509,1493,1495,1495,1180,1503,1498,1492,1500,-0.076223,0.080435,-0.626504,0.177245,-0.140371,-0.314723
285703141,1509,1493,1494,1494,1179,1509,1493,1494,1494,1180,1503,1498,1491,1500,-0.076223,0.080435,-0.626504,0.177245,-0.140371,-0.314723
285803171,1508,1493,1494,1494,1179,1508,1493,1494,1494,1180,1503,1498,1491,1500,-0.076223,0.080435,-0.626504,0.177245,-0.140371,-0.314723
285903186,1508,1493,1494,1494,1179,1508,1493,1494,1494,1180,1504,1498,1491,1500,-0.076223,0.080435,-0.626504,0.177245,-0.140371,-0.314723
286003202,1508,1493,1493,1495,1179,1508,1493,1493,1495,1180,1504,1498,1491,1500,-0.076223,0.080435,-0.626504,0.177245,-0.140371,-0.314723
286103210,1508,1493,1493,1494,1179,1508,1493,1493,1494,1180,1504,1498,1490,1500,-0.076223,0.080435,-0.626504,0.177245,-0.140371,-0.314723
286203246,1508,1493,1493,1494,1179,1508,1493,1493,1494,1180,1504,1498,1490,1500,-0.076223,0.080435,-0.626504,0.177245,-0.140371,-0.314723
286303282,1508,1493,1493,1494,1179,1508,1493,1493,1494,1180,1505,1498,1490,1500,-0.076223,0.080435,-0.626504,0.177245,-0.140371,-0.314723
286403291,1508,1493,1493,1494,1180,1508,1493,1493,1494,1180,1505,1498,1490,1500,-0.076223,0.080435,-0.626504,0.177245,-0.140371,-0.314723
286503297,1508,1493,1494,1494,1179,1508,1493,1494,1494,1180,1505,1498,1489,1500,-0.076223,0.080435,-0.626504,0.177245,-0.140371,-0.314723
286603329,1508,1493,1494,1494,1179,1508,1493,1494,1494,1180,1505,1498,1489,1500,-0.076223,0.080435,-0.626504,0.177245,-0.140371,-0.314723
286703331,1508,1493,1494,1494,1179,1508,1493,1494,1494,1180,1506,1497,1489,1500,-0.076223,0.080435,-0.626504,0.177245,-0.140371,-0.314723
286803354,1508,1493,1493,1494,1179,1508,1493,1493,1494,1180,1506,1497,1489,1500,-0.076223,0.080435,-0.626504,0.177245,-0.140371,-0.314723
286903390,1508,1493,1493,1494,1179,1508,1493,1493,1494,1180,1506,1497,1488,1500,-0.076223,0.080435,-0.626504,0.177245,-0.140371,-0.314723
287003401,1508,1493,1493,1494,1179,1508,1493,1493,1494,1180,1506,1497,1488,1500,-0.076223,0.080435,-0.626504,0.177245,-0.140371,-0.314723
287103433,1508,1493,1493,1494,1179,1508,1493,1493,1494,1180,1507,1497,1488,1500,-0.076223,0.080435,-0.626504,0.177245,-0.140371,-0.314723
287203466,1508,1493,1493,1495,1179,1508,1493,1493,1495,1180,1507,1497,1487,1500,-0.076223,0.080435,-0.626504,0.177245,-0.140371,-0.314723
287303496,1508,1493,1493,1494,1179,1508,1493,1493,1494,1180,1507,1497,1487,1500,-0.076223,0.080435,-0.626504,0.177245,-0.140371,-0.314723
287403507,1509,1493,1494,1494,1179,1509,1493,1494,1494,1180,1508,1497,1487,1500,-0.076223,0.080435,-0.626504,0.177245,-0.140371,-0.314723
287503524,1508,1493,1493,1494,1179,1508,1493,1493,1494,1180,1508,1497,1487,1500,-0.076223,0.080435,-0.626504,0.177245,-0.140371,-0.314723
287603531,1508,1493,1493,1494,1180,1508,1493,1493,1494,1180,1508,1497,1486,1500,-0.076223,0.080435,-0.626504,0.177245,-0.140371,-0.314723
287703539,1508,1493,1493,1494,1179,1508,1493,1493,1494,1180,1508,1496,1486,1500,-0.076223,0.080435,-0.626504,0.177245,-0.140371,-0.314723
287803562,1509,1493,1493,1494,1179,1509,1493,1493,1494,1180,1509,1496,1486,1500,-0.076223,0.080435,-0.626504,0.177245,-0.140371,-0.314723
287903599,1508,1493,1493,1494,1179,1508,1493,1493,1494,1180,1509,1496,1486,1500,-0.076223,0.080435,-0.626504,0.177245,-0.140371,-0.314723
288003622,1508,1493,1493,1494,1179,1508,1493,1493,1494,1180,1509,1496,1485,1500,-0.076223,0.080435,-0.626504,0.177245,-0.140371,-0.314723
288103657,1509,1493,1494,1494,1179,1509,1493,1494,1494,1180,1509,1496,1485,1500,-0.076223,0.080435,-0.626504,0.177245,-0.140371,-0.314723
288203678,1509,1493,1495,1495,1179,1509,1493,1495,1495,1180,1510,1496,1485,1500,-0.076223,0.080435,-0.626504,0.177245,-0.140371,-0.314723
288303709,1508,1493,1493,1494,1179,1508,1493,1493,1494,1180,1510,1496,1484,1500,-0.076223,0.080435,-0.626504,0.177245,-0.140371,-0.314723
288403728,1508,1493,1493,1494,1179,1508,1493,1493,1494,1180,1510,1496,1484,1500,-0.076223,0.080435,-0.626504,0.177245,-0.140371,-0.314723
288503751,1508,1493,1493,1494,1179,1508,1493,1493,1494,1180,1511,1496,1484,1500,-0.076223,0.080435,-0.626504,0.177245,-0.140371,-0.314723
288603771,1508,1493,1493,1494,1179,1508,1493,1493,1494,1180,1511,1496,1484,1500,-0.076223,0.080435,-0.626504,0.177245,-0.140371,-0.314723
288703803,1508,1493,1493,1494,1179,1508,1493,1493,1494,1180,1511,1495,1483,1500,-0.076223,0.080435,-0.626504,0.177245,-0.140371,-0.314723
288803839,1508,1493,1493,1494,1179,1508,1493,1493,1494,1180,1511,1495,1483,1500,-0.076223,0.080435,-0.626504,0.177245,-0.140371,-0.314723
288903862,1508,1493,1493,1494,1179,1508,1493,1493,1494,1180,1512,1495,1483,1500,-0.076223,0.080435,-0.626504,0.177245,-0.140371,-0.314723
289003891,1508,1493,1493,1494,1179,1508,1493,1493,1494,1180,1512,1495,1483,1500,-0.076223,0.080435,-0.626504,0.177245,-0.140371,-0.314723
289103911,1508,1493,1493,1494,1179,1508,1493,1493,1494,1180,1512,1495,1482,1500,-0.076223,0.080435,-0.626504,0.177245,-0.140371,-0.314723
289203917,1508,1493,1493,1494,1179,1508,1493,1493,1494,1180,1512,1495,1482,1500,-0.076223,0.080435,-0.626504,0.177245,-0.140371,-0.314723
289303930,1508,1493,1494,1494,1179,1508,1493,1494,1494,1180,1513,1495,1482,1500,-0.076223,0.080435,-0.626504,0.177245,-0.140371,-0.314723
289403941,1509,1493,1493,1495,1179,1509,1493,1493,1495,1180,1513,1495,1481,1500,-0.076223,0.080435,-0.626504,0.177245,-0.140371,-0.314723
289503958,1508,1493,1493,1494,1180,1508,1493,1493,1494,1180,1513,1495,1481,1500,-0.076223,0.080435,-0.626504,0.177245,-0.140371,-0.314723
289603966,1508,1493,1494,1494,1179,1508,1493,1494,1494,1180,1513,1495,1481,1500,-0.076223,0.080435,-0.626504,0.177245,-0.140371,-0.314723
289703976,1508,1493,1494,1494,1179,1508,1493,1494,1494,1180,1514,1494,1481,1500,-0.076223,0.080435,-0.626504,0.177245,-0.140371,-0.314723
289803998,1509,1493,1494,1494,1179,1509,1493,1494,1494,1180,1514,1494,1480,1500,-0.076223,0.080435,-0.626504,0.177245,-0.140371,-0.314723
289904000,1508,1493,1493,1494,1179,1508,1493,1493,1494,1180,1514,1494,1480,1500,-0.076223,0.080435,-0.626504,0.177245,-0.140371,-0.314723
290004015,1509,1493,1493,1495,1179,1509,1493,1493,1495,1180,1514,1494,1480,1500,-0.076223,0.080435,-0.626504,0.177245,-0.140371,-0.314723
290104031,1509,1493,1493,1494,1179,1509,1493,1493,1494,1180,1515,1494,1480,1500,-0.076223,0.080435,-0.626504,0.177245,-0.140371,-0.314723
290204035,1508,1493,1493,1494,1180,1508,1493,1493,1494,1180,1515,1494,1479,1500,-0.076223,0.080435,-0.626504,0.177245,-0.140371,-0.314723
290304057,1508,1493,1494,1494,1179,1508,1493,1494,1494,1180,1515,1494,1479,1500,-0.076223,0.080435,-0.626504,0.177245,-0.140371,-0.314723
290404091,1508,1493,1493,1495,1179,1508,1493,1493,1495,1180,1516,1494,1479,1500,-0.076223,0.080435,-0.626504,0.177245,-0.140371,-0.314723
290504112,1508,1493,1494,1494,1180,1508,1493,1494,1494,1180,1516,1494,1479,1500,-0.076223,0.080435,-0.626504,0.177245,-0.140371,-0.314723
290604136,1508,1493,1493,1494,1179,1508,1493,1493,1494,1180,1516,1494,1478,1500,-0.076223,0.080435,-0.626504,0.177245,-0.140371,-0.314723
290704169,1508,1493,1493,1494,1179,1508,1493,1493,1494,1180,1516,1494,1478,1500,-0.076223,0.080435,-0.626504,0.177245,-0.140371,-0.314723
290804202,1508,1493,1493,1494,1179,1508,1493,1493,1494,1180,1517,1493,1478,1500,-0.076223,0.080435,-0.626504,0.177245,-0.140371,-0.314723
290904223,1508,1493,1493,1494,1179,1508,1493,1493,1494,1180,1517,1493,1478,1500,-0.076223,0.080435,-0.626504,0.177245,-0.140371,-0.314723
291004260,1508,1493,1493,1494,1179,1508,1493,1493,1494,1180,1517,1493,1477,1500,-0.076223,0.080435,-0.626504,0.177245,-0.140371,-0.314723
291104277,1508,1493,1493,1494,1179,1508,1493,1493,1494,1180,1517,1493,1477,1500,-0.076223,0.080435,-0.626504,0.177245,-0.140371,-0.314723
291204297,1508,1493,1493,1494,1180,1508,1493,1493,1494,1180,1518,1493,1477,1500,-0.076223,0.080435,-0.626504,0.177245,-0.140371,-0.314723
291304305,1508,1493,1493,1495,1179,1508,1493,1493,1495,1180,1518,1493,1477,1500,-0.076223,0.080435,-0.626504,0.177245,-0.140371,-0.314723
291404324,1508,1493,1493,1494,1179,1508,1493,1493,1494,1180,1518,1493,1476,1500,-0.076223,0.080435,-0.626504,0.177245,-0.140371,-0.314723
291504351,1508,1493,1494,1494,1179,1508,1493,1494,1494,1180,1518,1493,1476,1500,-0.076223,0.080435,-0.626504,0.177245,-0.140371,-0.314723
291604364,1508,1493,1493,1494,1179,1508,1493,1493,1494,1180,1519,1493,1476,1500,-0.076223,0.080435,-0.626504,0.177245,-0.140371,-0.314723
291704400,1508,1493,1493,1494,1179,1508,1493,1493,1494,1180,1519,1493,1476,1500,-0.076223,0.080435,-0.626504,0.177245,-0.140371,-0.314723
291804409,1508,1493,1494,1494,1180,1508,1493,1494,1494,1180,1519,1492,1475,1500,-0.076223,0.080435,-0.626504,0.177245,-0.140371,-0.314723
291904412,1508,1493,1494,1494,1179,1508,1493,1494,1494,1180,1519,1492,1475,1500,-0.076223,0.080435,-0.626504,0.177245,-0.140371,-0.314723
292004420,1508,1493,1493,1494,1179,1508,1493,1493,1494,1180,1520,1492,1475,1500,-0.076223,0.080435,-0.626504,0.177245,-0.140371,-0.314723
292104438,1508,1493,1493,1494,1179,1508,1493,1493,1494,1180,1520,1492,1474,1500,-0.076223,0.080435,-0.626504,0.177245,-0.140371,-0.314723
292204468,1508,1493,1494,1494,1179,1508,1493,1494,1494,1180,1520,1492,1474,1500,-0.076223,0.080435,-0.626504,0.177245,-0.140371,-0.314723
292304478,1508,1493,1494,1494,1179,1508,1493,1494,1494,1180,1520,1492,1474,1500,-0.076223,0.080435,-0.626504,0.177245,-0.140371,-0.314723
292404502,1508,1493,1493,1494,1179,1508,1493,1493,1494,1180,1521,1492,1474,1500,-0.076223,0.080435,-0.626504,0.177245,-0.140371,-0.314723
292504512,1508,1493,1493,1494,1179,1508,1493,1493,1494,1180,1521,1492,1473,1500,-0.076223,0.080435,-0.626504,0.177245,-0.140371,-0.314723
292604535,1508,1493,1493,1494,1179,1508,1493,1493,1494,1180,1521,1492,1473,1500,-0.076223,0.080435,-0.626504,0.177245,-0.140371,-0.314723
292704538,1508,1493,1493,1494,1179,1508,1493,1493,1494,1180,1521,1492,1473,1500,-0.076223,0.080435,-0.626504,0.177245,-0.140371,-0.314723
292804561,1508,1493,1493,1494,1180,1508,1493,1493,1494,1180,1522,1492,1473,1500,-0.076223,0.080435,-0.626504,0.177245,-0.140371,-0.314723
292904566,1508,1493,1493,1494,1179,1508,1493,1493,1494,1180,1522,1491,1472,1500,-0.076223,0.080435,-0.626504,0.177245,-0.140371,-0.314723
293004597,1508,1493,1493,1494,1179,1508,1493,1493,1494,1180,1522,1491,1472,1500,-0.076223,0.080435,-0.626504,0.177245,-0.140371,-0.314723
293104624,1509,1493,1494,1494,1179,1509,1493,1494,1494,1180,1522,1491,1472,1500,-0.076223,0.080435,-0.626504,0.177245,-0.140371,-0.314723
293204665,1508,1493,1493,1494,1179,1508,1493,1493,1494,1180,1523,1491,1472,1500,-0.076223,0.080435,-0.626504,0.177245,-0.140371,-0.314723
293304678,1508,1493,1493,1494,1179,1508,1493,1493,1494,1180,1523,1491,1471,1500,-0.076223,0.080435,-0.626504,0.177245,-0.140371,-0.314723
293404702,1508,1493,1494,1494,1179,1508,1493,1494,1494,1180,1523,1491,1471,1500,-0.076223,0.080435,-0.626504,0.177245,-0.140371,-0.314723
293504723,1508,1493,1493,1494,1179,1508,1493,1493,1494,1180,1524,1491,1471,1500,-0.076223,0.080435,-0.626504,0.177245,-0.140371,-0.314723
293604738,1508,1493,1493,1494,1179,1508,1493,1493,1494,1180,1524,1491,1470,1500,-0.076223,0.080435,-0.626504,0.177245,-0.140371,-0.314723
293704744,1508,1493,1493,1494,1180,1508,1493,1493,1494,1180,1524,1491,1470,1500,-0.076223,0.080435,-0.626504,0.177245,-0.140371,-0.314723
293804767,1508,1493,1493,1494,1179,1508,1493,1493,1494,1180,1524,1491,1470,1500,-0.076223,0.080435,-0.626504,0.177245,-0.140371,-0.314723
293904782,1509,1493,1493,1494,1179,1509,1493,1493,1494,1180,1525,1490,1470,1500,-0.076223,0.080435,-0.626504,0.177245,-0.140371,-0.314723
294004812,1508,1493,1493,1494,1179,1508,1493,1493,1494,1180,1525,1490,1469,1500,-0.076223,0.080435,-0.626504,0.177245,-0.140371,-0.314723
294104829,1508,1493,1493,1494,1179,1508,1493,1493,1494,1180,1525,1490,1469,1500,-0.076223,0.080435,-0.626504,0.177245,-0.140371,-0.314723
294204840,1508,1493,1493,1494,1180,1508,1493,1493,1494,1180,1525,1490,1469,1500,-0.076223,0.080435,-0.626504,0.177245,-0.140371,-0.314723
294304875,1508,1493,1493,1494,1179,1508,1493,1493,1494,1180,1526,1490,1469,1500,-0.076223,0.080435,-0.626504,0.177245,-0.140371,-0.314723
294404877,1508,1493,1494,1494,1179,1508,1493,1494,1494,1180,1526,1490,1469,1500,-0.076223,0.080435,-0.626504,0.177245,-0.140371,-0.314723
294504904,1508,1493,1493,1494,1180,1508,1493,1493,1494,1180,1526,1490,1469,1500,-0.076223,0.080435,-0.626504,0.177245,-0.140371,-0.314723
294604935,1508,1493,1494,1494,1179,1508,1493,1494,1494,1180,1526,1490,1469,1500,-0.076223,0.080435,-0.626504,0.177245,-0.140371,-0.314723
294704968,1508,1493,1495,1494,1179,1508,1493,1495,1494,1180,1527,1490,1469,1500,-0.076223,0.080435,-0.626504,0.177245,-0.140371,-0.314723
294805001,1508,1493,1493,1494,1179,1508,1493,1493,1494,1180,1527,1490,1469,1500,-0.076223,0.080435,-0.626504,0.177245,-0.140371,-0.314723
294905035,1508,1493,1493,1494,1179,1508,1493,1493,1494,1180,1527,1490,1469,1500,-0.076223,0.080435,-0.626504,0.177245,-0.140371,-0.314723
295005040,1508,1493,1494,1494,1179,1508,1493,1494,1494,1180,1527,1489,1469,1500,-0.076223,0.080435,-0.626504,0.177245,-0.140371,-0.314723
295105048,1508,1493,1493,1494,1179,1508,1493,1493,1494,1180,1528,1489,1469,1500,-0.076223,0.080435,-0.626504,0.177245,-0.140371,-0.314723
295205057,1508,1493,1493,1494,1179,1508,1493,1493,1494,1180,1528,1489,1469,1500,-0.076223,0.080435,-0.626504,0.177245,-0.140371,-0.314723
295305072,1508,1493,1493,1494,1179,1508,1493,1493,1494,1180,1528,1489,1469,1500,-0.076223,0.080435,-0.626504,0.177245,-0.140371,-0.314723
295405093,1508,1493,1494,1494,1180,1508,1493,1494,1494,1180,1529,1489,1469,1500,-0.076223,0.080435,-0.626504,0.177245,-0.140371,-0.314723
295505096,1508,1493,1493,1494,1179,1508,1493,1493,1494,1180,1529,1489,1469,1500,-0.076223,0.080435,-0.626504,0.177245,-0.140371,-0.314723
295605130,1508,1493,1494,1494,1179,1508,1493,1494,1494,1180,1529,1489,1469,1500,-0.076223,0.080435,-0.626504,0.177245,-0.140371,-0.314723
295705182,1508,1493,1493,1494,1179,1508,1493,1493,1494,1180,1529,1489,1469,1500,-0.076223,0.080435,-0.626504,0.177245,-0.140371,-0.314723
295805200,1508,1493,1493,1494,1179,1508,1493,1493,1494,1180,1530,1489,1469,1500,-0.076223,0.080435,-0.626504,0.177245,-0.140371,-0.314723
295905216,1508,1493,1493,1494,1179,1508,1493,1493,1494,1180,1530,1489,1469,1500,-0.076223,0.080435,-0.626504,0.177245,-0.140371,-0.314723
296005248,1508,1493,1493,1495,1179,1508,1493,1493,1495,1180,1530,1489,1469,1500,-0.076223,0.080435,-0.626504,0.177245,-0.140371,-0.314723
296105267,1508,1493,1493,1494,1179,1508,1493,1493,1494,1180,1530,1488,1469,1500,-0.076223,0.080435,-0.626504,0.177245,-0.140371,-0.314723
296205288,1509,1493,1494,1494,1179,1509,1493,1494,1494,1180,1530,1488,1469,1500,-0.076223,0.080435,-0.626504,0.177245,-0.140371,-0.314723
296305301,1508,1493,1493,1494,1179,1508,1493,1493,1494,1180,1530,1488,1469,1500,-0.076223,0.080435,-0.626504,0.177245,-0.140371,-0.314723
296405334,1508,1493,1493,1494,1180,1508,1493,1493,1494,1180,1530,1488,1469,1500,-0.076223,0.080435,-0.626504,0.177245,-0.140371,-0.314723
296505361,1508,1493,1493,1494,1179,1508,1493,1493,1494,1180,1530,1488,1469,1500,-0.076223,0.080435,-0.626504,0.177245,-0.140371,-0.314723
296605373,1508,1493,1493,1494,1179,1508,1493,1493,1494,1180,1530,1488,1469,1500,-0.076223,0.080435,-0.626504,0.177245,-0.140371,-0.314723
296705406,1508,1493,1493,1494,1179,1508,1493,1493,1494,1180,1530,1488,1469,1500,-0.076223,0.080435,-0.626504,0.177245,-0.140371,-0.314723
296805421,1508,1493,1493,1494,1179,1508,1493,1493,1494,1180,1530,1488,1469,1500,-0.076223,0.080435,-0.626504,0.177245,-0.140371,-0.314723
296905427,1508,1493,1494,1494,1179,1508,1493,1494,1494,1180,1530,1488,1469,1500,-0.076223,0.080435,-0.626504,0.177245,-0.140371,-0.314723
297005442,1508,1493,1493,1494,1179,1508,1493,1493,1494,1180,1530,1488,1469,1500,-0.076223,0.080435,-0.626504,0.177245,-0.140371,-0.314723
297105448,1508,1493,1493,1494,1179,1508,1493,1493,1494,1180,1530,1487,1469,1500,-0.076223,0.080435,-0.626504,0.177245,-0.140371,-0.314723
297205480,1508,1493,1493,1494,1179,1508,1493,1493,1494,1180,1530,1487,1469,1500,-0.076223,0.080435,-0.626504,0.177245,-0.140371,-0.314723
297305503,1509,1493,1493,1494,1179,1509,1493,1493,1494,1180,1530,1487,1469,1500,-0.076223,0.080435,-0.626504,0.177245,-0.140371,-0.314723
297405506,1508,1493,1493,1494,1179,1508,1493,1493,1494,1180,1530,1487,1469,1500,-0.076223,0.080435,-0.626504,0.177245,-0.140371,-0.314723
297505527,1508,1493,1493,1494,1180,1508,1493,1493,1494,1180,1530,1487,1469,1500,-0.076223,0.080435,-0.626504,0.177245,-0.140371,-0.314723
297605548,1508,1493,1493,1494,1180,1508,1493,1493,1494,1180,1530,1487,1469,1500,-0.076223,0.080435,-0.626504,0.177245,-0.140371,-0.314723
297705583,1508,1493,1493,1494,1180,1508,1493,1493,1494,1180,1530,1487,1469,1500,-0.076223,0.080435,-0.626504,0.177245,-0.140371,-0.314723
297805586,1508,1493,1493,1495,1179,1508,1493,1493,1495,1180,1530,1487,1469,1500,-0.076223,0.080435,-0.626504,0.177245,-0.140371,-0.314723
297905621,1508,1493,1493,1494,1179,1508,1493,1493,1494,1180,1530,1487,1469,1500,-0.076223,0.080435,-0.626504,0.177245,-0.140371,-0.314723
298005638,1508,1493,1493,1494,1179,1508,1493,1493,1494,1180,1530,1487,1469,1500,-0.076223,0.080435,-0.626504,0.177245,-0.140371,-0.314723
298105667,1508,1493,1493,1494,1179,1508,1493,1493,1494,1180,1530,1487,1469,1500,-0.076223,0.080435,-0.626504,0.177245,-0.140371,-0.314723
298205669,1508,1493,1494,1494,1180,1508,1493,1494,1494,1180,1530,1486,1469,1500,-0.076223,0.080435,-0.626504,0.177245,-0.140371,-0.314723
298305697,1508,1493,1493,1494,1180,1508,1493,1493,1494,1180,1530,1486,1469,1500,-0.076223,0.080435,-0.626504,0.177245,-0.140371,-0.314723
298405700,1508,1493,1493,1494,1179,1508,1493,1493,1494,1180,1530,1486,1469,1500,-0.076223,0.080435,-0.626504,0.177245,-0.140371,-0.314723
298505705,1508,1493,1494,1495,1179,1508,1493,1494,1495,1180,1530,1486,1469,1500,-0.076223,0.080435,-0.626504,0.177245,-0.140371,-0.314723
298605738,1508,1493,1493,1494,1180,1508,1493,1493,1494,1180,1530,1486,1469,1500,-0.076223,0.080435,-0.626504,0.177245,-0.140371,-0.314723
298705778,1508,1493,1494,1494,1179,1508,1493,1494,1494,1180,1530,1486,1469,1500,-0.076223,0.080435,-0.626504,0.177245,-0.140371,-0.314723
298805806,1508,1493,1493,1494,1180,1508,1493,1493,1494,1180,1530,1486,1469,1500,-0.076223,0.080435,-0.626504,0.177245,-0.140371,-0.314723
298905821,1508,1493,1493,1494,1179,1508,1493,1493,1494,1180,1530,1486,1469,1500,-0.076223,0.080435,-0.626504,0.177245,-0.140371,-0.314723
299005851,1508,1493,1493,1494,1179,1508,1493,1493,1494,1180,1530,1486,1469,1500,-0.076223,0.080435,-0.626504,0.177245,-0.140371,-0.314723
299105881,1508,1493,1493,1494,1179,1508,1493,1493,1494,1180,1530,1486,1469,1500,-0.076223,0.080435,-0.626504,0.177245,-0.140371,-0.314723
299205889,1508,1493,1493,1494,1179,1508,1493,1493,1494,1180,1530,1485,1469,1500,-0.076223,0.080435,-0.626504,0.177245,-0.140371,-0.314723
299305891,1508,1493,1493,1494,1179,1508,1493,1493,1494,1180,1530,1485,1469,1500,-0.076223,0.080435,-0.626504,0.177245,-0.140371,-0.314723
299405942,1508,1493,1493,1494,1179,1508,1493,1493,1494,1180,1530,1485,1469,1500,-0.076223,0.080435,-0.626504,0.177245,-0.140371,-0.314723
299505945,1508,1493,1493,1494,1179,1508,1493,1493,1494,1180,1530,1485,1469,1500,-0.076223,0.080435,-0.626504,0.177245,-0.140371,-0.314723
299605949,1508,1493,1493,1494,1179,1508,1493,1493,1494,1180,1530,1485,1469,1500,-0.076223,0.080435,-0.626504,0.177245,-0.140371,-0.314723
299705976,1508,1493,1494,1494,1179,1508,1493,1494,1494,1180,1530,1485,1469,1500,-0.076223,0.080435,-0.626504,0.177245,-0.140371,-0.314723
299806005,1508,1493,1493,1494,1179,1508,1493,1493,1494,1180,1530,1485,1469,1500,-0.076223,0.080435,-0.626504,0.177245,-0.140371,-0.314723
299906009,1508,1493,1494,1494,1180,1508,1493,1494,1494,1180,1530,1485,1469,1500,-0.076223,0.080435,-0.626504,0.177245,-0.140371,-0.314723
300006042,1508,1493,1493,1494,1180,1508,1493,1493,1494,1180,1530,1485,1469,1500,-0.076223,0.080435,-0.626504,0.177245,-0.140371,-0.314723
300106077,1508,1493,1493,1494,1180,1508,1493,1493,1494,1180,1530,1485,1469,1500,-0.076223,0.080435,-0.626504,0.177245,-0.140371,-0.314723
300206101,1508,1493,1493,1494,1179,1508,1493,1493,1494,1180,1530,1484,1469,1500,-0.076223,0.080435,-0.626504,0.177245,-0.140371,-0.314723
300306114,1508,1493,1493,1494,1179,1508,1493,1493,1494,1180,1530,1484,1469,1500,-0.076223,0.080435,-0.626504,0.177245,-0.140371,-0.314723
300406143,1508,1493,1493,1494,1179,1508,1493,1493,1494,1180,1530,1484,1469,1500,-0.076223,0.080435,-0.626504,0.177245,-0.140371,-0.314723
300506161,1508,1493,1493,1494,1179,1508,1493,1493,1494,1180,1530,1484,1469,1500,-0.076223,0.080435,-0.626504,0.177245,-0.140371,-0.314723
300606170,1508,1493,1493,1494,1180,1508,1493,1493,1494,1180,1530,1484,1469,1500,-0.076223,0.080435,-0.626504,0.177245,-0.140371,-0.314723
300706202,1508,1493,1493,1494,1179,1508,1493,1493,1494,1180,1530,1484,1469,1500,-0.076223,0.080435,-0.626504,0.177245,-0.140371,-0.314723
300806211,1508,1493,1493,1494,1180,1508,1493,1493,1494,1180,1530,1484,1469,1500,-0.076223,0.080435,-0.626504,0.177245,-0.140371,-0.314723
300906224,1508,1493,1493,1494,1179,1508,1493,1493,1494,1180,1530,1484,1469,1500,-0.076223,0.080435,-0.626504,0.177245,-0.140371,-0.314723
301006241,1509,1493,1493,1495,1179,1509,1493,1493,1495,1180,1530,1484,1469,1500,-0.076223,0.080435,-0.626504,0.177245,-0.140371,-0.314723
301106259,1508,1493,1494,1494,1179,1508,1493,1494,1494,1180,1530,1484,1469,1500,-0.076223,0.080435,-0.626504,0.177245,-0.140371,-0.314723
301206274,1508,1493,1493,1494,1179,1508,1493,1493,1494,1180,1530,1484,1469,1500,-0.076223,0.080435,-0.626504,0.177245,-0.140371,-0.314723
301306306,1508,1493,1493,1494,1180,1508,1493,1493,1494,1180,1530,1483,1469,1500,-0.076223,0.080435,-0.626504,0.177245,-0.140371,-0.314723
301406329,1508,1493,1493,1494,1180,1508,1493,1493,1494,1180,1530,1483,1469,1500,-0.076223,0.080435,-0.626504,0.177245,-0.140371,-0.314723
301506333,1508,1493,1493,1494,1179,1508,1493,1493,1494,1180,1530,1483,1469,1500,-0.076223,0.080435,-0.626504,0.177245,-0.140371,-0.314723
301606358,1508,1493,1494,1494,1180,1508,1493,1494,1494,1180,1530,1483,1469,1500,-0.076223,0.080435,-0.626504,0.177245,-0.140371,-0.314723
301706383,1508,1493,1493,1494,1180,1508,1493,1493,1494,1180,1530,1483,1469,1500,-0.076223,0.080435,-0.626504,0.177245,-0.140371,-0.314723
301806387,1508,1493,1493,1494,1179,1508,1493,1493,1494,1180,1530,1483,1469,1500,-0.076223,0.080435,-0.626504,0.177245,-0.140371,-0.314723
301906388,1508,1493,1494,1494,1180,1508,1493,1494,1494,1180,1530,1483,1469,1500,-0.076223,0.080435,-0.626504,0.177245,-0.140371,-0.314723
302006423,1508,1493,1493,1494,1179,1508,1493,1493,1494,1180,1530,1483,1469,1500,-0.076223,0.080435,-0.626504,0.177245,-0.140371,-0.314723
302106453,1508,1493,1494,1494,1180,1508,1493,1494,1494,1180,1530,1483,1469,1500,-0.076223,0.080435,-0.626504,0.177245,-0.140371,-0.314723
302206455,1508,1493,1494,1495,1179,1508,1493,1494,1495,1180,1530,1483,1469,1500,-0.076223,0.080435,-0.626504,0.177245,-0.140371,-0.314723
302306475,1508,1493,1493,1494,1180,1508,1493,1493,1494,1180,1530,1483,1469,1500,-0.076223,0.080435,-0.626504,0.177245,-0.140371,-0.314723
302406491,1509,1493,1495,1495,1179,1509,1493,1495,1495,1180,1530,1482,1469,1500,-0.076223,0.080435,-0.626504,0.177245,-0.140371,-0.314723
302506499,1509,1493,1493,1494,1179,1509,1493,1493,1494,1180,1530,1482,1469,1500,-0.076223,0.080435,-0.626504,0.177245,-0.140371,-0.314723
302606516,1508,1493,1493,1494,1180,1508,1493,1493,1494,1180,1530,1482,1469,1500,-0.076223,0.080435,-0.626504,0.177245,-0.140371,-0.314723
302706537,1509,1493,1494,1496,1179,1509,1493,1494,1496,1180,1530,1482,1469,1500,-0.076223,0.080435,-0.626504,0.177245,-0.140371,-0.314723
302806558,1508,1493,1494,1494,1179,1508,1493,1494,1494,1180,1530,1482,1469,1500,-0.076223,0.080435,-0.626504,0.177245,-0.140371,-0.314723
