-2122226296,1507,1493,1493,1495,1179,1507,1493,1493,1495,1180,1500,1500,1500,1500,0.000000,0.000000,0.000000,-0.568074,0.075727,0.000057
-2122126283,1507,1493,1493,1495,1180,1507,1493,1493,1495,1180,1500,1500,1500,1500,0.000000,0.000000,0.000000,-0.568055,0.075745,0.000084
-2122026271,1507,1493,1493,1495,1179,1507,1493,1493,1495,1180,1500,1500,1501,1500,0.000000,0.000000,0.000000,-0.568012,0.075739,0.000114
-2121926257,1507,1493,1493,1495,1179,1507,1493,1493,1495,1180,1500,1500,1501,1500,0.000000,0.000000,0.000000,-0.568029,0.075751,0.000122
-2121826224,1507,1493,1493,1495,1180,1507,1493,1493,1495,1180,1500,1500,1502,1500,0.000000,0.000000,0.000000,-0.568041,0.075744,0.000098
-2121726222,1507,1493,1493,1495,1179,1507,1493,1493,1495,1180,1500,1500,1503,1500,0.000000,0.000000,0.000000,-0.568047,0.075747,0.000081
-2121626211,1507,1493,1493,1495,1180,1507,1493,1493,1495,1180,1500,1500,1503,1500,0.000000,0.000000,0.000000,-0.568038,0.075763,0.000094
-2121526209,1507,1493,1493,1495,1179,1507,1493,1493,1495,1180,1500,1500,1504,1500,0.000000,0.000000,0.000000,-0.568036,0.075759,0.000109
-2121426197,1507,1493,1493,1495,1179,1507,1493,1493,1495,1180,1500,1500,1504,1500,0.000000,0.000000,0.000000,-0.568035,0.075752,0.000104
-2121326169,1507,1493,1493,1495,1179,1507,1493,1493,1495,1180,1500,1500,1505,1500,0.000000,0.000000,0.000000,-0.568035,0.075761,0.000096
-2121226150,1507,1493,1493,1495,1179,1507,1493,1493,1495,1180,1500,1500,1505,1500,0.000000,0.000000,0.000000,-0.568033,0.075767,0.000104
-2121126149,1507,1493,1493,1495,1179,1507,1493,1493,1495,1180,1500,1500,1506,1500,0.000000,0.000000,0.000000,-0.568041,0.075764,0.000093
-2121026135,1509,1493,1493,1496,1179,1509,1493,1493,1496,1180,1500,1500,1506,1500,0.000000,0.000000,0.000000,-0.568047,0.075751,0.000088
-2120926112,1508,1493,1493,1495,1179,1508,1493,1493,1495,1180,1500,1500,1507,1500,0.000000,0.000000,0.000000,-0.568053,0.075755,0.000098
-2120826085,1507,1493,1493,1495,1179,1507,1493,1493,1495,1180,1500,1500,1507,1500,-0.568041,0.075738,0.000113,-0.568078,0.075743,0.000094
-2120726058,1507,1493,1493,1495,1179,1507,1493,1493,1495,1180,1500,1500,1507,1500,-0.568041,0.075738,0.000113,-0.568031,0.075746,0.000111
-2120626049,1507,1493,1493,1495,1180,1507,1493,1493,1495,1180,1500,1500,1507,1500,-0.568041,0.075738,0.000113,-0.568022,0.075760,0.000116
-2120526035,1507,1493,1493,1495,1179,1507,1493,1493,1495,1180,1500,1500,1507,1500,-0.568041,0.075738,0.000113,-0.568001,0.075780,0.000136
-2120426005,1507,1493,1493,1495,1179,1507,1493,1493,1495,1180,1500,1500,1507,1500,-0.568041,0.075738,0.000113,-0.568022,0.075750,0.000116
-2120326003,1507,1493,1493,1495,1179,1507,1493,1493,1495,1180,1500,1500,1507,1500,-0.568041,0.075738,0.000113,-0.568061,0.075747,0.000083
-2120225991,1507,1493,1493,1495,1179,1507,1493,1493,1495,1180,1500,1500,1507,1500,-0.568041,0.075738,0.000113,-0.568051,0.075754,0.000095
-2120125990,1507,1493,1493,1496,1179,1507,1493,1493,1496,1180,1500,1500,1507,1500,-0.568041,0.075738,0.000113,-0.568049,0.075744,0.000079
-2120025964,1507,1493,1493,1495,1179,1507,1493,1493,1495,1180,1500,1500,1507,1500,-0.568041,0.075738,0.000113,-0.568046,0.075759,0.000098
-2119925949,1507,1493,1493,1496,1179,1507,1493,1493,1496,1180,1500,1500,1507,1500,-0.568041,0.075738,0.000113,-0.568034,0.075748,0.000114
-2119825943,1507,1493,1493,1496,1179,1507,1493,1493,1496,1180,1500,1500,1507,1500,-0.568041,0.075738,0.000113,-0.569337,0.076879,0.002878
-2119725914,1507,1493,1493,1495,1179,1507,1493,1493,1495,1180,1500,1500,1507,1500,-0.568041,0.075738,0.000113,-0.569365,0.076896,0.002849
-2119625887,1507,1493,1493,1495,1179,1507,1493,1493,1495,1180,1500,1500,1507,1500,-0.568041,0.075738,0.000113,-0.569377,0.076917,0.002832
-2119525878,1507,1493,1493,1495,1180,1507,1493,1493,1495,1180,1500,1500,1507,1500,-0.568041,0.075738,0.000113,-0.569353,0.076912,0.002865
-2119425863,1507,1493,1493,1495,1180,1507,1493,1493,1495,1180,1500,1500,1507,1500,-0.568041,0.075738,0.000113,-0.569429,0.076867,0.002879
-2119325862,1507,1493,1493,1495,1179,1507,1493,1493,1495,1180,1500,1500,1507,1500,-0.568041,0.075738,0.000113,-0.569344,0.076917,0.002852
-2119225835,1507,1493,1493,1495,1179,1507,1493,1493,1495,1180,1500,1500,1507,1500,-0.568041,0.075738,0.000113,-0.569365,0.076906,0.002871
-2119125827,1507,1493,1493,1495,1179,1507,1493,1493,1495,1180,1500,1500,1507,1500,-0.568041,0.075738,0.000113,-0.569378,0.076903,0.002809
-2119025818,1508,1493,1493,1496,1179,1508,1493,1493,1496,1180,1500,1500,1507,1500,-0.568041,0.075738,0.000113,-0.569359,0.076905,0.002858
-2118925813,1508,1493,1493,1495,1179,1508,1493,1493,1495,1180,1500,1500,1507,1500,-0.568041,0.075738,0.000113,-0.568043,0.075807,0.000039
-2118825790,1507,1493,1493,1495,1179,1507,1493,1493,1495,1180,1500,1500,1507,1500,-0.568041,0.075738,0.000113,-0.568032,0.075779,0.000087
-2118725768,1508,1493,1493,1495,1179,1508,1493,1493,1495,1180,1500,1500,1507,1500,-0.568041,0.075738,0.000113,-0.568046,0.075746,0.000088
-2118625732,1507,1493,1493,1495,1179,1507,1493,1493,1495,1180,1500,1500,1507,1500,-0.568041,0.075738,0.000113,-0.568061,0.075728,0.000076
-2118525721,1507,1493,1493,1495,1179,1507,1493,1493,1495,1180,1500,1500,1507,1500,-0.568041,0.075738,0.000113,-0.568060,0.075748,0.000072
-2118425685,1507,1493,1493,1495,1179,1507,1493,1493,1495,1180,1500,1500,1507,1500,-0.568041,0.075738,0.000113,-0.568069,0.075712,0.000060
-2118325634,1508,1493,1493,1495,1179,1508,1493,1493,1495,1180,1500,1500,1507,1500,-0.568041,0.075738,0.000113,-0.568047,0.075751,0.000074
-2118225627,1507,1493,1493,1495,1179,1507,1493,1493,1495,1180,1500,1500,1507,1500,-0.568041,0.075738,0.000113,-0.568054,0.075747,0.000078
-2118125618,1507,1493,1493,1495,1179,1507,1493,1493,1495,1180,1500,1500,1507,1500,-0.568041,0.075738,0.000113,-0.568050,0.075754,0.000092
-2118025617,1507,1493,1493,1495,1179,1507,1493,1493,1495,1180,1500,1500,1507,1500,-0.568041,0.075738,0.000113,-0.568053,0.075752,0.000098
-2117925586,1508,1493,1493,1495,1179,1508,1493,1493,1495,1180,1500,1500,1507,1500,-0.568041,0.075738,0.000113,-0.568033,0.075769,0.000116
-2117825581,1507,1493,1493,1495,1179,1507,1493,1493,1495,1180,1500,1500,1507,1500,-0.568041,0.075738,0.000113,-0.568522,0.075816,0.002184
-2117725562,1507,1493,1493,1495,1179,1507,1493,1493,1495,1180,1500,1500,1507,1500,-0.568041,0.075738,0.000113,-0.569405,0.076887,0.002903
-2117625548,1509,1493,1493,1496,1179,1509,1493,1493,1496,1180,1500,1500,1507,1500,-0.568041,0.075738,0.000113,-0.569858,0.077007,0.002336
-2117525530,1507,1493,1493,1495,1179,1507,1493,1493,1495,1180,1500,1500,1507,1500,-0.568041,0.075738,0.000113,-0.569895,0.077035,0.002333
-2117425498,1507,1493,1493,1495,1179,1507,1493,1493,1495,1180,1500,1500,1507,1500,-0.568041,0.075738,0.000113,-0.569416,0.076905,0.002759
-2117325470,1507,1493,1493,1495,1179,1507,1493,1493,1495,1180,1500,1500,1507,1500,-0.568041,0.075738,0.000113,-0.569414,0.076886,0.002778
-2117225454,1507,1493,1493,1495,1179,1507,1493,1493,1495,1180,1500,1500,1507,1500,-0.568041,0.075738,0.000113,-0.569182,0.075493,0.002755
-2117125424,1509,1493,1493,1495,1179,1509,1493,1493,1495,1180,1500,1500,1507,1500,-0.568041,0.075738,0.000113,-0.568686,0.075099,0.002921
-2117025419,1507,1493,1493,1495,1179,1507,1493,1493,1495,1180,1500,1500,1507,1500,-0.568041,0.075738,0.000113,-0.568504,0.076145,0.002106
-2116925387,1509,1493,1493,1496,1179,1509,1493,1493,1496,1180,1500,1500,1507,1500,-0.568041,0.075738,0.000113,-0.543782,0.075676,0.002642
-2116825368,1507,1493,1493,1495,1179,1507,1493,1493,1495,1180,1500,1500,1507,1500,-0.568041,0.075738,0.000113,-0.534009,0.068890,0.000353
-2116725356,1507,1493,1493,1495,1179,1507,1493,1493,1495,1180,1500,1500,1507,1500,-0.568041,0.075738,0.000113,-0.534009,0.068890,0.000353
-2116625355,1507,1493,1493,1495,1179,1507,1493,1493,1495,1180,1500,1500,1507,1500,-0.568041,0.075738,0.000113,-0.534009,0.068890,0.000353
-2116525344,1507,1493,1493,1495,1179,1507,1493,1493,1495,1180,1500,1500,1507,1500,-0.568041,0.075738,0.000113,-0.534009,0.068890,0.000353
-2116425322,1507,1493,1493,1495,1179,1507,1493,1493,1495,1180,1500,1500,1507,1500,-0.568041,0.075738,0.000113,-0.180189,0.065074,-0.040308
-2116325311,1507,1493,1493,1495,1179,1507,1493,1493,1495,1180,1499,1500,1506,1500,-0.568041,0.075738,0.000113,-0.116815,0.072511,-0.020109
-2116225308,1507,1493,1493,1495,1179,1507,1493,1493,1495,1180,1499,1500,1506,1500,-0.568041,0.075738,0.000113,-0.109619,0.085227,-0.004952
-2116125306,1507,1493,1493,1495,1179,1507,1493,1493,1495,1180,1499,1500,1506,1500,-0.568041,0.075738,0.000113,-0.109257,0.083822,-0.002610
-2116025279,1507,1493,1493,1495,1179,1507,1493,1493,1495,1180,1499,1500,1505,1500,-0.568041,0.075738,0.000113,-0.108160,0.082442,-0.002153
-2115925243,1507,1493,1493,1495,1179,1507,1493,1493,1495,1180,1499,1500,1505,1500,-0.568041,0.075738,0.000113,-0.108160,0.082442,-0.002153
-2115825220,1507,1493,1493,1495,1179,1507,1493,1493,1495,1180,1499,1500,1504,1500,-0.568041,0.075738,0.000113,-0.108160,0.082442,-0.002153
-2115725194,1507,1493,1493,1495,1179,1507,1493,1493,1495,1180,1499,1500,1504,1500,-0.568041,0.075738,0.000113,-0.109241,0.080574,0.000038
-2115625158,1507,1493,1493,1495,1179,1507,1493,1493,1495,1180,1499,1500,1503,1500,-0.568041,0.075738,0.000113,-0.109285,0.080831,0.000109
-2115525142,1507,1493,1493,1495,1179,1507,1493,1493,1495,1180,1499,1500,1503,1500,-0.568041,0.075738,0.000113,-0.108630,0.080789,0.001244
-2115425141,1507,1493,1493,1495,1179,1507,1493,1493,1495,1180,1499,1500,1502,1500,-0.568041,0.075738,0.000113,-0.108652,0.080780,0.001233
-2115325108,1507,1493,1493,1495,1179,1507,1493,1493,1495,1180,1499,1500,1502,1500,-0.568041,0.075738,0.000113,-0.108601,0.080614,0.000441
-2115225079,1507,1493,1493,1495,1179,1507,1493,1493,1495,1180,1499,1500,1502,1500,-0.568041,0.075738,0.000113,-0.108606,0.080624,0.000441
-2115125036,1507,1493,1493,1495,1179,1507,1493,1493,1495,1180,1499,1500,1501,1500,-0.568041,0.075738,0.000113,-0.108595,0.080623,0.000443
-2115025002,1507,1493,1493,1495,1179,1507,1493,1493,1495,1180,1499,1500,1501,1500,-0.568041,0.075738,0.000113,-0.108593,0.080627,0.000440
-2114924995,1507,1493,1493,1495,1179,1507,1493,1493,1495,1180,1499,1500,1500,1500,-0.568041,0.075738,0.000113,-0.108594,0.080619,0.000448
-2114824971,1507,1493,1493,1495,1179,1507,1493,1493,1495,1180,1499,1500,1500,1500,-0.568041,0.075738,0.000113,-0.108593,0.080620,0.000451
-2114724948,1507,1493,1493,1495,1179,1507,1493,1493,1495,1180,1499,1500,1500,1500,-0.568041,0.075738,0.000113,-0.108596,0.080624,0.000447
-2114624929,1507,1493,1493,1496,1179,1507,1493,1493,1496,1180,1499,1500,1499,1500,-0.568041,0.075738,0.000113,-0.108597,0.080635,0.000450
-2114524893,1507,1493,1493,1495,1179,1507,1493,1493,1495,1180,1499,1500,1499,1500,-0.568041,0.075738,0.000113,-0.108587,0.080634,0.000450
-2114424857,1507,1493,1493,1495,1179,1507,1493,1493,1495,1180,1499,1500,1498,1500,-0.568041,0.075738,0.000113,-0.108589,0.080638,0.000452
-2114324832,1507,1493,1493,1495,1179,1507,1493,1493,1495,1180,1499,1500,1498,1500,-0.568041,0.075738,0.000113,-0.108589,0.080638,0.000450
-2114224824,1507,1493,1493,1495,1179,1507,1493,1493,1495,1180,1499,1500,1497,1500,-0.568041,0.075738,0.000113,-0.108597,0.080644,0.000444
-2114124808,1508,1493,1493,1495,1179,1508,1493,1493,1495,1180,1499,1500,1497,1500,-0.568041,0.075738,0.000113,-0.108600,0.080638,0.000438
-2114024802,1508,1493,1493,1495,1179,1508,1493,1493,1495,1180,1499,1500,1497,1500,-0.568041,0.075738,0.000113,-0.108603,0.080640,0.000444
-2113924785,1507,1493,1493,1495,1180,1507,1493,1493,1495,1180,1499,1500,1496,1500,-0.568041,0.075738,0.000113,-0.108598,0.080641,0.000439
-2113824764,1507,1493,1493,1495,1179,1507,1493,1493,1495,1180,1499,1500,1496,1500,-0.568041,0.075738,0.000113,-0.108591,0.080640,0.000451
-2113724739,1507,1493,1493,1495,1179,1507,1493,1493,1495,1180,1499,1500,1496,1500,-0.568041,0.075738,0.000113,-0.108602,0.080644,0.000447
-2113624721,1507,1493,1493,1495,1180,1507,1493,1493,1495,1180,1499,1500,1495,1500,-0.568041,0.075738,0.000113,-0.108609,0.080636,0.000446
-2113524697,1507,1493,1493,1496,1179,1507,1493,1493,1496,1180,1499,1500,1495,1500,-0.568041,0.075738,0.000113,-0.108603,0.080631,0.000444
-2113424669,1507,1493,1493,1495,1180,1507,1493,1493,1495,1180,1499,1500,1494,1500,-0.568041,0.075738,0.000113,-0.108615,0.080632,0.000447
-2113324666,1507,1493,1493,1495,1179,1507,1493,1493,1495,1180,1499,1500,1494,1500,-0.568041,0.075738,0.000113,-0.108610,0.080640,0.000460
-2113224659,1507,1493,1493,1495,1180,1507,1493,1493,1495,1180,1499,1500,1493,1500,-0.568041,0.075738,0.000113,-0.108607,0.080629,0.000458
-2113124654,1508,1493,1493,1495,1179,1508,1493,1493,1495,1180,1499,1500,1493,1500,-0.568041,0.075738,0.000113,-0.108605,0.080633,0.000447
-2113024624,1508,1493,1493,1495,1179,1508,1493,1493,1495,1180,1499,1500,1493,1500,-0.568041,0.075738,0.000113,-0.108606,0.080633,0.000447
-2112924594,1507,1493,1493,1496,1180,1507,1493,1493,1496,1180,1499,1500,1492,1500,-0.568041,0.075738,0.000113,-0.108597,0.080640,0.000463
-2112824559,1507,1493,1493,1495,1179,1507,1493,1493,1495,1180,1499,1501,1492,1500,-0.568041,0.075738,0.000113,-0.108608,0.080642,0.000453
-2112724542,1508,1493,1493,1496,1179,1508,1493,1493,1496,1180,1499,1501,1491,1500,-0.568041,0.075738,0.000113,-0.108603,0.080639,0.000452
-2112624509,1507,1493,1493,1496,1179,1507,1493,1493,1496,1180,1499,1501,1491,1500,-0.568041,0.075738,0.000113,-0.108593,0.080635,0.000458
-2112524490,1507,1493,1493,1495,1180,1507,1493,1493,1495,1180,1499,1501,1490,1500,-0.568041,0.075738,0.000113,-0.108592,0.080646,0.000470
-2112424468,1507,1493,1493,1495,1179,1507,1493,1493,1495,1180,1499,1501,1490,1500,-0.568041,0.075738,0.000113,-0.108598,0.080637,0.000461
-2112324452,1509,1493,1493,1495,1179,1509,1493,1493,1495,1180,1499,1501,1490,1500,-0.568041,0.075738,0.000113,-0.108597,0.080635,0.000468
-2112224419,1507,1493,1493,1495,1180,1507,1493,1493,1495,1180,1499,1501,1489,1500,-0.568041,0.075738,0.000113,-0.108604,0.080640,0.000462
-2112124405,1507,1493,1493,1496,1179,1507,1493,1493,1496,1180,1499,1501,1489,1500,-0.568041,0.075738,0.000113,-0.108596,0.080633,0.000456
-2112024382,1507,1493,1493,1496,1179,1507,1493,1493,1496,1180,1499,1501,1488,1500,-0.568041,0.075738,0.000113,-0.108591,0.080639,0.000456
-2111924380,1508,1493,1493,1495,1179,1508,1493,1493,1495,1180,1499,1501,1488,1500,-0.568041,0.075738,0.000113,-0.108589,0.080640,0.000475
-2111824362,1507,1493,1493,1495,1179,1507,1493,1493,1495,1180,1499,1501,1488,1500,-0.568041,0.075738,0.000113,-0.108592,0.080647,0.000468
-2111724345,1509,1493,1493,1496,1179,1509,1493,1493,1496,1180,1499,1501,1487,1500,-0.568041,0.075738,0.000113,-0.108593,0.080647,0.000453
-2111624316,1507,1493,1493,1496,1179,1507,1493,1493,1496,1180,1499,1501,1487,1500,-0.568041,0.075738,0.000113,-0.108614,0.080638,0.000446
-2111524283,1509,1493,1493,1496,1179,1509,1493,1493,1496,1180,1499,1501,1486,1500,-0.568041,0.075738,0.000113,-0.108598,0.080639,0.000460
-2111424250,1508,1493,1493,1496,1179,1508,1493,1493,1496,1180,1499,1501,1486,1500,-0.568041,0.075738,0.000113,-0.108599,0.080641,0.000460
-2111324249,1507,1493,1493,1495,1180,1507,1493,1493,1495,1180,1499,1501,1485,1500,-0.568041,0.075738,0.000113,-0.108594,0.080637,0.000468
-2111224243,1507,1493,1493,1495,1179,1507,1493,1493,1495,1180,1499,1501,1485,1500,-0.568041,0.075738,0.000113,-0.108583,0.080625,0.000461
-2111124239,1507,1493,1493,1495,1179,1507,1493,1493,1495,1180,1499,1501,1485,1500,-0.568041,0.075738,0.000113,-0.108586,0.080632,0.000478
-2111024205,1507,1493,1493,1495,1179,1507,1493,1493,1495,1180,1499,1501,1484,1500,-0.568041,0.075738,0.000113,-0.108597,0.080620,0.000460
-2110924170,1507,1493,1493,1496,1179,1507,1493,1493,1496,1180,1499,1501,1484,1500,-0.568041,0.075738,0.000113,-0.108585,0.080612,0.000465
-2110824159,1507,1493,1493,1495,1179,1507,1493,1493,1495,1180,1499,1501,1483,1500,-0.568041,0.075738,0.000113,-0.108596,0.080624,0.000473
-2110724137,1508,1493,1493,1495,1179,1508,1493,1493,1495,1180,1499,1501,1483,1500,-0.568041,0.075738,0.000113,-0.108593,0.080631,0.000451
-2110624126,1507,1493,1493,1496,1179,1507,1493,1493,1496,1180,1499,1501,1482,1500,-0.568041,0.075738,0.000113,-0.108592,0.080619,0.000460
-2110524103,1507,1493,1493,1495,1179,1507,1493,1493,1495,1180,1499,1501,1482,1500,-0.568041,0.075738,0.000113,-0.108609,0.080630,0.000445
-2110424074,1507,1493,1493,1495,1180,1507,1493,1493,1495,1180,1499,1501,1482,1500,-0.568041,0.075738,0.000113,-0.108584,0.080636,0.000465
-2110324071,1507,1493,1493,1496,1179,1507,1493,1493,1496,1180,1499,1501,1481,1500,-0.568041,0.075738,0.000113,-0.108583,0.080629,0.000473
-2110224060,1507,1493,1493,1496,1179,1507,1493,1493,1496,1180,1499,1501,1481,1500,-0.568041,0.075738,0.000113,-0.108596,0.080632,0.000462
-2110124044,1507,1493,1493,1495,1179,1507,1493,1493,1495,1180,1499,1501,1480,1500,-0.568041,0.075738,0.000113,-0.108578,0.080638,0.000477
-2110024021,1507,1493,1493,1495,1179,1507,1493,1493,1495,1180,1499,1501,1480,1500,-0.568041,0.075738,0.000113,-0.108585,0.080636,0.000468
-2109924008,1507,1493,1493,1496,1179,1507,1493,1493,1496,1180,1499,1501,1479,1500,-0.568041,0.075738,0.000113,-0.108588,0.080640,0.000473
-2109823976,1507,1493,1493,1495,1180,1507,1493,1493,1495,1180,1499,1501,1479,1500,-0.568041,0.075738,0.000113,-0.108588,0.080638,0.000465
-2109723945,1507,1493,1493,1495,1180,1507,1493,1493,1495,1180,1499,1501,1479,1500,-0.568041,0.075738,0.000113,-0.108585,0.080632,0.000460
-2109623930,1507,1493,1493,1495,1179,1507,1493,1493,1495,1180,1499,1501,1478,1500,-0.568041,0.075738,0.000113,-0.108587,0.080633,0.000460
-2109523897,1507,1493,1493,1496,1179,1507,1493,1493,1496,1180,1499,1501,1478,1500,-0.568041,0.075738,0.000113,-0.108587,0.080636,0.000459
-2109423867,1507,1494,1493,1496,1180,1507,1494,1493,1496,1180,1499,1501,1477,1500,-0.568041,0.075738,0.000113,-0.108594,0.080631,0.000470
-2109323841,1507,1493,1493,1495,1179,1507,1493,1493,1495,1180,1499,1501,1477,1500,-0.568041,0.075738,0.000113,-0.108598,0.080632,0.000458
-2109223807,1507,1493,1493,1495,1179,1507,1493,1493,1495,1180,1499,1501,1476,1500,-0.568041,0.075738,0.000113,-0.108593,0.080628,0.000465
-2109123776,1507,1493,1493,1496,1179,1507,1493,1493,1496,1180,1499,1501,1476,1500,-0.568041,0.075738,0.000113,-0.108585,0.080616,0.000477
-2109023751,1507,1493,1493,1495,1179,1507,1493,1493,1495,1180,1499,1501,1476,1500,-0.568041,0.075738,0.000113,-0.108573,0.080634,0.000481
-2108923739,1509,1493,1493,1496,1179,1509,1493,1493,1496,1180,1499,1501,1475,1500,-0.568041,0.075738,0.000113,-0.108590,0.080640,0.000478
-2108823709,1507,1493,1493,1496,1179,1507,1493,1493,1496,1180,1499,1501,1475,1500,-0.568041,0.075738,0.000113,-0.108577,0.080643,0.000483
-2108723680,1507,1493,1493,1495,1179,1507,1493,1493,1495,1180,1499,1501,1475,1500,-0.568041,0.075738,0.000113,-0.108600,0.080639,0.000467
-2108623672,1507,1493,1493,1495,1179,1507,1493,1493,1495,1180,1499,1501,1474,1500,-0.568041,0.075738,0.000113,-0.108607,0.080638,0.000471
-2108523667,1507,1493,1493,1495,1179,1507,1493,1493,1495,1180,1499,1501,1474,1500,-0.568041,0.075738,0.000113,-0.108598,0.080636,0.000466
-2108423645,1507,1493,1493,1496,1179,1507,1493,1493,1496,1180,1499,1501,1473,1500,-0.568041,0.075738,0.000113,-0.108602,0.080638,0.000461
-2108323628,1507,1493,1493,1495,1179,1507,1493,1493,1495,1180,1499,1501,1473,1500,-0.568041,0.075738,0.000113,-0.108596,0.080641,0.000475
-2108223625,1508,1493,1493,1496,1179,1508,1493,1493,1496,1180,1499,1501,1472,1500,-0.568041,0.075738,0.000113,-0.108599,0.080636,0.000467
-2108123619,1507,1493,1493,1495,1179,1507,1493,1493,1495,1180,1499,1501,1472,1500,-0.568041,0.075738,0.000113,-0.108591,0.080636,0.000476
-2108023607,1507,1493,1493,1495,1180,1507,1493,1493,1495,1180,1499,1501,1472,1500,-0.568041,0.075738,0.000113,-0.108583,0.080643,0.000498
-2107923595,1507,1493,1493,1495,1179,1507,1493,1493,1495,1180,1499,1501,1471,1500,-0.568041,0.075738,0.000113,-0.108597,0.080640,0.000469
-2107823594,1508,1493,1493,1496,1179,1508,1493,1493,1496,1180,1499,1501,1471,1500,-0.568041,0.075738,0.000113,-0.108594,0.080648,0.000462
-2107723573,1507,1493,1493,1495,1179,1507,1493,1493,1495,1180,1499,1501,1470,1500,-0.568041,0.075738,0.000113,-0.108604,0.080643,0.000468
-2107623565,1507,1493,1493,1496,1179,1507,1493,1493,1496,1180,1499,1501,1470,1500,-0.568041,0.075738,0.000113,-0.108594,0.080641,0.000473
-2107523532,1508,1493,1493,1495,1179,1508,1493,1493,1495,1180,1499,1501,1470,1500,-0.568041,0.075738,0.000113,-0.108585,0.080643,0.000492
-2107423505,1507,1493,1493,1495,1180,1507,1493,1493,1495,1180,1499,1501,1470,1500,-0.568041,0.075738,0.000113,-0.108582,0.080643,0.000484
-2107323472,1507,1493,1493,1496,1179,1507,1493,1493,1496,1180,1499,1501,1470,1500,-0.568041,0.075738,0.000113,-0.108597,0.080649,0.000473
-2107223444,1507,1493,1493,1495,1179,1507,1493,1493,1495,1180,1499,1501,1470,1500,-0.568041,0.075738,0.000113,-0.108586,0.080646,0.000494
-2107123439,1507,1493,1493,1495,1179,1507,1493,1493,1495,1180,1499,1501,1470,1500,-0.568041,0.075738,0.000113,-0.108608,0.080644,0.000470
-2107023437,1507,1493,1493,1495,1179,1507,1493,1493,1495,1180,1499,1501,1470,1500,-0.568041,0.075738,0.000113,-0.108607,0.080629,0.000479
-2106923401,1507,1493,1493,1496,1179,1507,1493,1493,1496,1180,1500,1501,1470,1500,-0.568041,0.075738,0.000113,-0.108607,0.080616,0.000475
-2106823400,1507,1493,1493,1495,1179,1507,1493,1493,1495,1180,1500,1501,1470,1500,-0.568041,0.075738,0.000113,-0.108603,0.080614,0.000466
-2106723383,1507,1493,1493,1495,1179,1507,1493,1493,1495,1180,1500,1501,1470,1500,-0.568041,0.075738,0.000113,-0.108601,0.080632,0.000459
-2106623361,1507,1493,1493,1495,1179,1507,1493,1493,1495,1180,1500,1501,1470,1500,-0.568041,0.075738,0.000113,-0.108610,0.080624,0.000456
-2106523316,1508,1493,1493,1495,1179,1508,1493,1493,1495,1180,1500,1501,1470,1500,-0.568041,0.075738,0.000113,-0.108600,0.080639,0.000456
-2106423294,1507,1493,1493,1495,1179,1507,1493,1493,1495,1180,1500,1501,1470,1500,-0.568041,0.075738,0.000113,-0.108577,0.080633,0.000477
-2106323269,1507,1493,1493,1496,1179,1507,1493,1493,1496,1180,1500,1501,1470,1500,-0.568041,0.075738,0.000113,-0.108587,0.080650,0.000485
-2106223243,1507,1493,1493,1495,1180,1507,1493,1493,1495,1180,1500,1501,1470,1500,-0.568041,0.075738,0.000113,-0.108593,0.080645,0.000472
-2106123213,1507,1493,1493,1496,1179,1507,1493,1493,1496,1180,1500,1501,1470,1500,-0.568041,0.075738,0.000113,-0.108586,0.080649,0.000474
-2106023195,1507,1493,1493,1495,1179,1507,1493,1493,1495,1180,1500,1501,1470,1500,-0.568041,0.075738,0.000113,-0.108589,0.080641,0.000469
-2105923171,1507,1493,1493,1495,1179,1507,1493,1493,1495,1180,1500,1501,1470,1500,-0.568041,0.075738,0.000113,-0.108599,0.080633,0.000474
-2105823165,1507,1493,1493,1495,1180,1507,1493,1493,1495,1180,1500,1501,1470,1500,-0.568041,0.075738,0.000113,-0.108598,0.080631,0.000468
-2105723129,1507,1493,1493,1496,1179,1507,1493,1493,1496,1180,1500,1501,1470,1500,-0.568041,0.075738,0.000113,-0.108603,0.080632,0.000473
-2105623096,1507,1493,1493,1495,1180,1507,1493,1493,1495,1180,1500,1501,1470,1500,-0.568041,0.075738,0.000113,-0.108587,0.080626,0.000481
-2105523061,1507,1493,1493,1495,1179,1507,1493,1493,1495,1180,1500,1501,1470,1500,-0.568041,0.075738,0.000113,-0.108594,0.080632,0.000461
-2105423044,1507,1493,1493,1495,1179,1507,1493,1493,1495,1180,1500,1501,1470,1500,-0.568041,0.075738,0.000113,-0.108589,0.080630,0.000477
-2105323021,1507,1493,1493,1496,1179,1507,1493,1493,1496,1180,1500,1501,1470,1500,-0.568041,0.075738,0.000113,-0.108598,0.080637,0.000484
-2105223007,1509,1493,1493,1496,1179,1509,1493,1493,1496,1180,1500,1501,1470,1500,-0.568041,0.075738,0.000113,-0.108590,0.080639,0.000474
-2105123001,1507,1493,1493,1495,1179,1507,1493,1493,1495,1180,1500,1501,1470,1500,-0.568041,0.075738,0.000113,-0.108589,0.080628,0.000475
-2105022967,1507,1493,1493,1495,1179,1507,1493,1493,1495,1180,1500,1501,1470,1500,-0.568041,0.075738,0.000113,-0.108588,0.080638,0.000474
-2104922950,1508,1493,1493,1495,1180,1508,1493,1493,1495,1180,1500,1501,1470,1500,-0.568041,0.075738,0.000113,-0.108585,0.080630,0.000491
-2104822928,1508,1493,1493,1495,1179,1508,1493,1493,1495,1180,1500,1501,1470,1500,-0.568041,0.075738,0.000113,-0.108597,0.080633,0.000480
-2104722927,1508,1493,1493,1495,1179,1508,1493,1493,1495,1180,1500,1501,1470,1500,-0.568041,0.075738,0.000113,-0.108591,0.080629,0.000477
-2104622905,1507,1493,1493,1495,1180,1507,1493,1493,1495,1180,1500,1501,1470,1500,-0.568041,0.075738,0.000113,-0.108595,0.080634,0.000467
-2104522902,1508,1493,1493,1495,1180,1508,1493,1493,1495,1180,1500,1501,1470,1500,-0.568041,0.075738,0.000113,-0.108606,0.080636,0.000474
-2104422881,1507,1493,1493,1496,1179,1507,1493,1493,1496,1180,1500,1501,1470,1500,-0.568041,0.075738,0.000113,-0.108587,0.080633,0.000499
-2104322864,1507,1493,1493,1496,1179,1507,1493,1493,1496,1180,1500,1501,1470,1500,-0.568041,0.075738,0.000113,-0.108592,0.080641,0.000479
-2104222824,1507,1493,1493,1495,1179,1507,1493,1493,1495,1180,1500,1501,1470,1500,-0.568041,0.075738,0.000113,-0.108591,0.080651,0.000488
-2104122821,1507,1493,1493,1495,1180,1507,1493,1493,1495,1180,1500,1501,1470,1500,-0.568041,0.075738,0.000113,-0.108577,0.080645,0.000491
-2104022817,1507,1493,1493,1496,1179,1507,1493,1493,1496,1180,1500,1501,1470,1500,-0.568041,0.075738,0.000113,-0.108580,0.080650,0.000484
-2103922782,1508,1493,1493,1495,1180,1508,1493,1493,1495,1180,1500,1501,1470,1500,-0.568041,0.075738,0.000113,-0.108589,0.080646,0.000467
-2103822771,1507,1493,1493,1495,1179,1507,1493,1493,1495,1180,1500,1501,1470,1500,-0.568041,0.075738,0.000113,-0.108596,0.080633,0.000469
-2103722756,1508,1493,1493,1495,1179,1508,1493,1493,1495,1180,1500,1501,1470,1500,-0.568041,0.075738,0.000113,-0.108597,0.080627,0.000464
-2103622743,1507,1493,1493,1495,1179,1507,1493,1493,1495,1180,1500,1501,1470,1500,-0.568041,0.075738,0.000113,-0.108588,0.080625,0.000453
-2103522741,1507,1493,1493,1496,1179,1507,1493,1493,1496,1180,1500,1501,1470,1500,-0.568041,0.075738,0.000113,-0.108590,0.080644,0.000482
-2103422734,1507,1493,1493,1495,1179,1507,1493,1493,1495,1180,1500,1501,1470,1500,-0.568041,0.075738,0.000113,-0.108591,0.080639,0.000470
-2103322732,1507,1493,1493,1495,1179,1507,1493,1493,1495,1180,1500,1501,1470,1500,-0.568041,0.075738,0.000113,-0.108585,0.080643,0.000472
-2103222730,1507,1493,1493,1495,1179,1507,1493,1493,1495,1180,1500,1501,1470,1500,-0.568041,0.075738,0.000113,-0.108590,0.080637,0.000477
-2103122707,1507,1493,1493,1495,1179,1507,1493,1493,1495,1180,1500,1501,1470,1500,-0.568041,0.075738,0.000113,-0.108590,0.080631,0.000478
-2103022688,1507,1493,1493,1495,1179,1507,1493,1493,1495,1180,1500,1501,1470,1500,-0.568041,0.075738,0.000113,-0.108604,0.080611,0.000436
-2102922675,1507,1493,1493,1495,1179,1507,1493,1493,1495,1180,1500,1501,1470,1500,-0.568041,0.075738,0.000113,-0.108589,0.080629,0.000481
-2102822671,1507,1493,1493,1496,1179,1507,1493,1493,1496,1180,1500,1501,1470,1500,-0.568041,0.075738,0.000113,-0.108596,0.080628,0.000463
-2102722648,1508,1493,1493,1495,1179,1508,1493,1493,1495,1180,1500,1501,1470,1500,-0.568041,0.075738,0.000113,-0.108587,0.080646,0.000490
-2102622627,1508,1493,1493,1495,1179,1508,1493,1493,1495,1180,1500,1501,1470,1500,-0.568041,0.075738,0.000113,-0.108600,0.080641,0.000484
-2102522622,1507,1493,1493,1495,1179,1507,1493,1493,1495,1180,1500,1501,1470,1500,-0.568041,0.075738,0.000113,-0.108587,0.080642,0.000494
-2102422616,1507,1493,1493,1495,1179,1507,1493,1493,1495,1180,1500,1501,1470,1500,-0.568041,0.075738,0.000113,-0.107701,0.080406,-0.000162
-2102322591,1507,1493,1493,1495,1179,1507,1493,1493,1495,1180,1500,1501,1470,1500,-0.568041,0.075738,0.000113,-0.108646,0.080787,0.001273
-2102222557,1507,1493,1493,1495,1179,1507,1493,1493,1495,1180,1500,1501,1470,1500,-0.568041,0.075738,0.000113,-0.108324,0.081021,0.001791
-2102122553,1507,1493,1493,1495,1179,1507,1493,1493,1495,1180,1500,1501,1470,1500,-0.568041,0.075738,0.000113,-0.107653,0.081536,0.002011
-2102022541,1507,1493,1493,1495,1179,1507,1493,1493,1495,1180,1500,1501,1470,1500,-0.568041,0.075738,0.000113,-0.107653,0.081536,0.002011
-2101922540,1507,1493,1493,1495,1179,1507,1493,1493,1495,1180,1500,1501,1470,1500,-0.568041,0.075738,0.000113,-0.107653,0.081536,0.002011
-2101822517,1507,1493,1493,1495,1180,1507,1493,1493,1495,1180,1500,1501,1470,1500,-0.568041,0.075738,0.000113,-0.107653,0.081536,0.002011
-2101722513,1507,1493,1493,1495,1179,1507,1493,1493,1495,1180,1500,1501,1470,1500,-0.568041,0.075738,0.000113,-0.133334,0.075340,-0.009550
-2101622501,1507,1493,1493,1495,1179,1507,1493,1493,1495,1180,1500,1501,1470,1500,-0.568041,0.075738,0.000113,-0.193952,0.071701,-0.033159
-2101522471,1507,1493,1493,1495,1179,1507,1493,1493,1495,1180,1499,1501,1470,1500,-0.568041,0.075738,0.000113,-0.303224,0.071249,-0.049191
-2101422454,1507,1493,1493,1495,1179,1507,1493,1493,1495,1180,1499,1501,1470,1500,-0.568041,0.075738,0.000113,-0.495336,0.073647,-0.042264
-2101322446,1507,1493,1493,1495,1179,1507,1493,1493,1495,1180,1499,1501,1470,1500,-0.568041,0.075738,0.000113,-0.671563,0.074868,-0.034705
-2101222417,1509,1493,1493,1495,1179,1509,1493,1493,1495,1180,1499,1501,1470,1500,-0.568041,0.075738,0.000113,-0.797141,0.066024,-0.031707
-2101122391,1507,1493,1493,1495,1180,1507,1493,1493,1495,1180,1499,1501,1470,1500,-0.568041,0.075738,0.000113,-0.882758,0.048731,-0.024713
-2101022385,1507,1493,1493,1495,1179,1507,1493,1493,1495,1180,1499,1501,1470,1500,-0.568041,0.075738,0.000113,-0.915436,0.047507,-0.017400
-2100922375,1507,1493,1493,1495,1179,1507,1493,1493,1495,1180,1499,1501,1470,1500,-0.568041,0.075738,0.000113,-0.918655,0.059252,-0.013171
-2100822371,1507,1493,1493,1496,1179,1507,1493,1493,1496,1180,1499,1501,1470,1500,-0.568041,0.075738,0.000113,-0.920020,0.066292,-0.001747
-2100722363,1507,1493,1493,1495,1179,1507,1493,1493,1495,1180,1499,1501,1470,1500,-0.568041,0.075738,0.000113,-0.929511,0.071769,-0.000727
-2100622339,1507,1493,1493,1495,1179,1507,1493,1493,1495,1180,1499,1501,1470,1500,-0.568041,0.075738,0.000113,-0.929918,0.071285,0.000905
-2100522322,1507,1493,1493,1496,1179,1507,1493,1493,1496,1180,1499,1501,1470,1500,-0.568041,0.075738,0.000113,-0.930603,0.069047,0.001097
-2100422318,1507,1493,1493,1495,1179,1507,1493,1493,1495,1180,1499,1501,1470,1500,-0.568041,0.075738,0.000113,-0.929129,0.071838,0.001831
-2100322302,1507,1493,1493,1495,1179,1507,1493,1493,1495,1180,1499,1501,1470,1500,-0.568041,0.075738,0.000113,-0.928687,0.071808,0.002426
-2100222289,1507,1493,1493,1496,1179,1507,1493,1493,1496,1180,1499,1501,1470,1500,-0.568041,0.075738,0.000113,-0.928243,0.072561,0.002941
-2100122278,1507,1493,1493,1495,1179,1507,1493,1493,1495,1180,1499,1501,1470,1500,-0.568041,0.075738,0.000113,-0.927790,0.073148,0.002840
-2100022249,1507,1493,1493,1495,1179,1507,1493,1493,1495,1180,1499,1501,1470,1500,-0.568041,0.075738,0.000113,-0.927607,0.072340,0.004084
-2099922240,1507,1493,1493,1495,1180,1507,1493,1493,1495,1180,1499,1501,1470,1500,-0.568041,0.075738,0.000113,-0.927573,0.072367,0.004084
-2099822229,1507,1493,1493,1495,1179,1507,1493,1493,1495,1180,1499,1501,1470,1500,-0.568041,0.075738,0.000113,-0.927781,0.072159,0.003933
-2099722195,1507,1493,1493,1496,1179,1507,1493,1493,1496,1180,1499,1501,1470,1500,-0.568041,0.075738,0.000113,-0.928328,0.072454,0.003015
-2099622178,1507,1493,1493,1495,1179,1507,1493,1493,1495,1180,1499,1501,1470,1500,-0.568041,0.075738,0.000113,-0.927823,0.071747,0.004443
-2099522143,1508,1493,1493,1495,1179,1508,1493,1493,1495,1180,1499,1501,1470,1500,-0.568041,0.075738,0.000113,-0.927788,0.071875,0.004431
-2099422137,1507,1493,1493,1495,1180,1507,1493,1493,1495,1180,1499,1501,1470,1500,-0.568041,0.075738,0.000113,-0.927786,0.071857,0.004431
-2099322110,1508,1493,1493,1495,1180,1508,1493,1493,1495,1180,1499,1501,1470,1500,-0.568041,0.075738,0.000113,-0.927619,0.072125,0.001131
-2099222103,1507,1493,1493,1495,1179,1507,1493,1493,1495,1180,1499,1501,1470,1500,-0.568041,0.075738,0.000113,-0.927599,0.072089,0.001209
-2099122093,1507,1493,1493,1495,1180,1507,1493,1493,1495,1180,1499,1501,1470,1500,-0.568041,0.075738,0.000113,-0.927605,0.072064,0.001179
-2099022067,1507,1493,1493,1495,1179,1507,1493,1493,1495,1180,1499,1501,1470,1500,-0.568041,0.075738,0.000113,-0.927610,0.072070,0.001195
-2098922035,1509,1493,1493,1496,1179,1509,1493,1493,1496,1180,1499,1501,1470,1500,-0.568041,0.075738,0.000113,-0.927609,0.072066,0.001196
-2098822017,1507,1493,1493,1495,1179,1507,1493,1493,1495,1180,1499,1501,1470,1500,-0.568041,0.075738,0.000113,-0.927609,0.072075,0.001203
-2098722004,1507,1493,1493,1495,1179,1507,1493,1493,1495,1180,1499,1501,1470,1500,-0.568041,0.075738,0.000113,-0.927609,0.072070,0.001184
-2098621982,1507,1493,1493,1496,1179,1507,1493,1493,1496,1180,1499,1501,1470,1500,-0.568041,0.075738,0.000113,-0.927616,0.072053,0.001181
-2098521969,1507,1493,1493,1495,1180,1507,1493,1493,1495,1180,1499,1501,1470,1500,-0.568041,0.075738,0.000113,-0.927588,0.072112,0.001222
-2098421944,1507,1493,1493,1495,1179,1507,1493,1493,1495,1180,1499,1501,1470,1500,-0.568041,0.075738,0.000113,-0.927613,0.072122,0.001175
-2098321943,1508,1493,1493,1496,1179,1508,1493,1493,1496,1180,1499,1501,1470,1500,-0.568041,0.075738,0.000113,-0.927637,0.072019,0.001155
-2098221919,1507,1493,1493,1496,1179,1507,1493,1493,1496,1180,1499,1501,1470,1500,-0.568041,0.075738,0.000113,-0.927611,0.071900,0.000357
-2098121916,1507,1493,1493,1496,1179,1507,1493,1493,1496,1180,1499,1501,1470,1500,-0.568041,0.075738,0.000113,-0.927592,0.071864,0.000332
-2098021895,1507,1493,1493,1495,1179,1507,1493,1493,1495,1180,1499,1500,1470,1500,-0.568041,0.075738,0.000113,-0.927599,0.071896,0.000362
-2097921866,1507,1493,1493,1495,1180,1507,1493,1493,1495,1180,1499,1500,1470,1500,-0.568041,0.075738,0.000113,-0.927602,0.071912,0.000364
-2097821865,1507,1493,1493,1495,1179,1507,1493,1493,1495,1180,1499,1500,1470,1500,-0.568041,0.075738,0.000113,-0.927603,0.071881,0.000340
-2097721839,1507,1493,1493,1495,1179,1507,1493,1493,1495,1180,1499,1500,1470,1500,-0.568041,0.075738,0.000113,-0.927612,0.071883,0.000349
-2097621818,1507,1493,1493,1495,1179,1507,1493,1493,1495,1180,1499,1500,1470,1500,-0.568041,0.075738,0.000113,-0.927539,0.072176,0.001273
-2097521807,1507,1493,1493,1496,1179,1507,1493,1493,1496,1180,1499,1500,1470,1500,-0.568041,0.075738,0.000113,-0.927595,0.072090,0.001213
