-1384464237,1508,1493,1493,1495,1179,1508,1493,1493,1495,1180,1499,1500,1499,1500,0.000000,0.000000,0.000000,0.038498,0.047961,-0.635135
-1384364236,1508,1493,1493,1494,1179,1508,1493,1493,1494,1180,1498,1500,1499,1500,0.000000,0.000000,0.000000,0.038874,0.047657,-0.635404
-1384264203,1507,1493,1493,1494,1179,1507,1493,1493,1494,1180,1498,1500,1499,1500,0.000000,0.000000,0.000000,0.039181,0.047690,-0.635264
-1384164175,1508,1493,1493,1494,1179,1508,1493,1493,1494,1180,1497,1500,1499,1500,0.000000,0.000000,0.000000,0.039238,0.048038,-0.634933
-1384064153,1508,1493,1493,1494,1179,1508,1493,1493,1494,1180,1497,1500,1499,1500,0.000000,0.000000,0.000000,0.038439,0.047916,-0.634830
-1383964137,1508,1493,1493,1495,1179,1508,1493,1493,1495,1180,1496,1500,1499,1500,0.000000,0.000000,0.000000,0.037873,0.047980,-0.635243
-1383864111,1508,1493,1493,1494,1180,1508,1493,1493,1494,1180,1496,1500,1499,1500,0.000000,0.000000,0.000000,0.038121,0.047859,-0.634767
-1383764097,1507,1493,1493,1494,1180,1507,1493,1493,1494,1180,1495,1500,1499,1500,0.000000,0.000000,0.000000,0.039050,0.048176,-0.634544
-1383664086,1507,1493,1493,1494,1180,1507,1493,1493,1494,1180,1494,1500,1499,1500,0.000000,0.000000,0.000000,0.039077,0.048085,-0.634899
-1383564063,1508,1493,1493,1494,1180,1508,1493,1493,1494,1180,1494,1500,1499,1500,0.000000,0.000000,0.000000,0.037916,0.047952,-0.634797
-1383464039,1507,1493,1495,1495,1179,1507,1493,1495,1495,1180,1493,1500,1499,1500,0.000000,0.000000,0.000000,0.036969,0.048164,-0.634495
-1383364033,1507,1493,1493,1494,1179,1507,1493,1493,1494,1180,1493,1500,1499,1500,0.000000,0.000000,0.000000,0.036812,0.048434,-0.634359
-1383264023,1508,1493,1493,1495,1179,1508,1493,1493,1495,1180,1492,1500,1499,1500,0.000000,0.000000,0.000000,0.036778,0.048323,-0.634622
-1383164012,1507,1493,1493,1494,1179,1507,1493,1493,1494,1180,1491,1500,1499,1500,0.000000,0.000000,0.000000,0.036872,0.048532,-0.634315
-1383063989,1507,1493,1494,1494,1179,1507,1493,1494,1494,1180,1491,1500,1499,1500,0.000000,0.000000,0.000000,0.036825,0.048739,-0.635028
-1382963968,1508,1493,1494,1494,1179,1508,1493,1494,1494,1180,1490,1500,1499,1500,0.000000,0.000000,0.000000,0.036540,0.048536,-0.634405
-1382863942,1507,1493,1493,1494,1179,1507,1493,1493,1494,1180,1490,1500,1499,1500,0.000000,0.000000,0.000000,0.036998,0.049628,-0.633504
-1382763914,1508,1493,1493,1495,1179,1508,1493,1493,1495,1180,1489,1500,1499,1500,0.000000,0.000000,0.000000,0.036106,0.049088,-0.634220
-1382663894,1508,1493,1493,1494,1179,1508,1493,1493,1494,1180,1488,1500,1499,1500,0.000000,0.000000,0.000000,0.034948,0.048381,-0.634692
-1382563869,1508,1493,1493,1494,1179,1508,1493,1493,1494,1180,1488,1500,1499,1500,0.000000,0.000000,0.000000,0.035130,0.048749,-0.634426
-1382463834,1508,1493,1493,1494,1180,1508,1493,1493,1494,1180,1487,1500,1499,1500,0.000000,0.000000,0.000000,0.035757,0.049024,-0.633778
-1382363832,1508,1493,1493,1494,1179,1508,1493,1493,1494,1180,1486,1501,1499,1500,0.000000,0.000000,0.000000,0.035346,0.048925,-0.634373
-1382263805,1508,1493,1493,1495,1179,1508,1493,1493,1495,1180,1486,1501,1499,1500,0.000000,0.000000,0.000000,0.034490,0.048630,-0.634534
-1382163784,1508,1493,1493,1495,1179,1508,1493,1493,1495,1180,1485,1501,1499,1500,0.000000,0.000000,0.000000,0.035069,0.048914,-0.634168
-1382063755,1508,1493,1494,1494,1179,1508,1493,1494,1494,1180,1485,1501,1499,1500,0.000000,0.000000,0.000000,0.035270,0.048879,-0.634122
-1381963733,1508,1493,1493,1494,1180,1508,1493,1493,1494,1180,1484,1501,1499,1500,0.000000,0.000000,0.000000,0.034977,0.048953,-0.634151
-1381863719,1508,1493,1493,1494,1180,1508,1493,1493,1494,1180,1483,1501,1499,1500,0.000000,0.000000,0.000000,0.034997,0.049162,-0.634053
-1381763685,1508,1493,1493,1494,1179,1508,1493,1493,1494,1180,1483,1501,1499,1500,0.000000,0.000000,0.000000,0.035210,0.049380,-0.633581
-1381663674,1508,1493,1493,1494,1179,1508,1493,1493,1494,1180,1482,1501,1499,1500,0.000000,0.000000,0.000000,0.035036,0.049201,-0.633849
-1381563644,1508,1493,1493,1494,1179,1508,1493,1493,1494,1180,1482,1501,1498,1500,0.000000,0.000000,0.000000,0.034427,0.048766,-0.634151
-1381463619,1508,1493,1493,1494,1180,1508,1493,1493,1494,1180,1481,1501,1498,1500,0.000000,0.000000,0.000000,0.034092,0.049151,-0.633292
-1381363612,1507,1493,1494,1494,1179,1507,1493,1494,1494,1180,1480,1501,1498,1500,0.000000,0.000000,0.000000,0.034728,0.049398,-0.633578
-1381263576,1507,1493,1493,1494,1180,1507,1493,1493,1494,1180,1480,1501,1498,1500,0.035038,0.049112,-0.633770,0.035532,0.048864,-0.634102
-1381163566,1508,1493,1493,1494,1180,1508,1493,1493,1494,1180,1480,1501,1498,1500,0.035038,0.049112,-0.633770,0.035726,0.049007,-0.634043
-1381063540,1508,1493,1493,1494,1180,1508,1493,1493,1494,1180,1480,1501,1498,1500,0.035038,0.049112,-0.633770,0.034998,0.048895,-0.634531
-1380963522,1508,1493,1494,1494,1179,1508,1493,1494,1494,1180,1480,1501,1498,1500,0.035038,0.049112,-0.633770,0.034545,0.048060,-0.635210
-1380863488,1507,1493,1493,1495,1179,1507,1493,1493,1495,1180,1480,1501,1498,1500,0.035038,0.049112,-0.633770,0.035340,0.047953,-0.635312
-1380763483,1508,1494,1495,1494,1179,1508,1494,1495,1494,1180,1480,1501,1498,1500,0.035038,0.049112,-0.633770,0.036117,0.048289,-0.634680
-1380663454,1508,1493,1494,1495,1179,1508,1493,1494,1495,1180,1480,1501,1498,1500,0.035038,0.049112,-0.633770,0.036125,0.048354,-0.634634
-1380563426,1508,1493,1494,1495,1179,1508,1493,1494,1495,1180,1480,1501,1498,1500,0.035038,0.049112,-0.633770,0.035718,0.048278,-0.635699
-1380463415,1507,1493,1493,1494,1180,1507,1493,1493,1494,1180,1480,1501,1498,1500,0.035038,0.049112,-0.633770,0.035196,0.047978,-0.635898
-1380363400,1508,1493,1493,1494,1180,1508,1493,1493,1494,1180,1480,1501,1498,1500,0.035038,0.049112,-0.633770,0.035624,0.048802,-0.634187
-1380263380,1507,1493,1493,1494,1179,1507,1493,1493,1494,1180,1480,1501,1498,1500,0.035038,0.049112,-0.633770,0.035392,0.050607,-0.632162
-1380163377,1508,1493,1493,1495,1179,1508,1493,1493,1495,1180,1480,1501,1498,1500,0.035038,0.049112,-0.633770,0.033175,0.050165,-0.634875
-1380063351,1508,1493,1494,1494,1179,1508,1493,1494,1494,1180,1480,1501,1498,1500,0.035038,0.049112,-0.633770,0.029652,0.048432,-0.638454
-1379963340,1508,1493,1493,1494,1179,1508,1493,1493,1494,1180,1480,1501,1498,1500,0.035038,0.049112,-0.633770,0.028505,0.047644,-0.640355
-1379863326,1508,1493,1493,1494,1179,1508,1493,1493,1494,1180,1480,1501,1498,1500,0.035038,0.049112,-0.633770,0.027288,0.048064,-0.647186
-1379763325,1508,1493,1494,1495,1179,1508,1493,1494,1495,1180,1480,1501,1498,1500,0.035038,0.049112,-0.633770,0.025471,0.046663,-0.656546
-1379663315,1509,1493,1493,1494,1179,1509,1493,1493,1494,1180,1480,1501,1498,1500,0.035038,0.049112,-0.633770,0.023447,0.045295,-0.664018
-1379563262,1508,1493,1494,1495,1179,1508,1493,1494,1495,1180,1480,1501,1498,1500,0.035038,0.049112,-0.633770,0.021382,0.049067,-0.685386
-1379463257,1508,1493,1494,1494,1179,1508,1493,1494,1494,1180,1480,1501,1498,1500,0.035038,0.049112,-0.633770,0.025228,0.051262,-0.747699
-1379363252,1508,1493,1493,1494,1179,1508,1493,1493,1494,1180,1480,1501,1498,1500,0.035038,0.049112,-0.633770,0.029897,0.058543,-0.839115
-1379263231,1508,1493,1493,1494,1179,1508,1493,1493,1494,1180,1480,1501,1498,1500,0.035038,0.049112,-0.633770,0.032361,0.070666,-0.927665
-1379163218,1507,1494,1493,1494,1180,1507,1494,1493,1494,1180,1479,1501,1498,1500,0.035038,0.049112,-0.633770,0.030498,0.077761,-0.993488
-1379063185,1507,1493,1494,1494,1179,1507,1493,1494,1494,1180,1479,1501,1498,1500,0.035038,0.049112,-0.633770,0.028743,0.075872,-1.039498
-1378963155,1509,1493,1493,1494,1179,1509,1493,1493,1494,1180,1479,1501,1498,1500,0.035038,0.049112,-0.633770,0.030501,0.065700,-1.061523
-1378863140,1507,1493,1493,1494,1179,1507,1493,1493,1494,1180,1478,1501,1498,1500,0.035038,0.049112,-0.633770,0.029095,0.062557,-1.056506
-1378763119,1508,1493,1493,1494,1179,1508,1493,1493,1494,1180,1478,1501,1498,1500,0.035038,0.049112,-0.633770,0.030382,0.065569,-1.046090
-1378663086,1509,1493,1493,1494,1179,1509,1493,1493,1494,1180,1477,1501,1498,1500,0.035038,0.049112,-0.633770,0.035044,0.070997,-1.044137
-1378563066,1508,1493,1493,1494,1179,1508,1493,1493,1494,1180,1477,1501,1498,1500,0.035038,0.049112,-0.633770,0.040803,0.074366,-1.048064
-1378463040,1507,1493,1494,1494,1179,1507,1493,1494,1494,1180,1477,1501,1498,1500,0.035038,0.049112,-0.633770,0.045662,0.073750,-1.052973
-1378363023,1507,1493,1494,1494,1180,1507,1493,1494,1494,1180,1476,1501,1498,1500,0.035038,0.049112,-0.633770,0.048968,0.071788,-1.055392
-1378263009,1508,1493,1494,1495,1179,1508,1493,1494,1495,1180,1476,1501,1498,1500,0.035038,0.049112,-0.633770,0.049856,0.068305,-1.059115
-1378162986,1508,1493,1493,1494,1179,1508,1493,1493,1494,1180,1475,1501,1498,1500,0.035038,0.049112,-0.633770,0.048508,0.066496,-1.062029
-1378062951,1508,1493,1493,1494,1179,1508,1493,1493,1494,1180,1475,1501,1498,1500,0.035038,0.049112,-0.633770,0.047320,0.065548,-1.063906
-1377962931,1508,1493,1493,1494,1179,1508,1493,1493,1494,1180,1475,1501,1498,1500,0.035038,0.049112,-0.633770,0.046474,0.062332,-1.067567
-1377862898,1508,1493,1494,1494,1180,1508,1493,1494,1494,1180,1474,1501,1498,1500,0.035038,0.049112,-0.633770,0.047250,0.059667,-1.071627
-1377762870,1507,1493,1493,1494,1179,1507,1493,1493,1494,1180,1474,1501,1498,1500,0.035038,0.049112,-0.633770,0.048277,0.057940,-1.073562
-1377662845,1508,1493,1493,1494,1179,1508,1493,1493,1494,1180,1473,1501,1498,1500,0.035038,0.049112,-0.633770,0.049494,0.057756,-1.074867
-1377562830,1508,1493,1493,1494,1180,1508,1493,1493,1494,1180,1473,1501,1498,1500,0.035038,0.049112,-0.633770,0.048581,0.056910,-1.075926
-1377462826,1507,1493,1493,1494,1179,1507,1493,1493,1494,1180,1472,1501,1498,1500,0.035038,0.049112,-0.633770,0.045986,0.056732,-1.075181
-1377362773,1508,1493,1493,1494,1179,1508,1493,1493,1494,1180,1472,1501,1498,1500,0.035038,0.049112,-0.633770,0.045856,0.058055,-1.074356
-1377262751,1508,1493,1493,1494,1179,1508,1493,1493,1494,1180,1472,1501,1498,1500,0.035038,0.049112,-0.633770,0.046531,0.058291,-1.074302
-1377162724,1508,1493,1494,1494,1179,1508,1493,1494,1494,1180,1471,1501,1498,1500,0.035038,0.049112,-0.633770,0.046673,0.058659,-1.073911
-1377062720,1507,1493,1493,1494,1179,1507,1493,1493,1494,1180,1471,1501,1498,1500,0.035038,0.049112,-0.633770,0.045848,0.059620,-1.073005
-1376962696,1508,1493,1493,1494,1179,1508,1493,1493,1494,1180,1470,1501,1498,1500,0.035038,0.049112,-0.633770,0.045075,0.060481,-1.071466
-1376862658,1508,1493,1493,1495,1180,1508,1493,1493,1495,1180,1470,1501,1498,1500,0.035038,0.049112,-0.633770,0.045781,0.061479,-1.070655
-1376762626,1508,1494,1493,1494,1180,1508,1494,1493,1494,1180,1469,1501,1498,1500,0.035038,0.049112,-0.633770,0.046361,0.060199,-1.071922
-1376662605,1507,1493,1493,1494,1179,1507,1493,1493,1494,1180,1469,1501,1498,1500,0.035038,0.049112,-0.633770,0.046967,0.058913,-1.073007
-1376562582,1507,1493,1495,1494,1179,1507,1493,1495,1494,1180,1469,1501,1498,1500,0.035038,0.049112,-0.633770,0.047060,0.058185,-1.073109
-1376462581,1508,1493,1493,1494,1179,1508,1493,1493,1494,1180,1469,1501,1498,1500,0.035038,0.049112,-0.633770,0.046442,0.056434,-1.074167
-1376362548,1508,1493,1493,1495,1179,1508,1493,1493,1495,1180,1469,1501,1498,1500,0.035038,0.049112,-0.633770,0.045919,0.054984,-1.074388
-1376262523,1507,1494,1493,1494,1180,1507,1494,1493,1494,1180,1469,1501,1498,1500,0.035038,0.049112,-0.633770,0.046483,0.054096,-1.074555
-1376162500,1507,1493,1493,1495,1179,1507,1493,1493,1495,1180,1469,1501,1498,1500,0.035038,0.049112,-0.633770,0.047922,0.052514,-1.074993
-1376062466,1509,1493,1493,1495,1179,1509,1493,1493,1495,1180,1469,1501,1498,1500,0.035038,0.049112,-0.633770,0.049128,0.051269,-1.075326
-1375962446,1507,1493,1494,1495,1179,1507,1493,1494,1495,1180,1469,1501,1498,1500,0.035038,0.049112,-0.633770,0.050733,0.050290,-1.075711
-1375862428,1509,1493,1493,1494,1180,1509,1493,1493,1494,1180,1469,1501,1498,1500,0.035038,0.049112,-0.633770,0.051262,0.049648,-1.075938
-1375762412,1508,1493,1495,1494,1179,1508,1493,1495,1494,1180,1469,1501,1498,1500,0.035038,0.049112,-0.633770,0.050339,0.050344,-1.075875
-1375662398,1509,1493,1495,1495,1179,1509,1493,1495,1495,1180,1469,1501,1498,1500,0.035038,0.049112,-0.633770,0.048529,0.050113,-1.076293
-1375562363,1507,1493,1494,1495,1179,1507,1493,1494,1495,1180,1469,1501,1498,1500,0.035038,0.049112,-0.633770,0.045744,0.051037,-1.075776
-1375462336,1508,1493,1493,1494,1179,1508,1493,1493,1494,1180,1469,1501,1498,1500,0.035038,0.049112,-0.633770,0.042600,0.051900,-1.075859
-1375362321,1508,1493,1493,1494,1179,1508,1493,1493,1494,1180,1469,1501,1498,1500,0.035038,0.049112,-0.633770,0.041651,0.051053,-1.077803
-1375262300,1507,1493,1493,1494,1179,1507,1493,1493,1494,1180,1469,1501,1498,1500,0.035038,0.049112,-0.633770,0.042134,0.051008,-1.079253
-1375162292,1508,1493,1493,1494,1180,1508,1493,1493,1494,1180,1469,1501,1498,1500,0.035038,0.049112,-0.633770,0.041052,0.052797,-1.077924
-1375062249,1508,1493,1493,1495,1179,1508,1493,1493,1495,1180,1469,1501,1498,1500,0.035038,0.049112,-0.633770,0.039135,0.055177,-1.075902
-1374962232,1508,1493,1493,1494,1180,1508,1493,1493,1494,1180,1469,1501,1498,1500,0.035038,0.049112,-0.633770,0.038785,0.054974,-1.077427
-1374862209,1508,1493,1493,1494,1179,1508,1493,1493,1494,1180,1469,1501,1498,1500,0.035038,0.049112,-0.633770,0.039518,0.054376,-1.079307
-1374762206,1507,1493,1493,1494,1179,1507,1493,1493,1494,1180,1469,1501,1498,1500,0.035038,0.049112,-0.633770,0.038914,0.055141,-1.078841
-1374662167,1509,1493,1493,1495,1179,1509,1493,1493,1495,1180,1469,1501,1498,1500,0.035038,0.049112,-0.633770,0.038889,0.054468,-1.079769
-1374562141,1508,1493,1493,1494,1179,1508,1493,1493,1494,1180,1469,1501,1498,1500,0.035038,0.049112,-0.633770,0.039111,0.053350,-1.081937
-1374462112,1508,1493,1493,1494,1179,1508,1493,1493,1494,1180,1469,1501,1498,1500,0.035038,0.049112,-0.633770,0.038886,0.053211,-1.082919
-1374362078,1508,1493,1493,1494,1179,1508,1493,1493,1494,1180,1469,1501,1498,1500,0.035038,0.049112,-0.633770,0.038931,0.054036,-1.081964
-1374262055,1508,1493,1494,1494,1180,1508,1493,1494,1494,1180,1469,1501,1498,1500,0.035038,0.049112,-0.633770,0.039584,0.055133,-1.080700
-1374162027,1507,1493,1493,1494,1179,1507,1493,1493,1494,1180,1469,1501,1498,1500,0.035038,0.049112,-0.633770,0.040368,0.054875,-1.081439
-1374061994,1508,1493,1493,1494,1179,1508,1493,1493,1494,1180,1469,1501,1498,1500,0.035038,0.049112,-0.633770,0.040040,0.054772,-1.081110
-1373961970,1507,1493,1494,1494,1179,1507,1493,1494,1494,1180,1469,1501,1498,1500,0.035038,0.049112,-0.633770,0.040744,0.054172,-1.081168
-1373861951,1507,1493,1493,1494,1180,1507,1493,1493,1494,1180,1469,1501,1498,1500,0.035038,0.049112,-0.633770,0.041359,0.053248,-1.082230
-1373761916,1508,1493,1493,1495,1179,1508,1493,1493,1495,1180,1469,1501,1498,1500,0.035038,0.049112,-0.633770,0.040919,0.051958,-1.083324
-1373661882,1508,1493,1493,1494,1179,1508,1493,1493,1494,1180,1469,1501,1498,1500,0.035038,0.049112,-0.633770,0.039710,0.051349,-1.083025
-1373561852,1507,1493,1493,1494,1179,1507,1493,1493,1494,1180,1469,1501,1498,1500,0.035038,0.049112,-0.633770,0.039702,0.051906,-1.082819
-1373461829,1508,1493,1494,1494,1180,1508,1493,1494,1494,1180,1469,1501,1498,1500,0.035038,0.049112,-0.633770,0.040122,0.052429,-1.084195
-1373361819,1507,1493,1493,1494,1180,1507,1493,1493,1494,1180,1469,1501,1498,1500,0.035038,0.049112,-0.633770,0.039051,0.052153,-1.085649
-1373261799,1508,1493,1493,1494,1179,1508,1493,1493,1494,1180,1469,1501,1498,1500,0.035038,0.049112,-0.633770,0.038653,0.050511,-1.087748
-1373161781,1508,1493,1493,1494,1179,1508,1493,1493,1494,1180,1469,1501,1498,1500,0.035038,0.049112,-0.633770,0.038270,0.048984,-1.088139
-1373061768,1508,1493,1493,1494,1179,1508,1493,1493,1494,1180,1469,1501,1498,1500,0.035038,0.049112,-0.633770,0.038532,0.049647,-1.088926
-1372961746,1508,1493,1493,1494,1180,1508,1493,1493,1494,1180,1469,1501,1498,1500,0.035038,0.049112,-0.633770,0.037706,0.049263,-1.088529
-1372861737,1509,1493,1494,1494,1179,1509,1493,1494,1494,1180,1469,1501,1498,1500,0.035038,0.049112,-0.633770,0.037666,0.048618,-1.087625
-1372761685,1508,1493,1494,1494,1180,1508,1493,1494,1494,1180,1469,1501,1498,1500,0.035038,0.049112,-0.633770,0.037591,0.048770,-1.087937
-1372661655,1508,1493,1493,1494,1179,1508,1493,1493,1494,1180,1469,1501,1498,1500,0.035038,0.049112,-0.633770,0.036561,0.049957,-1.086708
-1372561630,1508,1493,1493,1494,1180,1508,1493,1493,1494,1180,1469,1501,1498,1500,0.035038,0.049112,-0.633770,0.036568,0.051481,-1.084758
-1372461589,1509,1493,1493,1494,1179,1509,1493,1493,1494,1180,1469,1501,1498,1500,0.035038,0.049112,-0.633770,0.038495,0.052773,-1.084759
-1372361566,1508,1493,1493,1494,1180,1508,1493,1493,1494,1180,1469,1501,1498,1500,0.035038,0.049112,-0.633770,0.040062,0.052641,-1.085940
-1372261546,1507,1493,1493,1494,1179,1507,1493,1493,1494,1180,1469,1501,1498,1500,0.035038,0.049112,-0.633770,0.039759,0.052227,-1.085671
-1372161523,1509,1493,1493,1494,1179,1509,1493,1493,1494,1180,1469,1502,1498,1500,0.035038,0.049112,-0.633770,0.040218,0.052042,-1.085611
-1372061496,1507,1493,1494,1494,1179,1507,1493,1494,1494,1180,1469,1502,1498,1500,0.035038,0.049112,-0.633770,0.040300,0.052223,-1.085893
-1371961485,1507,1493,1493,1494,1179,1507,1493,1493,1494,1180,1469,1502,1498,1500,0.035038,0.049112,-0.633770,0.039079,0.052073,-1.086229
-1371861476,1507,1493,1493,1494,1179,1507,1493,1493,1494,1180,1469,1502,1498,1500,0.035038,0.049112,-0.633770,0.038787,0.052018,-1.086490
-1371761471,1508,1493,1493,1494,1179,1508,1493,1493,1494,1180,1469,1502,1498,1500,0.035038,0.049112,-0.633770,0.039259,0.051255,-1.087255
-1371661460,1507,1493,1493,1494,1179,1507,1493,1493,1494,1180,1469,1502,1498,1500,0.035038,0.049112,-0.633770,0.040545,0.049673,-1.087880
-1371561427,1508,1493,1494,1494,1179,1508,1493,1494,1494,1180,1469,1502,1498,1500,0.035038,0.049112,-0.633770,0.042554,0.049002,-1.088217
-1371461419,1508,1493,1493,1494,1179,1508,1493,1493,1494,1180,1469,1502,1498,1500,0.035038,0.049112,-0.633770,0.042623,0.047902,-1.088970
-1371361413,1509,1493,1493,1495,1179,1509,1493,1493,1495,1180,1469,1502,1498,1500,0.035038,0.049112,-0.633770,0.041185,0.046867,-1.089370
-1371261406,1507,1493,1494,1494,1180,1507,1493,1494,1494,1180,1469,1502,1498,1500,0.035038,0.049112,-0.633770,0.039525,0.047449,-1.088225
-1371161400,1508,1493,1493,1494,1179,1508,1493,1493,1494,1180,1469,1502,1498,1500,0.035038,0.049112,-0.633770,0.038584,0.048621,-1.087539
-1371061385,1507,1493,1493,1494,1180,1507,1493,1493,1494,1180,1469,1502,1498,1500,0.035038,0.049112,-0.633770,0.038426,0.048733,-1.088083
-1370961361,1508,1493,1493,1494,1179,1508,1493,1493,1494,1180,1469,1502,1498,1500,0.035038,0.049112,-0.633770,0.037990,0.048569,-1.088541
-1370861343,1507,1493,1494,1494,1179,1507,1493,1494,1494,1180,1469,1502,1498,1500,0.035038,0.049112,-0.633770,0.038963,0.048609,-1.088532
-1370761318,1509,1493,1494,1495,1179,1509,1493,1494,1495,1180,1469,1502,1498,1500,0.035038,0.049112,-0.633770,0.039855,0.049376,-1.087492
-1370661312,1508,1493,1493,1494,1179,1508,1493,1493,1494,1180,1469,1502,1498,1500,0.035038,0.049112,-0.633770,0.040265,0.050026,-1.086419
-1370561299,1507,1493,1494,1495,1179,1507,1493,1494,1495,1180,1469,1501,1498,1500,0.035038,0.049112,-0.633770,0.040314,0.050299,-1.086212
-1370461263,1508,1493,1493,1494,1180,1508,1493,1493,1494,1180,1469,1502,1498,1500,0.035038,0.049112,-0.633770,0.039677,0.049749,-1.086382
-1370361246,1508,1493,1493,1494,1179,1508,1493,1493,1494,1180,1469,1502,1498,1500,0.035038,0.049112,-0.633770,0.038504,0.048939,-1.085721
-1370261242,1508,1493,1494,1494,1179,1508,1493,1494,1494,1180,1469,1502,1498,1500,0.035038,0.049112,-0.633770,0.038886,0.048333,-1.086610
-1370161240,1508,1493,1493,1494,1179,1508,1493,1493,1494,1180,1469,1502,1498,1500,0.035038,0.049112,-0.633770,0.038114,0.047430,-1.086658
-1370061207,1508,1493,1494,1495,1179,1508,1493,1494,1495,1180,1469,1502,1498,1500,0.035038,0.049112,-0.633770,0.037321,0.046234,-1.086871
-1369961191,1508,1493,1493,1495,1179,1508,1493,1493,1495,1180,1469,1501,1498,1500,0.035038,0.049112,-0.633770,0.037949,0.046405,-1.087255
-1369861166,1509,1493,1494,1495,1179,1509,1493,1494,1495,1180,1469,1501,1498,1500,0.035038,0.049112,-0.633770,0.037356,0.046055,-1.085948
-1369761148,1508,1493,1493,1494,1179,1508,1493,1493,1494,1180,1469,1501,1498,1500,0.035038,0.049112,-0.633770,0.036289,0.047488,-1.083885
-1369661133,1508,1493,1493,1494,1180,1508,1493,1493,1494,1180,1469,1501,1498,1500,0.035038,0.049112,-0.633770,0.037937,0.048006,-1.084496
-1369561103,1508,1493,1494,1494,1179,1508,1493,1494,1494,1180,1469,1501,1498,1500,0.035038,0.049112,-0.633770,0.038225,0.047749,-1.083857
-1369461091,1508,1493,1493,1494,1179,1508,1493,1493,1494,1180,1469,1501,1498,1500,0.035038,0.049112,-0.633770,0.037979,0.046858,-1.079100
-1369361082,1507,1493,1493,1494,1179,1507,1493,1493,1494,1180,1469,1501,1498,1500,0.035038,0.049112,-0.633770,0.037494,0.041369,-1.059105
-1369261061,1508,1493,1493,1494,1180,1508,1493,1493,1494,1180,1469,1501,1498,1500,0.035038,0.049112,-0.633770,0.035794,0.029810,-1.010131
-1369161033,1508,1493,1493,1494,1180,1508,1493,1493,1494,1180,1469,1501,1498,1500,0.035038,0.049112,-0.633770,0.035148,0.018853,-0.935113
-1369061018,1508,1493,1493,1494,1179,1508,1493,1493,1494,1180,1469,1501,1498,1500,0.035038,0.049112,-0.633770,0.037177,0.006412,-0.838824
-1368960982,1509,1493,1493,1495,1179,1509,1493,1493,1495,1180,1469,1501,1498,1500,0.035038,0.049112,-0.633770,0.044356,-0.012433,-0.746898
-1368860946,1507,1493,1493,1494,1179,1507,1493,1493,1494,1180,1469,1501,1498,1500,0.035038,0.049112,-0.633770,0.055510,-0.033639,-0.655054
-1368760911,1508,1494,1493,1494,1180,1508,1494,1493,1494,1180,1470,1501,1498,1500,0.035038,0.049112,-0.633770,0.060603,-0.064993,-0.532432
-1368660898,1507,1493,1494,1494,1179,1507,1493,1494,1494,1180,1470,1501,1498,1500,0.035038,0.049112,-0.633770,0.050765,-0.085898,-0.388422
-1368560869,1508,1493,1493,1495,1179,1508,1493,1493,1495,1180,1470,1501,1498,1500,0.035038,0.049112,-0.633770,0.029847,-0.076103,-0.253426
-1368460864,1508,1493,1493,1494,1179,1508,1493,1493,1494,1180,1470,1501,1498,1500,0.035038,0.049112,-0.633770,0.007479,-0.050433,-0.181399
-1368360842,1507,1493,1493,1494,1179,1507,1493,1493,1494,1180,1471,1501,1498,1500,0.035038,0.049112,-0.633770,0.006431,-0.029984,-0.156701
-1368260814,1508,1493,1493,1494,1179,1508,1493,1493,1494,1180,1471,1501,1498,1500,0.035038,0.049112,-0.633770,0.018528,-0.029004,-0.140668
-1368160786,1508,1494,1494,1494,1180,1508,1494,1494,1494,1180,1472,1501,1498,1500,0.035038,0.049112,-0.633770,0.028255,-0.034311,-0.106160
-1368060760,1508,1493,1493,1494,1179,1508,1493,1493,1494,1180,1472,1501,1498,1500,0.035038,0.049112,-0.633770,0.034246,-0.035089,-0.077203
-1367960755,1508,1493,1494,1494,1179,1508,1493,1494,1494,1180,1473,1501,1498,1500,0.035038,0.049112,-0.633770,0.034246,-0.035089,-0.077203
-1367860729,1508,1493,1493,1494,1180,1508,1493,1493,1494,1180,1473,1500,1498,1500,0.035038,0.049112,-0.633770,0.034246,-0.035089,-0.077203
-1367760717,1508,1493,1493,1495,1179,1508,1493,1493,1495,1180,1474,1500,1498,1500,0.035038,0.049112,-0.633770,0.034246,-0.035089,-0.077203
-1367660686,1508,1493,1493,1494,1179,1508,1493,1493,1494,1180,1474,1500,1498,1500,0.035038,0.049112,-0.633770,0.034246,-0.035089,-0.077203
-1367560684,1508,1493,1495,1494,1179,1508,1493,1495,1494,1180,1475,1500,1498,1500,0.035038,0.049112,-0.633770,0.034246,-0.035089,-0.077203
-1367460664,1507,1493,1493,1494,1180,1507,1493,1493,1494,1180,1476,1500,1498,1500,0.035038,0.049112,-0.633770,0.034246,-0.035089,-0.077203
-1367360637,1507,1493,1493,1494,1179,1507,1493,1493,1494,1180,1476,1500,1498,1500,0.035038,0.049112,-0.633770,0.034246,-0.035089,-0.077203
-1367260608,1507,1493,1494,1494,1179,1507,1493,1494,1494,1180,1477,1500,1498,1500,0.035038,0.049112,-0.633770,0.034246,-0.035089,-0.077203
-1367160595,1508,1493,1493,1494,1180,1508,1493,1493,1494,1180,1477,1500,1498,1500,0.035038,0.049112,-0.633770,0.034246,-0.035089,-0.077203
-1367060591,1508,1493,1493,1494,1179,1508,1493,1493,1494,1180,1478,1500,1498,1500,0.035038,0.049112,-0.633770,0.034246,-0.035089,-0.077203
-1366960568,1508,1493,1493,1494,1179,1508,1493,1493,1494,1180,1478,1500,1498,1500,0.035038,0.049112,-0.633770,0.034246,-0.035089,-0.077203
-1366860560,1507,1493,1493,1494,1179,1507,1493,1493,1494,1180,1479,1500,1498,1500,0.035038,0.049112,-0.633770,0.034246,-0.035089,-0.077203
-1366760544,1508,1493,1493,1494,1180,1508,1493,1493,1494,1180,1479,1500,1498,1500,0.035038,0.049112,-0.633770,0.034246,-0.035089,-0.077203
-1366660512,1508,1493,1493,1494,1179,1508,1493,1493,1494,1180,1480,1499,1498,1500,0.035038,0.049112,-0.633770,0.034246,-0.035089,-0.077203
-1366560497,1507,1493,1494,1495,1179,1507,1493,1494,1495,1180,1480,1499,1498,1500,0.035038,0.049112,-0.633770,0.034246,-0.035089,-0.077203
-1366460482,1508,1493,1493,1494,1179,1508,1493,1493,1494,1180,1481,1499,1498,1500,0.035038,0.049112,-0.633770,0.034246,-0.035089,-0.077203
-1366360459,1508,1493,1493,1494,1180,1508,1493,1493,1494,1180,1481,1499,1498,1500,0.035038,0.049112,-0.633770,0.034246,-0.035089,-0.077203
-1366260453,1508,1493,1493,1494,1180,1508,1493,1493,1494,1180,1482,1499,1498,1500,0.035038,0.049112,-0.633770,0.034246,-0.035089,-0.077203
-1366160444,1507,1493,1493,1494,1179,1507,1493,1493,1494,1180,1482,1499,1498,1500,0.035038,0.049112,-0.633770,0.034246,-0.035089,-0.077203
-1366060435,1508,1493,1493,1494,1179,1508,1493,1493,1494,1180,1483,1499,1498,1500,0.035038,0.049112,-0.633770,0.034246,-0.035089,-0.077203
-1365960406,1509,1493,1494,1495,1179,1509,1493,1494,1495,1180,1484,1499,1498,1500,0.035038,0.049112,-0.633770,0.034246,-0.035089,-0.077203
-1365860402,1508,1493,1493,1494,1180,1508,1493,1493,1494,1180,1484,1499,1498,1500,0.035038,0.049112,-0.633770,0.034246,-0.035089,-0.077203
-1365760374,1508,1493,1493,1494,1179,1508,1493,1493,1494,1180,1485,1499,1498,1500,0.035038,0.049112,-0.633770,0.034246,-0.035089,-0.077203
-1365660372,1507,1493,1493,1494,1179,1507,1493,1493,1494,1180,1485,1499,1498,1500,0.035038,0.049112,-0.633770,0.034246,-0.035089,-0.077203
-1365560363,1478,1494,1493,1494,1180,1478,1494,1493,1494,1180,1486,1499,1498,1500,0.035038,0.049112,-0.633770,0.034246,-0.035089,-0.077203
-1365460332,1443,1493,1493,1496,1179,1443,1493,1493,1496,1180,1486,1499,1498,1500,0.035038,0.049112,-0.633770,0.034246,-0.035089,-0.077203
-1365360302,1337,1493,1493,1495,1180,1337,1493,1493,1495,1180,1487,1498,1498,1500,0.035038,0.049112,-0.633770,0.034246,-0.035089,-0.077203
-1365260282,1273,1493,1493,1494,1179,1273,1493,1493,1494,1180,1487,1498,1498,1500,0.035038,0.049112,-0.633770,0.034246,-0.035089,-0.077203
-1365160238,1273,1493,1493,1494,1179,1273,1493,1493,1494,1180,1488,1498,1498,1500,0.035038,0.049112,-0.633770,0.034246,-0.035089,-0.077203
-1365060209,1266,1493,1493,1494,1180,1266,1493,1493,1494,1180,1488,1498,1498,1500,0.035038,0.049112,-0.633770,0.034246,-0.035089,-0.077203
-1364960174,1257,1493,1493,1494,1179,1257,1493,1493,1494,1180,1489,1498,1498,1500,0.035038,0.049112,-0.633770,0.034246,-0.035089,-0.077203
-1364860163,1263,1493,1493,1495,1179,1263,1493,1493,1495,1180,1490,1498,1498,1500,0.035038,0.049112,-0.633770,0.034246,-0.035089,-0.077203
-1364760136,1261,1493,1493,1496,1179,1261,1493,1493,1496,1180,1490,1498,1498,1500,0.035038,0.049112,-0.633770,0.034246,-0.035089,-0.077203
-1364660111,1257,1493,1493,1495,1179,1257,1493,1493,1495,1180,1491,1498,1498,1500,0.035038,0.049112,-0.633770,0.034246,-0.035089,-0.077203
-1364560106,1257,1493,1493,1494,1179,1257,1493,1493,1494,1180,1491,1498,1499,1500,0.035038,0.049112,-0.633770,0.034246,-0.035089,-0.077203
-1364460095,1254,1493,1493,1494,1179,1254,1493,1493,1494,1180,1492,1498,1499,1500,0.035038,0.049112,-0.633770,0.034246,-0.035089,-0.077203
-1364360071,1254,1493,1493,1494,1179,1254,1493,1493,1494,1180,1492,1498,1499,1500,0.035038,0.049112,-0.633770,0.034246,-0.035089,-0.077203
-1364260058,1259,1493,1493,1494,1179,1259,1493,1493,1494,1180,1493,1498,1499,1500,0.035038,0.049112,-0.633770,0.034246,-0.035089,-0.077203
-1364160045,1252,1493,1493,1494,1179,1252,1493,1493,1494,1180,1493,1497,1499,1500,0.035038,0.049112,-0.633770,0.034246,-0.035089,-0.077203
-1364060043,1245,1493,1493,1494,1179,1245,1493,1493,1494,1180,1494,1497,1499,1500,0.035038,0.049112,-0.633770,0.034246,-0.035089,-0.077203
-1363960040,1243,1493,1493,1494,1180,1243,1493,1493,1494,1180,1494,1497,1499,1500,0.035038,0.049112,-0.633770,0.034246,-0.035089,-0.077203
-1363860030,1240,1493,1493,1494,1179,1240,1493,1493,1494,1180,1495,1497,1499,1500,0.035038,0.049112,-0.633770,0.034246,-0.035089,-0.077203
-1363760018,1238,1493,1493,1495,1179,1238,1493,1493,1495,1180,1495,1497,1499,1500,0.035038,0.049112,-0.633770,0.034246,-0.035089,-0.077203
-1363659988,1235,1493,1493,1494,1179,1235,1493,1493,1494,1180,1496,1497,1499,1500,0.035038,0.049112,-0.633770,0.034246,-0.035089,-0.077203
-1363559963,1228,1493,1493,1494,1179,1228,1493,1493,1494,1180,1496,1497,1499,1500,0.035038,0.049112,-0.633770,0.034246,-0.035089,-0.077203
-1363459952,1222,1493,1493,1495,1179,1222,1493,1493,1495,1180,1497,1497,1499,1500,0.035038,0.049112,-0.633770,0.034246,-0.035089,-0.077203
-1363359925,1219,1493,1493,1494,1179,1219,1493,1493,1494,1180,1497,1497,1499,1500,0.035038,0.049112,-0.633770,0.034246,-0.035089,-0.077203
-1363259919,1222,1493,1493,1494,1179,1222,1493,1493,1494,1180,1498,1497,1499,1500,0.035038,0.049112,-0.633770,0.034246,-0.035089,-0.077203
-1363159889,1219,1493,1493,1494,1180,1219,1493,1493,1494,1180,1498,1497,1499,1500,0.035038,0.049112,-0.633770,0.034246,-0.035089,-0.077203
-1363059878,1221,1493,1493,1494,1180,1221,1493,1493,1494,1180,1499,1497,1499,1500,0.035038,0.049112,-0.633770,0.034246,-0.035089,-0.077203
-1362959862,1222,1493,1494,1495,1179,1222,1493,1494,1495,1180,1499,1497,1499,1500,0.035038,0.049112,-0.633770,0.034246,-0.035089,-0.077203
-1331452882,1509,1493,1494,1494,1179,1509,1493,1494,1494,1180,1499,1500,1500,1500,0.000000,0.000000,0.000000,-0.076829,0.052481,-1.012391
-1331352860,1508,1493,1493,1494,1179,1508,1493,1493,1494,1180,1498,1500,1500,1500,0.000000,0.000000,0.000000,-0.072685,0.047634,-1.004184
-1331252815,1508,1493,1493,1494,1179,1508,1493,1493,1494,1180,1497,1500,1500,1500,0.000000,0.000000,0.000000,-0.064696,0.051509,-0.992376
-1331152782,1508,1493,1494,1494,1179,1508,1493,1494,1494,1180,1496,1500,1500,1500,0.000000,0.000000,0.000000,-0.058374,0.049890,-0.992148
-1331052774,1508,1493,1494,1494,1179,1508,1493,1494,1494,1180,1495,1500,1500,1500,0.000000,0.000000,0.000000,-0.058113,0.043768,-1.003841
-1330952767,1508,1493,1493,1494,1179,1508,1493,1493,1494,1180,1494,1500,1500,1500,0.000000,0.000000,0.000000,-0.060621,0.039016,-1.010809
-1330852751,1508,1493,1494,1494,1179,1508,1493,1494,1494,1180,1493,1500,1500,1500,0.000000,0.000000,0.000000,-0.063657,0.035036,-1.013807
-1330752740,1508,1493,1493,1494,1180,1508,1493,1493,1494,1180,1492,1500,1500,1500,0.000000,0.000000,0.000000,-0.065267,0.035412,-1.014840
-1330652708,1508,1493,1495,1495,1179,1508,1493,1495,1495,1180,1492,1500,1500,1500,0.000000,0.000000,0.000000,-0.067973,0.035488,-1.017719
-1330552683,1508,1493,1494,1494,1180,1508,1493,1494,1494,1180,1491,1500,1500,1500,0.000000,0.000000,0.000000,-0.066944,0.032046,-1.019546
-1330452670,1508,1493,1494,1494,1179,1508,1493,1494,1494,1180,1490,1500,1500,1500,0.000000,0.000000,0.000000,-0.064288,0.031755,-1.017174
-1330352649,1508,1493,1493,1494,1179,1508,1493,1493,1494,1180,1489,1500,1500,1500,0.000000,0.000000,0.000000,-0.062240,0.034126,-1.012655
-1330252637,1508,1493,1494,1494,1179,1508,1493,1494,1494,1180,1488,1500,1500,1500,0.000000,0.000000,0.000000,-0.060775,0.034423,-1.011303
-1330152619,1508,1493,1494,1494,1179,1508,1493,1494,1494,1180,1487,1500,1500,1500,0.000000,0.000000,0.000000,-0.058830,0.034007,-1.010735
-1330052583,1508,1493,1494,1494,1179,1508,1493,1494,1494,1180,1486,1500,1500,1500,0.000000,0.000000,0.000000,-0.057421,0.032289,-1.011507
-1329952580,1509,1493,1494,1494,1179,1509,1493,1494,1494,1180,1485,1500,1500,1500,0.000000,0.000000,0.000000,-0.057612,0.030225,-1.013758
-1329852548,1508,1493,1493,1494,1179,1508,1493,1493,1494,1180,1484,1500,1500,1500,0.000000,0.000000,0.000000,-0.057581,0.029564,-1.014692
-1329752532,1508,1493,1493,1495,1179,1508,1493,1493,1495,1180,1483,1500,1501,1500,0.000000,0.000000,0.000000,-0.057503,0.029852,-1.014341
-1329652504,1508,1493,1493,1494,1179,1508,1493,1493,1494,1180,1482,1500,1501,1500,0.000000,0.000000,0.000000,-0.057393,0.030199,-1.013360
-1329552459,1508,1493,1494,1494,1179,1508,1493,1494,1494,1180,1481,1500,1501,1500,0.000000,0.000000,0.000000,-0.057478,0.030407,-1.012565
-1329452448,1509,1493,1494,1494,1179,1509,1493,1494,1494,1180,1480,1500,1501,1500,0.000000,0.000000,0.000000,-0.057795,0.030546,-1.011843
-1329352426,1508,1493,1494,1494,1179,1508,1493,1494,1494,1180,1479,1500,1501,1500,0.000000,0.000000,0.000000,-0.057207,0.030445,-1.011160
-1329252392,1509,1493,1494,1495,1179,1509,1493,1494,1495,1180,1478,1500,1501,1500,0.000000,0.000000,0.000000,-0.056602,0.030046,-1.009748
-1329152390,1508,1493,1493,1494,1180,1508,1493,1493,1494,1180,1477,1500,1501,1500,0.000000,0.000000,0.000000,-0.056155,0.027189,-1.004898
-1329052370,1508,1493,1493,1494,1179,1508,1493,1493,1494,1180,1476,1500,1501,1500,0.000000,0.000000,0.000000,-0.052022,0.022640,-0.985877
-1328952346,1508,1493,1493,1494,1179,1508,1493,1493,1494,1180,1475,1500,1501,1500,0.000000,0.000000,0.000000,-0.044094,0.019076,-0.943251
-1328852312,1508,1493,1493,1494,1179,1508,1493,1493,1494,1180,1475,1500,1501,1500,0.000000,0.000000,0.000000,-0.040982,0.022225,-0.882444
-1328752288,1508,1493,1494,1494,1180,1508,1493,1494,1494,1180,1474,1500,1501,1500,0.000000,0.000000,0.000000,-0.044010,0.029281,-0.818712
-1328652261,1508,1493,1493,1494,1180,1508,1493,1493,1494,1180,1473,1500,1501,1500,0.000000,0.000000,0.000000,-0.057359,0.035011,-0.750800
-1328552254,1508,1493,1494,1494,1180,1508,1493,1494,1494,1180,1472,1500,1501,1500,0.000000,0.000000,0.000000,-0.068159,0.041770,-0.647393
-1328452226,1508,1493,1493,1494,1179,1508,1493,1493,1494,1180,1472,1501,1501,1500,0.000000,0.000000,0.000000,-0.072190,0.047758,-0.504623
-1328352224,1508,1493,1494,1494,1179,1508,1493,1494,1494,1180,1471,1501,1501,1500,0.000000,0.000000,0.000000,-0.070297,0.049780,-0.322380
-1328252197,1508,1493,1493,1494,1179,1508,1493,1493,1494,1180,1471,1501,1501,1500,0.000000,0.000000,0.000000,-0.068054,0.051260,-0.167225
-1328152186,1508,1493,1493,1494,1179,1508,1493,1493,1494,1180,1471,1501,1501,1500,0.000000,0.000000,0.000000,-0.063418,0.067027,-0.074512
-1328052166,1508,1493,1494,1495,1180,1508,1493,1494,1495,1180,1471,1501,1501,1500,0.000000,0.000000,0.000000,-0.061329,0.085043,-0.030468
-1327952153,1508,1493,1493,1494,1179,1508,1493,1493,1494,1180,1471,1501,1502,1500,0.000000,0.000000,0.000000,-0.060658,0.083708,-0.019601
-1327852132,1508,1493,1493,1494,1180,1508,1493,1493,1494,1180,1471,1501,1502,1500,0.000000,0.000000,0.000000,-0.062005,0.076119,-0.031780
-1327752117,1509,1493,1494,1494,1179,1509,1493,1494,1494,1180,1471,1501,1502,1500,0.000000,0.000000,0.000000,-0.066006,0.059177,-0.080070
-1327652105,1508,1493,1494,1494,1179,1508,1493,1494,1494,1180,1471,1501,1502,1500,0.000000,0.000000,0.000000,-0.065641,0.012123,-0.204046
-1327552102,1508,1493,1494,1494,1179,1508,1493,1494,1494,1180,1471,1501,1502,1500,0.000000,0.000000,0.000000,-0.062060,-0.025954,-0.393635
-1327452094,1509,1493,1494,1496,1179,1509,1493,1494,1496,1180,1470,1501,1502,1500,0.000000,0.000000,0.000000,-0.064099,-0.033933,-0.585835
-1327352093,1508,1493,1494,1495,1179,1508,1493,1494,1495,1180,1469,1501,1502,1500,0.000000,0.000000,0.000000,-0.071398,-0.040720,-0.731865
-1327252077,1508,1493,1493,1494,1180,1508,1493,1493,1494,1180,1469,1501,1502,1500,0.000000,0.000000,0.000000,-0.069948,-0.052229,-0.800794
-1327152058,1509,1493,1494,1495,1179,1509,1493,1494,1495,1180,1469,1501,1502,1500,0.000000,0.000000,0.000000,-0.072413,-0.047653,-0.828040
-1327052037,1508,1493,1494,1494,1179,1508,1493,1494,1494,1180,1469,1501,1502,1500,0.000000,0.000000,0.000000,-0.069370,-0.039406,-0.844421
-1326952028,1508,1493,1494,1494,1179,1508,1493,1494,1494,1180,1469,1501,1502,1500,0.000000,0.000000,0.000000,-0.065018,-0.039391,-0.867713
-1326852012,1508,1493,1494,1494,1179,1508,1493,1494,1494,1180,1469,1501,1502,1500,0.000000,0.000000,0.000000,-0.062807,-0.035378,-0.877219
-1326752002,1508,1493,1493,1494,1179,1508,1493,1493,1494,1180,1469,1501,1502,1500,0.000000,0.000000,0.000000,-0.063174,-0.034815,-0.879215
-1326651995,1508,1493,1494,1494,1179,1508,1493,1494,1494,1180,1469,1501,1502,1500,0.000000,0.000000,0.000000,-0.059905,-0.036430,-0.878149
-1326551979,1508,1493,1493,1494,1179,1508,1493,1493,1494,1180,1469,1501,1502,1500,0.000000,0.000000,0.000000,-0.058915,-0.036156,-0.876874
-1326451975,1508,1493,1494,1494,1179,1508,1493,1494,1494,1180,1469,1501,1502,1500,0.000000,0.000000,0.000000,-0.060322,-0.034885,-0.877490
-1326351964,1508,1493,1493,1494,1180,1508,1493,1493,1494,1180,1469,1501,1502,1500,0.000000,0.000000,0.000000,-0.059575,-0.031415,-0.877057
-1326251958,1509,1493,1494,1495,1179,1509,1493,1494,1495,1180,1469,1500,1503,1500,0.000000,0.000000,0.000000,-0.057136,-0.025586,-0.874770
-1326151949,1508,1493,1494,1494,1180,1508,1493,1494,1494,1180,1469,1500,1503,1500,0.000000,0.000000,0.000000,-0.054965,-0.023335,-0.874438
-1326051908,1508,1493,1493,1495,1179,1508,1493,1493,1495,1180,1469,1500,1503,1500,0.000000,0.000000,0.000000,-0.052463,-0.020380,-0.873347
-1325951892,1508,1493,1493,1494,1180,1508,1493,1493,1494,1180,1560,1560,1440,1500,-0.050829,-0.019091,-0.875400,-0.050739,-0.019078,-0.875717
-1325851858,1509,1493,1493,1495,1179,1509,1493,1493,1495,1180,1469,1500,1503,1500,-0.050829,-0.019091,-0.875400,-0.050481,-0.017461,-0.879925
-1325751832,1509,1493,1493,1495,1179,1509,1493,1493,1495,1180,1469,1500,1503,1500,-0.050829,-0.019091,-0.875400,-0.051350,-0.015316,-0.885731
-1325651819,1509,1493,1494,1494,1179,1509,1493,1494,1494,1180,1469,1500,1503,1500,-0.050829,-0.019091,-0.875400,-0.052040,-0.012840,-0.889957
-1325551801,1509,1493,1495,1495,1179,1509,1493,1495,1495,1180,1469,1500,1503,1500,-0.050829,-0.019091,-0.875400,-0.051531,-0.009958,-0.892195
-1325451792,1508,1493,1493,1494,1179,1508,1493,1493,1494,1180,1469,1500,1503,1500,-0.050829,-0.019091,-0.875400,-0.050857,-0.009370,-0.896640
-1325351761,1508,1493,1493,1494,1180,1508,1493,1493,1494,1180,1469,1500,1503,1500,-0.050829,-0.019091,-0.875400,-0.050289,-0.008014,-0.900993
-1325251727,1508,1493,1493,1494,1180,1508,1493,1493,1494,1180,1469,1500,1503,1500,-0.050829,-0.019091,-0.875400,-0.051197,-0.005448,-0.902022
-1325151691,1508,1493,1493,1494,1180,1508,1493,1493,1494,1180,1469,1500,1503,1500,-0.050829,-0.019091,-0.875400,-0.052545,-0.002205,-0.900048
-1325051667,1508,1493,1493,1494,1180,1508,1493,1493,1494,1180,1469,1501,1503,1500,-0.050829,-0.019091,-0.875400,-0.053622,-0.001039,-0.898820
-1324951665,1508,1493,1493,1494,1179,1508,1493,1493,1494,1180,1469,1501,1503,1500,-0.050829,-0.019091,-0.875400,-0.054252,0.000538,-0.898190
-1324851641,1508,1493,1493,1494,1179,1508,1493,1493,1494,1180,1469,1501,1503,1500,-0.050829,-0.019091,-0.875400,-0.055884,0.002787,-0.898157
-1324751613,1508,1493,1494,1494,1179,1508,1493,1494,1494,1180,1469,1501,1503,1500,-0.050829,-0.019091,-0.875400,-0.056386,0.004786,-0.898083
-1324651606,1508,1493,1494,1494,1180,1508,1493,1494,1494,1180,1469,1501,1503,1500,-0.050829,-0.019091,-0.875400,-0.056261,0.005308,-0.898982
-1324551591,1508,1493,1494,1494,1179,1508,1493,1494,1494,1180,1469,1501,1503,1500,-0.050829,-0.019091,-0.875400,-0.055857,0.005366,-0.900551
-1324451563,1508,1493,1494,1494,1179,1508,1493,1494,1494,1180,1469,1501,1503,1500,-0.050829,-0.019091,-0.875400,-0.056604,0.006719,-0.900953
-1324351540,1508,1493,1493,1494,1179,1508,1493,1493,1494,1180,1469,1501,1503,1500,-0.050829,-0.019091,-0.875400,-0.057525,0.008579,-0.899600
-1324251512,1508,1493,1494,1494,1179,1508,1493,1494,1494,1180,1469,1501,1503,1500,-0.050829,-0.019091,-0.875400,-0.057611,0.010673,-0.898205
-1324151476,1508,1493,1494,1494,1179,1508,1493,1494,1494,1180,1469,1501,1503,1500,-0.050829,-0.019091,-0.875400,-0.056795,0.011865,-0.897937
-1324051471,1508,1493,1494,1494,1179,1508,1493,1494,1494,1180,1469,1501,1503,1500,-0.050829,-0.019091,-0.875400,-0.056139,0.013128,-0.898174
-1323951454,1508,1493,1494,1494,1180,1508,1493,1494,1494,1180,1469,1501,1503,1500,-0.050829,-0.019091,-0.875400,-0.055512,0.014375,-0.898342
-1323851422,1508,1493,1493,1494,1179,1508,1493,1493,1494,1180,1469,1501,1503,1500,-0.050829,-0.019091,-0.875400,-0.055707,0.014977,-0.898914
-1323751421,1509,1493,1493,1494,1179,1509,1493,1493,1494,1180,1469,1501,1503,1500,-0.050829,-0.019091,-0.875400,-0.055660,0.015723,-0.899213
-1323651398,1508,1493,1494,1494,1180,1508,1493,1494,1494,1180,1469,1501,1503,1500,-0.050829,-0.019091,-0.875400,-0.054991,0.015920,-0.899262
-1323551384,1508,1493,1493,1494,1179,1508,1493,1493,1494,1180,1469,1501,1503,1500,-0.050829,-0.019091,-0.875400,-0.054079,0.015233,-0.899491
-1323451350,1508,1493,1493,1495,1179,1508,1493,1493,1495,1180,1469,1501,1503,1500,-0.050829,-0.019091,-0.875400,-0.053420,0.014455,-0.899481
-1323351329,1509,1493,1493,1495,1179,1509,1493,1493,1495,1180,1469,1501,1503,1500,-0.050829,-0.019091,-0.875400,-0.052373,0.013574,-0.898969
-1323251300,1508,1493,1494,1494,1179,1508,1493,1494,1494,1180,1469,1501,1503,1500,-0.050829,-0.019091,-0.875400,-0.051379,0.013280,-0.898807
-1323151284,1508,1493,1494,1494,1179,1508,1493,1494,1494,1180,1469,1501,1503,1500,-0.050829,-0.019091,-0.875400,-0.050966,0.013057,-0.899669
-1323051280,1508,1493,1494,1494,1179,1508,1493,1494,1494,1180,1469,1501,1503,1500,-0.050829,-0.019091,-0.875400,-0.050761,0.012921,-0.900475
-1322951273,1509,1493,1493,1494,1179,1509,1493,1493,1494,1180,1469,1501,1503,1500,-0.050829,-0.019091,-0.875400,-0.050981,0.013447,-0.900146
-1322851255,1508,1493,1493,1495,1179,1508,1493,1493,1495,1180,1469,1501,1503,1500,-0.050829,-0.019091,-0.875400,-0.051264,0.013973,-0.899710
-1322751237,1508,1493,1494,1494,1179,1508,1493,1494,1494,1180,1469,1501,1503,1500,-0.050829,-0.019091,-0.875400,-0.051118,0.014553,-0.899358
-1322651214,1508,1494,1493,1494,1180,1508,1494,1493,1494,1180,1469,1501,1503,1500,-0.050829,-0.019091,-0.875400,-0.051286,0.015445,-0.898730
-1322551211,1508,1493,1495,1494,1179,1508,1493,1495,1494,1180,1469,1501,1503,1500,-0.050829,-0.019091,-0.875400,-0.051489,0.016069,-0.897780
-1322451182,1508,1493,1494,1494,1179,1508,1493,1494,1494,1180,1469,1501,1503,1500,-0.050829,-0.019091,-0.875400,-0.051236,0.016656,-0.897254
-1322351175,1508,1493,1495,1494,1179,1508,1493,1495,1494,1180,1469,1501,1503,1500,-0.050829,-0.019091,-0.875400,-0.051274,0.017135,-0.897542
-1322251169,1508,1493,1494,1494,1179,1508,1493,1494,1494,1180,1469,1501,1503,1500,-0.050829,-0.019091,-0.875400,-0.051402,0.017529,-0.897670
-1322151150,1508,1493,1494,1494,1179,1508,1493,1494,1494,1180,1469,1501,1503,1500,-0.050829,-0.019091,-0.875400,-0.051131,0.018161,-0.897620
-1322051137,1508,1493,1494,1494,1179,1508,1493,1494,1494,1180,1469,1501,1503,1500,-0.050829,-0.019091,-0.875400,-0.050643,0.018077,-0.898165
-1321951101,1508,1493,1494,1495,1179,1508,1493,1494,1495,1180,1469,1501,1503,1500,-0.050829,-0.019091,-0.875400,-0.050434,0.017838,-0.898514
-1321851098,1508,1493,1493,1495,1179,1508,1493,1493,1495,1180,1469,1501,1503,1500,-0.050829,-0.019091,-0.875400,-0.050162,0.018821,-0.897299
-1321751075,1508,1493,1493,1494,1179,1508,1493,1493,1494,1180,1469,1502,1503,1500,-0.050829,-0.019091,-0.875400,-0.049682,0.019995,-0.895077
-1321651065,1508,1493,1494,1494,1179,1508,1493,1494,1494,1180,1469,1502,1503,1500,-0.050829,-0.019091,-0.875400,-0.049788,0.020660,-0.893531
-1321551049,1508,1493,1494,1495,1179,1508,1493,1494,1495,1180,1469,1502,1503,1500,-0.050829,-0.019091,-0.875400,-0.049950,0.021226,-0.892884
-1321451031,1508,1493,1493,1495,1179,1508,1493,1493,1495,1180,1469,1502,1503,1500,-0.050829,-0.019091,-0.875400,-0.049980,0.021348,-0.893544
-1321351015,1508,1493,1494,1494,1179,1508,1493,1494,1494,1180,1469,1502,1503,1500,-0.050829,-0.019091,-0.875400,-0.049974,0.021215,-0.894452
-1321250985,1508,1493,1493,1494,1179,1508,1493,1493,1494,1180,1469,1502,1503,1500,-0.050829,-0.019091,-0.875400,-0.049837,0.021918,-0.894938
