1586712343,1507,1493,1493,1495,1179,1507,1493,1493,1495,1180,1500,1500,1500,1500,0.000000,0.000000,0.000000,0.095452,0.098377,-1.179611
1586812378,1507,1493,1493,1495,1179,1507,1493,1493,1495,1180,1500,1500,1500,1500,0.000000,0.000000,0.000000,0.095740,0.099295,-1.179270
1586912423,1507,1493,1493,1495,1179,1507,1493,1493,1495,1180,1500,1500,1500,1500,0.000000,0.000000,0.000000,0.095752,0.100582,-1.178929
1587012458,1507,1493,1493,1495,1179,1507,1493,1493,1495,1180,1500,1500,1500,1500,0.000000,0.000000,0.000000,0.095382,0.101725,-1.178589
1587112464,1508,1493,1493,1495,1179,1508,1493,1493,1495,1180,1500,1500,1500,1500,0.000000,0.000000,0.000000,0.095767,0.102399,-1.178107
1587212473,1507,1493,1493,1495,1179,1507,1493,1493,1495,1180,1500,1500,1500,1500,0.000000,0.000000,0.000000,0.095804,0.102469,-1.177960
1587312485,1507,1493,1493,1495,1179,1507,1493,1493,1495,1180,1500,1500,1500,1500,0.000000,0.000000,0.000000,0.095229,0.102284,-1.178034
1587412496,1509,1493,1493,1495,1180,1509,1493,1493,1495,1180,1500,1500,1500,1500,0.000000,0.000000,0.000000,0.094913,0.101804,-1.178210
1587512531,1507,1493,1493,1496,1179,1507,1493,1493,1496,1180,1500,1500,1500,1500,0.000000,0.000000,0.000000,0.094062,0.100651,-1.178889
1587612583,1507,1493,1493,1495,1179,1507,1493,1493,1495,1180,1500,1500,1500,1500,0.000000,0.000000,0.000000,0.094050,0.098795,-1.179417
1587712598,1507,1493,1493,1495,1180,1507,1493,1493,1495,1180,1500,1500,1500,1500,0.000000,0.000000,0.000000,0.094985,0.098215,-1.179722
1587812619,1507,1493,1493,1495,1179,1507,1493,1493,1495,1180,1500,1500,1500,1500,0.000000,0.000000,0.000000,0.095293,0.098146,-1.179671
1587912643,1508,1493,1493,1495,1180,1508,1493,1493,1495,1180,1500,1500,1500,1500,0.000000,0.000000,0.000000,0.095582,0.098972,-1.179375
1588012666,1507,1493,1493,1496,1179,1507,1493,1493,1496,1180,1500,1500,1500,1500,0.095592,0.099041,-1.179363,0.095645,0.099093,-1.179348
1588112685,1507,1493,1493,1495,1180,1507,1493,1493,1495,1180,1500,1500,1500,1500,0.095592,0.099041,-1.179363,0.096072,0.099616,-1.179285
1588212707,1508,1493,1493,1495,1179,1508,1493,1493,1495,1180,1500,1500,1500,1500,0.095592,0.099041,-1.179363,0.096213,0.099459,-1.179343
1588312711,1508,1493,1493,1495,1179,1508,1493,1493,1495,1180,1500,1500,1500,1500,0.095592,0.099041,-1.179363,0.096212,0.099216,-1.179427
1588412733,1507,1493,1493,1495,1179,1507,1493,1493,1495,1180,1500,1500,1500,1500,0.095592,0.099041,-1.179363,0.096201,0.099110,-1.179157
1588512771,1507,1493,1493,1495,1179,1507,1493,1493,1495,1180,1500,1500,1500,1500,0.095592,0.099041,-1.179363,0.095928,0.099589,-1.178575
1588612802,1508,1493,1493,1495,1179,1508,1493,1493,1495,1180,1500,1500,1500,1500,0.095592,0.099041,-1.179363,0.095551,0.099501,-1.178425
1588712815,1507,1493,1493,1495,1179,1507,1493,1493,1495,1180,1500,1500,1500,1500,0.095592,0.099041,-1.179363,0.095363,0.099323,-1.178240
1588812831,1507,1493,1493,1495,1179,1507,1493,1493,1495,1180,1500,1500,1500,1500,0.095592,0.099041,-1.179363,0.094400,0.098773,-1.177826
1588912841,1507,1493,1493,1495,1179,1507,1493,1493,1495,1180,1500,1500,1500,1500,0.095592,0.099041,-1.179363,0.089268,0.096278,-1.176162
1589012875,1507,1493,1493,1495,1179,1507,1493,1493,1495,1180,1500,1500,1500,1500,0.095592,0.099041,-1.179363,0.073123,0.086725,-1.166888
1589112887,1507,1493,1493,1495,1180,1507,1493,1493,1495,1180,1500,1500,1500,1500,0.095592,0.099041,-1.179363,0.030324,0.062819,-1.145273
1589212900,1508,1493,1493,1495,1179,1508,1493,1493,1495,1180,1500,1500,1500,1500,0.095592,0.099041,-1.179363,-0.060584,0.034054,-1.132515
1589312936,1509,1493,1493,1495,1179,1509,1493,1493,1495,1180,1500,1500,1500,1500,0.095592,0.099041,-1.179363,-0.163966,0.004607,-1.136459
1589412961,1507,1493,1493,1495,1179,1507,1493,1493,1495,1180,1500,1500,1500,1500,0.095592,0.099041,-1.179363,-0.245602,-0.022757,-1.146580
1589512981,1507,1493,1493,1495,1180,1507,1493,1493,1495,1180,1500,1500,1500,1500,0.095592,0.099041,-1.179363,-0.315681,-0.046585,-1.156110
1589613002,1507,1493,1493,1495,1179,1507,1493,1493,1495,1180,1500,1500,1500,1500,0.095592,0.099041,-1.179363,-0.374666,-0.062284,-1.162156
1589713011,1507,1493,1493,1496,1179,1507,1493,1493,1496,1180,1500,1500,1500,1500,0.095592,0.099041,-1.179363,-0.429044,-0.071363,-1.166574
1589813012,1507,1493,1493,1495,1179,1507,1493,1493,1495,1180,1500,1500,1500,1500,0.095592,0.099041,-1.179363,-0.474701,-0.086716,-1.169008
1589913032,1509,1493,1493,1496,1179,1509,1493,1493,1496,1180,1500,1500,1500,1500,0.095592,0.099041,-1.179363,-0.513578,-0.108372,-1.172886
1590013052,1507,1493,1493,1495,1180,1507,1493,1493,1495,1180,1500,1500,1500,1500,0.095592,0.099041,-1.179363,-0.551327,-0.124333,-1.170148
1590113084,1507,1493,1493,1495,1179,1507,1493,1493,1495,1180,1500,1500,1500,1500,0.095592,0.099041,-1.179363,-0.581288,-0.129012,-1.160459
1590213115,1508,1493,1493,1495,1179,1508,1493,1493,1495,1180,1500,1500,1500,1500,0.095592,0.099041,-1.179363,-0.594896,-0.121928,-1.153403
1590313143,1507,1493,1493,1495,1179,1507,1493,1493,1495,1180,1500,1500,1500,1500,0.095592,0.099041,-1.179363,-0.598359,-0.112448,-1.153408
1590413159,1507,1493,1493,1495,1179,1507,1493,1493,1495,1180,1500,1500,1500,1500,0.095592,0.099041,-1.179363,-0.596414,-0.105845,-1.158199
1590513181,1507,1493,1493,1495,1179,1507,1493,1493,1495,1180,1500,1500,1500,1500,0.095592,0.099041,-1.179363,-0.594658,-0.102512,-1.163788
1590613187,1507,1493,1493,1496,1179,1507,1493,1493,1496,1180,1500,1500,1500,1500,0.095592,0.099041,-1.179363,-0.593079,-0.099802,-1.171103
1590713202,1507,1493,1493,1495,1179,1507,1493,1493,1495,1180,1500,1500,1500,1500,0.095592,0.099041,-1.179363,-0.594496,-0.096293,-1.171703
1590813214,1508,1493,1493,1495,1179,1508,1493,1493,1495,1180,1500,1500,1500,1500,0.095592,0.099041,-1.179363,-0.599333,-0.095121,-1.167863
1590913228,1508,1493,1493,1495,1179,1508,1493,1493,1495,1180,1500,1500,1500,1500,0.095592,0.099041,-1.179363,-0.602832,-0.095097,-1.164648
1591013236,1507,1493,1493,1495,1179,1507,1493,1493,1495,1180,1500,1500,1500,1500,0.095592,0.099041,-1.179363,-0.604815,-0.096931,-1.163353
1591113257,1507,1493,1493,1495,1180,1507,1493,1493,1495,1180,1500,1500,1500,1500,0.095592,0.099041,-1.179363,-0.603390,-0.099302,-1.163975
1591213284,1507,1493,1493,1495,1179,1507,1493,1493,1495,1180,1500,1500,1500,1500,0.095592,0.099041,-1.179363,-0.599342,-0.099487,-1.166049
1591313303,1507,1493,1493,1495,1179,1507,1493,1493,1495,1180,1500,1500,1500,1500,0.095592,0.099041,-1.179363,-0.595282,-0.092930,-1.166882
1591413306,1507,1493,1493,1496,1179,1507,1493,1493,1496,1180,1500,1500,1500,1500,0.095592,0.099041,-1.179363,-0.589343,-0.086749,-1.166900
1591513314,1507,1493,1493,1495,1180,1507,1493,1493,1495,1180,1500,1500,1500,1500,0.095592,0.099041,-1.179363,-0.582772,-0.082169,-1.167446
1591613323,1508,1493,1493,1495,1180,1508,1493,1493,1495,1180,1500,1500,1500,1500,0.095592,0.099041,-1.179363,-0.572468,-0.074082,-1.168705
1591713329,1508,1493,1493,1495,1179,1508,1493,1493,1495,1180,1500,1500,1500,1500,0.095592,0.099041,-1.179363,-0.546111,-0.057887,-1.169236
1591813348,1507,1493,1493,1495,1180,1507,1493,1493,1495,1180,1500,1500,1500,1500,0.095592,0.099041,-1.179363,-0.512132,-0.042157,-1.173632
1591913375,1507,1493,1493,1495,1179,1507,1493,1493,1495,1180,1500,1500,1500,1500,0.095592,0.099041,-1.179363,-0.470229,-0.029054,-1.184193
1592013401,1507,1493,1493,1495,1179,1507,1493,1493,1495,1180,1500,1500,1500,1500,0.095592,0.099041,-1.179363,-0.416459,-0.015907,-1.194741
1592113407,1508,1493,1493,1495,1179,1508,1493,1493,1495,1180,1500,1500,1500,1500,0.095592,0.099041,-1.179363,-0.347061,0.003168,-1.202008
1592213418,1507,1493,1493,1495,1179,1507,1493,1493,1495,1180,1500,1500,1500,1500,0.095592,0.099041,-1.179363,-0.267188,0.021273,-1.207771
1592313443,1507,1493,1493,1495,1179,1507,1493,1493,1495,1180,1500,1500,1500,1500,0.095592,0.099041,-1.179363,-0.185105,0.037751,-1.216680
1592413454,1507,1493,1493,1495,1179,1507,1493,1493,1495,1180,1500,1500,1500,1500,0.095592,0.099041,-1.179363,-0.111784,0.051370,-1.227287
1592513486,1507,1493,1493,1495,1180,1507,1493,1493,1495,1180,1500,1500,1500,1500,0.095592,0.099041,-1.179363,-0.042774,0.063121,-1.235763
1592613490,1508,1493,1493,1495,1180,1508,1493,1493,1495,1180,1500,1500,1500,1500,0.095592,0.099041,-1.179363,0.031917,0.073673,-1.243011
1592713532,1507,1493,1493,1495,1179,1507,1493,1493,1495,1180,1500,1500,1500,1500,0.095592,0.099041,-1.179363,0.121161,0.085974,-1.249714
1592813553,1507,1493,1493,1495,1180,1507,1493,1493,1495,1180,1500,1500,1500,1500,0.095592,0.099041,-1.179363,0.207853,0.091715,-1.253709
1592913554,1508,1493,1493,1495,1179,1508,1493,1493,1495,1180,1500,1500,1500,1500,0.095592,0.099041,-1.179363,0.292320,0.093625,-1.256766
1593013566,1507,1493,1493,1496,1179,1507,1493,1493,1496,1180,1500,1500,1500,1500,0.095592,0.099041,-1.179363,0.366648,0.088433,-1.260143
1593113596,1507,1493,1493,1495,1179,1507,1493,1493,1495,1180,1500,1500,1500,1500,0.095592,0.099041,-1.179363,0.431868,0.083396,-1.260914
1593213623,1507,1493,1493,1496,1179,1507,1493,1493,1496,1180,1500,1500,1500,1500,0.095592,0.099041,-1.179363,0.502566,0.083079,-1.258677
1593313624,1508,1493,1493,1495,1179,1508,1493,1493,1495,1180,1500,1500,1500,1500,0.095592,0.099041,-1.179363,0.579816,0.086670,-1.254007
1593413643,1507,1493,1493,1496,1179,1507,1493,1493,1496,1180,1500,1500,1500,1500,0.095592,0.099041,-1.179363,0.655574,0.089510,-1.250873
1593513648,1507,1493,1493,1495,1179,1507,1493,1493,1495,1180,1500,1500,1500,1500,0.095592,0.099041,-1.179363,0.724626,0.088891,-1.245680
1593613668,1507,1493,1493,1495,1179,1507,1493,1493,1495,1180,1500,1500,1500,1500,0.095592,0.099041,-1.179363,0.786120,0.085842,-1.242647
1593713669,1507,1493,1493,1496,1179,1507,1493,1493,1496,1180,1500,1500,1500,1500,0.095592,0.099041,-1.179363,0.846983,0.080259,-1.240165
1593813671,1508,1493,1493,1495,1179,1508,1493,1493,1495,1180,1500,1500,1500,1500,0.095592,0.099041,-1.179363,0.896133,0.074399,-1.234590
1593913697,1508,1493,1493,1495,1179,1508,1493,1493,1495,1180,1500,1500,1500,1500,0.095592,0.099041,-1.179363,0.939469,0.067147,-1.223701
1594013707,1508,1493,1493,1495,1179,1508,1493,1493,1495,1180,1500,1500,1500,1500,0.095592,0.099041,-1.179363,0.968439,0.057457,-1.213494
1594113728,1507,1493,1493,1496,1179,1507,1493,1493,1496,1180,1500,1500,1500,1500,0.095592,0.099041,-1.179363,0.981159,0.050675,-1.206671
1594213755,1507,1493,1493,1496,1179,1507,1493,1493,1496,1180,1500,1500,1500,1500,0.095592,0.099041,-1.179363,0.983604,0.048257,-1.203069
1594313764,1508,1493,1493,1495,1180,1508,1493,1493,1495,1180,1500,1500,1500,1500,0.095592,0.099041,-1.179363,0.985137,0.044989,-1.199129
1594413795,1507,1493,1493,1495,1179,1507,1493,1493,1495,1180,1500,1500,1500,1500,0.095592,0.099041,-1.179363,0.986124,0.046239,-1.195771
1594513816,1507,1493,1493,1495,1179,1507,1493,1493,1495,1180,1500,1500,1500,1500,0.095592,0.099041,-1.179363,0.985680,0.047420,-1.191790
1594613819,1507,1493,1493,1495,1179,1507,1493,1493,1495,1180,1500,1500,1500,1500,0.095592,0.099041,-1.179363,0.984857,0.049994,-1.188702
1594713850,1507,1493,1493,1496,1179,1507,1493,1493,1496,1180,1500,1500,1500,1500,0.095592,0.099041,-1.179363,0.982174,0.053300,-1.187909
1594813860,1507,1493,1493,1495,1179,1507,1493,1493,1495,1180,1500,1500,1500,1500,0.095592,0.099041,-1.179363,0.981869,0.056040,-1.186792
1594913887,1508,1493,1493,1495,1179,1508,1493,1493,1495,1180,1500,1500,1500,1500,0.095592,0.099041,-1.179363,0.982515,0.057131,-1.183307
1595013895,1507,1493,1493,1495,1179,1507,1493,1493,1495,1180,1500,1500,1500,1500,0.095592,0.099041,-1.179363,0.979984,0.054926,-1.173018
1595113896,1508,1493,1493,1495,1179,1508,1493,1493,1495,1180,1500,1500,1500,1500,0.095592,0.099041,-1.179363,0.973146,0.048549,-1.153165
1595213911,1507,1493,1493,1495,1180,1507,1493,1493,1495,1180,1500,1500,1500,1500,0.095592,0.099041,-1.179363,0.960205,0.046366,-1.135633
1595313921,1507,1493,1493,1495,1179,1507,1493,1493,1495,1180,1500,1500,1500,1500,0.095592,0.099041,-1.179363,0.942337,0.047906,-1.120909
1595413944,1507,1493,1493,1495,1179,1507,1493,1493,1495,1180,1500,1500,1500,1500,0.095592,0.099041,-1.179363,0.922311,0.046129,-1.109542
1595513978,1507,1493,1493,1496,1179,1507,1493,1493,1496,1180,1500,1500,1500,1500,0.095592,0.099041,-1.179363,0.890923,0.041907,-1.096322
1595613984,1507,1493,1493,1496,1179,1507,1493,1493,1496,1180,1500,1500,1500,1500,0.095592,0.099041,-1.179363,0.843080,0.038786,-1.079791
1595714017,1508,1493,1493,1495,1179,1508,1493,1493,1495,1180,1500,1500,1500,1500,0.095592,0.099041,-1.179363,0.784281,0.036575,-1.041114
1595814018,1507,1493,1493,1496,1179,1507,1493,1493,1496,1180,1500,1500,1500,1500,0.095592,0.099041,-1.179363,0.730444,0.031900,-0.976861
1595914041,1507,1493,1493,1495,1179,1507,1493,1493,1495,1180,1500,1500,1500,1500,0.095592,0.099041,-1.179363,0.666807,0.025327,-0.897799
1596014046,1507,1493,1493,1495,1179,1507,1493,1493,1495,1180,1500,1500,1500,1500,0.095592,0.099041,-1.179363,0.620537,0.022766,-0.836070
1596114082,1508,1493,1493,1495,1179,1508,1493,1493,1495,1180,1500,1500,1500,1500,0.095592,0.099041,-1.179363,0.591706,0.030008,-0.784940
1596214111,1507,1493,1493,1495,1179,1507,1493,1493,1495,1180,1500,1500,1500,1500,0.095592,0.099041,-1.179363,0.569531,0.037857,-0.748646
1596314113,1507,1493,1493,1495,1179,1507,1493,1493,1495,1180,1500,1500,1500,1500,0.095592,0.099041,-1.179363,0.546114,0.039858,-0.719539
1596414141,1507,1493,1493,1495,1179,1507,1493,1493,1495,1180,1500,1500,1500,1500,0.095592,0.099041,-1.179363,0.525802,0.039635,-0.695183
1596514155,1507,1493,1493,1495,1179,1507,1493,1493,1495,1180,1500,1500,1500,1500,0.095592,0.099041,-1.179363,0.505922,0.043883,-0.682419
1596614180,1508,1493,1493,1496,1179,1508,1493,1493,1496,1180,1500,1500,1500,1500,0.095592,0.099041,-1.179363,0.478836,0.062042,-0.672227
1596714203,1507,1493,1493,1495,1179,1507,1493,1493,1495,1180,1500,1500,1500,1500,0.095592,0.099041,-1.179363,0.441931,0.094332,-0.656729
1596814205,1507,1493,1493,1495,1179,1507,1493,1493,1495,1180,1500,1500,1500,1500,0.095592,0.099041,-1.179363,0.392963,0.134585,-0.628384
1596914222,1509,1493,1493,1496,1179,1509,1493,1493,1496,1180,1500,1500,1500,1500,0.095592,0.099041,-1.179363,0.338230,0.192646,-0.567920
1597014231,1507,1493,1493,1496,1179,1507,1493,1493,1496,1180,1500,1500,1500,1500,0.095592,0.099041,-1.179363,0.281034,0.255362,-0.465682
1597114243,1507,1493,1493,1495,1179,1507,1493,1493,1495,1180,1500,1500,1500,1500,0.095592,0.099041,-1.179363,0.220027,0.290192,-0.342064
1597214274,1508,1493,1493,1495,1179,1508,1493,1493,1495,1180,1500,1500,1500,1500,0.095592,0.099041,-1.179363,0.162163,0.303641,-0.255277
1597314288,1507,1493,1493,1495,1179,1507,1493,1493,1495,1180,1500,1500,1500,1500,0.095592,0.099041,-1.179363,0.140453,0.311821,-0.248208
1597414292,1508,1493,1493,1495,1179,1508,1493,1493,1495,1180,1500,1500,1500,1500,0.095592,0.099041,-1.179363,0.137035,0.303290,-0.252030
1597514302,1507,1493,1493,1495,1179,1507,1493,1493,1495,1180,1500,1500,1500,1500,0.095592,0.099041,-1.179363,0.142582,0.290617,-0.261210
1597614303,1507,1493,1493,1495,1180,1507,1493,1493,1495,1180,1500,1500,1500,1500,0.095592,0.099041,-1.179363,0.141915,0.282025,-0.252906
1597714337,1508,1493,1493,1496,1179,1508,1493,1493,1496,1180,1500,1500,1500,1500,0.095592,0.099041,-1.179363,0.135915,0.281088,-0.230036
1597814344,1507,1493,1493,1495,1179,1507,1493,1493,1495,1180,1500,1500,1500,1500,0.095592,0.099041,-1.179363,0.133601,0.276775,-0.215868
1597914364,1507,1493,1493,1495,1179,1507,1493,1493,1495,1180,1500,1500,1500,1500,0.095592,0.099041,-1.179363,0.137226,0.271328,-0.213271
1598014399,1507,1493,1493,1496,1179,1507,1493,1493,1496,1180,1500,1500,1500,1500,0.095592,0.099041,-1.179363,0.138220,0.270361,-0.210864
1598114415,1508,1493,1493,1495,1179,1508,1493,1493,1495,1180,1500,1500,1500,1500,0.095592,0.099041,-1.179363,0.137032,0.273053,-0.207774
1598214431,1507,1493,1493,1495,1179,1507,1493,1493,1495,1180,1500,1500,1500,1500,0.095592,0.099041,-1.179363,0.137032,0.273053,-0.207774
1598314446,1507,1493,1493,1495,1179,1507,1493,1493,1495,1180,1500,1500,1500,1500,0.095592,0.099041,-1.179363,0.137032,0.273053,-0.207774
1598414467,1507,1493,1493,1495,1179,1507,1493,1493,1495,1180,1500,1500,1500,1500,0.095592,0.099041,-1.179363,0.137032,0.273053,-0.207774
1598514468,1507,1493,1493,1496,1179,1507,1493,1493,1496,1180,1500,1500,1500,1500,0.095592,0.099041,-1.179363,0.137032,0.273053,-0.207774
1598614489,1507,1493,1493,1495,1179,1507,1493,1493,1495,1180,1500,1500,1500,1500,0.095592,0.099041,-1.179363,0.137032,0.273053,-0.207774
1598714522,1508,1493,1493,1495,1179,1508,1493,1493,1495,1180,1500,1500,1500,1500,0.095592,0.099041,-1.179363,0.137032,0.273053,-0.207774
1598814525,1507,1493,1493,1495,1179,1507,1493,1493,1495,1180,1500,1500,1500,1500,0.095592,0.099041,-1.179363,0.137032,0.273053,-0.207774
1598914536,1507,1493,1493,1495,1179,1507,1493,1493,1495,1180,1500,1500,1500,1500,0.095592,0.099041,-1.179363,0.137032,0.273053,-0.207774
1599014559,1507,1493,1493,1495,1179,1507,1493,1493,1495,1180,1500,1500,1500,1500,0.095592,0.099041,-1.179363,0.137032,0.273053,-0.207774
1599114580,1507,1493,1493,1495,1179,1507,1493,1493,1495,1180,1500,1500,1500,1500,0.095592,0.099041,-1.179363,0.137032,0.273053,-0.207774
1599214582,1508,1493,1493,1495,1179,1508,1493,1493,1495,1180,1500,1500,1500,1500,0.095592,0.099041,-1.179363,0.137032,0.273053,-0.207774
1599314587,1507,1493,1493,1495,1179,1507,1493,1493,1495,1180,1500,1500,1500,1500,0.095592,0.099041,-1.179363,0.137032,0.273053,-0.207774
1599414590,1507,1493,1493,1496,1179,1507,1493,1493,1496,1180,1500,1500,1500,1500,0.095592,0.099041,-1.179363,0.137032,0.273053,-0.207774
1599514612,1507,1493,1493,1495,1179,1507,1493,1493,1495,1180,1500,1500,1500,1500,0.095592,0.099041,-1.179363,0.137032,0.273053,-0.207774
1599614613,1508,1493,1493,1495,1179,1508,1493,1493,1495,1180,1500,1500,1500,1500,0.095592,0.099041,-1.179363,0.137032,0.273053,-0.207774
1599714645,1507,1493,1493,1495,1179,1507,1493,1493,1495,1180,1500,1500,1500,1500,0.095592,0.099041,-1.179363,0.137032,0.273053,-0.207774
1599814667,1507,1493,1493,1495,1179,1507,1493,1493,1495,1180,1500,1500,1500,1500,0.095592,0.099041,-1.179363,0.137032,0.273053,-0.207774
1599914674,1507,1493,1493,1495,1179,1507,1493,1493,1495,1180,1500,1500,1500,1500,0.095592,0.099041,-1.179363,0.137032,0.273053,-0.207774
1600014676,1507,1493,1493,1495,1179,1507,1493,1493,1495,1180,1500,1500,1500,1500,0.095592,0.099041,-1.179363,0.137032,0.273053,-0.207774
1600114708,1507,1493,1493,1496,1179,1507,1493,1493,1496,1180,1500,1500,1500,1500,0.095592,0.099041,-1.179363,0.137032,0.273053,-0.207774
1623920431,1507,1493,1493,1495,1180,1507,1493,1493,1495,1180,1500,1500,1500,1500,0.000000,0.000000,0.000000,0.102728,0.220472,-1.144194
1624020451,1507,1493,1493,1495,1179,1507,1493,1493,1495,1180,1500,1500,1500,1500,0.000000,0.000000,0.000000,0.108769,0.199728,-1.133943
1624120488,1508,1493,1493,1495,1179,1508,1493,1493,1495,1180,1500,1500,1500,1500,0.000000,0.000000,0.000000,0.105126,0.190199,-1.131604
1624220489,1507,1493,1493,1496,1179,1507,1493,1493,1496,1180,1500,1500,1500,1500,0.000000,0.000000,0.000000,0.094993,0.183966,-1.129820
1624320510,1507,1493,1493,1496,1179,1507,1493,1493,1496,1180,1500,1500,1500,1500,0.000000,0.000000,0.000000,0.089900,0.183323,-1.123576
1624420549,1508,1493,1493,1495,1179,1508,1493,1493,1495,1180,1500,1500,1500,1500,0.000000,0.000000,0.000000,0.085928,0.188909,-1.120768
1624520584,1507,1493,1493,1495,1179,1507,1493,1493,1495,1180,1500,1500,1500,1500,0.000000,0.000000,0.000000,0.084276,0.194408,-1.122645
1624620599,1507,1493,1493,1495,1179,1507,1493,1493,1495,1180,1500,1500,1500,1500,0.000000,0.000000,0.000000,0.084391,0.196276,-1.129739
1624720605,1508,1493,1493,1495,1179,1508,1493,1493,1495,1180,1500,1500,1500,1500,0.000000,0.000000,0.000000,0.083608,0.196291,-1.136993
1624820621,1507,1493,1493,1495,1179,1507,1493,1493,1495,1180,1500,1500,1500,1500,0.000000,0.000000,0.000000,0.083356,0.197380,-1.136425
1624920622,1507,1493,1493,1495,1179,1507,1493,1493,1495,1180,1500,1500,1500,1500,0.000000,0.000000,0.000000,0.083624,0.199431,-1.131674
1625020650,1508,1493,1493,1495,1180,1508,1493,1493,1495,1180,1500,1500,1500,1500,0.000000,0.000000,0.000000,0.082111,0.200956,-1.125872
1625120651,1507,1493,1493,1495,1179,1507,1493,1493,1495,1180,1500,1500,1500,1500,0.000000,0.000000,0.000000,0.080668,0.204218,-1.118202
1625220679,1507,1493,1493,1495,1180,1507,1493,1493,1495,1180,1500,1500,1500,1500,0.000000,0.000000,0.000000,0.080246,0.211315,-1.116205
1625320701,1507,1493,1493,1495,1180,1507,1493,1493,1495,1180,1500,1500,1500,1500,0.000000,0.000000,0.000000,0.078063,0.218287,-1.119187
1625420703,1507,1493,1493,1495,1179,1507,1493,1493,1495,1180,1500,1500,1500,1500,0.000000,0.000000,0.000000,0.079087,0.220826,-1.121059
1625520739,1507,1493,1493,1496,1179,1507,1493,1493,1496,1180,1500,1500,1500,1500,0.000000,0.000000,0.000000,0.079548,0.220637,-1.121746
1625620768,1507,1493,1493,1495,1180,1507,1493,1493,1495,1180,1500,1500,1500,1500,0.000000,0.000000,0.000000,0.078460,0.219003,-1.121272
1625720776,1507,1493,1493,1495,1180,1507,1493,1493,1495,1180,1500,1500,1500,1500,0.000000,0.000000,0.000000,0.077019,0.217650,-1.121908
1625820795,1507,1493,1493,1495,1179,1507,1493,1493,1495,1180,1500,1500,1500,1500,0.000000,0.000000,0.000000,0.076248,0.215715,-1.125056
1625920825,1507,1493,1493,1495,1179,1507,1493,1493,1495,1180,1500,1500,1500,1500,0.000000,0.000000,0.000000,0.075681,0.213924,-1.132119
1626020831,1508,1493,1493,1495,1179,1508,1493,1493,1495,1180,1500,1500,1500,1500,0.000000,0.000000,0.000000,0.076181,0.210033,-1.134103
1626120864,1508,1493,1493,1495,1179,1508,1493,1493,1495,1180,1500,1500,1500,1500,0.077248,0.206484,-1.132872,0.077422,0.205981,-1.132673
1626220880,1507,1493,1493,1495,1179,1507,1493,1493,1495,1180,1500,1500,1500,1500,0.077248,0.206484,-1.132872,0.078758,0.203402,-1.132202
1626320900,1508,1493,1493,1495,1179,1508,1493,1493,1495,1180,1500,1500,1500,1500,0.077248,0.206484,-1.132872,0.079538,0.202482,-1.132295
1626420932,1507,1493,1493,1496,1179,1507,1493,1493,1496,1180,1500,1500,1500,1500,0.077248,0.206484,-1.132872,0.078404,0.201713,-1.132552
1626520960,1508,1493,1493,1495,1179,1508,1493,1493,1495,1180,1500,1500,1500,1500,0.077248,0.206484,-1.132872,0.077394,0.201800,-1.132253
1626620970,1507,1493,1493,1495,1179,1507,1493,1493,1495,1180,1500,1500,1500,1500,0.077248,0.206484,-1.132872,0.076786,0.201709,-1.131431
1626720998,1507,1493,1493,1495,1180,1507,1493,1493,1495,1180,1500,1500,1500,1500,0.077248,0.206484,-1.132872,0.076240,0.202468,-1.130605
1626821001,1507,1493,1493,1496,1180,1507,1493,1493,1496,1180,1500,1500,1500,1500,0.077248,0.206484,-1.132872,0.075581,0.202907,-1.130695
1626921035,1508,1493,1493,1495,1180,1508,1493,1493,1495,1180,1500,1500,1500,1500,0.077248,0.206484,-1.132872,0.071936,0.200969,-1.129467
1627021058,1507,1493,1493,1495,1180,1507,1493,1493,1495,1180,1500,1500,1500,1500,0.077248,0.206484,-1.132872,0.063141,0.196752,-1.124406
1627121080,1507,1493,1493,1495,1179,1507,1493,1493,1495,1180,1500,1500,1500,1500,0.077248,0.206484,-1.132872,0.043073,0.183005,-1.112540
1627221086,1508,1493,1493,1495,1180,1508,1493,1493,1495,1180,1500,1500,1500,1500,0.077248,0.206484,-1.132872,-0.000878,0.154723,-1.091148
1627321088,1507,1493,1493,1495,1179,1507,1493,1493,1495,1180,1500,1500,1500,1500,0.077248,0.206484,-1.132872,-0.084245,0.114891,-1.079485
1627421116,1508,1493,1493,1495,1179,1508,1493,1493,1495,1180,1500,1500,1500,1500,0.077248,0.206484,-1.132872,-0.195824,0.077107,-1.084129
1627521150,1507,1493,1493,1495,1179,1507,1493,1493,1495,1180,1500,1500,1500,1500,0.077248,0.206484,-1.132872,-0.314994,0.048831,-1.097510
1627621181,1508,1493,1493,1495,1179,1508,1493,1493,1495,1180,1500,1500,1500,1500,0.077248,0.206484,-1.132872,-0.423629,0.031526,-1.111293
1627721185,1507,1493,1493,1496,1179,1507,1493,1493,1496,1180,1500,1500,1500,1500,0.077248,0.206484,-1.132872,-0.519277,0.016041,-1.114860
1627821207,1507,1493,1493,1495,1179,1507,1493,1493,1495,1180,1500,1500,1500,1500,0.077248,0.206484,-1.132872,-0.580724,-0.011988,-1.107139
1627921228,1507,1493,1493,1495,1179,1507,1493,1493,1495,1180,1500,1500,1500,1500,0.077248,0.206484,-1.132872,-0.615456,-0.034425,-1.099885
1628021257,1508,1493,1493,1495,1179,1508,1493,1493,1495,1180,1500,1500,1500,1500,0.077248,0.206484,-1.132872,-0.645732,-0.056080,-1.095443
1628121292,1507,1493,1493,1495,1179,1507,1493,1493,1495,1180,1500,1500,1500,1500,0.077248,0.206484,-1.132872,-0.663376,-0.069357,-1.091505
1628221320,1507,1493,1493,1496,1179,1507,1493,1493,1496,1180,1500,1500,1500,1500,0.077248,0.206484,-1.132872,-0.669258,-0.078087,-1.088166
1628321344,1507,1493,1493,1495,1179,1507,1493,1493,1495,1180,1500,1500,1500,1500,0.077248,0.206484,-1.132872,-0.673368,-0.082176,-1.085029
1628421380,1507,1493,1493,1495,1179,1507,1493,1493,1495,1180,1500,1500,1500,1500,0.077248,0.206484,-1.132872,-0.675161,-0.084053,-1.083816
1628521381,1507,1493,1493,1496,1179,1507,1493,1493,1496,1180,1500,1500,1500,1500,0.077248,0.206484,-1.132872,-0.673940,-0.083615,-1.083769
1628621407,1507,1493,1493,1495,1179,1507,1493,1493,1495,1180,1500,1500,1500,1500,0.077248,0.206484,-1.132872,-0.674180,-0.082882,-1.082517
1628721430,1507,1493,1493,1496,1179,1507,1493,1493,1496,1180,1500,1500,1500,1500,0.077248,0.206484,-1.132872,-0.676664,-0.086339,-1.082075
1628821459,1508,1493,1493,1495,1179,1508,1493,1493,1495,1180,1500,1500,1500,1500,0.077248,0.206484,-1.132872,-0.675454,-0.091039,-1.082868
1628921485,1507,1493,1493,1495,1180,1507,1493,1493,1495,1180,1500,1500,1500,1500,0.077248,0.206484,-1.132872,-0.675055,-0.095220,-1.082831
1629021507,1508,1493,1493,1496,1179,1508,1493,1493,1496,1180,1500,1500,1500,1500,0.077248,0.206484,-1.132872,-0.676360,-0.096103,-1.081123
1629121517,1507,1493,1493,1495,1179,1507,1493,1493,1495,1180,1500,1500,1500,1500,0.077248,0.206484,-1.132872,-0.676107,-0.095484,-1.079593
1629221521,1507,1493,1493,1495,1179,1507,1493,1493,1495,1180,1500,1500,1500,1500,0.077248,0.206484,-1.132872,-0.675005,-0.093753,-1.078438
1629321533,1507,1493,1493,1495,1180,1507,1493,1493,1495,1180,1500,1500,1500,1500,0.077248,0.206484,-1.132872,-0.673685,-0.093435,-1.078954
1629421561,1507,1493,1493,1496,1179,1507,1493,1493,1496,1180,1500,1500,1500,1500,0.077248,0.206484,-1.132872,-0.670252,-0.095588,-1.081481
1629521585,1507,1493,1493,1495,1180,1507,1493,1493,1495,1180,1500,1500,1500,1500,0.077248,0.206484,-1.132872,-0.666786,-0.097317,-1.083995
1629621590,1508,1493,1493,1495,1179,1508,1493,1493,1495,1180,1500,1500,1500,1500,0.077248,0.206484,-1.132872,-0.665437,-0.098509,-1.084925
1629721596,1507,1493,1493,1495,1179,1507,1493,1493,1495,1180,1500,1500,1500,1500,0.077248,0.206484,-1.132872,-0.666435,-0.098735,-1.084648
1629821623,1507,1493,1493,1495,1179,1507,1493,1493,1495,1180,1500,1500,1500,1500,0.077248,0.206484,-1.132872,-0.667865,-0.098881,-1.084525
1629921645,1507,1493,1493,1495,1180,1507,1493,1493,1495,1180,1500,1500,1500,1500,0.077248,0.206484,-1.132872,-0.669030,-0.098411,-1.084330
1630021676,1507,1493,1493,1495,1179,1507,1493,1493,1495,1180,1500,1500,1500,1500,0.077248,0.206484,-1.132872,-0.669784,-0.098249,-1.084032
1630121698,1507,1493,1493,1496,1179,1507,1493,1493,1496,1180,1500,1500,1500,1500,0.077248,0.206484,-1.132872,-0.669012,-0.097805,-1.083854
1630221702,1507,1493,1493,1495,1179,1507,1493,1493,1495,1180,1500,1500,1500,1500,0.077248,0.206484,-1.132872,-0.667083,-0.095929,-1.084018
1630321708,1507,1493,1493,1495,1179,1507,1493,1493,1495,1180,1500,1500,1500,1500,0.077248,0.206484,-1.132872,-0.665020,-0.093271,-1.083506
1630421709,1507,1493,1493,1496,1179,1507,1493,1493,1496,1180,1500,1500,1500,1500,0.077248,0.206484,-1.132872,-0.663506,-0.090441,-1.083408
1630521723,1507,1493,1493,1495,1180,1507,1493,1493,1495,1180,1500,1500,1500,1500,0.077248,0.206484,-1.132872,-0.661048,-0.092101,-1.086248
1630621753,1508,1493,1493,1496,1179,1508,1493,1493,1496,1180,1500,1500,1500,1500,0.077248,0.206484,-1.132872,-0.658689,-0.094776,-1.088531
1630721758,1507,1493,1493,1495,1179,1507,1493,1493,1495,1180,1500,1500,1500,1500,0.077248,0.206484,-1.132872,-0.657513,-0.095913,-1.088886
1630821761,1507,1493,1493,1495,1179,1507,1493,1493,1495,1180,1500,1500,1500,1500,0.077248,0.206484,-1.132872,-0.658409,-0.096880,-1.087751
1630921764,1507,1493,1493,1496,1179,1507,1493,1493,1496,1180,1500,1500,1500,1500,0.077248,0.206484,-1.132872,-0.658922,-0.097618,-1.087054
1631021767,1507,1493,1493,1495,1179,1507,1493,1493,1495,1180,1500,1500,1500,1500,0.077248,0.206484,-1.132872,-0.658958,-0.096698,-1.086893
1631121794,1508,1493,1493,1495,1179,1508,1493,1493,1495,1180,1500,1500,1500,1500,0.077248,0.206484,-1.132872,-0.658129,-0.095663,-1.086825
1631221802,1508,1493,1493,1496,1179,1508,1493,1493,1496,1180,1500,1500,1500,1500,0.077248,0.206484,-1.132872,-0.656083,-0.095690,-1.086663
1631321834,1507,1493,1493,1495,1180,1507,1493,1493,1495,1180,1500,1500,1500,1500,0.077248,0.206484,-1.132872,-0.654095,-0.095772,-1.086288
1631421858,1507,1493,1493,1495,1179,1507,1493,1493,1495,1180,1500,1500,1500,1500,0.077248,0.206484,-1.132872,-0.654945,-0.096949,-1.085809
1631521872,1507,1493,1493,1495,1179,1507,1493,1493,1495,1180,1500,1500,1500,1500,0.077248,0.206484,-1.132872,-0.655498,-0.097032,-1.085247
1631621898,1507,1493,1493,1496,1179,1507,1493,1493,1496,1180,1500,1500,1500,1500,0.077248,0.206484,-1.132872,-0.653790,-0.093854,-1.085203
1631721934,1507,1493,1493,1495,1179,1507,1493,1493,1495,1180,1500,1500,1500,1500,0.077248,0.206484,-1.132872,-0.651636,-0.091177,-1.086083
1631821948,1507,1493,1493,1495,1179,1507,1493,1493,1495,1180,1500,1500,1500,1500,0.077248,0.206484,-1.132872,-0.649380,-0.092560,-1.088366
1631921961,1508,1493,1493,1495,1179,1508,1493,1493,1495,1180,1500,1500,1500,1500,0.077248,0.206484,-1.132872,-0.647830,-0.095412,-1.090231
1632021985,1508,1493,1493,1496,1179,1508,1493,1493,1496,1180,1500,1500,1500,1500,0.077248,0.206484,-1.132872,-0.648217,-0.096620,-1.090447
1632122006,1507,1493,1493,1495,1179,1507,1493,1493,1495,1180,1500,1500,1500,1500,0.077248,0.206484,-1.132872,-0.648670,-0.097700,-1.089550
1632222026,1507,1493,1493,1495,1179,1507,1493,1493,1495,1180,1500,1500,1500,1500,0.077248,0.206484,-1.132872,-0.650039,-0.099819,-1.089756
1632322062,1507,1493,1493,1495,1179,1507,1493,1493,1495,1180,1500,1500,1500,1500,0.077248,0.206484,-1.132872,-0.648349,-0.100758,-1.091311
1632422077,1507,1493,1493,1495,1179,1507,1493,1493,1495,1180,1500,1500,1500,1500,0.077248,0.206484,-1.132872,-0.645164,-0.099846,-1.093449
1632522089,1508,1493,1493,1495,1179,1508,1493,1493,1495,1180,1500,1500,1500,1500,0.077248,0.206484,-1.132872,-0.643092,-0.098698,-1.094568
1632622125,1507,1493,1493,1495,1179,1507,1493,1493,1495,1180,1500,1500,1500,1500,0.077248,0.206484,-1.132872,-0.642987,-0.097246,-1.094717
1632722149,1507,1493,1493,1495,1179,1507,1493,1493,1495,1180,1500,1500,1500,1500,0.077248,0.206484,-1.132872,-0.642652,-0.097582,-1.095473
1632822160,1507,1493,1493,1495,1179,1507,1493,1493,1495,1180,1500,1500,1500,1500,0.077248,0.206484,-1.132872,-0.641591,-0.099302,-1.095920
1632922170,1507,1493,1493,1495,1179,1507,1493,1493,1495,1180,1500,1500,1500,1500,0.077248,0.206484,-1.132872,-0.641101,-0.099028,-1.095718
1633022173,1507,1493,1493,1495,1180,1507,1493,1493,1495,1180,1500,1500,1500,1500,0.077248,0.206484,-1.132872,-0.642289,-0.098272,-1.095371
1633122177,1507,1493,1493,1495,1179,1507,1493,1493,1495,1180,1500,1500,1500,1500,0.077248,0.206484,-1.132872,-0.645048,-0.099971,-1.098387
1633222212,1507,1493,1493,1495,1179,1507,1493,1493,1495,1180,1500,1500,1500,1500,0.077248,0.206484,-1.132872,-0.642537,-0.097676,-1.097539
1633322237,1507,1493,1493,1496,1179,1507,1493,1493,1496,1180,1500,1500,1500,1500,0.077248,0.206484,-1.132872,-0.645676,-0.090759,-1.091710
1633422265,1507,1493,1493,1495,1179,1507,1493,1493,1495,1180,1500,1500,1500,1500,0.077248,0.206484,-1.132872,-0.648270,-0.089372,-1.089142
1633522274,1507,1493,1493,1496,1179,1507,1493,1493,1496,1180,1500,1500,1500,1500,0.077248,0.206484,-1.132872,-0.644635,-0.092296,-1.092576
1633622304,1507,1493,1493,1495,1179,1507,1493,1493,1495,1180,1500,1500,1500,1500,0.077248,0.206484,-1.132872,-0.637996,-0.097497,-1.098015
1633722340,1507,1493,1493,1495,1180,1507,1493,1493,1495,1180,1500,1500,1500,1500,0.077248,0.206484,-1.132872,-0.634582,-0.098585,-1.099382
1633822353,1507,1493,1493,1495,1180,1507,1493,1493,1495,1180,1500,1500,1500,1500,0.077248,0.206484,-1.132872,-0.633648,-0.096186,-1.099003
1633922363,1507,1493,1493,1496,1179,1507,1493,1493,1496,1180,1500,1500,1500,1500,0.077248,0.206484,-1.132872,-0.632826,-0.094746,-1.098181
1634022396,1507,1493,1493,1496,1179,1507,1493,1493,1496,1180,1500,1500,1500,1500,0.077248,0.206484,-1.132872,-0.630613,-0.091876,-1.098311
1634122405,1507,1493,1493,1495,1179,1507,1493,1493,1495,1180,1500,1500,1500,1500,0.077248,0.206484,-1.132872,-0.628835,-0.088005,-1.099423
1634222426,1509,1493,1493,1495,1179,1509,1493,1493,1495,1180,1500,1500,1500,1500,0.077248,0.206484,-1.132872,-0.627577,-0.086269,-1.100138
1634322456,1508,1493,1493,1495,1179,1508,1493,1493,1495,1180,1500,1500,1500,1500,0.077248,0.206484,-1.132872,-0.627240,-0.085552,-1.099916
1634422459,1507,1493,1493,1495,1179,1507,1493,1493,1495,1180,1500,1500,1500,1500,0.077248,0.206484,-1.132872,-0.627577,-0.084715,-1.100009
1634522483,1508,1493,1493,1495,1179,1508,1493,1493,1495,1180,1500,1500,1500,1500,0.077248,0.206484,-1.132872,-0.626181,-0.084327,-1.100252
1634622507,1507,1493,1493,1496,1179,1507,1493,1493,1496,1180,1500,1500,1500,1500,0.077248,0.206484,-1.132872,-0.624998,-0.082609,-1.100095
1634722521,1509,1493,1493,1495,1179,1509,1493,1493,1495,1180,1500,1500,1500,1500,0.077248,0.206484,-1.132872,-0.624763,-0.080671,-1.100104
1634822550,1507,1493,1493,1495,1179,1507,1493,1493,1495,1180,1500,1500,1500,1500,0.077248,0.206484,-1.132872,-0.623319,-0.077450,-1.100376
1634922552,1509,1493,1493,1495,1179,1509,1493,1493,1495,1180,1500,1500,1500,1500,0.077248,0.206484,-1.132872,-0.619857,-0.073246,-1.101403
1635022555,1507,1493,1493,1495,1179,1507,1493,1493,1495,1180,1500,1500,1500,1500,0.077248,0.206484,-1.132872,-0.617632,-0.069432,-1.101793
1635122561,1508,1493,1493,1495,1179,1508,1493,1493,1495,1180,1500,1500,1500,1500,0.077248,0.206484,-1.132872,-0.614757,-0.065980,-1.102207
1635222590,1507,1493,1493,1495,1179,1507,1493,1493,1495,1180,1500,1500,1500,1500,0.077248,0.206484,-1.132872,-0.612909,-0.064062,-1.102528
1635322597,1507,1493,1493,1496,1179,1507,1493,1493,1496,1180,1500,1500,1500,1500,0.077248,0.206484,-1.132872,-0.612618,-0.064316,-1.102554
1635422602,1508,1493,1493,1495,1179,1508,1493,1493,1495,1180,1500,1500,1500,1500,0.077248,0.206484,-1.132872,-0.612678,-0.065184,-1.102332
1635522626,1507,1493,1493,1495,1179,1507,1493,1493,1495,1180,1500,1500,1500,1500,0.077248,0.206484,-1.132872,-0.612467,-0.066145,-1.102091
1635622650,1507,1493,1493,1495,1179,1507,1493,1493,1495,1180,1500,1500,1500,1500,0.077248,0.206484,-1.132872,-0.612856,-0.066698,-1.101751
1635722663,1507,1493,1493,1495,1179,1507,1493,1493,1495,1180,1500,1500,1500,1500,0.077248,0.206484,-1.132872,-0.613305,-0.066369,-1.101054
1635822668,1507,1493,1493,1495,1179,1507,1493,1493,1495,1180,1500,1500,1500,1500,0.077248,0.206484,-1.132872,-0.613791,-0.065974,-1.100390
1635922699,1507,1493,1493,1496,1179,1507,1493,1493,1496,1180,1500,1500,1500,1500,0.077248,0.206484,-1.132872,-0.613232,-0.066528,-1.099946
1636022706,1507,1493,1493,1495,1180,1507,1493,1493,1495,1180,1500,1500,1500,1500,0.077248,0.206484,-1.132872,-0.612605,-0.069227,-1.099791
1636122747,1507,1493,1493,1495,1179,1507,1493,1493,1495,1180,1500,1500,1500,1500,0.077248,0.206484,-1.132872,-0.612143,-0.071260,-1.100976
1636222756,1508,1493,1493,1495,1179,1508,1493,1493,1495,1180,1500,1500,1500,1500,0.077248,0.206484,-1.132872,-0.608932,-0.068933,-1.101315
1636322783,1507,1493,1493,1495,1179,1507,1493,1493,1495,1180,1500,1500,1500,1500,0.077248,0.206484,-1.132872,-0.607219,-0.063080,-1.098583
1636422789,1507,1493,1493,1495,1179,1507,1493,1493,1495,1180,1500,1500,1500,1500,0.077248,0.206484,-1.132872,-0.610882,-0.055281,-1.092088
1636522795,1508,1493,1493,1495,1180,1508,1493,1493,1495,1180,1500,1500,1500,1500,0.077248,0.206484,-1.132872,-0.615376,-0.046959,-1.082967
1636622805,1508,1493,1493,1495,1179,1508,1493,1493,1495,1180,1500,1500,1500,1500,0.077248,0.206484,-1.132872,-0.617556,-0.034842,-1.074947
1636722823,1507,1493,1493,1495,1180,1507,1493,1493,1495,1180,1500,1500,1500,1500,0.077248,0.206484,-1.132872,-0.611790,-0.016095,-1.068743
1636822854,1507,1493,1493,1495,1179,1507,1493,1493,1495,1180,1500,1500,1500,1500,0.077248,0.206484,-1.132872,-0.602807,0.003297,-1.067002
1636922882,1508,1493,1493,1496,1179,1508,1493,1493,1496,1180,1500,1500,1500,1500,0.077248,0.206484,-1.132872,-0.596325,0.008173,-1.072850
1637022888,1508,1493,1493,1495,1179,1508,1493,1493,1495,1180,1500,1500,1500,1500,0.077248,0.206484,-1.132872,-0.591128,0.003194,-1.079827
1637122918,1507,1493,1493,1495,1180,1507,1493,1493,1495,1180,1500,1500,1500,1500,0.077248,0.206484,-1.132872,-0.589403,0.000232,-1.083515
1637222943,1507,1493,1493,1495,1180,1507,1493,1493,1495,1180,1500,1500,1500,1500,0.077248,0.206484,-1.132872,-0.591952,0.002492,-1.082849
1637322968,1507,1493,1493,1495,1179,1507,1493,1493,1495,1180,1500,1500,1500,1500,0.077248,0.206484,-1.132872,-0.590745,0.005360,-1.079383
1637422991,1507,1493,1493,1495,1179,1507,1493,1493,1495,1180,1500,1500,1500,1500,0.077248,0.206484,-1.132872,-0.589009,0.001557,-1.076874
1637522999,1507,1493,1493,1495,1179,1507,1493,1493,1495,1180,1500,1500,1500,1500,0.077248,0.206484,-1.132872,-0.588084,-0.009598,-1.075986
1637623029,1507,1493,1493,1495,1179,1507,1493,1493,1495,1180,1500,1500,1500,1500,0.077248,0.206484,-1.132872,-0.588169,-0.020177,-1.074771
1637723051,1507,1493,1493,1495,1179,1507,1493,1493,1495,1180,1500,1500,1500,1500,0.077248,0.206484,-1.132872,-0.586839,-0.023795,-1.070108
1637823085,1509,1493,1493,1496,1179,1509,1493,1493,1496,1180,1500,1500,1500,1500,0.077248,0.206484,-1.132872,-0.586057,-0.018094,-1.064641
1637923101,1507,1493,1493,1495,1179,1507,1493,1493,1495,1180,1500,1500,1500,1500,0.077248,0.206484,-1.132872,-0.583640,-0.003244,-1.057910
1638023120,1507,1493,1493,1495,1179,1507,1493,1493,1495,1180,1500,1500,1500,1500,0.077248,0.206484,-1.132872,-0.575512,0.007090,-1.056780
1638123138,1507,1493,1493,1495,1180,1507,1493,1493,1495,1180,1500,1500,1500,1500,0.077248,0.206484,-1.132872,-0.566784,0.004671,-1.061185
1638223162,1507,1493,1493,1496,1179,1507,1493,1493,1496,1180,1500,1500,1500,1500,0.077248,0.206484,-1.132872,-0.556201,-0.006895,-1.065021
1638323170,1508,1493,1493,1496,1179,1508,1493,1493,1496,1180,1500,1500,1500,1500,0.077248,0.206484,-1.132872,-0.548583,-0.020324,-1.064373
1638423174,1507,1493,1493,1496,1179,1507,1493,1493,1496,1180,1500,1500,1500,1500,0.077248,0.206484,-1.132872,-0.545473,-0.028098,-1.065481
1638523205,1507,1493,1493,1495,1179,1507,1493,1493,1495,1180,1500,1500,1500,1500,0.077248,0.206484,-1.132872,-0.543615,-0.037332,-1.065323
1638623224,1507,1493,1493,1496,1179,1507,1493,1493,1496,1180,1500,1500,1500,1500,0.077248,0.206484,-1.132872,-0.545673,-0.040139,-1.054376
1638723233,1508,1493,1493,1495,1179,1508,1493,1493,1495,1180,1500,1500,1500,1500,0.077248,0.206484,-1.132872,-0.551827,-0.034601,-1.035688
1638823255,1508,1493,1493,1495,1179,1508,1493,1493,1495,1180,1500,1500,1500,1500,0.077248,0.206484,-1.132872,-0.562733,-0.027188,-1.015600
1638923272,1507,1493,1493,1495,1180,1507,1493,1493,1495,1180,1500,1500,1500,1500,0.077248,0.206484,-1.132872,-0.569419,-0.016707,-0.994812
1639023291,1508,1493,1493,1495,1180,1508,1493,1493,1495,1180,1500,1500,1500,1500,0.077248,0.206484,-1.132872,-0.562326,0.001432,-0.970044
1639123313,1507,1493,1493,1495,1179,1507,1493,1493,1495,1180,1500,1500,1500,1500,0.077248,0.206484,-1.132872,-0.546023,0.027955,-0.941579
1639223321,1507,1493,1493,1495,1179,1507,1493,1493,1495,1180,1500,1500,1500,1500,0.077248,0.206484,-1.132872,-0.527981,0.062393,-0.906994
1639323341,1508,1493,1493,1495,1179,1508,1493,1493,1495,1180,1500,1500,1500,1500,0.077248,0.206484,-1.132872,-0.507694,0.106843,-0.857928
1639423370,1507,1493,1493,1495,1179,1507,1493,1493,1495,1180,1500,1500,1500,1500,0.077248,0.206484,-1.132872,-0.489900,0.152981,-0.810219
1639523387,1507,1493,1493,1495,1179,1507,1493,1493,1495,1180,1500,1500,1500,1500,0.077248,0.206484,-1.132872,-0.470458,0.187593,-0.771398
1639623426,1507,1493,1493,1495,1179,1507,1493,1493,1495,1180,1500,1500,1500,1500,0.077248,0.206484,-1.132872,-0.443006,0.207096,-0.742053
1639723445,1507,1493,1493,1495,1179,1507,1493,1493,1495,1180,1500,1500,1500,1500,0.077248,0.206484,-1.132872,-0.421365,0.211344,-0.724920
1639823460,1507,1493,1493,1495,1179,1507,1493,1493,1495,1180,1500,1500,1500,1500,0.077248,0.206484,-1.132872,-0.412695,0.212942,-0.718011
1639923473,1507,1493,1493,1495,1179,1507,1493,1493,1495,1180,1500,1500,1500,1500,0.077248,0.206484,-1.132872,-0.408531,0.215761,-0.715276
1640023488,1507,1493,1493,1495,1179,1507,1493,1493,1495,1180,1500,1500,1500,1500,0.077248,0.206484,-1.132872,-0.402226,0.217517,-0.713891
1640123529,1507,1493,1493,1495,1179,1507,1493,1493,1495,1180,1500,1500,1500,1500,0.077248,0.206484,-1.132872,-0.391644,0.212850,-0.711878
1640223565,1507,1493,1493,1495,1180,1507,1493,1493,1495,1180,1500,1500,1500,1500,0.077248,0.206484,-1.132872,-0.385102,0.197834,-0.711764
1640323578,1507,1493,1493,1496,1179,1507,1493,1493,1496,1180,1500,1500,1500,1500,0.077248,0.206484,-1.132872,-0.388719,0.178715,-0.714952
1640423602,1508,1493,1493,1495,1179,1508,1493,1493,1495,1180,1500,1500,1500,1500,0.077248,0.206484,-1.132872,-0.391145,0.162744,-0.713442
1640523612,1507,1493,1493,1495,1179,1507,1493,1493,1495,1180,1500,1500,1500,1500,0.077248,0.206484,-1.132872,-0.387906,0.154879,-0.706308
1640623646,1508,1493,1493,1495,1179,1508,1493,1493,1495,1180,1500,1500,1500,1500,0.077248,0.206484,-1.132872,-0.384666,0.154080,-0.703436
1640723668,1507,1493,1493,1495,1179,1507,1493,1493,1495,1180,1500,1500,1500,1500,0.077248,0.206484,-1.132872,-0.383946,0.156760,-0.704877
1640823686,1507,1493,1493,1495,1179,1507,1493,1493,1495,1180,1500,1500,1500,1500,0.077248,0.206484,-1.132872,-0.383787,0.159015,-0.704939
1640923697,1507,1493,1493,1495,1179,1507,1493,1493,1495,1180,1500,1500,1500,1500,0.077248,0.206484,-1.132872,-0.385562,0.159808,-0.704171
1641023714,1507,1493,1493,1495,1179,1507,1493,1493,1495,1180,1500,1500,1500,1500,0.077248,0.206484,-1.132872,-0.389414,0.159036,-0.703588
1641123727,1507,1493,1493,1495,1179,1507,1493,1493,1495,1180,1500,1500,1500,1500,0.077248,0.206484,-1.132872,-0.392156,0.158975,-0.703861
1641223728,1507,1493,1493,1495,1180,1507,1493,1493,1495,1180,1500,1500,1500,1500,0.077248,0.206484,-1.132872,-0.392239,0.162669,-0.705767
1641323737,1507,1493,1493,1495,1180,1507,1493,1493,1495,1180,1500,1500,1500,1500,0.077248,0.206484,-1.132872,-0.388296,0.171266,-0.710159
1641423771,1507,1493,1493,1495,1179,1507,1493,1493,1495,1180,1500,1500,1500,1500,0.077248,0.206484,-1.132872,-0.380646,0.181020,-0.712490
1641523775,1508,1493,1493,1495,1179,1508,1493,1493,1495,1180,1500,1500,1500,1500,0.077248,0.206484,-1.132872,-0.373645,0.189756,-0.710673
1641623784,1507,1493,1493,1495,1179,1507,1493,1493,1495,1180,1500,1500,1500,1500,0.077248,0.206484,-1.132872,-0.369124,0.200838,-0.705849
1641723794,1507,1493,1493,1495,1179,1507,1493,1493,1495,1180,1500,1500,1500,1500,0.077248,0.206484,-1.132872,-0.365220,0.213268,-0.701597
1641823812,1508,1493,1493,1495,1179,1508,1493,1493,1495,1180,1500,1500,1500,1500,0.077248,0.206484,-1.132872,-0.360451,0.222216,-0.697475
1641923823,1508,1493,1493,1495,1179,1508,1493,1493,1495,1180,1500,1500,1500,1500,0.077248,0.206484,-1.132872,-0.354202,0.227343,-0.694485
1642023846,1507,1493,1493,1495,1180,1507,1493,1493,1495,1180,1500,1500,1500,1500,0.077248,0.206484,-1.132872,-0.350885,0.227145,-0.692995
1642123875,1507,1493,1493,1495,1179,1507,1493,1493,1495,1180,1500,1500,1500,1500,0.077248,0.206484,-1.132872,-0.353244,0.227924,-0.692139
1642223890,1507,1493,1493,1495,1179,1507,1493,1493,1495,1180,1500,1500,1500,1500,0.077248,0.206484,-1.132872,-0.355601,0.227430,-0.691538
1642323906,1507,1493,1493,1495,1179,1507,1493,1493,1495,1180,1500,1500,1500,1500,0.077248,0.206484,-1.132872,-0.355122,0.225569,-0.690406
1642423927,1507,1493,1493,1495,1179,1507,1493,1493,1495,1180,1500,1500,1500,1500,0.077248,0.206484,-1.132872,-0.355053,0.224685,-0.690092
1642523961,1508,1493,1493,1495,1179,1508,1493,1493,1495,1180,1500,1500,1500,1500,0.077248,0.206484,-1.132872,-0.355073,0.224000,-0.690202
1642623990,1507,1493,1493,1495,1179,1507,1493,1493,1495,1180,1500,1500,1500,1500,0.077248,0.206484,-1.132872,-0.353273,0.222861,-0.689327
1642724003,1507,1493,1493,1495,1179,1507,1493,1493,1495,1180,1500,1500,1500,1500,0.077248,0.206484,-1.132872,-0.352576,0.222711,-0.688227
1642824027,1507,1493,1493,1495,1179,1507,1493,1493,1495,1180,1500,1500,1500,1500,0.077248,0.206484,-1.132872,-0.353558,0.222800,-0.688307
1642924045,1508,1493,1493,1495,1179,1508,1493,1493,1495,1180,1500,1500,1500,1500,0.077248,0.206484,-1.132872,-0.354294,0.225148,-0.690354
1643024071,1507,1493,1493,1496,1179,1507,1493,1493,1496,1180,1500,1500,1500,1500,0.077248,0.206484,-1.132872,-0.353482,0.230930,-0.698106
1643124074,1508,1493,1493,1495,1179,1508,1493,1493,1495,1180,1500,1500,1500,1500,0.077248,0.206484,-1.132872,-0.349042,0.234601,-0.707724
1643224104,1508,1493,1493,1495,1180,1508,1493,1493,1495,1180,1500,1500,1500,1500,0.077248,0.206484,-1.132872,-0.343412,0.239408,-0.710227
1643324140,1507,1493,1493,1495,1179,1507,1493,1493,1495,1180,1500,1500,1500,1500,0.077248,0.206484,-1.132872,-0.337066,0.250762,-0.706403
1643424141,1507,1493,1493,1495,1179,1507,1493,1493,1495,1180,1500,1500,1500,1500,0.077248,0.206484,-1.132872,-0.327545,0.266162,-0.695650
1643524175,1507,1493,1493,1495,1179,1507,1493,1493,1495,1180,1500,1500,1500,1500,0.077248,0.206484,-1.132872,-0.318813,0.278702,-0.682311
1643624197,1507,1493,1493,1495,1179,1507,1493,1493,1495,1180,1500,1500,1500,1500,0.077248,0.206484,-1.132872,-0.314041,0.287334,-0.673736
1643724229,1507,1493,1493,1495,1179,1507,1493,1493,1495,1180,1500,1500,1500,1500,0.077248,0.206484,-1.132872,-0.310946,0.294558,-0.669610
1643824254,1507,1493,1493,1495,1179,1507,1493,1493,1495,1180,1500,1500,1500,1500,0.077248,0.206484,-1.132872,-0.309036,0.301470,-0.664240
1643924261,1507,1493,1493,1495,1179,1507,1493,1493,1495,1180,1500,1500,1500,1500,0.077248,0.206484,-1.132872,-0.306910,0.307755,-0.653676
1644024264,1508,1493,1493,1495,1179,1508,1493,1493,1495,1180,1500,1500,1500,1500,0.077248,0.206484,-1.132872,-0.307209,0.316783,-0.642376
1644124292,1508,1493,1493,1495,1179,1508,1493,1493,1495,1180,1500,1500,1500,1500,0.077248,0.206484,-1.132872,-0.309247,0.330491,-0.623346
1644224308,1508,1493,1493,1495,1179,1508,1493,1493,1495,1180,1500,1500,1500,1500,0.077248,0.206484,-1.132872,-0.310797,0.347000,-0.601918
1644324320,1508,1493,1493,1495,1179,1508,1493,1493,1495,1180,1500,1500,1500,1500,0.077248,0.206484,-1.132872,-0.305464,0.366243,-0.580058
1644424352,1509,1493,1493,1495,1179,1509,1493,1493,1495,1180,1500,1500,1500,1500,0.077248,0.206484,-1.132872,-0.293571,0.388333,-0.561351
1644524381,1508,1493,1493,1495,1179,1508,1493,1493,1495,1180,1500,1500,1500,1500,0.077248,0.206484,-1.132872,-0.277668,0.410707,-0.548132
1644624385,1508,1493,1493,1495,1179,1508,1493,1493,1495,1180,1500,1500,1500,1500,0.077248,0.206484,-1.132872,-0.259019,0.429539,-0.526642
1644724391,1507,1493,1493,1495,1179,1507,1493,1493,1495,1180,1500,1500,1500,1500,0.077248,0.206484,-1.132872,-0.240005,0.450293,-0.480486
1644824409,1508,1493,1493,1495,1179,1508,1493,1493,1495,1180,1500,1500,1500,1500,0.077248,0.206484,-1.132872,-0.217544,0.462545,-0.432986
1644924417,1507,1493,1493,1495,1179,1507,1493,1493,1495,1180,1500,1500,1500,1500,0.077248,0.206484,-1.132872,-0.195840,0.466690,-0.397743
1645024444,1508,1493,1493,1495,1179,1508,1493,1493,1495,1180,1500,1500,1500,1500,0.077248,0.206484,-1.132872,-0.187092,0.477221,-0.384536
1645124470,1508,1493,1493,1495,1179,1508,1493,1493,1495,1180,1500,1500,1500,1500,0.077248,0.206484,-1.132872,-0.187084,0.487822,-0.370814
1645224488,1507,1493,1493,1495,1179,1507,1493,1493,1495,1180,1500,1500,1500,1500,0.077248,0.206484,-1.132872,-0.190276,0.504152,-0.355294
1645324502,1508,1493,1493,1495,1179,1508,1493,1493,1495,1180,1500,1500,1500,1500,0.077248,0.206484,-1.132872,-0.190276,0.504152,-0.355294
1645424533,1508,1493,1493,1495,1179,1508,1493,1493,1495,1180,1500,1500,1500,1500,0.077248,0.206484,-1.132872,-0.208414,0.530958,-0.344184
1645524540,1507,1493,1493,1495,1179,1507,1493,1493,1495,1180,1500,1500,1500,1500,0.077248,0.206484,-1.132872,-0.224261,0.532180,-0.340911
1645624551,1507,1493,1493,1495,1179,1507,1493,1493,1495,1180,1500,1500,1500,1500,0.077248,0.206484,-1.132872,-0.239651,0.535549,-0.330242
1645724559,1507,1493,1493,1495,1179,1507,1493,1493,1495,1180,1500,1500,1500,1500,0.077248,0.206484,-1.132872,-0.251816,0.541596,-0.316351
1645824587,1507,1493,1493,1495,1180,1507,1493,1493,1495,1180,1500,1500,1500,1500,0.077248,0.206484,-1.132872,-0.260460,0.544677,-0.309284
1645924619,1507,1493,1493,1495,1179,1507,1493,1493,1495,1180,1500,1500,1500,1500,0.077248,0.206484,-1.132872,-0.264326,0.546270,-0.296651
1646024627,1507,1493,1493,1495,1179,1507,1493,1493,1495,1180,1500,1500,1500,1500,0.077248,0.206484,-1.132872,-0.263550,0.543870,-0.291896
1646124630,1507,1493,1493,1495,1179,1507,1493,1493,1495,1180,1500,1500,1500,1500,0.077248,0.206484,-1.132872,-0.261864,0.542896,-0.293440
1646224646,1507,1493,1493,1495,1179,1507,1493,1493,1495,1180,1500,1500,1500,1500,0.077248,0.206484,-1.132872,-0.258652,0.544428,-0.289676
1646324656,1507,1493,1493,1495,1179,1507,1493,1493,1495,1180,1500,1500,1500,1500,0.077248,0.206484,-1.132872,-0.256063,0.546883,-0.281772
1646424684,1507,1493,1493,1495,1179,1507,1493,1493,1495,1180,1500,1500,1500,1500,0.077248,0.206484,-1.132872,-0.256132,0.549444,-0.270011
1646524686,1507,1493,1493,1495,1179,1507,1493,1493,1495,1180,1500,1500,1500,1500,0.077248,0.206484,-1.132872,-0.260571,0.552368,-0.266779
1646624703,1508,1493,1493,1495,1179,1508,1493,1493,1495,1180,1500,1500,1500,1500,0.077248,0.206484,-1.132872,-0.262979,0.557271,-0.269607
1646724704,1507,1493,1493,1496,1179,1507,1493,1493,1496,1180,1500,1500,1500,1500,0.077248,0.206484,-1.132872,-0.257428,0.555868,-0.270442
1646824740,1507,1493,1493,1495,1180,1507,1493,1493,1495,1180,1500,1500,1500,1500,0.077248,0.206484,-1.132872,-0.254539,0.554647,-0.270664
1646924750,1507,1493,1493,1495,1179,1507,1493,1493,1495,1180,1500,1500,1500,1500,0.077248,0.206484,-1.132872,-0.252819,0.555867,-0.267488
1647024753,1507,1493,1493,1495,1179,1507,1493,1493,1495,1180,1500,1500,1500,1500,0.077248,0.206484,-1.132872,-0.251127,0.555778,-0.262635
1647124759,1507,1493,1493,1495,1179,1507,1493,1493,1495,1180,1500,1500,1500,1500,0.077248,0.206484,-1.132872,-0.247009,0.556354,-0.254197
1647224779,1507,1493,1493,1495,1179,1507,1493,1493,1495,1180,1500,1500,1500,1500,0.077248,0.206484,-1.132872,-0.247009,0.556354,-0.254197
1647324786,1508,1493,1493,1495,1180,1508,1493,1493,1495,1180,1500,1500,1500,1500,0.077248,0.206484,-1.132872,-0.247009,0.556354,-0.254197
1647424817,1507,1493,1493,1495,1179,1507,1493,1493,1495,1180,1500,1500,1500,1500,0.077248,0.206484,-1.132872,-0.247009,0.556354,-0.254197
1647524837,1507,1493,1493,1495,1179,1507,1493,1493,1495,1180,1500,1500,1500,1500,0.077248,0.206484,-1.132872,-0.247009,0.556354,-0.254197
1647624869,1509,1493,1493,1495,1179,1509,1493,1493,1495,1180,1500,1500,1500,1500,0.077248,0.206484,-1.132872,-0.247009,0.556354,-0.254197
1647724873,1507,1493,1493,1495,1179,1507,1493,1493,1495,1180,1500,1500,1500,1500,0.077248,0.206484,-1.132872,-0.247009,0.556354,-0.254197
1647824898,1507,1493,1493,1495,1179,1507,1493,1493,1495,1180,1500,1500,1500,1500,0.077248,0.206484,-1.132872,-0.247009,0.556354,-0.254197
1647924901,1507,1493,1493,1495,1179,1507,1493,1493,1495,1180,1500,1500,1500,1500,0.077248,0.206484,-1.132872,-0.247009,0.556354,-0.254197
1648024924,1507,1493,1493,1495,1179,1507,1493,1493,1495,1180,1500,1500,1500,1500,0.077248,0.206484,-1.132872,-0.247009,0.556354,-0.254197
1648124939,1508,1493,1493,1495,1179,1508,1493,1493,1495,1180,1500,1500,1500,1500,0.077248,0.206484,-1.132872,-0.247009,0.556354,-0.254197
1648224956,1507,1493,1493,1496,1179,1507,1493,1493,1496,1180,1500,1500,1500,1500,0.077248,0.206484,-1.132872,-0.247009,0.556354,-0.254197
1648324973,1507,1493,1493,1495,1179,1507,1493,1493,1495,1180,1500,1500,1500,1500,0.077248,0.206484,-1.132872,-0.247009,0.556354,-0.254197
1648424977,1507,1493,1493,1495,1179,1507,1493,1493,1495,1180,1500,1500,1500,1500,0.077248,0.206484,-1.132872,-0.247009,0.556354,-0.254197
1648524994,1507,1493,1493,1495,1179,1507,1493,1493,1495,1180,1500,1500,1500,1500,0.077248,0.206484,-1.132872,-0.247009,0.556354,-0.254197
1648625027,1507,1493,1493,1495,1179,1507,1493,1493,1495,1180,1500,1500,1500,1500,0.077248,0.206484,-1.132872,-0.247009,0.556354,-0.254197
1648725030,1507,1493,1493,1495,1179,1507,1493,1493,1495,1180,1500,1500,1500,1500,0.077248,0.206484,-1.132872,-0.247009,0.556354,-0.254197
1648825061,1507,1493,1493,1495,1179,1507,1493,1493,1495,1180,1500,1500,1500,1500,0.077248,0.206484,-1.132872,-0.247009,0.556354,-0.254197
1648925072,1508,1493,1493,1495,1179,1508,1493,1493,1495,1180,1500,1500,1500,1500,0.077248,0.206484,-1.132872,-0.247009,0.556354,-0.254197
