1340657596,1507,1493,1493,1494,1179,1507,1493,1493,1494,1180,1500,1500,1500,1500,0.000000,0.000000,0.000000,-0.206431,-0.002399,-0.234274
1340757628,1507,1493,1493,1494,1180,1507,1493,1493,1494,1180,1500,1500,1500,1500,0.000000,0.000000,0.000000,-0.206431,-0.002399,-0.234274
1340857633,1507,1493,1493,1495,1180,1507,1493,1493,1495,1180,1500,1500,1500,1500,0.000000,0.000000,0.000000,-0.206431,-0.002399,-0.234274
1340957639,1507,1493,1493,1494,1179,1507,1493,1493,1494,1180,1500,1500,1500,1500,0.000000,0.000000,0.000000,-0.206431,-0.002399,-0.234274
1341057662,1507,1493,1493,1494,1179,1507,1493,1493,1494,1180,1500,1500,1500,1500,0.000000,0.000000,0.000000,-0.206431,-0.002399,-0.234274
1341157680,1507,1493,1493,1494,1180,1507,1493,1493,1494,1180,1500,1500,1500,1500,0.000000,0.000000,0.000000,-0.206431,-0.002399,-0.234274
1341257706,1507,1493,1493,1494,1180,1507,1493,1493,1494,1180,1500,1500,1500,1500,0.000000,0.000000,0.000000,-0.206431,-0.002399,-0.234274
1341357719,1507,1493,1493,1494,1179,1507,1493,1493,1494,1180,1500,1500,1500,1500,0.000000,0.000000,0.000000,-0.206431,-0.002399,-0.234274
1341457731,1507,1493,1493,1494,1179,1507,1493,1493,1494,1180,1500,1500,1500,1500,0.000000,0.000000,0.000000,-0.206431,-0.002399,-0.234274
1341557738,1507,1493,1493,1494,1179,1507,1493,1493,1494,1180,1500,1500,1500,1500,0.000000,0.000000,0.000000,-0.206431,-0.002399,-0.234274
1341657748,1507,1493,1493,1494,1180,1507,1493,1493,1494,1180,1500,1500,1500,1500,0.000000,0.000000,0.000000,-0.206431,-0.002399,-0.234274
1341757779,1507,1493,1493,1494,1179,1507,1493,1493,1494,1180,1500,1500,1500,1500,0.000000,0.000000,0.000000,-0.206431,-0.002399,-0.234274
1341857792,1507,1493,1493,1494,1180,1507,1493,1493,1494,1180,1500,1500,1500,1500,0.000000,0.000000,0.000000,-0.206431,-0.002399,-0.234274
1341957815,1507,1493,1493,1494,1179,1507,1493,1493,1494,1180,1500,1500,1500,1500,0.000000,0.000000,0.000000,-0.206431,-0.002399,-0.234274
1342057840,1507,1493,1493,1494,1179,1507,1493,1493,1494,1180,1500,1500,1500,1500,0.000000,0.000000,0.000000,-0.161108,-0.036528,-0.328491
1342157856,1507,1493,1493,1494,1180,1507,1493,1493,1494,1180,1500,1500,1500,1500,0.000000,0.000000,0.000000,-0.105666,-0.032790,-0.510169
1342257861,1507,1493,1493,1494,1180,1507,1493,1493,1494,1180,1500,1500,1500,1500,0.000000,0.000000,0.000000,-0.064904,-0.027407,-0.780446
1342357867,1507,1493,1493,1494,1180,1507,1493,1493,1494,1180,1500,1500,1500,1500,0.000000,0.000000,0.000000,-0.028015,-0.048998,-1.052581
1342457891,1507,1493,1493,1495,1179,1507,1493,1493,1495,1180,1500,1500,1500,1500,0.000000,0.000000,0.000000,0.000577,-0.060393,-1.243826
1342557902,1507,1493,1493,1494,1179,1507,1493,1493,1494,1180,1500,1500,1500,1500,0.000000,0.000000,0.000000,0.017903,-0.057371,-1.356294
1342657912,1507,1493,1493,1494,1179,1507,1493,1493,1494,1180,1500,1500,1500,1500,0.000000,0.000000,0.000000,0.028452,-0.063391,-1.390196
1342757924,1507,1493,1493,1494,1180,1507,1493,1493,1494,1180,1500,1500,1500,1500,0.000000,0.000000,0.000000,0.021006,-0.088723,-1.411964
1342857950,1507,1493,1493,1494,1179,1507,1493,1493,1494,1180,1500,1500,1500,1500,0.000000,0.000000,0.000000,-0.001602,-0.095560,-1.441982
1342957966,1507,1493,1493,1494,1180,1507,1493,1493,1494,1180,1500,1500,1500,1500,0.000000,0.000000,0.000000,-0.017505,-0.093439,-1.453646
1343058002,1507,1493,1493,1494,1180,1507,1493,1493,1494,1180,1500,1500,1500,1500,0.000000,0.000000,0.000000,-0.024196,-0.089064,-1.450820
1343158035,1507,1493,1493,1494,1180,1507,1493,1493,1494,1180,1500,1500,1500,1500,0.000000,0.000000,0.000000,-0.030100,-0.083459,-1.444578
1343258064,1507,1493,1493,1494,1179,1507,1493,1493,1494,1180,1500,1500,1500,1500,0.000000,0.000000,0.000000,-0.027244,-0.077239,-1.440074
1343358069,1507,1493,1493,1494,1179,1507,1493,1493,1494,1180,1500,1500,1500,1500,0.000000,0.000000,0.000000,-0.020964,-0.074327,-1.437086
1343458080,1507,1493,1493,1494,1179,1507,1493,1493,1494,1180,1500,1500,1500,1500,0.000000,0.000000,0.000000,-0.021869,-0.080727,-1.437144
1343558113,1507,1493,1493,1494,1179,1507,1493,1493,1494,1180,1500,1500,1500,1500,0.000000,0.000000,0.000000,-0.024904,-0.083260,-1.438416
1343658139,1507,1493,1493,1494,1179,1507,1493,1493,1494,1180,1500,1500,1500,1500,0.000000,0.000000,0.000000,-0.025788,-0.082297,-1.438972
1343758171,1507,1493,1493,1494,1180,1507,1493,1493,1494,1180,1500,1500,1500,1500,0.000000,0.000000,0.000000,-0.022773,-0.080548,-1.437496
1343858197,1507,1493,1493,1494,1180,1507,1493,1493,1494,1180,1500,1500,1500,1500,0.000000,0.000000,0.000000,-0.018918,-0.077387,-1.436667
1343958202,1507,1493,1493,1494,1179,1507,1493,1493,1494,1180,1500,1500,1500,1500,0.000000,0.000000,0.000000,-0.014335,-0.079621,-1.433573
1344058225,1507,1493,1493,1494,1179,1507,1493,1493,1494,1180,1500,1500,1500,1500,0.000000,0.000000,0.000000,-0.012608,-0.084363,-1.431949
1344158252,1507,1493,1493,1494,1179,1507,1493,1493,1494,1180,1500,1500,1500,1500,-0.013272,-0.086439,-1.432201,-0.014317,-0.087201,-1.432948
1344258254,1507,1493,1493,1494,1179,1507,1493,1493,1494,1180,1500,1500,1500,1500,-0.013272,-0.086439,-1.432201,-0.016644,-0.087233,-1.433884
1344358268,1507,1493,1493,1494,1180,1507,1493,1493,1494,1180,1500,1500,1500,1500,-0.013272,-0.086439,-1.432201,-0.016091,-0.085654,-1.433130
1344458302,1507,1493,1493,1494,1179,1507,1493,1493,1494,1180,1500,1500,1500,1500,-0.013272,-0.086439,-1.432201,-0.013656,-0.082821,-1.431949
1344558318,1507,1493,1493,1494,1179,1507,1493,1493,1494,1180,1500,1500,1500,1500,-0.013272,-0.086439,-1.432201,-0.012533,-0.080554,-1.430855
1344658336,1507,1493,1493,1494,1180,1507,1493,1493,1494,1180,1500,1500,1500,1500,-0.013272,-0.086439,-1.432201,-0.014151,-0.080071,-1.431390
1344758346,1507,1493,1493,1494,1179,1507,1493,1493,1494,1180,1500,1500,1500,1500,-0.013272,-0.086439,-1.432201,-0.015674,-0.080281,-1.431579
1344858373,1507,1493,1493,1494,1179,1507,1493,1493,1494,1180,1500,1500,1500,1500,-0.013272,-0.086439,-1.432201,-0.015034,-0.080961,-1.430413
1344958376,1507,1493,1493,1494,1179,1507,1493,1493,1494,1180,1500,1500,1500,1500,-0.013272,-0.086439,-1.432201,-0.012263,-0.080681,-1.429265
1345058385,1507,1493,1493,1494,1179,1507,1493,1493,1494,1180,1500,1500,1500,1500,-0.013272,-0.086439,-1.432201,-0.012638,-0.080122,-1.428761
1345158407,1507,1493,1493,1494,1180,1507,1493,1493,1494,1180,1500,1500,1500,1500,-0.013272,-0.086439,-1.432201,-0.014482,-0.079490,-1.428677
1345258434,1507,1493,1493,1494,1180,1507,1493,1493,1494,1180,1500,1500,1500,1500,-0.013272,-0.086439,-1.432201,-0.015803,-0.077790,-1.426415
1345358456,1507,1493,1493,1494,1180,1507,1493,1493,1494,1180,1500,1500,1500,1500,-0.013272,-0.086439,-1.432201,-0.021558,-0.079992,-1.405789
1345458491,1507,1493,1493,1494,1179,1507,1493,1493,1494,1180,1500,1500,1500,1500,-0.013272,-0.086439,-1.432201,-0.034300,-0.074481,-1.342468
1345558499,1507,1493,1493,1494,1179,1507,1493,1493,1494,1180,1500,1500,1500,1500,-0.013272,-0.086439,-1.432201,-0.044520,-0.058032,-1.249659
1345658509,1507,1493,1493,1494,1179,1507,1493,1493,1494,1180,1500,1500,1500,1500,-0.013272,-0.086439,-1.432201,-0.049938,-0.038108,-1.143691
1345758533,1507,1493,1493,1494,1179,1507,1493,1493,1494,1180,1500,1500,1500,1500,-0.013272,-0.086439,-1.432201,-0.054523,-0.032594,-1.040865
1345858556,1507,1493,1493,1494,1179,1507,1493,1493,1494,1180,1500,1500,1500,1500,-0.013272,-0.086439,-1.432201,-0.057681,-0.036095,-0.948431
1345958588,1507,1493,1493,1494,1179,1507,1493,1493,1494,1180,1500,1500,1500,1500,-0.013272,-0.086439,-1.432201,-0.050031,-0.046420,-0.873394
1346058607,1507,1493,1493,1494,1179,1507,1493,1493,1494,1180,1500,1500,1500,1500,-0.013272,-0.086439,-1.432201,-0.046854,-0.063650,-0.814087
1346158609,1507,1493,1493,1494,1179,1507,1493,1493,1494,1180,1500,1500,1500,1500,-0.013272,-0.086439,-1.432201,-0.045676,-0.072696,-0.779789
1346258639,1507,1493,1493,1494,1179,1507,1493,1493,1494,1180,1500,1500,1500,1500,-0.013272,-0.086439,-1.432201,-0.042534,-0.073102,-0.765192
1346358683,1507,1493,1493,1494,1179,1507,1493,1493,1494,1180,1500,1500,1500,1500,-0.013272,-0.086439,-1.432201,-0.041263,-0.067397,-0.762376
1346458687,1507,1493,1493,1494,1179,1507,1493,1493,1494,1180,1500,1500,1500,1500,-0.013272,-0.086439,-1.432201,-0.041538,-0.065454,-0.762023
1346558696,1507,1493,1493,1494,1179,1507,1493,1493,1494,1180,1500,1500,1500,1500,-0.013272,-0.086439,-1.432201,-0.039233,-0.068340,-0.763619
1346658711,1507,1493,1493,1495,1180,1507,1493,1493,1495,1180,1500,1500,1500,1500,-0.013272,-0.086439,-1.432201,-0.034782,-0.072902,-0.767773
1346758741,1507,1493,1493,1494,1179,1507,1493,1493,1494,1180,1500,1500,1500,1500,-0.013272,-0.086439,-1.432201,-0.026885,-0.078655,-0.769471
1346858761,1507,1493,1493,1494,1179,1507,1493,1493,1494,1180,1500,1500,1500,1500,-0.013272,-0.086439,-1.432201,-0.016623,-0.086745,-0.764980
1346958789,1507,1493,1493,1494,1180,1507,1493,1493,1494,1180,1500,1500,1500,1500,-0.013272,-0.086439,-1.432201,-0.017219,-0.096142,-0.759168
1347058797,1507,1493,1493,1494,1179,1507,1493,1493,1494,1180,1500,1500,1500,1500,-0.013272,-0.086439,-1.432201,-0.027535,-0.110762,-0.756434
1347158827,1507,1493,1493,1494,1180,1507,1493,1493,1494,1180,1500,1500,1500,1500,-0.013272,-0.086439,-1.432201,-0.036456,-0.129125,-0.749664
1347258850,1507,1493,1493,1494,1179,1507,1493,1493,1494,1180,1500,1500,1500,1500,-0.013272,-0.086439,-1.432201,-0.047621,-0.142705,-0.744890
1347358889,1507,1493,1493,1495,1179,1507,1493,1493,1495,1180,1500,1500,1500,1500,-0.013272,-0.086439,-1.432201,-0.056921,-0.151605,-0.746763
1347458910,1507,1493,1493,1494,1179,1507,1493,1493,1494,1180,1500,1500,1500,1500,-0.013272,-0.086439,-1.432201,-0.062123,-0.153280,-0.747104
1347558926,1507,1493,1493,1494,1180,1507,1493,1493,1494,1180,1500,1500,1500,1500,-0.013272,-0.086439,-1.432201,-0.062633,-0.145139,-0.741634
1347658950,1507,1493,1493,1494,1180,1507,1493,1493,1494,1180,1500,1500,1500,1500,-0.013272,-0.086439,-1.432201,-0.056091,-0.136105,-0.736184
1347758967,1507,1493,1493,1496,1179,1507,1493,1493,1496,1180,1500,1500,1500,1500,-0.013272,-0.086439,-1.432201,-0.051354,-0.133536,-0.733463
1347859011,1507,1493,1493,1494,1179,1507,1493,1493,1494,1180,1500,1500,1500,1500,-0.013272,-0.086439,-1.432201,-0.050592,-0.133426,-0.732217
1347959038,1507,1493,1493,1494,1179,1507,1493,1493,1494,1180,1500,1500,1500,1500,-0.013272,-0.086439,-1.432201,-0.050855,-0.134604,-0.731939
1348059072,1507,1493,1493,1494,1179,1507,1493,1493,1494,1180,1500,1500,1500,1500,-0.013272,-0.086439,-1.432201,-0.053751,-0.136164,-0.733114
1348159088,1507,1493,1493,1494,1179,1507,1493,1493,1494,1180,1500,1500,1500,1500,-0.013272,-0.086439,-1.432201,-0.055335,-0.137545,-0.736761
1348259123,1507,1493,1493,1494,1179,1507,1493,1493,1494,1180,1500,1500,1500,1500,-0.013272,-0.086439,-1.432201,-0.056343,-0.140272,-0.744082
1348359143,1507,1493,1493,1494,1180,1507,1493,1493,1494,1180,1500,1500,1500,1500,-0.013272,-0.086439,-1.432201,-0.057232,-0.143689,-0.744244
1348459149,1507,1493,1493,1494,1180,1507,1493,1493,1494,1180,1500,1500,1500,1500,-0.013272,-0.086439,-1.432201,-0.057492,-0.144037,-0.741892
1348559158,1507,1493,1493,1494,1179,1507,1493,1493,1494,1180,1500,1500,1500,1500,-0.013272,-0.086439,-1.432201,-0.058133,-0.143713,-0.739691
1348659168,1507,1493,1493,1494,1180,1507,1493,1493,1494,1180,1500,1500,1500,1500,-0.013272,-0.086439,-1.432201,-0.057703,-0.145432,-0.736424
1348759182,1507,1493,1493,1494,1179,1507,1493,1493,1494,1180,1500,1500,1500,1500,-0.013272,-0.086439,-1.432201,-0.057519,-0.146245,-0.734770
1348859204,1507,1493,1493,1495,1179,1507,1493,1493,1495,1180,1500,1500,1500,1500,-0.013272,-0.086439,-1.432201,-0.057346,-0.145669,-0.734288
1348959240,1507,1493,1493,1494,1179,1507,1493,1493,1494,1180,1500,1500,1500,1500,-0.013272,-0.086439,-1.432201,-0.055664,-0.146499,-0.732750
1349059260,1507,1493,1493,1494,1179,1507,1493,1493,1494,1180,1500,1500,1500,1500,-0.013272,-0.086439,-1.432201,-0.054970,-0.148071,-0.732166
1349159276,1507,1493,1493,1495,1179,1507,1493,1493,1495,1180,1500,1500,1500,1500,-0.013272,-0.086439,-1.432201,-0.055446,-0.148183,-0.732004
1349259293,1507,1493,1493,1494,1180,1507,1493,1493,1494,1180,1500,1500,1500,1500,-0.013272,-0.086439,-1.432201,-0.054899,-0.149616,-0.729629
1349359321,1507,1493,1493,1494,1179,1507,1493,1493,1494,1180,1500,1500,1500,1500,-0.013272,-0.086439,-1.432201,-0.053981,-0.151172,-0.730171
1349459361,1507,1493,1493,1495,1179,1507,1493,1493,1495,1180,1500,1500,1500,1500,-0.013272,-0.086439,-1.432201,-0.055067,-0.150476,-0.732701
1349559393,1507,1493,1493,1494,1179,1507,1493,1493,1494,1180,1500,1500,1500,1500,-0.013272,-0.086439,-1.432201,-0.054758,-0.151020,-0.738326
1349659408,1507,1493,1493,1494,1179,1507,1493,1493,1494,1180,1500,1500,1500,1500,-0.013272,-0.086439,-1.432201,-0.051046,-0.152449,-0.769085
1349759429,1507,1493,1493,1494,1179,1507,1493,1493,1494,1180,1500,1500,1500,1500,-0.013272,-0.086439,-1.432201,-0.047775,-0.155786,-0.831707
1349859464,1507,1493,1493,1494,1179,1507,1493,1493,1494,1180,1500,1500,1500,1500,-0.013272,-0.086439,-1.432201,-0.043329,-0.162882,-0.906782
1349959481,1507,1493,1493,1494,1180,1507,1493,1493,1494,1180,1500,1500,1500,1500,-0.013272,-0.086439,-1.432201,-0.036495,-0.168648,-0.988252
1350059498,1507,1493,1493,1494,1179,1507,1493,1493,1494,1180,1500,1500,1500,1500,-0.013272,-0.086439,-1.432201,-0.024875,-0.167959,-1.072415
1350159529,1507,1493,1493,1494,1179,1507,1493,1493,1494,1180,1500,1500,1500,1500,-0.013272,-0.086439,-1.432201,-0.015110,-0.161407,-1.159617
1350259536,1507,1493,1493,1494,1180,1507,1493,1493,1494,1180,1500,1500,1500,1500,-0.013272,-0.086439,-1.432201,-0.011747,-0.154804,-1.245879
1350359537,1507,1493,1493,1494,1179,1507,1493,1493,1494,1180,1500,1500,1500,1500,-0.013272,-0.086439,-1.432201,-0.014718,-0.154314,-1.324540
1350459546,1507,1493,1493,1495,1179,1507,1493,1493,1495,1180,1500,1500,1500,1500,-0.013272,-0.086439,-1.432201,-0.015901,-0.163189,-1.388622
1350559572,1507,1493,1493,1494,1179,1507,1493,1493,1494,1180,1500,1500,1500,1500,-0.013272,-0.086439,-1.432201,-0.018498,-0.173706,-1.449679
1350659587,1507,1493,1493,1494,1179,1507,1493,1493,1494,1180,1500,1500,1500,1500,-0.013272,-0.086439,-1.432201,-0.017203,-0.185409,-1.501492
1350759614,1507,1493,1493,1494,1179,1507,1493,1493,1494,1180,1500,1500,1500,1500,-0.013272,-0.086439,-1.432201,-0.010830,-0.189278,-1.545449
1350859631,1507,1493,1493,1494,1180,1507,1493,1493,1494,1180,1500,1500,1500,1500,-0.013272,-0.086439,-1.432201,-0.008590,-0.188186,-1.563500
1350959682,1507,1493,1493,1495,1179,1507,1493,1493,1495,1180,1500,1500,1500,1500,-0.013272,-0.086439,-1.432201,-0.002428,-0.182305,-1.569687
1351059711,1507,1493,1493,1494,1179,1507,1493,1493,1494,1180,1500,1500,1500,1500,-0.013272,-0.086439,-1.432201,0.007309,-0.179111,-1.564306
1351159727,1507,1493,1493,1495,1179,1507,1493,1493,1495,1180,1500,1500,1500,1500,-0.013272,-0.086439,-1.432201,0.021976,-0.181316,-1.560496
1351259751,1507,1493,1493,1494,1179,1507,1493,1493,1494,1180,1500,1500,1500,1500,-0.013272,-0.086439,-1.432201,0.031102,-0.183958,-1.560422
1351359774,1507,1493,1493,1494,1179,1507,1493,1493,1494,1180,1500,1500,1500,1500,-0.013272,-0.086439,-1.432201,0.033573,-0.185185,-1.561439
1351459783,1507,1493,1493,1494,1179,1507,1493,1493,1494,1180,1500,1500,1500,1500,-0.013272,-0.086439,-1.432201,0.038154,-0.191420,-1.560364
1351559786,1507,1493,1493,1494,1179,1507,1493,1493,1494,1180,1500,1500,1500,1500,-0.013272,-0.086439,-1.432201,0.038900,-0.197050,-1.560320
1351659813,1507,1493,1493,1494,1179,1507,1493,1493,1494,1180,1500,1500,1500,1500,-0.013272,-0.086439,-1.432201,0.036509,-0.200386,-1.561620
1351759826,1507,1493,1493,1496,1179,1507,1493,1493,1496,1180,1500,1500,1500,1500,-0.013272,-0.086439,-1.432201,0.034412,-0.199995,-1.562040
1351859839,1507,1493,1493,1494,1179,1507,1493,1493,1494,1180,1500,1500,1500,1500,-0.013272,-0.086439,-1.432201,0.033576,-0.196667,-1.562581
1351959853,1507,1493,1493,1495,1179,1507,1493,1493,1495,1180,1500,1500,1500,1500,-0.013272,-0.086439,-1.432201,0.031010,-0.196678,-1.562813
1352059858,1507,1493,1493,1494,1179,1507,1493,1493,1494,1180,1500,1500,1500,1500,-0.013272,-0.086439,-1.432201,0.026744,-0.197845,-1.563421
1352159889,1507,1493,1493,1494,1180,1507,1493,1493,1494,1180,1500,1500,1500,1500,-0.013272,-0.086439,-1.432201,0.021405,-0.197287,-1.562544
1352259907,1507,1493,1493,1494,1179,1507,1493,1493,1494,1180,1500,1500,1500,1500,-0.013272,-0.086439,-1.432201,0.019789,-0.196902,-1.558195
1352359939,1507,1493,1493,1494,1180,1507,1493,1493,1494,1180,1500,1500,1500,1500,-0.013272,-0.086439,-1.432201,0.019212,-0.193133,-1.553279
1352459964,1507,1493,1493,1494,1179,1507,1493,1493,1494,1180,1500,1500,1500,1500,-0.013272,-0.086439,-1.432201,0.019000,-0.188638,-1.548541
1352559967,1507,1493,1493,1494,1179,1507,1493,1493,1494,1180,1500,1500,1500,1500,-0.013272,-0.086439,-1.432201,0.020855,-0.185366,-1.540594
1352659970,1507,1493,1493,1494,1179,1507,1493,1493,1494,1180,1500,1500,1500,1500,-0.013272,-0.086439,-1.432201,0.019729,-0.178490,-1.533740
1352759992,1507,1493,1493,1494,1179,1507,1493,1493,1494,1180,1500,1500,1500,1500,-0.013272,-0.086439,-1.432201,0.017441,-0.172936,-1.527593
1352860014,1507,1493,1493,1494,1179,1507,1493,1493,1494,1180,1500,1500,1500,1500,-0.013272,-0.086439,-1.432201,0.016386,-0.171841,-1.518992
1352960030,1507,1493,1493,1494,1179,1507,1493,1493,1494,1180,1500,1500,1500,1500,-0.013272,-0.086439,-1.432201,0.020994,-0.178428,-1.477794
1353060036,1507,1493,1493,1494,1179,1507,1493,1493,1494,1180,1500,1500,1500,1500,-0.013272,-0.086439,-1.432201,0.033191,-0.182746,-1.388874
1353160070,1507,1493,1493,1494,1179,1507,1493,1493,1494,1180,1500,1500,1500,1500,-0.013272,-0.086439,-1.432201,0.035646,-0.175555,-1.246982
1353260091,1507,1493,1493,1494,1179,1507,1493,1493,1494,1180,1500,1500,1500,1500,-0.013272,-0.086439,-1.432201,0.023618,-0.147192,-1.070471
1353360113,1507,1493,1493,1494,1179,1507,1493,1493,1494,1180,1500,1500,1500,1500,-0.013272,-0.086439,-1.432201,0.016838,-0.116611,-0.884764
1353460134,1507,1493,1493,1494,1180,1507,1493,1493,1494,1180,1500,1500,1500,1500,-0.013272,-0.086439,-1.432201,0.025025,-0.085996,-0.708857
1353560156,1507,1493,1493,1494,1179,1507,1493,1493,1494,1180,1500,1500,1500,1500,-0.013272,-0.086439,-1.432201,0.012227,-0.048712,-0.537365
1353660192,1507,1493,1493,1494,1179,1507,1493,1493,1494,1180,1500,1500,1500,1500,-0.013272,-0.086439,-1.432201,-0.013634,-0.021087,-0.411268
1353760224,1507,1493,1493,1494,1179,1507,1493,1493,1494,1180,1500,1500,1500,1500,-0.013272,-0.086439,-1.432201,-0.037107,-0.011821,-0.346775
1353860225,1507,1493,1493,1494,1179,1507,1493,1493,1494,1180,1500,1500,1500,1500,-0.013272,-0.086439,-1.432201,-0.051864,-0.015477,-0.330181
1353960236,1507,1493,1493,1494,1180,1507,1493,1493,1494,1180,1500,1500,1500,1500,-0.013272,-0.086439,-1.432201,-0.062683,-0.015183,-0.311245
1354060260,1507,1493,1493,1494,1180,1507,1493,1493,1494,1180,1500,1500,1500,1500,-0.013272,-0.086439,-1.432201,-0.070580,-0.012770,-0.289441
1354160287,1507,1493,1493,1494,1179,1507,1493,1493,1494,1180,1500,1500,1500,1500,-0.013272,-0.086439,-1.432201,-0.067773,-0.016930,-0.280747
1354260288,1507,1493,1493,1494,1179,1507,1493,1493,1494,1180,1500,1500,1500,1500,-0.013272,-0.086439,-1.432201,-0.058907,-0.021134,-0.272642
1354360301,1507,1493,1493,1494,1179,1507,1493,1493,1494,1180,1500,1500,1500,1500,-0.013272,-0.086439,-1.432201,-0.035496,-0.024433,-0.256609
1354460320,1507,1493,1493,1494,1179,1507,1493,1493,1494,1180,1500,1500,1500,1500,-0.013272,-0.086439,-1.432201,0.000120,-0.030746,-0.244079
1354560346,1507,1493,1493,1494,1180,1507,1493,1493,1494,1180,1500,1500,1500,1500,-0.013272,-0.086439,-1.432201,0.000120,-0.030746,-0.244079
1354660371,1507,1493,1493,1494,1179,1507,1493,1493,1494,1180,1500,1500,1500,1500,-0.013272,-0.086439,-1.432201,0.000120,-0.030746,-0.244079
1354760379,1507,1493,1493,1494,1179,1507,1493,1493,1494,1180,1500,1500,1500,1500,-0.013272,-0.086439,-1.432201,0.000120,-0.030746,-0.244079
1354860391,1507,1493,1493,1494,1179,1507,1493,1493,1494,1180,1500,1500,1500,1500,-0.013272,-0.086439,-1.432201,0.000120,-0.030746,-0.244079
1354960414,1507,1493,1493,1494,1179,1507,1493,1493,1494,1180,1500,1500,1500,1500,-0.013272,-0.086439,-1.432201,0.000120,-0.030746,-0.244079
1355060422,1507,1493,1493,1494,1179,1507,1493,1493,1494,1180,1500,1500,1500,1500,-0.013272,-0.086439,-1.432201,0.000120,-0.030746,-0.244079
1355160458,1507,1493,1493,1494,1179,1507,1493,1493,1494,1180,1500,1500,1500,1500,-0.013272,-0.086439,-1.432201,0.000120,-0.030746,-0.244079
1355260471,1507,1493,1493,1494,1179,1507,1493,1493,1494,1180,1500,1500,1500,1500,-0.013272,-0.086439,-1.432201,0.000120,-0.030746,-0.244079
1355360506,1507,1493,1493,1494,1180,1507,1493,1493,1494,1180,1500,1500,1500,1500,-0.013272,-0.086439,-1.432201,0.000120,-0.030746,-0.244079
1355460529,1507,1493,1493,1494,1179,1507,1493,1493,1494,1180,1500,1500,1500,1500,-0.013272,-0.086439,-1.432201,0.000120,-0.030746,-0.244079
1355560552,1507,1493,1493,1494,1180,1507,1493,1493,1494,1180,1500,1500,1500,1500,-0.013272,-0.086439,-1.432201,0.000120,-0.030746,-0.244079
1355660574,1507,1493,1493,1494,1179,1507,1493,1493,1494,1180,1500,1500,1500,1500,-0.013272,-0.086439,-1.432201,0.000120,-0.030746,-0.244079
1355760589,1507,1493,1493,1494,1180,1507,1493,1493,1494,1180,1500,1500,1500,1500,-0.013272,-0.086439,-1.432201,0.000120,-0.030746,-0.244079
1355860611,1507,1493,1493,1494,1179,1507,1493,1493,1494,1180,1500,1500,1500,1500,-0.013272,-0.086439,-1.432201,0.000120,-0.030746,-0.244079
1355960617,1507,1493,1493,1494,1180,1507,1493,1493,1494,1180,1500,1500,1500,1500,-0.013272,-0.086439,-1.432201,0.000120,-0.030746,-0.244079
1356060630,1507,1493,1493,1494,1179,1507,1493,1493,1494,1180,1500,1500,1500,1500,-0.013272,-0.086439,-1.432201,0.000120,-0.030746,-0.244079
1356160647,1507,1493,1493,1494,1179,1507,1493,1493,1494,1180,1500,1500,1500,1500,-0.013272,-0.086439,-1.432201,0.000120,-0.030746,-0.244079
1356260663,1507,1493,1493,1494,1179,1507,1493,1493,1494,1180,1500,1500,1500,1500,-0.013272,-0.086439,-1.432201,0.000120,-0.030746,-0.244079
1356360670,1507,1493,1493,1494,1179,1507,1493,1493,1494,1180,1500,1500,1500,1500,-0.013272,-0.086439,-1.432201,0.000120,-0.030746,-0.244079
1356460673,1507,1493,1493,1494,1180,1507,1493,1493,1494,1180,1500,1500,1500,1500,-0.013272,-0.086439,-1.432201,0.000120,-0.030746,-0.244079
1356560705,1507,1493,1493,1494,1179,1507,1493,1493,1494,1180,1500,1500,1500,1500,-0.013272,-0.086439,-1.432201,0.000120,-0.030746,-0.244079
1356660711,1507,1493,1493,1494,1179,1507,1493,1493,1494,1180,1500,1500,1500,1500,-0.013272,-0.086439,-1.432201,0.000120,-0.030746,-0.244079
1356760740,1507,1493,1493,1494,1180,1507,1493,1493,1494,1180,1500,1500,1500,1500,-0.013272,-0.086439,-1.432201,0.000120,-0.030746,-0.244079
1356860771,1507,1493,1493,1494,1180,1507,1493,1493,1494,1180,1500,1500,1500,1500,-0.013272,-0.086439,-1.432201,0.000120,-0.030746,-0.244079
1356960788,1507,1493,1493,1494,1180,1507,1493,1493,1494,1180,1500,1500,1500,1500,-0.013272,-0.086439,-1.432201,0.000120,-0.030746,-0.244079
1357060821,1507,1493,1493,1494,1179,1507,1493,1493,1494,1180,1500,1500,1500,1500,-0.013272,-0.086439,-1.432201,0.000120,-0.030746,-0.244079
1357160831,1507,1493,1493,1494,1179,1507,1493,1493,1494,1180,1500,1500,1500,1500,-0.013272,-0.086439,-1.432201,0.000120,-0.030746,-0.244079
1357260833,1507,1493,1493,1494,1179,1507,1493,1493,1494,1180,1500,1500,1500,1500,-0.013272,-0.086439,-1.432201,0.000120,-0.030746,-0.244079
1357360845,1507,1493,1493,1494,1180,1507,1493,1493,1494,1180,1500,1500,1500,1500,-0.013272,-0.086439,-1.432201,0.000120,-0.030746,-0.244079
1357460864,1507,1493,1493,1494,1179,1507,1493,1493,1494,1180,1500,1500,1500,1500,-0.013272,-0.086439,-1.432201,0.000120,-0.030746,-0.244079
1357560877,1507,1493,1493,1494,1180,1507,1493,1493,1494,1180,1500,1500,1500,1500,-0.013272,-0.086439,-1.432201,0.000120,-0.030746,-0.244079
1357660884,1507,1493,1493,1494,1179,1507,1493,1493,1494,1180,1500,1500,1500,1500,-0.013272,-0.086439,-1.432201,0.000120,-0.030746,-0.244079
1357760894,1507,1493,1493,1494,1179,1507,1493,1493,1494,1180,1500,1500,1500,1500,-0.013272,-0.086439,-1.432201,0.000120,-0.030746,-0.244079
1357860920,1507,1493,1493,1494,1179,1507,1493,1493,1494,1180,1500,1500,1500,1500,-0.013272,-0.086439,-1.432201,0.000120,-0.030746,-0.244079
1357960937,1507,1493,1493,1494,1179,1507,1493,1493,1494,1180,1500,1500,1500,1500,-0.013272,-0.086439,-1.432201,0.000120,-0.030746,-0.244079
1358060951,1507,1493,1493,1494,1179,1507,1493,1493,1494,1180,1500,1500,1500,1500,-0.013272,-0.086439,-1.432201,0.000120,-0.030746,-0.244079
1358160982,1507,1493,1493,1494,1179,1507,1493,1493,1494,1180,1500,1500,1500,1500,-0.013272,-0.086439,-1.432201,0.000120,-0.030746,-0.244079
1358261002,1507,1493,1493,1494,1180,1507,1493,1493,1494,1180,1500,1500,1500,1500,-0.013272,-0.086439,-1.432201,0.000120,-0.030746,-0.244079
1358361024,1507,1493,1493,1494,1179,1507,1493,1493,1494,1180,1500,1500,1500,1500,-0.013272,-0.086439,-1.432201,0.000120,-0.030746,-0.244079
1358461032,1507,1493,1493,1494,1180,1507,1493,1493,1494,1180,1500,1500,1500,1500,-0.013272,-0.086439,-1.432201,0.000120,-0.030746,-0.244079
1358561068,1507,1493,1493,1494,1179,1507,1493,1493,1494,1180,1500,1500,1500,1500,-0.013272,-0.086439,-1.432201,0.000120,-0.030746,-0.244079
1358661080,1507,1493,1493,1494,1179,1507,1493,1493,1494,1180,1500,1500,1500,1500,-0.013272,-0.086439,-1.432201,0.000120,-0.030746,-0.244079
1358761100,1507,1493,1493,1494,1180,1507,1493,1493,1494,1180,1500,1500,1500,1500,-0.013272,-0.086439,-1.432201,0.000120,-0.030746,-0.244079
1358861101,1507,1494,1493,1522,1179,1507,1494,1493,1522,1180,1500,1500,1500,1500,-0.013272,-0.086439,-1.432201,0.000120,-0.030746,-0.244079
1358961106,1507,1493,1493,1496,1179,1507,1493,1493,1496,1180,1500,1500,1500,1500,-0.013272,-0.086439,-1.432201,0.000120,-0.030746,-0.244079
1359061135,1507,1494,1493,1495,1180,1507,1494,1493,1495,1180,1500,1500,1500,1500,-0.013272,-0.086439,-1.432201,0.000120,-0.030746,-0.244079
1359161141,1441,1494,1493,1490,1179,1441,1494,1493,1490,1180,1500,1500,1500,1500,-0.013272,-0.086439,-1.432201,0.000120,-0.030746,-0.244079
1359261149,1174,1494,1493,1493,1179,1174,1494,1493,1493,1180,1500,1500,1500,1500,-0.013272,-0.086439,-1.432201,0.000120,-0.030746,-0.244079
1359361178,1074,1494,1493,1490,1180,1074,1494,1493,1490,1180,1500,1500,1500,1500,-0.013272,-0.086439,-1.432201,0.000120,-0.030746,-0.244079
1359461211,1074,1493,1493,1479,1179,1074,1493,1493,1479,1180,1500,1500,1500,1500,-0.013272,-0.086439,-1.432201,0.000120,-0.030746,-0.244079
1359561232,1074,1493,1493,1489,1179,1074,1493,1493,1489,1180,1500,1500,1500,1500,-0.013272,-0.086439,-1.432201,0.000120,-0.030746,-0.244079
1359661261,1073,1493,1493,1493,1180,1073,1493,1493,1493,1180,1500,1500,1500,1500,-0.013272,-0.086439,-1.432201,0.000120,-0.030746,-0.244079
1359761293,1073,1493,1493,1494,1180,1073,1493,1493,1494,1180,1500,1500,1500,1500,-0.013272,-0.086439,-1.432201,0.000120,-0.030746,-0.244079
1359861307,1074,1493,1493,1494,1179,1074,1493,1493,1494,1180,1500,1500,1500,1500,-0.013272,-0.086439,-1.432201,0.000120,-0.030746,-0.244079
1359961314,1073,1493,1493,1494,1180,1073,1493,1493,1494,1180,1500,1500,1500,1500,-0.013272,-0.086439,-1.432201,0.000120,-0.030746,-0.244079
1360061325,1073,1493,1493,1494,1179,1073,1493,1493,1494,1180,1500,1500,1500,1500,-0.013272,-0.086439,-1.432201,0.000120,-0.030746,-0.244079
1360161343,1073,1493,1493,1494,1179,1073,1493,1493,1494,1180,1500,1500,1500,1500,-0.013272,-0.086439,-1.432201,0.000120,-0.030746,-0.244079
1360261365,1073,1493,1493,1494,1179,1073,1493,1493,1494,1180,1500,1500,1500,1500,-0.013272,-0.086439,-1.432201,0.000120,-0.030746,-0.244079
1360361379,1073,1493,1493,1494,1179,1073,1493,1493,1494,1180,1500,1500,1500,1500,-0.013272,-0.086439,-1.432201,0.000120,-0.030746,-0.244079
1360461431,1074,1493,1493,1494,1179,1074,1493,1493,1494,1180,1500,1500,1500,1500,-0.013272,-0.086439,-1.432201,0.000120,-0.030746,-0.244079
