1808160969,1507,1493,1493,1495,1179,1507,1493,1493,1495,1180,60,30,60,0,0.000000,0.000000,0.000000,0.050035,0.074528,-0.000019
1808260988,1508,1493,1493,1495,1180,1508,1493,1493,1495,1180,60,30,60,0,0.000000,0.000000,0.000000,0.050041,0.074514,-0.000031
1808361005,1507,1493,1493,1495,1179,1507,1493,1493,1495,1180,60,30,60,0,0.000000,0.000000,0.000000,0.050033,0.074508,-0.000038
1808461023,1508,1493,1493,1496,1179,1508,1493,1493,1496,1180,60,30,60,0,0.000000,0.000000,0.000000,0.050039,0.074449,-0.000041
1808561041,1507,1493,1493,1495,1180,1507,1493,1493,1495,1180,60,30,60,0,0.000000,0.000000,0.000000,0.050022,0.074520,-0.000036
1808661072,1507,1493,1493,1495,1179,1507,1493,1493,1495,1180,60,30,60,0,0.000000,0.000000,0.000000,0.050027,0.074536,-0.000033
1808761104,1507,1493,1493,1495,1179,1507,1493,1493,1495,1180,60,30,60,0,0.000000,0.000000,0.000000,0.050028,0.074524,-0.000037
1808861118,1507,1493,1493,1495,1179,1507,1493,1493,1495,1180,60,30,60,0,0.000000,0.000000,0.000000,0.049939,0.074384,0.000066
1808961144,1507,1493,1493,1495,1179,1507,1493,1493,1495,1180,60,30,60,0,0.000000,0.000000,0.000000,0.050045,0.074511,-0.000021
1809061173,1507,1493,1493,1495,1180,1507,1493,1493,1495,1180,60,30,60,0,0.000000,0.000000,0.000000,0.050019,0.074496,-0.000038
1809161187,1507,1493,1493,1495,1180,1507,1493,1493,1495,1180,60,30,60,0,0.000000,0.000000,0.000000,0.050031,0.074515,-0.000029
1809261197,1508,1493,1493,1495,1179,1508,1493,1493,1495,1180,60,30,60,0,0.000000,0.000000,0.000000,0.050033,0.074546,-0.000027
1809361216,1507,1493,1493,1495,1179,1507,1493,1493,1495,1180,60,30,60,0,0.000000,0.000000,0.000000,0.049945,0.074370,0.000068
1809461250,1507,1493,1493,1496,1179,1507,1493,1493,1496,1180,60,30,60,0,0.000000,0.000000,0.000000,0.050042,0.074515,-0.000025
1809561301,1507,1493,1493,1495,1179,1507,1493,1493,1495,1180,60,30,60,0,0.000000,0.000000,0.000000,0.049944,0.074387,0.000061
1809661325,1507,1493,1493,1495,1179,1507,1493,1493,1495,1180,60,30,60,0,0.000000,0.000000,0.000000,0.049947,0.074387,0.000075
1809761326,1507,1493,1493,1495,1179,1507,1493,1493,1495,1180,60,30,60,0,0.000000,0.000000,0.000000,0.050041,0.074520,-0.000032
1809861344,1507,1493,1493,1495,1179,1507,1493,1493,1495,1180,60,30,60,0,0.000000,0.000000,0.000000,0.050038,0.074460,-0.000047
1809961374,1508,1493,1493,1495,1180,1508,1493,1493,1495,1180,60,30,60,0,0.000000,0.000000,0.000000,0.050019,0.074532,-0.000023
1810061416,1507,1493,1493,1495,1179,1507,1493,1493,1495,1180,60,30,60,0,0.000000,0.000000,0.000000,0.050017,0.074540,-0.000036
1810161428,1507,1493,1493,1495,1180,1507,1493,1493,1495,1180,60,30,60,0,0.000000,0.000000,0.000000,0.049932,0.074387,0.000047
1810261452,1507,1493,1493,1495,1180,1507,1493,1493,1495,1180,60,30,60,0,0.000000,0.000000,0.000000,0.049933,0.074383,0.000108
1810361465,1507,1493,1493,1495,1179,1507,1493,1493,1495,1180,60,30,60,0,0.000000,0.000000,0.000000,0.050033,0.074554,0.000022
1810461491,1507,1493,1493,1495,1179,1507,1493,1493,1495,1180,60,30,60,0,0.000000,0.000000,0.000000,0.050058,0.074453,-0.000010
1810561501,1507,1493,1493,1495,1179,1507,1493,1493,1495,1180,60,30,60,0,0.000000,0.000000,0.000000,0.050019,0.074541,-0.000046
1810661516,1507,1493,1493,1496,1179,1507,1493,1493,1496,1180,60,30,60,0,0.000000,0.000000,0.000000,0.050025,0.074534,-0.000039
1810761537,1507,1493,1493,1496,1179,1507,1493,1493,1496,1180,60,30,60,0,0.000000,0.000000,0.000000,0.050037,0.074547,-0.000004
1810861540,1508,1493,1493,1495,1179,1508,1493,1493,1495,1180,60,30,60,0,0.000000,0.000000,0.000000,0.050036,0.074543,-0.000017
1810961546,1507,1493,1493,1495,1179,1507,1493,1493,1495,1180,60,30,60,0,0.000000,0.000000,0.000000,0.049943,0.074380,0.000074
1811061561,1507,1493,1493,1495,1180,1507,1493,1493,1495,1180,60,30,60,0,0.000000,0.000000,0.000000,0.050039,0.074550,-0.000027
1811161583,1507,1493,1493,1496,1179,1507,1493,1493,1496,1180,60,30,60,0,0.000000,0.000000,0.000000,0.050046,0.074546,-0.000014
1811261617,1507,1493,1493,1496,1179,1507,1493,1493,1496,1180,60,30,60,0,0.000000,0.000000,0.000000,0.050035,0.074510,-0.000028
1811361646,1507,1493,1493,1495,1179,1507,1493,1493,1495,1180,60,30,60,0,0.000000,0.000000,0.000000,0.050019,0.074536,-0.000032
1811461674,1507,1493,1493,1495,1179,1507,1493,1493,1495,1180,60,30,60,0,0.000000,0.000000,0.000000,0.050045,0.074547,-0.000022
1811561713,1507,1493,1493,1495,1179,1507,1493,1493,1495,1180,60,30,60,0,0.000000,0.000000,0.000000,0.050039,0.074518,-0.000032
1811661732,1507,1493,1493,1496,1179,1507,1493,1493,1496,1180,60,30,60,0,0.000000,0.000000,0.000000,0.050039,0.074444,-0.000049
1811761734,1507,1493,1493,1495,1179,1507,1493,1493,1495,1180,60,30,60,0,0.000000,0.000000,0.000000,0.050034,0.074486,-0.000016
1811861772,1508,1493,1493,1495,1179,1508,1493,1493,1495,1180,60,30,60,0,0.000000,0.000000,0.000000,0.050043,0.074502,-0.000027
1811961807,1507,1493,1493,1495,1179,1507,1493,1493,1495,1180,60,30,60,0,0.000000,0.000000,0.000000,0.050109,0.074434,-0.000081
1812061842,1507,1493,1493,1495,1179,1507,1493,1493,1495,1180,60,30,60,0,0.000000,0.000000,0.000000,0.049947,0.074355,0.000076
1812161857,1507,1493,1493,1495,1179,1507,1493,1493,1495,1180,60,30,60,0,0.000000,0.000000,0.000000,0.050031,0.074442,-0.000043
1812261882,1507,1493,1493,1495,1179,1507,1493,1493,1495,1180,60,30,60,0,0.000000,0.000000,0.000000,0.050039,0.074521,-0.000008
1812361920,1507,1493,1493,1495,1179,1507,1493,1493,1495,1180,60,30,60,0,0.000000,0.000000,0.000000,0.050035,0.074522,-0.000018
1812461921,1507,1493,1493,1496,1179,1507,1493,1493,1496,1180,60,30,60,0,0.000000,0.000000,0.000000,0.050038,0.074548,-0.000020
1812561948,1507,1493,1493,1495,1180,1507,1493,1493,1495,1180,60,30,60,0,0.000000,0.000000,0.000000,0.050042,0.074471,-0.000013
1812661970,1507,1493,1493,1495,1180,1507,1493,1493,1495,1180,60,30,60,0,0.000000,0.000000,0.000000,0.050055,0.074444,-0.000019
1812761972,1507,1493,1493,1495,1179,1507,1493,1493,1495,1180,60,30,60,0,0.000000,0.000000,0.000000,0.050032,0.074551,-0.000036
1812861978,1507,1493,1493,1495,1179,1507,1493,1493,1495,1180,60,30,60,0,0.000000,0.000000,0.000000,0.050048,0.074541,-0.000021
1812961986,1507,1493,1493,1495,1179,1507,1493,1493,1495,1180,60,30,60,0,0.000000,0.000000,0.000000,0.050053,0.074433,-0.000029
1813061989,1507,1493,1493,1495,1180,1507,1493,1493,1495,1180,60,30,60,0,0.000000,0.000000,0.000000,0.050104,0.074414,-0.000070
1813162016,1507,1493,1493,1496,1179,1507,1493,1493,1496,1180,60,30,60,0,0.000000,0.000000,0.000000,0.050041,0.074535,-0.000021
