644885159,1508,1493,1493,1494,1179,1508,1493,1493,1494,1180,1500,1500,1500,1500,0.000000,0.000000,0.000000,-0.111645,0.049411,0.002043
644985203,1508,1493,1493,1494,1179,1508,1493,1493,1494,1180,1500,1500,1500,1500,0.000000,0.000000,0.000000,-0.111632,0.049402,0.002058
645085219,1508,1493,1493,1494,1179,1508,1493,1493,1494,1180,1500,1500,1500,1500,0.000000,0.000000,0.000000,-0.111629,0.049396,0.002060
645185247,1508,1493,1493,1494,1179,1508,1493,1493,1494,1180,1500,1500,1500,1500,0.000000,0.000000,0.000000,-0.111637,0.049402,0.002041
645285272,1508,1493,1494,1494,1179,1508,1493,1494,1494,1180,1500,1500,1500,1500,0.000000,0.000000,0.000000,-0.111626,0.049405,0.002061
645385281,1508,1493,1494,1495,1179,1508,1493,1494,1495,1180,1500,1500,1500,1500,0.000000,0.000000,0.000000,-0.111656,0.049395,0.002044
645485287,1508,1493,1493,1494,1180,1508,1493,1493,1494,1180,1500,1500,1500,1500,0.000000,0.000000,0.000000,-0.111636,0.049405,0.002051
645585310,1508,1493,1494,1494,1179,1508,1493,1494,1494,1180,1500,1500,1500,1500,0.000000,0.000000,0.000000,-0.111646,0.049399,0.002043
645685335,1508,1493,1494,1494,1180,1508,1493,1494,1494,1180,1500,1500,1500,1500,0.000000,0.000000,0.000000,-0.111639,0.049403,0.002048
645785357,1508,1493,1494,1495,1179,1508,1493,1494,1495,1180,1500,1500,1500,1500,0.000000,0.000000,0.000000,-0.111653,0.049407,0.002041
645885378,1509,1493,1493,1494,1179,1509,1493,1493,1494,1180,1500,1500,1500,1500,0.000000,0.000000,0.000000,-0.111638,0.049404,0.002045
645985385,1508,1493,1493,1496,1179,1508,1493,1493,1496,1180,1500,1500,1500,1500,0.000000,0.000000,0.000000,-0.111604,0.049376,0.002074
646085401,1508,1493,1493,1494,1180,1508,1493,1493,1494,1180,1500,1500,1500,1500,0.000000,0.000000,0.000000,-0.111634,0.049417,0.002056
646185412,1508,1493,1493,1494,1179,1508,1493,1493,1494,1180,1500,1500,1500,1500,0.000000,0.000000,0.000000,-0.111632,0.049411,0.002044
646285455,1508,1493,1493,1494,1179,1508,1493,1493,1494,1180,1500,1500,1500,1500,0.000000,0.000000,0.000000,-0.111602,0.049382,0.002066
646385488,1509,1493,1493,1494,1179,1509,1493,1493,1494,1180,1500,1500,1500,1500,0.000000,0.000000,0.000000,-0.111651,0.049416,0.002029
646485522,1508,1493,1493,1496,1179,1508,1493,1493,1496,1180,1500,1500,1500,1500,0.000000,0.000000,0.000000,-0.111648,0.049409,0.002042
646585539,1508,1493,1493,1494,1180,1508,1493,1493,1494,1180,1500,1500,1500,1500,0.000000,0.000000,0.000000,-0.111646,0.049400,0.002045
646685574,1508,1493,1493,1494,1180,1508,1493,1493,1494,1180,1500,1500,1500,1500,0.000000,0.000000,0.000000,-0.111619,0.049377,0.002055
646785590,1508,1493,1493,1494,1179,1508,1493,1493,1494,1180,1500,1500,1500,1500,0.000000,0.000000,0.000000,-0.111624,0.049370,0.002062
646885615,1508,1493,1493,1494,1179,1508,1493,1493,1494,1180,1500,1500,1500,1500,0.000000,0.000000,0.000000,-0.111620,0.049381,0.002070
646985632,1508,1493,1493,1494,1179,1508,1493,1493,1494,1180,1500,1500,1500,1500,0.000000,0.000000,0.000000,-0.111631,0.049421,0.002034
647085637,1509,1493,1495,1495,1179,1509,1493,1495,1495,1180,1500,1500,1500,1500,0.000000,0.000000,0.000000,-0.111651,0.049413,0.002019
647185664,1508,1493,1493,1494,1179,1508,1493,1493,1494,1180,1500,1500,1500,1500,0.000000,0.000000,0.000000,-0.111643,0.049404,0.002040
647285699,1508,1493,1493,1494,1179,1508,1493,1493,1494,1180,1500,1500,1500,1500,0.000000,0.000000,0.000000,-0.111606,0.049371,0.002099
647385729,1508,1493,1493,1495,1179,1508,1493,1493,1495,1180,1500,1500,1500,1500,0.000000,0.000000,0.000000,-0.111662,0.049416,0.002026
647485735,1508,1493,1493,1494,1180,1508,1493,1493,1494,1180,1500,1500,1500,1500,0.000000,0.000000,0.000000,-0.111603,0.049367,0.002082
647585745,1508,1493,1493,1494,1180,1508,1493,1493,1494,1180,1500,1500,1500,1500,0.000000,0.000000,0.000000,-0.111635,0.049413,0.002041
647685755,1509,1493,1495,1495,1179,1509,1493,1495,1495,1180,1500,1500,1500,1500,0.000000,0.000000,0.000000,-0.111638,0.049405,0.002055
647785765,1509,1493,1495,1495,1179,1509,1493,1495,1495,1180,1500,1500,1500,1500,0.000000,0.000000,0.000000,-0.111603,0.049383,0.002071
647885784,1508,1493,1493,1494,1179,1508,1493,1493,1494,1180,1500,1500,1500,1500,0.000000,0.000000,0.000000,-0.111595,0.049379,0.002082
647985809,1508,1493,1493,1495,1179,1508,1493,1493,1495,1180,1500,1500,1500,1500,0.000000,0.000000,0.000000,-0.111590,0.049378,0.002077
648085824,1508,1493,1494,1494,1179,1508,1493,1494,1494,1180,1500,1500,1500,1500,0.000000,0.000000,0.000000,-0.111656,0.049396,0.002036
648185825,1508,1493,1493,1494,1179,1508,1493,1493,1494,1180,1500,1500,1500,1500,0.000000,0.000000,0.000000,-0.111592,0.049370,0.002085
648285828,1509,1493,1494,1494,1179,1509,1493,1494,1494,1180,1500,1500,1500,1500,0.000000,0.000000,0.000000,-0.111589,0.049369,0.002072
648385834,1508,1493,1493,1494,1179,1508,1493,1493,1494,1180,1500,1500,1500,1500,0.000000,0.000000,0.000000,-0.111618,0.049361,0.002074
648485845,1508,1493,1493,1494,1180,1508,1493,1493,1494,1180,1500,1500,1500,1500,0.000000,0.000000,0.000000,-0.111632,0.049404,0.002045
648585878,1508,1493,1494,1494,1179,1508,1493,1494,1494,1180,1500,1500,1500,1500,0.000000,0.000000,0.000000,-0.111652,0.049409,0.002030
648685887,1508,1493,1494,1494,1180,1508,1493,1494,1494,1180,1500,1500,1500,1500,0.000000,0.000000,0.000000,-0.111616,0.049357,0.002062
648785907,1508,1493,1494,1494,1179,1508,1493,1494,1494,1180,1500,1500,1500,1500,0.000000,0.000000,0.000000,-0.111580,0.049372,0.002094
648885931,1508,1493,1493,1494,1179,1508,1493,1493,1494,1180,1500,1500,1500,1500,0.000000,0.000000,0.000000,-0.111641,0.049414,0.002028
648985944,1508,1493,1494,1494,1179,1508,1493,1494,1494,1180,1500,1500,1500,1500,0.000000,0.000000,0.000000,-0.111644,0.049409,0.002047
649085972,1508,1493,1494,1494,1180,1508,1493,1494,1494,1180,1500,1500,1500,1500,0.000000,0.000000,0.000000,-0.111641,0.049399,0.002067
649185989,1509,1493,1493,1495,1179,1509,1493,1493,1495,1180,1500,1500,1500,1500,0.000000,0.000000,0.000000,-0.111633,0.049418,0.002043
649286021,1508,1493,1493,1494,1179,1508,1493,1493,1494,1180,1500,1500,1500,1500,0.000000,0.000000,0.000000,-0.111629,0.049401,0.002050
649386039,1508,1493,1493,1494,1179,1508,1493,1493,1494,1180,1500,1500,1500,1500,0.000000,0.000000,0.000000,-0.111618,0.049384,0.002072
649486063,1508,1493,1493,1494,1180,1508,1493,1493,1494,1180,1500,1500,1500,1500,0.000000,0.000000,0.000000,-0.111654,0.049408,0.002042
649586074,1508,1493,1494,1494,1179,1508,1493,1494,1494,1180,1500,1500,1500,1500,0.000000,0.000000,0.000000,-0.111581,0.049380,0.002094
649686081,1509,1493,1494,1495,1179,1509,1493,1494,1495,1180,1500,1500,1500,1500,0.000000,0.000000,0.000000,-0.111659,0.049400,0.002039
649786103,1508,1493,1493,1495,1179,1508,1493,1493,1495,1180,1500,1500,1500,1500,0.000000,0.000000,0.000000,-0.111663,0.049410,0.002034
649886120,1508,1494,1493,1494,1179,1508,1494,1493,1494,1180,1500,1500,1500,1500,0.000000,0.000000,0.000000,-0.111621,0.049376,0.002072
649986123,1508,1494,1493,1494,1180,1508,1494,1493,1494,1180,1500,1500,1500,1500,0.000000,0.000000,0.000000,-0.111596,0.049370,0.002093
650086151,1508,1493,1494,1494,1179,1508,1493,1494,1494,1180,1500,1500,1500,1500,0.000000,0.000000,0.000000,-0.111652,0.049402,0.002045
650186161,1508,1493,1493,1495,1179,1508,1493,1493,1495,1180,1500,1500,1500,1500,0.000000,0.000000,0.000000,-0.111635,0.049406,0.002057
650286166,1508,1493,1493,1495,1179,1508,1493,1493,1495,1180,1500,1500,1500,1500,0.000000,0.000000,0.000000,-0.111598,0.049375,0.002082
650386170,1508,1494,1493,1494,1180,1508,1494,1493,1494,1180,1500,1500,1500,1500,0.000000,0.000000,0.000000,-0.111587,0.049383,0.002094
650486196,1508,1493,1493,1494,1179,1508,1493,1493,1494,1180,1500,1500,1500,1500,0.000000,0.000000,0.000000,-0.111613,0.049380,0.002089
650586212,1508,1493,1493,1494,1180,1508,1493,1493,1494,1180,1500,1500,1500,1500,0.000000,0.000000,0.000000,-0.111635,0.049419,0.002040
650686237,1509,1493,1493,1496,1179,1509,1493,1493,1496,1180,1500,1500,1500,1500,0.000000,0.000000,0.000000,-0.111638,0.049433,0.002023
650786249,1508,1493,1494,1494,1179,1508,1493,1494,1494,1180,1500,1500,1500,1500,0.000000,0.000000,0.000000,-0.111595,0.049378,0.002082
650886279,1508,1493,1493,1494,1180,1508,1493,1493,1494,1180,1500,1500,1500,1500,0.000000,0.000000,0.000000,-0.111597,0.049388,0.002082
650986313,1508,1493,1493,1494,1179,1508,1493,1493,1494,1180,1500,1500,1500,1500,0.000000,0.000000,0.000000,-0.111645,0.049407,0.002051
651086349,1508,1493,1495,1494,1179,1508,1493,1495,1494,1180,1500,1500,1500,1500,0.000000,0.000000,0.000000,-0.111644,0.049415,0.002060
651186360,1508,1493,1493,1494,1179,1508,1493,1493,1494,1180,1500,1500,1500,1500,0.000000,0.000000,0.000000,-0.111592,0.049380,0.002098
651286382,1508,1493,1493,1494,1179,1508,1493,1493,1494,1180,1500,1500,1500,1500,0.000000,0.000000,0.000000,-0.111590,0.049385,0.002099
651386397,1508,1493,1493,1494,1179,1508,1493,1493,1494,1180,1500,1500,1500,1500,0.000000,0.000000,0.000000,-0.111638,0.049436,0.002030
651486417,1508,1493,1494,1495,1179,1508,1493,1494,1495,1180,1500,1500,1500,1500,0.000000,0.000000,0.000000,-0.111593,0.049377,0.002092
651586429,1508,1493,1494,1494,1179,1508,1493,1494,1494,1180,1500,1500,1500,1500,0.000000,0.000000,0.000000,-0.111582,0.049380,0.002101
651686450,1508,1493,1493,1494,1179,1508,1493,1493,1494,1180,1500,1500,1500,1500,0.000000,0.000000,0.000000,-0.111634,0.049413,0.002046
651786472,1508,1493,1493,1495,1179,1508,1493,1493,1495,1180,1500,1500,1500,1500,0.000000,0.000000,0.000000,-0.111901,0.049399,0.001074
651886502,1508,1493,1493,1494,1180,1508,1493,1493,1494,1180,1500,1500,1500,1500,0.000000,0.000000,0.000000,-0.112062,0.049535,0.000890
651986508,1508,1493,1493,1494,1179,1508,1493,1493,1494,1180,1500,1500,1500,1500,0.000000,0.000000,0.000000,-0.111908,0.049110,0.002361
652086536,1508,1493,1493,1495,1179,1508,1493,1493,1495,1180,1500,1500,1500,1500,0.000000,0.000000,0.000000,-0.111446,0.049048,0.002741
652186560,1508,1493,1493,1494,1180,1508,1493,1493,1494,1180,1500,1500,1500,1500,0.000000,0.000000,0.000000,-0.111718,0.049509,0.001251
652286568,1508,1493,1493,1494,1179,1508,1493,1493,1494,1180,1500,1500,1500,1500,0.000000,0.000000,0.000000,-0.112837,0.047069,-0.002639
652386601,1508,1493,1493,1494,1179,1508,1493,1493,1494,1180,1500,1500,1500,1500,0.000000,0.000000,0.000000,-0.116835,0.039778,-0.019361
652486642,1508,1493,1493,1494,1179,1508,1493,1493,1494,1180,1500,1500,1500,1500,0.000000,0.000000,0.000000,-0.126417,0.058099,-0.015692
652586646,1509,1493,1495,1495,1179,1509,1493,1495,1495,1180,1500,1500,1500,1500,0.000000,0.000000,0.000000,-0.122810,0.076820,-0.039798
652686666,1508,1493,1493,1494,1179,1508,1493,1493,1494,1180,1500,1500,1500,1500,0.000000,0.000000,0.000000,-0.128860,0.082966,-0.117308
652786669,1508,1493,1493,1494,1180,1508,1493,1493,1494,1180,1500,1500,1500,1500,0.000000,0.000000,0.000000,-0.125157,0.077235,-0.276872
652886675,1508,1493,1494,1494,1180,1508,1493,1494,1494,1180,1500,1500,1500,1500,0.000000,0.000000,0.000000,-0.118717,0.045197,-0.427451
652986688,1508,1493,1494,1494,1180,1508,1493,1494,1494,1180,1500,1500,1500,1500,0.000000,0.000000,0.000000,-0.120479,0.049444,-0.501735
653086717,1508,1493,1494,1494,1180,1508,1493,1494,1494,1180,1500,1500,1500,1500,0.000000,0.000000,0.000000,-0.118256,0.063273,-0.558584
653186749,1508,1493,1493,1494,1179,1508,1493,1493,1494,1180,1500,1500,1500,1500,0.000000,0.000000,0.000000,-0.108732,0.070089,-0.596627
653286784,1509,1493,1493,1495,1179,1509,1493,1493,1495,1180,1500,1500,1500,1500,0.000000,0.000000,0.000000,-0.087249,0.076872,-0.601003
653386800,1508,1493,1493,1495,1179,1508,1493,1493,1495,1180,1500,1500,1500,1500,0.000000,0.000000,0.000000,-0.084127,0.078715,-0.613905
653486810,1508,1493,1493,1494,1180,1508,1493,1493,1494,1180,1499,1500,1500,1500,-0.088217,0.073514,-0.628708,-0.088908,0.070264,-0.634764
653586823,1508,1493,1493,1494,1179,1508,1493,1493,1494,1180,1499,1500,1500,1500,-0.088217,0.073514,-0.628708,-0.090276,0.062423,-0.647372
653686845,1509,1493,1494,1495,1179,1509,1493,1494,1495,1180,1499,1500,1500,1500,-0.088217,0.073514,-0.628708,-0.089714,0.063007,-0.653176
653786864,1509,1493,1494,1495,1179,1509,1493,1494,1495,1180,1499,1500,1500,1500,-0.088217,0.073514,-0.628708,-0.089498,0.066016,-0.654351
653886882,1508,1493,1493,1494,1180,1508,1493,1493,1494,1180,1499,1500,1500,1500,-0.088217,0.073514,-0.628708,-0.089695,0.069395,-0.648327
653986900,1508,1493,1493,1494,1179,1508,1493,1493,1494,1180,1499,1500,1500,1500,-0.088217,0.073514,-0.628708,-0.089622,0.072926,-0.641705
654086924,1508,1493,1493,1494,1179,1508,1493,1493,1494,1180,1499,1500,1500,1500,-0.088217,0.073514,-0.628708,-0.091031,0.074698,-0.639686
654186948,1509,1493,1493,1494,1179,1509,1493,1493,1494,1180,1499,1500,1500,1500,-0.088217,0.073514,-0.628708,-0.091422,0.076777,-0.639009
654286967,1508,1493,1493,1494,1179,1508,1493,1493,1494,1180,1499,1500,1500,1500,-0.088217,0.073514,-0.628708,-0.090421,0.079559,-0.636612
654386995,1508,1493,1493,1494,1179,1508,1493,1493,1494,1180,1499,1500,1500,1500,-0.088217,0.073514,-0.628708,-0.090996,0.080693,-0.635554
654487028,1509,1493,1494,1495,1179,1509,1493,1494,1495,1180,1499,1500,1500,1500,-0.088217,0.073514,-0.628708,-0.094315,0.079720,-0.637290
654587058,1508,1493,1493,1494,1179,1508,1493,1493,1494,1180,1499,1500,1500,1500,-0.088217,0.073514,-0.628708,-0.095916,0.078263,-0.639668
654687061,1508,1494,1493,1494,1180,1508,1494,1493,1494,1180,1499,1500,1500,1500,-0.088217,0.073514,-0.628708,-0.095179,0.078793,-0.638761
654787072,1508,1493,1494,1494,1179,1508,1493,1494,1494,1180,1499,1500,1500,1500,-0.088217,0.073514,-0.628708,-0.096376,0.079277,-0.636623
654887096,1508,1493,1493,1494,1179,1508,1493,1493,1494,1180,1499,1500,1500,1500,-0.088217,0.073514,-0.628708,-0.098845,0.079617,-0.634992
654987097,1509,1493,1495,1495,1179,1509,1493,1495,1495,1180,1499,1500,1500,1500,-0.088217,0.073514,-0.628708,-0.101159,0.079342,-0.634882
655087103,1508,1493,1495,1494,1179,1508,1493,1495,1494,1180,1499,1500,1500,1500,-0.088217,0.073514,-0.628708,-0.101286,0.079386,-0.635493
655187104,1508,1493,1493,1495,1179,1508,1493,1493,1495,1180,1499,1500,1500,1500,-0.088217,0.073514,-0.628708,-0.100620,0.079126,-0.636099
655287122,1508,1494,1493,1494,1180,1508,1494,1493,1494,1180,1499,1500,1500,1500,-0.088217,0.073514,-0.628708,-0.100251,0.077976,-0.636492
655387153,1508,1493,1493,1494,1180,1508,1493,1493,1494,1180,1499,1500,1500,1500,-0.088217,0.073514,-0.628708,-0.097553,0.074316,-0.636720
655487189,1508,1493,1494,1494,1179,1508,1493,1494,1494,1180,1499,1500,1500,1500,-0.088217,0.073514,-0.628708,-0.062924,0.067401,-0.642342
655587216,1508,1493,1494,1494,1180,1508,1493,1494,1494,1180,1499,1500,1500,1500,-0.088217,0.073514,-0.628708,0.019558,0.054926,-0.655327
655687224,1508,1493,1494,1495,1179,1508,1493,1494,1495,1180,1499,1500,1499,1500,-0.088217,0.073514,-0.628708,0.119213,0.045095,-0.666347
655787256,1508,1493,1493,1494,1179,1508,1493,1493,1494,1180,1499,1499,1499,1500,-0.088217,0.073514,-0.628708,0.186927,0.039301,-0.669599
655887279,1508,1493,1493,1494,1179,1508,1493,1493,1494,1180,1499,1499,1499,1500,-0.088217,0.073514,-0.628708,0.176270,0.039133,-0.679799
655987305,1508,1493,1494,1495,1179,1508,1493,1494,1495,1180,1499,1499,1499,1500,-0.088217,0.073514,-0.628708,0.096561,0.045805,-0.684399
656087314,1508,1493,1493,1494,1179,1508,1493,1493,1494,1180,1499,1499,1499,1500,-0.088217,0.073514,-0.628708,-0.010199,0.055107,-0.681795
656187342,1508,1493,1493,1494,1179,1508,1493,1493,1494,1180,1499,1499,1499,1500,-0.088217,0.073514,-0.628708,-0.135710,0.065523,-0.671841
656287353,1508,1493,1494,1495,1179,1508,1493,1494,1495,1180,1498,1499,1499,1500,-0.088217,0.073514,-0.628708,-0.260192,0.066081,-0.659978
656387374,1508,1493,1493,1495,1179,1508,1493,1493,1495,1180,1498,1499,1499,1500,-0.088217,0.073514,-0.628708,-0.347306,0.057969,-0.651716
656487391,1508,1493,1493,1494,1179,1508,1493,1493,1494,1180,1498,1499,1499,1500,-0.088217,0.073514,-0.628708,-0.381485,0.053504,-0.656730
656587422,1508,1493,1493,1494,1179,1508,1493,1493,1494,1180,1498,1499,1500,1500,-0.088217,0.073514,-0.628708,-0.348889,0.058136,-0.666696
656687452,1508,1493,1494,1495,1179,1508,1493,1494,1495,1180,1498,1499,1500,1500,-0.088217,0.073514,-0.628708,-0.265686,0.071997,-0.664693
656787482,1508,1493,1495,1494,1179,1508,1493,1495,1494,1180,1498,1499,1500,1500,-0.088217,0.073514,-0.628708,-0.156720,0.083989,-0.659118
656887487,1508,1493,1495,1494,1180,1508,1493,1495,1494,1180,1498,1499,1500,1500,-0.088217,0.073514,-0.628708,-0.042359,0.086444,-0.661402
656987495,1508,1493,1493,1494,1179,1508,1493,1493,1494,1180,1498,1499,1500,1500,-0.088217,0.073514,-0.628708,0.065754,0.083303,-0.664067
657087511,1508,1493,1494,1494,1179,1508,1493,1494,1494,1180,1498,1499,1500,1500,-0.088217,0.073514,-0.628708,0.153060,0.078931,-0.657576
657187521,1508,1493,1494,1494,1179,1508,1493,1494,1494,1180,1498,1499,1499,1500,-0.088217,0.073514,-0.628708,0.219207,0.071656,-0.648918
657287547,1508,1493,1493,1495,1179,1508,1493,1493,1495,1180,1498,1499,1499,1500,-0.088217,0.073514,-0.628708,0.231402,0.066168,-0.650160
657387555,1508,1493,1494,1494,1180,1508,1493,1494,1494,1180,1498,1499,1499,1500,-0.088217,0.073514,-0.628708,0.187978,0.067970,-0.651962
657487557,1508,1494,1493,1494,1180,1508,1494,1493,1494,1180,1498,1499,1498,1500,-0.088217,0.073514,-0.628708,0.103494,0.076044,-0.648075
