1425246348.856038,0.000000,0.000000,0.000000,0.000000,0.000000,0.000000,0.000000,5.000000,1500,1500,1500,1500
1425246348.856038,0.000000,0.000000,0.000000,0.000000,0.000000,0.000000,0.000000,5.000000,1500,1500,1500,1500
1425246348.920524,0.126560,0.388747,-0.006054,-0.049026,0.000000,0.000000,0.000000,5.000000,1475,1560,1440,1500
1425246348.928427,0.126554,0.388732,-0.006078,-0.048867,0.000000,0.000000,0.000000,5.000000,1499,1500,1500,1500
1425246348.941813,0.126556,0.388679,-0.006092,-0.048751,0.000000,0.000000,0.000000,5.000000,1499,1499,1500,1500
1425246348.950929,0.126565,0.388767,-0.006045,-0.048967,0.000000,0.000000,0.000000,5.000000,1500,1500,1499,1500
1425246348.954727,0.126560,0.388750,-0.006051,-0.049029,0.000000,0.000000,0.000000,5.000000,1499,1499,1499,1500
1425246348.954727,0.126560,0.388750,-0.006051,-0.049029,0.000000,0.000000,0.000000,5.000000,1499,1500,1499,1500
1425246348.985358,0.126294,0.388982,-0.005624,-0.051199,0.000000,0.000000,0.000000,5.000000,1501,1499,1497,1500
1425246348.994407,0.126294,0.388979,-0.005621,-0.051220,0.000000,0.000000,0.000000,5.000000,1500,1500,1499,1500
1425246349.003739,0.126292,0.388898,-0.005618,-0.051283,0.000000,0.000000,0.000000,5.000000,1500,1499,1499,1500
1425246349.016250,0.126282,0.388967,-0.005612,-0.051146,0.000000,0.000000,0.000000,5.000000,1500,1500,1500,1500
1425246349.024892,0.126287,0.388917,-0.005635,-0.051080,0.000000,0.000000,0.000000,5.000000,1499,1499,1500,1500
1425246349.029229,0.126302,0.388926,-0.005623,-0.051018,0.000000,0.000000,0.000000,5.000000,1500,1500,1500,1500
1425246349.056186,0.126286,0.388962,-0.005615,-0.051138,0.000000,0.000000,0.000000,5.000000,1500,1500,1499,1500
1425246349.056186,0.126286,0.388962,-0.005615,-0.051138,0.000000,0.000000,0.000000,5.000000,1499,1500,1499,1500
1425246349.056186,0.126286,0.388962,-0.005615,-0.051138,0.000000,0.000000,0.000000,5.000000,1499,1500,1499,1500
1425246349.086517,0.126550,0.388652,-0.006006,-0.048778,0.000000,0.000000,0.000000,5.000000,1498,1500,1502,1500
1425246349.099639,0.126550,0.388668,-0.005991,-0.048752,0.000000,0.000000,0.000000,5.000000,1500,1500,1500,1500
1425246349.108233,0.126544,0.388693,-0.006010,-0.048868,0.000000,0.000000,0.000000,5.000000,1499,1500,1499,1500
1425246349.117223,0.126544,0.388659,-0.005996,-0.048836,0.000000,0.000000,0.000000,5.000000,1500,1499,1500,1500
1425246349.130313,0.126529,0.388746,-0.006002,-0.048914,0.000000,0.000000,0.000000,5.000000,1499,1500,1499,1500
1425246349.139371,0.126546,0.388658,-0.005998,-0.048789,0.000000,0.000000,0.000000,5.000000,1500,1499,1500,1500
1425246349.147586,0.126545,0.388743,-0.005989,-0.048928,0.000000,0.000000,0.000000,5.000000,1500,1500,1499,1500
1425246349.156775,0.126270,0.388301,-0.005667,-0.051543,0.000000,0.000000,0.000000,5.000000,1501,1496,1497,1500
1425246349.156775,0.126270,0.388301,-0.005667,-0.051543,0.000000,0.000000,0.000000,5.000000,1499,1500,1499,1500
1425246349.182861,0.126282,0.388958,-0.005629,-0.051363,0.000000,0.000000,0.000000,5.000000,1500,1502,1500,1500
1425246349.191998,0.126278,0.388945,-0.005633,-0.051291,0.000000,0.000000,0.000000,5.000000,1499,1500,1500,1500
1425246349.204948,0.126251,0.388897,-0.005640,-0.051295,0.000000,0.000000,0.000000,5.000000,1499,1499,1500,1500
1425246349.213470,0.126284,0.388893,-0.005618,-0.051239,0.000000,0.000000,0.000000,5.000000,1500,1500,1499,1500
1425246349.222300,0.126276,0.388950,-0.005622,-0.051123,0.000000,0.000000,0.000000,5.000000,1499,1500,1500,1500
1425246349.232757,0.126542,0.388689,-0.005995,-0.048963,0.000000,0.000000,0.000000,5.000000,1498,1500,1502,1500
1425246349.245629,0.126279,0.388973,-0.005628,-0.051076,0.000000,0.000000,0.000000,5.000000,1501,1499,1497,1500
1425246349.254494,0.126293,0.388976,-0.005609,-0.051129,0.000000,0.000000,0.000000,5.000000,1500,1500,1499,1500
1425246349.254494,0.126293,0.388976,-0.005609,-0.051129,0.000000,0.000000,0.000000,5.000000,1499,1500,1499,1500
1425246349.254494,0.126293,0.388976,-0.005609,-0.051129,0.000000,0.000000,0.000000,5.000000,1499,1500,1499,1500
1425246349.288939,0.126292,0.388887,-0.005611,-0.051150,0.000000,0.000000,0.000000,5.000000,1499,1499,1499,1500
1425246349.297339,0.126293,0.388981,-0.005604,-0.051206,0.000000,0.000000,0.000000,5.000000,1500,1500,1499,1500
1425246349.310473,0.126291,0.388966,-0.005613,-0.051168,0.000000,0.000000,0.000000,5.000000,1499,1500,1500,1500
1425246349.319709,0.126294,0.388960,-0.005615,-0.051144,0.000000,0.000000,0.000000,5.000000,1499,1500,1500,1500
1425246349.328053,0.126280,0.388866,-0.005618,-0.051371,0.000000,0.000000,0.000000,5.000000,1499,1499,1499,1500
1425246349.341204,0.126308,0.388979,-0.005596,-0.051141,0.000000,0.000000,0.000000,5.000000,1500,1500,1500,1500
1425246349.349956,0.126279,0.388893,-0.005618,-0.051186,0.000000,0.000000,0.000000,5.000000,1499,1499,1500,1500
1425246349.354445,0.126292,0.388967,-0.005611,-0.051098,0.000000,0.000000,0.000000,5.000000,1500,1500,1500,1500
1425246349.354445,0.126292,0.388967,-0.005611,-0.051098,0.000000,0.000000,0.000000,5.000000,1499,1500,1499,1500
1425246349.384753,0.126270,0.388937,-0.005622,-0.051249,0.000000,0.000000,0.000000,5.000000,1499,1499,1499,1500
1425246349.397603,0.126322,0.388943,-0.005592,-0.051173,0.000000,0.000000,0.000000,5.000000,1500,1500,1499,1500
1425246349.406659,0.126541,0.388847,-0.005960,-0.049073,0.000000,0.000000,0.000000,5.000000,1498,1500,1502,1500
1425246349.415546,0.126547,0.388877,-0.005926,-0.049279,0.000000,0.000000,0.000000,5.000000,1500,1500,1499,1500
1425246349.429020,0.126537,0.388744,-0.005983,-0.049051,0.000000,0.000000,0.000000,5.000000,1499,1499,1500,1500
1425246349.438043,0.126539,0.388676,-0.006036,-0.048776,0.000000,0.000000,0.000000,5.000000,1499,1499,1500,1500
1425246349.446050,0.126558,0.388868,-0.005937,-0.049212,0.000000,0.000000,0.000000,5.000000,1500,1500,1499,1500
1425246349.459130,0.126539,0.388724,-0.005977,-0.048968,0.000000,0.000000,0.000000,5.000000,1499,1499,1500,1500
1425246349.459130,0.126539,0.388724,-0.005977,-0.048968,0.000000,0.000000,0.000000,5.000000,1499,1500,1499,1500
1425246349.481115,0.126564,0.388678,-0.005978,-0.048906,0.000000,0.000000,0.000000,5.000000,1499,1499,1499,1500
1425246349.489911,0.126547,0.388867,-0.005954,-0.049156,0.000000,0.000000,0.000000,5.000000,1500,1500,1499,1500
1425246349.503628,0.126545,0.388702,-0.005983,-0.048935,0.000000,0.000000,0.000000,5.000000,1499,1499,1500,1500
1425246349.511928,0.126538,0.388711,-0.005977,-0.048941,0.000000,0.000000,0.000000,5.000000,1500,1500,1500,1500
1425246349.521052,0.126565,0.388691,-0.005980,-0.048892,0.000000,0.000000,0.000000,5.000000,1499,1499,1499,1500
1425246349.534107,0.126562,0.388685,-0.005953,-0.048892,0.000000,0.000000,0.000000,5.000000,1500,1500,1499,1500
1425246349.543123,0.126533,0.388701,-0.006019,-0.048836,0.000000,0.000000,0.000000,5.000000,1499,1500,1500,1500
1425246349.555999,0.126541,0.388752,-0.005972,-0.048922,0.000000,0.000000,0.000000,5.000000,1500,1500,1499,1500
1425246349.555999,0.126541,0.388752,-0.005972,-0.048922,0.000000,0.000000,0.000000,5.000000,1499,1500,1499,1500
1425246349.577890,0.126275,0.388300,-0.005667,-0.051399,0.000000,0.000000,0.000000,5.000000,1501,1496,1497,1500
1425246349.586827,0.126544,0.388689,-0.005989,-0.048935,0.000000,0.000000,0.000000,5.000000,1498,1502,1502,1500
1425246349.595323,0.126296,0.388972,-0.005605,-0.051119,0.000000,0.000000,0.000000,5.000000,1501,1499,1497,1500
1425246349.608844,0.126521,0.388821,-0.006028,-0.051321,0.000000,0.000000,0.000000,5.000000,1498,1499,1498,1500
1425246349.617081,0.126526,0.388716,-0.006045,-0.048960,0.000000,0.000000,0.000000,5.000000,1499,1500,1503,1500
1425246349.630224,0.126265,0.388928,-0.005635,-0.051257,0.000000,0.000000,0.000000,5.000000,1501,1499,1497,1500
1425246349.639187,0.126276,0.388923,-0.005625,-0.051276,0.000000,0.000000,0.000000,5.000000,1500,1500,1499,1500
1425246349.647783,0.126256,0.388933,-0.005628,-0.051201,0.000000,0.000000,0.000000,5.000000,1499,1500,1500,1500
1425246349.652439,0.126293,0.388931,-0.005614,-0.051084,0.000000,0.000000,0.000000,5.000000,1500,1500,1500,1500
1425246349.652439,0.126293,0.388931,-0.005614,-0.051084,0.000000,0.000000,0.000000,5.000000,1499,1500,1499,1500
1425246349.684472,0.126287,0.388982,-0.005610,-0.051118,0.000000,0.000000,0.000000,5.000000,1500,1500,1499,1500
1425246349.695915,0.126291,0.388981,-0.005604,-0.051131,0.000000,0.000000,0.000000,5.000000,1500,1500,1499,1500
1425246349.705592,0.126276,0.388994,-0.005611,-0.051182,0.000000,0.000000,0.000000,5.000000,1499,1500,1499,1500
1425246349.718128,0.126282,0.388976,-0.005621,-0.051200,0.000000,0.000000,0.000000,5.000000,1499,1499,1499,1500
1425246349.727190,0.126293,0.388985,-0.005608,-0.051169,0.000000,0.000000,0.000000,5.000000,1500,1500,1499,1500
1425246349.735811,0.126290,0.388986,-0.005601,-0.051115,0.000000,0.000000,0.000000,5.000000,1500,1500,1500,1500
1425246349.748789,0.126292,0.388991,-0.005600,-0.051216,0.000000,0.000000,0.000000,5.000000,1500,1500,1499,1500
1425246349.757504,0.126306,0.388990,-0.005591,-0.051209,0.000000,0.000000,0.000000,5.000000,1500,1500,1499,1500
1425246349.757504,0.126306,0.388990,-0.005591,-0.051209,0.000000,0.000000,0.000000,5.000000,1499,1500,1499,1500
1425246349.781185,0.126282,0.388896,-0.005612,-0.051133,0.000000,0.000000,0.000000,5.000000,1499,1499,1500,1500
1425246349.788378,0.126298,0.388913,-0.005594,-0.051220,0.000000,0.000000,0.000000,5.000000,1500,1500,1499,1500
1425246349.801504,0.126292,0.388983,-0.005600,-0.051206,0.000000,0.000000,0.000000,5.000000,1499,1500,1500,1500
1425246349.809981,0.126295,0.388980,-0.005598,-0.051216,0.000000,0.000000,0.000000,5.000000,1500,1500,1499,1500
1425246349.823215,0.126296,0.388983,-0.005591,-0.051163,0.000000,0.000000,0.000000,5.000000,1500,1500,1500,1500
1425246349.832192,0.126274,0.388913,-0.005615,-0.051398,0.000000,0.000000,0.000000,5.000000,1499,1499,1499,1500
1425246349.845096,0.126293,0.388908,-0.005609,-0.051199,0.000000,0.000000,0.000000,5.000000,1500,1500,1500,1500
1425246349.853967,0.126295,0.388907,-0.005588,-0.051222,0.000000,0.000000,0.000000,5.000000,1500,1500,1499,1500
1425246349.853967,0.126295,0.388907,-0.005588,-0.051222,0.000000,0.000000,0.000000,5.000000,1499,1500,1499,1500
1425246349.853967,0.126295,0.388907,-0.005588,-0.051222,0.000000,0.000000,0.000000,5.000000,1499,1500,1499,1500
1425246349.885735,0.126291,0.388986,-0.005577,-0.051161,0.000000,0.000000,0.000000,5.000000,1500,1500,1500,1500
1425246349.894189,0.126279,0.388976,-0.005612,-0.051229,0.000000,0.000000,0.000000,5.000000,1499,1499,1499,1500
1425246349.907200,0.126516,0.388732,-0.006027,-0.048815,0.000000,0.000000,0.000000,5.000000,1498,1500,1502,1500
1425246349.915694,0.126287,0.388985,-0.005601,-0.051128,0.000000,0.000000,0.000000,5.000000,1501,1499,1497,1500
1425246349.928842,0.126303,0.388982,-0.005587,-0.051140,0.000000,0.000000,0.000000,5.000000,1500,1500,1499,1500
1425246349.938241,0.126306,0.388944,-0.005589,-0.051221,0.000000,0.000000,0.000000,5.000000,1499,1499,1499,1500
1425246349.946751,0.126298,0.388944,-0.005600,-0.051201,0.000000,0.000000,0.000000,5.000000,1499,1500,1500,1500
1425246349.955493,0.126293,0.388988,-0.005595,-0.051084,0.000000,0.000000,0.000000,5.000000,1500,1500,1500,1500
1425246349.955493,0.126293,0.388988,-0.005595,-0.051084,0.000000,0.000000,0.000000,5.000000,1499,1500,1499,1500
1425246349.981174,0.126288,0.388991,-0.005594,-0.051110,0.000000,0.000000,0.000000,5.000000,1500,1500,1499,1500
1425246349.990544,0.126296,0.388988,-0.005598,-0.051103,0.000000,0.000000,0.000000,5.000000,1499,1500,1499,1500
1425246350.000053,0.126295,0.388979,-0.005593,-0.051109,0.000000,0.000000,0.000000,5.000000,1500,1500,1499,1500
1425246350.012436,0.126287,0.388941,-0.005622,-0.051270,0.000000,0.000000,0.000000,5.000000,1499,1499,1499,1500
1425246350.021414,0.126301,0.388953,-0.005618,-0.051298,0.000000,0.000000,0.000000,5.000000,1500,1500,1499,1500
1425246350.029862,0.126303,0.388954,-0.005601,-0.051372,0.000000,0.000000,0.000000,5.000000,1500,1499,1499,1500
1425246350.043245,0.126671,0.388188,-0.006574,-0.049808,0.000000,0.000000,0.000000,5.000000,1496,1497,1501,1500
1425246350.051712,0.126772,0.388085,-0.006485,-0.050284,0.000000,0.000000,0.000000,5.000000,1500,1499,1498,1500
1425246350.056500,0.126064,0.389045,-0.005294,-0.049285,0.000000,0.000000,0.000000,5.000000,1504,1504,1504,1500
1425246350.056500,0.126064,0.389045,-0.005294,-0.049285,0.000000,0.000000,0.000000,5.000000,1499,1500,1499,1500
1425246350.086845,0.126060,0.389058,-0.005306,-0.049261,0.000000,0.000000,0.000000,5.000000,1499,1500,1500,1500
1425246350.095653,0.126050,0.389061,-0.005308,-0.049258,0.000000,0.000000,0.000000,5.000000,1499,1500,1500,1500
1425246350.104528,0.126056,0.389050,-0.005306,-0.049280,0.000000,0.000000,0.000000,5.000000,1500,1499,1499,1500
1425246350.117713,0.126059,0.389058,-0.005309,-0.049301,0.000000,0.000000,0.000000,5.000000,1499,1500,1499,1500
1425246350.126049,0.126054,0.389046,-0.005307,-0.049230,0.000000,0.000000,0.000000,5.000000,1500,1500,1500,1500
1425246350.139083,0.126044,0.389058,-0.005306,-0.049266,0.000000,0.000000,0.000000,5.000000,1500,1500,1499,1500
1425246350.147758,0.126044,0.389051,-0.005312,-0.049294,0.000000,0.000000,0.000000,5.000000,1499,1499,1499,1500
1425246350.156824,0.126049,0.389053,-0.005316,-0.049246,0.000000,0.000000,0.000000,5.000000,1499,1500,1500,1500
1425246350.156824,0.126049,0.389053,-0.005316,-0.049246,0.000000,0.000000,0.000000,5.000000,1499,1500,1499,1500
