1882774094,-9.502500,-0.411250,-6.763750,-0.088328,0.000488,-0.954711
1882806242,-9.231250,-0.630000,-6.737500,-0.096563,0.001159,-0.996069
1882837894,-9.248750,-0.341250,-7.078750,-0.098088,0.001525,-0.999302
1882868838,-9.222500,-0.490000,-6.973750,-0.096197,0.001159,-0.997533
1882912157,-9.108750,-0.498750,-7.227500,-0.096807,0.000915,-0.996374
1882942059,-9.091250,-0.376250,-6.562500,-0.095526,0.000488,-0.997716
1882973332,-9.213750,-0.498750,-6.973750,-0.095221,0.000427,-1.000705
1883007346,-9.721250,-0.166250,-6.807500,-0.096990,0.000610,-1.000400
1883036390,-9.266250,-0.288750,-6.746250,-0.096929,0.000366,-0.999546
1883067492,-9.485000,-0.393750,-6.737500,-0.096502,0.000976,-0.995947
1883103858,-9.283750,-0.691250,-6.720000,-0.096136,0.000549,-0.996862
1883133916,-9.388750,-0.551250,-6.790000,-0.094245,0.001586,-0.998082
1883163379,-8.933750,-0.402500,-6.667500,-0.095892,0.000366,-0.998326
1883203092,-8.820000,-0.428750,-7.061250,-0.094367,0.000793,-0.993995
1883231977,-9.056250,-0.463750,-6.973750,-0.096441,0.001586,-0.994971
1883262982,-9.178750,-0.542500,-6.702500,-0.096380,0.001464,-0.996008
1883310595,-8.995000,-0.385000,-7.017500,-0.096197,0.001159,-1.000705
1883339995,-9.327500,-0.577500,-7.043750,-0.097417,0.000244,-0.997289
1883370981,-8.723750,-0.385000,-6.833750,-0.096990,0.000427,-0.996801
1883408016,-9.651250,-0.612500,-7.061250,-0.097905,0.001220,-1.001559
1883437896,-9.082500,-0.481250,-6.658750,-0.096502,0.002074,-1.000583
1883469088,-9.310000,-0.420000,-7.078750,-0.097905,0.001281,-0.995520
1883507603,-8.986250,-0.288750,-6.921250,-0.097051,0.001342,-1.000217
1883536112,-8.863750,-0.612500,-7.052500,-0.096014,0.001464,-0.995459
1883566958,-9.345000,-0.472500,-6.973750,-0.096624,0.000488,-1.012478
1883608355,-9.021250,-0.297500,-6.982500,-0.096319,-0.014213,-0.999790
1883639691,-8.820000,-0.411250,-7.210000,-0.098271,0.000610,-0.996862
1883671047,-8.531250,-0.507500,-6.947500,-0.092720,0.015189,-0.997411
1883709023,-9.310000,-0.717500,-7.105000,-0.095953,0.015433,-0.996191
1883741256,-9.021250,-0.262500,-7.306250,-0.095221,0.000305,-0.996313
1883770027,-9.415000,-0.455000,-6.930000,-0.094733,0.000671,-0.994483
1883805963,-9.327500,-0.175000,-7.087500,-0.098454,0.000732,-0.996557
1883837685,-9.283750,-0.367500,-6.982500,-0.095343,0.002562,-0.993141
1883866799,-8.767500,-0.647500,-6.825000,-0.097661,0.002440,-0.995093
1883908739,-9.327500,-0.105000,-7.166250,-0.097051,-0.000671,-0.998265
1883939824,-9.275000,-0.498750,-6.851250,-0.097783,-0.001037,-0.998204
1883971569,-9.065000,-0.603750,-7.061250,-0.097173,0.001891,-0.994727
1884010317,-9.117500,-0.621250,-6.842500,-0.097295,0.000305,-0.996130
1884041381,-9.187500,-0.533750,-7.148750,-0.095465,-0.015006,-0.998204
1884071948,-9.248750,-0.691250,-6.772500,-0.096075,0.000305,-0.997228
1884109477,-9.038750,-0.761250,-6.737500,-0.096075,0.000793,-0.997045
1884140180,-9.117500,-0.525000,-6.886250,-0.098088,0.002135,-1.001437
1884170275,-9.353750,-0.245000,-6.746250,-0.097234,0.000122,-0.998326
1884208405,-9.441250,-0.691250,-6.921250,-0.096563,0.001708,-0.996191
1884237996,-9.318750,-0.507500,-6.790000,-0.095892,0.001525,-0.997594
1884268080,-9.231250,-0.656250,-6.562500,-0.097051,0.000000,-0.999119
1884311510,-9.310000,-0.358750,-6.711250,-0.096075,0.000488,-0.994422
1884339987,-9.170000,-0.700000,-6.860000,-0.097600,0.000000,-0.998204
1884370653,-9.345000,-0.682500,-6.903750,-0.097417,-0.001159,-0.999424
1884408795,-9.380000,-0.700000,-6.746250,-0.096624,0.001037,-1.011380
1884438069,-9.415000,-0.507500,-6.632500,-0.098088,0.002562,-0.995703
1884468639,-9.117500,-0.560000,-6.895000,-0.096441,0.000305,-0.995581
1884510119,-9.038750,-0.393750,-7.043750,-0.096685,-0.000183,-0.997411
1884539284,-9.065000,-0.411250,-6.676250,-0.096929,0.000793,-0.997228
1884569486,-9.520000,-0.481250,-7.035000,-0.095099,0.000305,-0.992836
1884609256,-9.318750,-0.525000,-7.201250,-0.096136,0.000610,-0.995886
1884640652,-9.266250,-0.437500,-7.026250,-0.096441,0.000183,-0.997777
1884670289,-9.161250,-0.218750,-7.113750,-0.096441,-0.000488,-0.998143
1884707695,-9.073750,-0.367500,-6.921250,-0.097478,0.000244,-0.999180
1884751731,-9.196250,-0.323750,-6.693750,-0.096746,-0.015067,-0.998509
1884786459,-9.572500,-0.700000,-6.755000,-0.097539,-0.000732,-0.993507
1884836681,-9.310000,-0.455000,-7.061250,-0.098637,0.000671,-0.997228
1884879570,-9.493750,-0.568750,-6.868750,-0.097051,0.001098,-0.997777
1884932256,-9.196250,-0.857500,-6.790000,-0.097783,0.000122,-0.996252
1884967491,-9.283750,-0.813750,-7.078750,-0.095526,0.000610,-0.999424
1885009390,-9.380000,-0.770000,-7.122500,-0.094977,0.000915,-0.998448
1885038649,-9.196250,-0.498750,-7.096250,-0.096014,0.000305,-0.997228
1885069733,-9.275000,-0.621250,-6.720000,-0.097112,0.000488,-1.011929
1885108927,-8.968750,-0.358750,-6.868750,-0.095404,0.000244,-0.997411
1885138518,-9.310000,-0.498750,-6.606250,-0.097356,0.000366,-0.993202
1885169187,-9.248750,-0.253750,-7.026250,-0.095404,0.001281,-0.993751
1885208494,-9.292500,-0.297500,-6.825000,-0.096319,-0.000549,-0.995947
1885238764,-9.257500,-0.245000,-7.070000,-0.095709,0.000976,-0.994910
1885267770,-9.187500,-0.778750,-7.166250,-0.094794,0.001037,-1.001132
1885304434,-8.811250,-0.621250,-6.816250,-0.095282,0.000427,-0.995520
1885334654,-9.555000,-0.323750,-7.000000,-0.096014,-0.000366,-0.997411
1885365558,-9.143750,-0.455000,-6.895000,-0.094367,0.000854,-1.001864
1885404165,-9.458750,-0.735000,-6.816250,-0.095709,0.000000,-0.997167
1885434535,-9.248750,-0.446250,-6.763750,-0.095221,-0.000671,-0.997106
1885464934,-9.021250,-0.446250,-6.860000,-0.096441,0.000061,-0.999424
1885503394,-9.231250,-0.621250,-6.930000,-0.096136,-0.000122,-0.998326
1885534655,-9.458750,-0.437500,-6.580000,-0.096685,0.000427,-0.996252
1885563799,-9.170000,-0.490000,-6.772500,-0.098881,0.001159,-0.996740
1885602741,-9.178750,-0.542500,-6.676250,-0.095770,0.000000,-0.997655
1885634872,-8.995000,-0.490000,-6.965000,-0.094733,0.001586,-0.995520
1885663417,-9.485000,-0.577500,-6.632500,-0.080886,-0.000366,-0.997716
1885702600,-9.380000,-0.455000,-6.851250,-0.095709,0.000732,-0.995581
1885734696,-9.143750,-0.813750,-6.728750,-0.095221,0.001647,-0.996618
1885763621,-9.388750,-0.096250,-7.026250,-0.096502,-0.000061,-0.999973
1885804561,-9.161250,-0.533750,-6.833750,-0.095892,0.014640,-0.996313
1885834883,-9.170000,-0.612500,-6.930000,-0.096319,-0.001037,-0.999119
1885866405,-9.056250,-0.393750,-7.183750,-0.096502,0.001464,-1.000095
1885906522,-8.942500,-0.516250,-6.728750,-0.097722,-0.000732,-0.999424
1885937493,-9.161250,-0.700000,-6.912500,-0.095404,-0.000183,-0.996801
1885966496,-8.960000,-0.332500,-7.000000,-0.094367,-0.000122,-1.000888
1886006046,-9.520000,-0.516250,-6.973750,-0.096075,0.000183,-0.996435
1886036790,-9.152500,-0.577500,-7.367500,-0.096197,-0.000366,-0.996557
1886065611,-9.423750,-0.577500,-6.947500,-0.096075,-0.001403,-0.998509
1886103857,-9.135000,-0.525000,-7.122500,-0.095282,0.000122,-0.997045
1886136076,-9.660000,-0.411250,-6.938750,-0.096624,0.000427,-0.997655
1886166731,-9.126250,-0.437500,-6.816250,-0.095038,0.001037,-1.001193
1886202850,-9.073750,-0.568750,-7.008750,-0.097173,0.000244,-0.998448
1886234990,-9.038750,-0.490000,-6.860000,-0.097295,0.000549,-0.998753
1886265856,-9.205000,-0.988750,-7.183750,-0.097600,0.000549,-0.994727
1886305643,-9.345000,-0.542500,-6.501250,-0.098088,0.001952,-0.998997
1886339427,-9.467500,-0.638750,-7.000000,-0.096990,0.001342,-0.995215
1886369804,-9.310000,-0.315000,-6.711250,-0.097234,0.001281,-0.996862
1886406836,-9.283750,0.087500,-6.886250,-0.096319,0.001525,-0.997655
1886438095,-9.467500,-0.332500,-6.886250,-0.096075,0.001464,-0.993507
1886467918,-9.441250,-0.516250,-6.781250,-0.093574,0.000854,-0.998021
1886505247,-9.283750,-0.437500,-7.061250,-0.096685,-0.000122,-0.996801
1886535791,-8.933750,-0.533750,-6.973750,-0.097417,-0.000427,-0.998631
1886566066,-9.485000,-0.367500,-7.227500,-0.096136,0.002257,-0.997533
1886604420,-9.152500,-0.253750,-6.632500,-0.097112,0.001281,-0.998448
1886636310,-9.248750,-0.717500,-6.930000,-0.096380,0.001342,-0.997472
1886666407,-9.450000,-0.717500,-6.562500,-0.095648,-0.000671,-0.996984
1886708433,-9.082500,-0.428750,-6.973750,-0.096258,0.000732,-0.996069
1886740122,-8.942500,-0.288750,-6.658750,-0.096319,0.000854,-0.994849
1886769604,-9.161250,-0.577500,-6.816250,-0.095343,0.000549,-0.997228
1886804740,-9.213750,-0.857500,-6.868750,-0.097417,0.000427,-0.998570
1886836842,-9.336250,-0.647500,-7.192500,-0.096380,0.000183,-0.997533
1886867124,-9.423750,-0.665000,-6.545000,-0.094001,0.000122,-0.997655
1886906770,-9.485000,-0.315000,-7.236250,-0.095892,-0.000244,-0.995764
1886937686,-9.108750,-0.376250,-6.895000,-0.096075,-0.000122,-0.995337
1886968654,-9.187500,-0.603750,-6.956250,-0.096258,0.000488,-0.997228
1887011883,-9.467500,-0.446250,-6.982500,-0.096807,0.002013,-0.995703
1887043987,-9.143750,-0.621250,-7.026250,-0.097051,-0.000671,-0.997472
1887075064,-9.257500,-0.490000,-6.798750,-0.096319,0.001403,-0.996618
1887110006,-9.371250,-0.463750,-6.825000,-0.095709,-0.000854,-0.997838
1887143116,-9.423750,-0.385000,-6.702500,-0.095770,0.000671,-0.995642
1887172656,-9.038750,-0.866250,-6.851250,-0.096441,0.000244,-0.998265
1887209025,-9.248750,-0.568750,-6.685000,-0.096502,0.000793,-0.997838
1887240735,-9.266250,-0.428750,-6.860000,-0.094428,0.000854,-0.993751
1887269357,-9.432500,-0.761250,-7.315000,-0.094977,0.000183,-1.001376
1887308141,-9.135000,-0.428750,-6.807500,-0.098210,0.000244,-0.996130
1887342324,-8.855000,-0.568750,-6.702500,-0.094306,0.000244,-0.997533
1887371631,-9.205000,-0.332500,-6.553750,-0.094916,-0.000610,-0.997228
1887410264,-9.056250,-0.472500,-6.641250,-0.095709,0.000000,-0.998448
1887442738,-9.047500,-0.306250,-7.245000,-0.094306,-0.000244,-0.997716
1887473795,-9.205000,-0.595000,-6.571250,-0.096685,0.000183,-1.000278
1887509436,-9.240000,-0.183750,-7.070000,-0.080337,-0.000427,-1.002230
1887541620,-9.362500,-0.385000,-6.825000,-0.097783,0.001647,-0.997594
1887572752,-9.117500,-0.717500,-6.606250,-0.096990,-0.000488,-0.996557
1887608123,-9.266250,-0.455000,-6.930000,-0.098149,0.001159,-0.999363
1887641257,-9.073750,-0.402500,-6.860000,-0.098088,0.001037,-0.994544
1887671268,-9.301250,-0.568750,-6.965000,-0.097844,0.000366,-0.996496
1887706380,-9.196250,-0.148750,-6.842500,-0.098393,-0.015372,-0.997472
1887741357,-9.266250,-0.498750,-7.070000,-0.096319,0.001098,-0.995459
1887771590,-9.458750,-0.175000,-6.851250,-0.096624,0.000427,-0.994483
1887805752,-9.231250,-0.516250,-7.105000,-0.096380,0.001037,-0.995276
1887834852,-9.590000,-0.245000,-6.921250,-0.097905,-0.000732,-0.996435
1887864507,-9.598750,-0.323750,-6.693750,-0.094184,0.000427,-0.997350
1887903852,-9.135000,-0.778750,-6.982500,-0.095343,0.000915,-0.996191
1887935543,-8.960000,-0.323750,-6.466250,-0.096197,0.000549,-0.999302
1887966296,-9.205000,-0.350000,-6.877500,-0.095770,0.000854,-0.993812
1888007844,-9.537500,-0.455000,-7.105000,-0.096136,0.000427,-0.996191
1888040695,-8.706250,-0.525000,-6.851250,-0.096075,0.000366,-0.994483
1888069216,-9.012500,-0.577500,-6.868750,-0.095648,0.000488,-0.995764
1888108691,-9.257500,-0.358750,-7.026250,-0.096685,0.000122,-0.997045
1888138513,-9.178750,-0.551250,-6.746250,-0.096380,0.000549,-0.996252
1888169228,-9.126250,-0.621250,-7.166250,-0.097173,0.000000,-0.999424
1888208423,-8.872500,-0.848750,-7.017500,-0.095770,0.000549,-0.997777
1888237492,-9.423750,-0.253750,-6.886250,-0.097356,-0.000183,-0.995886
1888268292,-8.732500,-0.420000,-6.650000,-0.096624,-0.000122,-0.998631
1888307733,-8.960000,-0.735000,-6.973750,-0.094489,0.000793,-0.994727
1888337058,-9.310000,-0.586250,-7.070000,-0.095404,0.000793,-0.994056
1888367161,-9.003750,-0.831250,-7.008750,-0.096563,0.000427,-0.996984
1888414655,-9.432500,-0.446250,-6.588750,-0.098027,0.000610,-0.994910
1888444154,-9.205000,-0.315000,-6.903750,-0.097600,0.002318,-0.993019
1888475734,-9.240000,-0.463750,-6.588750,-0.096990,0.000549,-0.993446
1888505848,-9.135000,-0.603750,-7.218750,-0.094916,0.000976,-0.996923
1888537342,-9.275000,-0.577500,-7.341250,-0.095404,0.001281,-0.994300
1888568393,-9.091250,-0.463750,-6.930000,-0.094794,0.001098,-0.997838
1888607368,-8.837500,-0.665000,-6.816250,-0.094916,0.000854,-0.999058
1888636343,-8.688750,-0.883750,-6.877500,-0.095892,0.000854,-0.994178
1888667032,-9.388750,-0.586250,-6.807500,-0.095709,0.000549,-0.996252
1888707238,-8.977500,-0.341250,-7.236250,-0.096136,0.000488,-0.999729
1888735903,-8.942500,-0.656250,-6.571250,-0.097966,0.000671,-0.996618
1888766443,-8.916250,-0.393750,-6.816250,-0.097051,0.000000,-0.999607
1888804672,-9.292500,-0.743750,-6.755000,-0.096990,-0.000244,-1.000278
1888834052,-8.933750,-0.542500,-6.536250,-0.097966,0.000244,-1.000095
1888864372,-9.266250,-0.533750,-7.043750,-0.094733,0.000000,-0.998082
1888908193,-9.318750,-0.498750,-7.061250,-0.096929,0.001037,-0.996374
1888937329,-9.406250,-0.385000,-6.553750,-0.096563,0.000427,-0.996191
1888968534,-9.240000,-0.735000,-7.043750,-0.098271,0.001342,-0.997777
1889007880,-9.406250,-0.323750,-6.816250,-0.096136,0.000549,-0.998387
1889038010,-9.502500,-0.717500,-6.851250,-0.094977,-0.001403,-0.998448
1889067567,-9.616250,-0.568750,-6.746250,-0.095160,0.000366,-0.997838
1889105818,-8.933750,-0.455000,-7.078750,-0.094794,-0.000183,-0.994056
1889134309,-9.056250,-0.595000,-7.061250,-0.094184,0.000061,-0.997472
1889165350,-8.916250,-0.070000,-6.868750,-0.096685,0.000488,-0.999607
1889206392,-9.563750,-0.332500,-6.790000,-0.097722,0.002013,-0.994788
1889236038,-9.467500,-0.735000,-6.973750,-0.097295,-0.000183,-0.993751
1889266995,-9.362500,-0.796250,-6.720000,-0.098210,0.000854,-0.994971
1889306888,-8.942500,-0.656250,-7.026250,-0.097905,0.000244,-0.997350
1889337832,-9.835000,-1.006250,-6.807500,-0.097722,0.001281,-0.999546
1889373448,-9.257500,-0.568750,-6.623750,-0.096258,-0.000366,-1.000705
1889409853,-9.257500,-0.603750,-6.483750,-0.097173,0.002257,-0.998753
1889440485,-9.406250,-0.630000,-6.903750,-0.097783,0.000305,-0.999973
1889471324,-9.397500,-0.857500,-6.816250,-0.096990,0.001159,-0.996557
1889506044,-8.898750,-0.350000,-6.912500,-0.098088,0.001098,-0.996740
1889535846,-9.187500,-0.586250,-6.772500,-0.095221,-0.000671,-0.997289
1889564379,-9.222500,-0.175000,-7.148750,-0.097173,0.001037,-0.999058
1889609544,-9.100000,-0.315000,-6.825000,-0.095892,0.001159,-0.997899
1889640065,-9.213750,-0.595000,-6.676250,-0.097783,0.000915,-0.999119
1889672486,-9.292500,-0.568750,-6.685000,-0.094306,0.000122,-0.999668
1889707554,-9.021250,-0.297500,-6.877500,-0.096929,0.000793,-0.996618
1889752579,-9.415000,-0.490000,-7.157500,-0.097295,0.000183,-0.999485
1889801141,-9.336250,-0.638750,-6.737500,-0.096258,-0.000549,-0.993873
1889841685,-8.715000,-0.402500,-6.632500,-0.098149,0.001952,-0.997045
1889883419,-9.222500,-0.525000,-6.947500,-0.098759,0.000122,-0.998143
1889942303,-9.467500,-0.271250,-7.052500,-0.094001,0.000854,-0.998387
1889974272,-9.353750,-0.297500,-7.052500,-0.094672,-0.000244,-0.996618
1890006421,-9.213750,-0.306250,-7.122500,-0.095770,0.000000,-0.996252
1890036577,-9.030000,-0.157500,-6.781250,-0.098027,-0.000305,-0.999119
1890065284,-9.450000,-0.595000,-6.956250,-0.095892,0.001403,-0.994178
1890106167,-9.038750,-0.070000,-7.175000,-0.097417,0.001281,-0.994910
1890137814,-9.187500,-0.717500,-6.571250,-0.095160,0.000549,-0.996191
1890167769,-9.283750,-0.490000,-6.781250,-0.094733,0.000000,-0.998814
1890206089,-9.563750,-0.533750,-6.860000,-0.094855,0.000305,-0.995398
1890236298,-9.126250,-0.428750,-7.306250,-0.095160,-0.000183,-0.999607
1890264909,-8.732500,-0.236250,-7.297500,-0.097722,0.000671,-0.998326
1890309458,-9.091250,0.017500,-6.991250,-0.096136,0.000061,-0.998509
1890338430,-9.038750,-0.630000,-7.297500,-0.095709,0.000122,-0.998448
1890369293,-9.458750,-0.516250,-6.895000,-0.098027,0.001647,-1.010892
1890406899,-9.485000,-0.568750,-7.175000,-0.096990,0.001342,-0.998570
1890436667,-9.493750,-0.210000,-6.842500,-0.097844,0.000244,-0.997472
1890467073,-8.968750,-0.682500,-6.842500,-0.097478,0.001952,-0.997045
1890507251,-8.863750,-0.498750,-6.650000,-0.097051,0.000976,-0.996923
1890536080,-9.213750,-0.245000,-6.781250,-0.097234,0.000854,-0.995520
1890566391,-9.607500,-0.315000,-6.982500,-0.097051,0.000671,-0.995520
1890606241,-9.240000,-0.516250,-7.078750,-0.097356,0.000061,-0.996618
1890635595,-9.345000,-0.411250,-7.043750,-0.095587,0.001281,-0.997838
1890666217,-9.257500,-0.367500,-7.026250,-0.098210,0.000427,-0.996801
1890706246,-9.091250,-0.603750,-6.440000,-0.097112,0.001647,-0.997228
1890736478,-9.380000,-0.621250,-6.720000,-0.096197,0.000000,-1.000705
1890766238,-9.108750,-0.437500,-6.895000,-0.093757,-0.000122,-1.000034
1890804856,-9.100000,-0.437500,-6.650000,-0.095404,0.001891,-0.995764
1890836260,-9.117500,-0.306250,-6.597500,-0.095831,0.000549,-0.996740
1890866107,-9.336250,-0.560000,-6.781250,-0.096990,0.000366,-0.996191
1890906176,-9.161250,-0.840000,-6.492500,-0.094977,0.001586,-0.995764
1890939723,-9.205000,-0.831250,-6.895000,-0.096685,0.001464,-0.994300
1890971360,-9.161250,-0.315000,-6.798750,-0.094184,0.000976,-1.000217
1891007085,-9.222500,-0.673750,-6.667500,-0.097844,0.001525,-0.997289
1891037287,-9.100000,-0.288750,-6.527500,-0.097051,0.000000,-1.001681
1891068112,-9.082500,-0.236250,-7.096250,-0.097234,0.000854,-0.998082
1891107549,-9.108750,-0.717500,-6.737500,-0.096807,0.000000,-0.998326
1891137932,-9.336250,-0.262500,-6.842500,-0.095160,0.000183,-0.996496
1891167422,-9.511250,-0.516250,-6.930000,-0.094733,0.001830,-0.997106
1891204710,-9.021250,-0.175000,-6.711250,-0.093635,0.001525,-0.996496
1891233861,-9.196250,-0.262500,-7.096250,-0.094672,-0.000366,-0.998082
1891264598,-9.590000,-0.280000,-6.851250,-0.096319,0.000671,-0.997411
1891302573,-9.292500,-0.201250,-6.536250,-0.097234,0.000854,-0.985821
1891331041,-9.318750,-0.481250,-7.052500,-0.096380,0.000427,-0.985333
1891361059,-9.073750,-0.621250,-6.667500,-0.097051,-0.000061,-0.997106
1891403323,-8.872500,-0.638750,-7.420000,-0.095770,0.001220,-0.998265
1891432839,-9.012500,-0.367500,-6.938750,-0.098332,0.001281,-0.998387
1891462954,-8.942500,-0.481250,-6.667500,-0.095770,0.001342,-0.993934
1891500365,-9.065000,-0.542500,-6.693750,-0.095465,0.000549,-0.998997
1891529920,-9.152500,-0.542500,-6.947500,-0.094489,0.000854,-0.999241
1891560199,-9.170000,-0.332500,-6.903750,-0.097661,0.002013,-0.998814
1891602916,-8.872500,-0.385000,-7.061250,-0.096685,0.000305,-0.998143
1891633178,-9.362500,-0.437500,-6.886250,-0.098576,0.001830,-0.994910
1891663312,-9.248750,-0.315000,-7.087500,-0.096197,0.000793,-0.996008
1891701866,-9.423750,-0.288750,-6.973750,-0.094794,0.000671,-0.996679
1891732069,-9.336250,-0.420000,-6.597500,-0.097356,-0.000549,-0.994544
1891760958,-9.563750,-0.481250,-7.201250,-0.095221,0.000305,-0.997106
1891806107,-9.047500,-0.603750,-6.833750,-0.096929,0.000793,-0.993507
1891835803,-8.811250,-0.507500,-6.816250,-0.096319,0.000061,-0.998631
1891864623,-9.248750,-0.560000,-6.781250,-0.097905,0.000793,-0.999424
1891906736,-9.222500,-0.542500,-6.650000,-0.095892,-0.000671,-0.998204
1891935168,-8.925000,-0.446250,-6.868750,-0.096014,-0.000671,-0.997228
1891965807,-9.441250,-0.113750,-6.772500,-0.097600,-0.000061,-1.000217
1892006334,-9.310000,-0.192500,-6.772500,-0.097966,0.000000,-0.997472
1892037607,-9.450000,-0.831250,-7.148750,-0.099430,0.001830,-0.998753
1892066544,-8.706250,-0.560000,-7.026250,-0.096441,0.000793,-0.999973
1892111865,-9.231250,-0.971250,-7.017500,-0.095160,-0.000061,-1.000278
1892144596,-8.977500,-0.183750,-6.772500,-0.097905,-0.000427,-1.000156
1892173419,-9.038750,-0.551250,-6.798750,-0.096502,0.001647,-0.999546
1892209588,-8.715000,-0.507500,-6.903750,-0.096990,-0.000061,-0.994971
1892240433,-9.240000,-0.420000,-6.851250,-0.098271,0.000732,-0.993568
1892271699,-9.143750,-0.323750,-7.253750,-0.096136,0.000122,-0.997777
1892311860,-9.065000,-0.560000,-7.026250,-0.095831,0.001586,-0.994727
1892340812,-9.275000,-0.332500,-6.947500,-0.097478,0.001647,-0.998387
1892371297,-9.292500,-0.428750,-7.113750,-0.094306,0.000000,-0.996618
1892413974,-9.073750,-0.113750,-6.921250,-0.097173,0.001647,-0.996252
1892445394,-9.003750,-0.682500,-6.632500,-0.097844,-0.000488,-0.996008
1892474530,-9.353750,-0.708750,-6.912500,-0.093757,-0.015067,-0.995703
1892509754,-9.502500,-0.420000,-7.061250,-0.095953,0.000671,-0.994727
1892540359,-9.388750,-0.428750,-6.781250,-0.096319,0.001891,-0.993568
1892568911,-9.528750,-0.411250,-6.650000,-0.095770,0.001342,-1.000766
1892610377,-9.266250,-0.358750,-6.798750,-0.097173,0.000976,-0.996984
1892640428,-9.126250,-0.560000,-6.895000,-0.095343,0.001342,-0.998509
1892670858,-9.038750,-0.455000,-6.982500,-0.095526,0.000061,-1.000522
1892712638,-9.625000,-0.315000,-7.306250,-0.095831,-0.001647,-0.998875
1892743011,-9.100000,-0.332500,-6.737500,-0.097966,0.002257,-0.996984
1892772038,-9.336250,-0.498750,-6.545000,-0.095770,0.001464,-0.995215
1892812150,-9.108750,-0.691250,-7.175000,-0.098637,0.000671,-0.998509
1892841379,-8.776250,-0.708750,-7.315000,-0.094611,0.000549,-0.997472
1892872390,-9.397500,-0.332500,-6.825000,-0.097234,-0.000305,-0.997045
1892912303,-9.108750,-0.525000,-6.536250,-0.096624,0.001098,-1.000095
1892941752,-9.318750,-0.533750,-6.693750,-0.095831,0.000122,-0.995947
1892972188,-8.968750,-0.350000,-6.860000,-0.096685,0.001098,-0.994971
1893011040,-8.785000,-0.341250,-6.930000,-0.096258,0.001037,-0.995337
1893041815,-9.161250,-0.437500,-7.061250,-0.095343,-0.000183,-0.997472
1893072516,-9.178750,-0.665000,-6.755000,-0.096929,0.002196,-0.996130
1893109013,-9.152500,-0.358750,-7.035000,-0.097112,0.000122,-0.997289
1893139599,-8.741250,-0.245000,-6.956250,-0.096319,-0.000732,-0.997655
1893170517,-9.213750,-0.551250,-6.991250,-0.096380,-0.000305,-0.998204
1893210305,-9.003750,-0.603750,-7.087500,-0.099125,0.000366,-1.000095
1893239841,-9.345000,-0.218750,-6.702500,-0.097783,0.000244,-0.997106
1893271338,-8.916250,-0.437500,-6.930000,-0.097600,0.001952,-0.996801
1893312424,-9.100000,-0.691250,-6.168750,-0.099369,0.002196,-0.994483
1893344022,-9.292500,-0.402500,-7.262500,-0.095892,0.001037,-0.995154
1893373218,-9.353750,-0.463750,-7.157500,-0.094367,0.000488,-0.998143
1893418789,-9.388750,-0.367500,-7.008750,-0.098820,0.000671,-0.994483
1893450146,-8.951250,-0.516250,-6.903750,-0.095648,0.000488,-0.998326
1893480810,-8.977500,-0.682500,-6.833750,-0.095709,0.000000,-0.996801
1893532577,-9.371250,-0.490000,-7.437500,-0.096136,0.000854,-0.994788
1893562740,-9.038750,-0.288750,-6.693750,-0.096624,0.000366,-0.997716
1893602350,-9.283750,-0.472500,-6.763750,-0.097051,0.001952,-0.995947
1893633723,-9.135000,-0.752500,-6.930000,-0.094916,0.000000,-0.995398
1893664113,-9.467500,-0.577500,-7.070000,-0.094428,0.000244,-0.999058
1893703178,-9.292500,-0.402500,-7.017500,-0.096197,0.001464,-0.999668
1893733657,-9.537500,-0.481250,-6.728750,-0.096563,-0.000183,-0.998570
1893765187,-8.881250,-0.586250,-6.492500,-0.097722,0.002562,-0.996008
1893804768,-9.222500,-0.358750,-7.201250,-0.098332,0.001281,-0.997533
1893834119,-9.117500,-0.612500,-7.113750,-0.099552,0.001525,-0.996740
1893865181,-8.750000,-0.175000,-6.868750,-0.098881,0.001464,-0.996252
1893904338,-9.432500,-0.498750,-6.781250,-0.097844,0.000671,-0.994178
1893941796,-9.178750,-0.253750,-6.702500,-0.098454,-0.000122,-0.999058
1893972416,-9.030000,-0.315000,-6.956250,-0.094001,0.000488,-0.996191
1894010676,-9.135000,-0.332500,-6.860000,-0.094184,0.000549,-0.992409
1894039946,-9.143750,-0.481250,-6.825000,-0.096746,0.000366,-0.997655
1894070328,-8.986250,-0.673750,-6.912500,-0.093757,-0.000976,-1.000644
1894110427,-9.458750,-0.463750,-6.711250,-0.096197,0.000610,-0.997838
1894139803,-9.117500,-0.481250,-6.877500,-0.094550,0.000488,-0.999424
1894170474,-8.977500,-0.385000,-6.308750,-0.097722,0.002318,-0.999180
1894209331,-9.546250,-0.542500,-6.781250,-0.096258,0.001891,-0.998387
1894237869,-9.318750,-0.638750,-6.650000,-0.095099,0.000793,-0.994971
1894267873,-9.467500,-0.481250,-6.842500,-0.096441,0.014823,-0.995154
1894306808,-9.196250,-0.385000,-7.131250,-0.093879,0.000488,-0.984113
1894337369,-9.073750,-0.586250,-6.825000,-0.096197,0.001342,-0.999180
1894368251,-9.108750,-0.525000,-6.501250,-0.098088,0.001220,-0.996435
1894408759,-9.362500,-0.542500,-6.877500,-0.097722,0.000976,-0.998265
1894437748,-9.292500,-0.533750,-7.288750,-0.096441,0.000854,-0.997167
1894467155,-9.178750,-0.148750,-6.746250,-0.095709,0.000427,-0.995947
1894506251,-9.187500,-0.437500,-6.798750,-0.095160,0.000732,-0.997350
1894538318,-9.528750,-0.647500,-7.061250,-0.096807,0.000610,-0.995642
1894567188,-9.170000,-0.297500,-7.070000,-0.099247,0.001403,-1.000034
1894605044,-8.977500,-0.743750,-6.781250,-0.096075,-0.000549,-1.001010
1894634811,-9.292500,-0.542500,-6.772500,-0.097600,-0.000061,-0.997167
1894663413,-8.907500,-0.402500,-6.772500,-0.098332,0.000793,-0.995581
1894704671,-9.240000,-0.577500,-6.938750,-0.096319,0.001281,-0.996862
1894752062,-8.951250,-0.551250,-7.078750,-0.096014,0.001403,-0.997350
1894805362,-9.546250,-0.857500,-6.851250,-0.096441,0.000915,-0.997106
1894844353,-9.476250,-0.376250,-6.868750,-0.094245,0.000366,-0.993385
1894879543,-9.117500,-0.857500,-7.061250,-0.094489,0.000488,-0.997289
1894928942,-9.240000,-0.157500,-7.271250,-0.096197,0.000305,-0.995581
1894961609,-9.318750,-0.752500,-6.641250,-0.095038,0.000671,-0.999241
1894998862,-8.933750,-0.455000,-6.676250,-0.098515,0.000976,-0.999546
1895030626,-9.318750,-0.262500,-6.947500,-0.094306,0.002318,-0.996984
1895060830,-9.205000,-0.726250,-6.982500,-0.096746,0.000305,-0.997350
1895101096,-9.135000,-0.411250,-6.860000,-0.097417,0.000915,-0.998082
1895133420,-9.108750,-0.533750,-6.615000,-0.096014,-0.001525,-0.998326
1895162288,-9.310000,-0.446250,-7.271250,-0.097051,-0.000305,-0.998875
1895202459,-9.126250,-0.472500,-6.833750,-0.095648,0.001220,-0.997899
1895234339,-9.073750,-0.437500,-6.641250,-0.098149,0.000793,-0.995337
1895265247,-9.021250,-0.586250,-6.728750,-0.097783,0.000915,-0.996374
1895306806,-9.450000,-0.332500,-7.087500,-0.096380,0.000427,-0.995459
1895338734,-9.528750,-0.315000,-7.017500,-0.093818,0.001891,-0.992775
1895368126,-9.292500,-0.096250,-6.685000,-0.095831,0.000305,-0.998265
1895409733,-9.476250,-0.376250,-6.886250,-0.096502,-0.000244,-0.995825
1895446383,-9.003750,-0.437500,-7.131250,-0.094916,0.001281,-1.000339
1895476556,-9.380000,-0.385000,-6.947500,-0.096563,0.002013,-0.996557
1895509397,-9.038750,-0.271250,-6.728750,-0.096868,0.001220,-0.995032
1895541598,-8.925000,-0.332500,-7.105000,-0.095953,0.003233,-0.996374
1895570275,-9.353750,-0.420000,-6.483750,-0.098027,0.015433,-0.996984
1895611501,-9.257500,-0.297500,-6.641250,-0.095892,0.000732,-0.997167
1895643894,-8.977500,-0.446250,-6.842500,-0.097844,-0.001586,-0.998997
1895673165,-9.231250,-0.236250,-6.956250,-0.098088,0.000976,-0.999241
1895706946,-9.161250,-0.656250,-6.868750,-0.097783,0.000427,-0.997045
1895741176,-9.240000,-0.560000,-6.615000,-0.096685,0.000427,-0.996008
1895770150,-9.091250,-0.568750,-6.658750,-0.096380,0.001159,-0.994056
1895807874,-9.161250,-0.507500,-6.475000,-0.096075,0.001647,-0.997899
1895839096,-9.187500,-0.428750,-6.912500,-0.096685,0.001159,-0.984479
1895869417,-9.388750,-0.472500,-6.973750,-0.097661,0.000549,-0.996313
1895909283,-9.283750,-0.385000,-6.877500,-0.099430,0.000366,-1.011380
1895942226,-9.065000,-0.560000,-7.061250,-0.095160,0.002013,-0.999241
1895972375,-9.047500,-0.463750,-7.017500,-0.095282,0.014823,-0.993995
1896009573,-9.432500,-0.271250,-6.842500,-0.096197,-0.001159,-0.998631
1896040946,-9.476250,-0.525000,-6.825000,-0.098271,0.014640,-0.996008
1896071657,-9.231250,-0.630000,-6.833750,-0.099552,-0.000305,-0.997655
1896107084,-9.301250,-0.560000,-6.973750,-0.096197,-0.000488,-0.997533
1896137734,-9.073750,-0.227500,-6.641250,-0.097539,0.000854,-0.997777
1896168231,-9.240000,-0.682500,-7.070000,-0.096136,0.000366,-0.998021
1896206854,-9.406250,-0.393750,-6.868750,-0.095526,0.000244,-1.001132
1896236497,-9.073750,-0.551250,-6.615000,-0.097295,0.000549,-0.998021
1896268722,-9.205000,-0.586250,-6.790000,-0.096807,-0.000854,-0.996740
1896309194,-9.170000,-0.770000,-6.650000,-0.097905,0.000610,-0.995154
1896341256,-9.301250,0.087500,-6.615000,-0.094550,0.000427,-0.994056
1896371625,-8.960000,-0.516250,-6.693750,-0.096502,0.000183,-0.998997
1896408006,-9.187500,-0.962500,-6.956250,-0.097234,0.001342,-1.000522
1896442037,-9.327500,-0.665000,-6.658750,-0.096807,0.002074,-0.995520
1896471346,-8.933750,-0.621250,-6.790000,-0.096868,0.000488,-0.993934
1896510558,-9.572500,-0.323750,-6.965000,-0.095709,-0.000061,-0.995337
1896543938,-9.441250,-0.603750,-6.912500,-0.093818,0.000061,-0.998021
1896573534,-8.907500,-0.831250,-6.973750,-0.095953,0.001281,-0.998509
1896608724,-8.828750,-0.481250,-6.912500,-0.096075,0.001220,-0.999058
1896637380,-9.196250,-0.297500,-6.877500,-0.097234,0.000427,-0.997472
1896667400,-9.257500,-0.315000,-7.236250,-0.097295,-0.000427,-0.995459
1896705161,-9.310000,-0.437500,-7.008750,-0.096807,0.000793,-0.998265
1896734869,-9.231250,-0.761250,-6.798750,-0.094550,0.000427,-0.994544
1896766352,-9.266250,-0.708750,-6.965000,-0.095648,-0.000366,-0.999119
1896806319,-8.636250,-0.350000,-6.947500,-0.098820,0.000427,-0.996984
1896837304,-9.432500,-0.560000,-6.527500,-0.094367,-0.000366,-0.998143
1896867494,-9.957500,-0.341250,-6.623750,-0.097173,-0.000427,-0.998753
1896908737,-9.222500,-0.105000,-6.422500,-0.095892,0.000488,-1.002291
1896947108,-9.152500,-0.227500,-6.772500,-0.096136,0.000976,-0.995886
1896977961,-9.275000,-0.551250,-7.140000,-0.094245,0.000488,-0.994666
1897009762,-9.275000,-0.735000,-6.448750,-0.095953,0.001281,-0.992653
1897040677,-9.257500,-0.253750,-6.685000,-0.097295,0.000732,-0.994544
1897069476,-8.846250,-0.533750,-6.807500,-0.096990,0.000366,-0.994178
1897110921,-8.933750,-0.446250,-7.131250,-0.098576,0.001159,-0.998021
1897139661,-9.257500,-0.875000,-6.790000,-0.096563,-0.000976,-0.999363
1897169490,-9.345000,-0.376250,-6.860000,-0.096990,0.000732,-0.998753
1897208268,-9.266250,-0.385000,-6.667500,-0.094428,0.000244,-1.000522
1897238890,-9.432500,-0.516250,-6.615000,-0.094794,0.000000,-0.996923
1897269668,-9.275000,-0.253750,-7.122500,-0.094977,0.000854,-0.997472
1897307918,-8.951250,-0.708750,-6.842500,-0.094611,0.001525,-0.995642
1897336444,-8.907500,-0.428750,-6.798750,-0.095770,0.001403,-0.995276
1897366979,-8.942500,-0.236250,-6.518750,-0.094733,0.000610,-0.999851
1897408257,-9.450000,-0.393750,-7.113750,-0.095953,0.000305,-1.000888
1897438816,-8.907500,-0.691250,-6.903750,-0.096441,0.000000,-0.997777
1897468537,-9.161250,-0.253750,-6.825000,-0.098088,0.002501,-0.994361
1897509612,-9.275000,-0.708750,-6.711250,-0.098454,0.000183,-0.998814
1897539187,-9.388750,-0.551250,-6.842500,-0.097112,-0.000183,-0.998936
1897571802,-9.143750,-0.350000,-6.658750,-0.098332,0.001342,-0.997472
1897608412,-9.143750,-0.743750,-6.886250,-0.097905,-0.000061,-1.001864
1897636896,-8.811250,-0.831250,-6.938750,-0.095831,0.001281,-0.998021
1897669094,-9.091250,-0.595000,-6.930000,-0.095953,0.001403,-0.999363
1897707726,-8.960000,-0.472500,-7.280000,-0.095892,-0.000244,-0.996374
1897738197,-8.723750,-0.560000,-7.218750,-0.098515,0.000427,-0.993873
1897771438,-9.152500,-0.332500,-6.816250,-0.096075,-0.000427,-0.998021
1897809222,-8.706250,-0.525000,-7.157500,-0.096441,0.000488,-0.996679
1897839125,-9.275000,-0.516250,-6.860000,-0.097600,0.000061,-0.998692
1897871412,-9.502500,-0.542500,-7.411250,-0.096807,0.001220,-0.998021
1897908780,-9.450000,-0.481250,-7.140000,-0.096258,-0.000244,-1.000217
1897938277,-8.863750,-0.866250,-7.297500,-0.095587,0.000244,-0.997899
1897969722,-9.432500,-0.358750,-6.877500,-0.094245,-0.000793,-0.998631
1898009479,-8.986250,-0.332500,-6.816250,-0.097112,0.000732,-0.998265
1898040049,-9.205000,-0.735000,-6.606250,-0.094672,-0.000122,-0.995764
1898072782,-9.196250,-0.411250,-7.078750,-0.095953,0.000061,-0.994849
1898111088,-9.248750,-0.315000,-6.982500,-0.097722,0.001281,-0.995093
1898142184,-9.598750,-0.603750,-6.895000,-0.096685,0.000183,-0.998692
1898173255,-9.292500,-0.288750,-7.210000,-0.098210,0.000305,-0.997899
1898208942,-9.047500,-0.708750,-7.148750,-0.095343,0.001525,-0.998082
1898239196,-8.837500,-0.848750,-6.965000,-0.097051,0.000671,-0.999302
1898270062,-9.030000,-0.551250,-7.000000,-0.096014,0.000610,-1.001315
1898309874,-9.231250,-0.306250,-6.912500,-0.098149,-0.000610,-0.998509
1898339823,-9.161250,-0.542500,-6.737500,-0.096929,0.001647,-0.998936
1898372370,-9.196250,-0.446250,-6.702500,-0.098454,0.001220,-0.996496
1898410197,-9.371250,-0.131250,-7.087500,-0.097600,0.000732,-0.998936
1898445866,-9.248750,-0.393750,-6.956250,-0.096197,0.014884,-0.996435
1898480429,-9.581250,-0.236250,-6.982500,-0.095953,0.000305,-0.993873
1898511314,-9.117500,-0.551250,-6.868750,-0.096319,0.000305,-0.996191
1898541511,-9.371250,-0.105000,-6.702500,-0.096136,0.000915,-0.995398
1898574450,-9.178750,-0.910000,-6.860000,-0.095587,-0.001037,-0.995520
1898613518,-9.738750,-0.840000,-7.175000,-0.098332,0.001464,-0.996740
1898642462,-9.502500,-0.498750,-6.676250,-0.098637,0.001769,-0.995215
1898674077,-9.353750,-0.708750,-7.017500,-0.097600,0.000427,-0.998082
1898710292,-8.995000,-0.341250,-6.781250,-0.094367,-0.000305,-0.998570
1898741127,-9.345000,-0.105000,-7.113750,-0.094611,0.000305,-0.996008
1898776040,-9.038750,-0.673750,-7.017500,-0.094245,0.000244,-0.993385
1898882748,-9.047500,-0.402500,-7.087500,-0.095221,-0.000732,-0.998204
1898913118,-9.117500,-0.525000,-7.131250,-0.096807,0.000183,-0.996557
1898944584,-9.021250,-0.463750,-6.746250,-0.095038,0.000122,-0.996008
1898978210,-9.520000,-0.542500,-7.087500,-0.097173,-0.000244,-0.997228
1899008714,-8.697500,-0.280000,-6.956250,-0.096502,-0.000244,-0.995642
1899038900,-9.318750,-0.332500,-6.816250,-0.095770,0.001769,-0.998082
1899068692,-9.091250,-0.813750,-6.720000,-0.098576,-0.000183,-0.995581
1899107559,-9.327500,-0.700000,-6.877500,-0.095709,0.000610,-0.996923
1899137587,-9.100000,-0.376250,-7.157500,-0.095160,0.000122,-0.997594
1899166694,-9.056250,-0.682500,-7.131250,-0.098027,0.000915,-0.997289
1899205245,-9.161250,-0.708750,-6.658750,-0.095221,0.000549,-0.994849
1899235395,-8.881250,-0.568750,-7.070000,-0.096136,0.000244,-0.997472
1899266580,-9.126250,-0.726250,-6.947500,-0.096136,-0.000305,-0.996801
1899305049,-9.310000,-0.227500,-7.035000,-0.096685,0.000732,-0.999668
1899334815,-9.353750,-0.455000,-7.297500,-0.098210,0.001525,-0.995276
1899364228,-9.292500,-0.315000,-6.518750,-0.096807,0.001525,-0.994727
1899406161,-9.056250,-0.210000,-7.280000,-0.096319,0.000000,-0.994178
1899436044,-9.266250,-0.533750,-6.702500,-0.095465,-0.000366,-0.997533
1899466415,-9.388750,-0.507500,-7.052500,-0.095770,0.001769,-0.995703
1899508605,-9.100000,-0.332500,-6.650000,-0.095099,0.001159,-0.995459
1899538943,-9.143750,-0.560000,-6.387500,-0.095831,0.000488,-0.996496
1899567659,-8.925000,-0.043750,-6.842500,-0.094489,-0.015250,-0.998631
1899606341,-9.476250,-0.236250,-6.737500,-0.095831,0.000976,-0.998509
1899636543,-9.038750,-0.542500,-7.070000,-0.097173,0.001525,-0.998265
1899666652,-9.108750,-0.437500,-6.938750,-0.096990,0.001952,-0.995154
1899706891,-9.021250,-0.393750,-7.122500,-0.097661,0.001098,-0.994544
1899753685,-9.213750,-0.700000,-6.632500,-0.095831,0.001342,-0.999729
1899810370,-9.065000,-0.621250,-7.035000,-0.095587,0.000488,-0.998631
1899849202,-9.371250,-0.603750,-7.008750,-0.096990,0.000610,-0.996130
1899883852,-9.091250,-0.638750,-6.833750,-0.096868,-0.015067,-0.997960
1899945897,-8.960000,-0.455000,-6.763750,-0.096136,0.001403,-0.994422
1899975858,-9.406250,-0.533750,-6.965000,-0.094855,0.000244,-0.996313
1900012320,-9.292500,-0.358750,-7.323750,-0.094001,0.001098,-0.997655
1900042747,-9.336250,-0.288750,-6.860000,-0.095526,0.000976,-0.998570
1900072247,-9.161250,-0.490000,-6.912500,-0.096075,-0.000671,-1.000095
1900109406,-9.161250,-0.595000,-6.860000,-0.099613,0.001281,-1.000339
1900138223,-9.240000,-0.743750,-7.113750,-0.096746,0.000671,-0.998082
1900168811,-8.925000,-0.411250,-6.833750,-0.097356,0.001037,-0.994605
1900206775,-8.977500,-0.638750,-7.052500,-0.096624,0.000854,-0.992470
1900237965,-9.196250,-0.595000,-6.798750,-0.095587,-0.000976,-0.996984
1900267203,-9.327500,-0.367500,-6.790000,-0.095526,-0.000488,-0.999119
1900308962,-9.555000,-0.647500,-6.693750,-0.096502,0.001281,-0.997228
1900339605,-9.178750,-0.560000,-6.658750,-0.096258,0.014762,-0.993690
1900368081,-9.353750,-0.525000,-6.737500,-0.096624,0.001708,-0.986065
1900409467,-9.082500,-0.533750,-6.798750,-0.096746,0.001403,-0.996618
1900438505,-9.607500,-0.332500,-6.816250,-0.093818,0.000366,-0.993995
1900468674,-9.213750,-0.411250,-6.781250,-0.095526,-0.000793,-0.996069
1900510335,-9.178750,-0.393750,-6.763750,-0.096563,0.000305,-0.997167
1900541628,-9.030000,-0.350000,-6.720000,-0.080337,0.001525,-0.998143
1900573069,-9.310000,-0.603750,-7.122500,-0.098759,0.000488,-0.997411
1900610806,-9.205000,-0.411250,-6.790000,-0.097722,0.000488,-0.997289
1900640638,-9.082500,-0.341250,-6.606250,-0.097051,0.000976,-0.997594
1900671842,-9.388750,-0.560000,-6.711250,-0.096319,0.001891,-0.995459
1900714156,-9.388750,-0.577500,-6.641250,-0.098759,0.000366,-0.999851
1900744436,-8.890000,-0.630000,-6.973750,-0.097722,0.000366,-0.995520
1900773839,-9.187500,-0.420000,-6.492500,-0.095282,0.000427,-0.995459
1900809740,-8.968750,-0.376250,-6.606250,-0.096563,0.001220,-0.996252
1900841027,-9.117500,-0.472500,-7.140000,-0.096319,0.001098,-0.996618
1900871883,-9.327500,-0.288750,-6.685000,-0.097661,-0.000610,-0.997960
1900910718,-8.610000,-0.236250,-6.930000,-0.094245,-0.000061,-0.998082
1900939513,-9.555000,-0.498750,-6.807500,-0.099186,0.000488,-1.000766
1900970289,-9.432500,-0.691250,-7.043750,-0.097905,0.001037,-0.997289
1901011935,-9.362500,-0.551250,-6.781250,-0.097112,-0.012566,-1.000461
1901041879,-8.968750,-0.560000,-6.781250,-0.099125,0.000610,-0.998387
1901072344,-9.108750,-0.332500,-6.947500,-0.094977,0.001769,-0.997045
1901113410,-9.073750,-0.612500,-6.728750,-0.096319,0.001098,-0.994849
1901143117,-9.310000,-0.787500,-6.842500,-0.095892,0.000183,-0.996069
1901174041,-9.205000,-0.700000,-7.218750,-0.098210,0.000122,-0.998326
1901214249,-8.960000,-0.446250,-6.938750,-0.098637,0.000305,-0.999119
1901243785,-9.108750,-0.411250,-6.772500,-0.097905,0.001220,-0.994117
1901274610,-9.257500,-0.472500,-7.035000,-0.095465,-0.000122,-0.998204
1901311242,-9.257500,-0.805000,-7.026250,-0.094489,0.000305,-0.996008
1901341773,-9.808750,-0.621250,-7.157500,-0.097783,0.000000,-0.996679
1901372369,-9.318750,-0.498750,-6.825000,-0.098271,0.001403,-0.999973
1901410252,-9.073750,-0.271250,-7.148750,-0.096258,0.000793,-0.998875
1901446977,-9.073750,-0.271250,-6.886250,-0.098271,0.001464,-0.997167
1901477322,-9.038750,-0.402500,-7.026250,-0.094855,0.001037,-0.997655
1901527298,-9.143750,-0.455000,-7.105000,-0.095831,0.000366,-0.992775
1901558557,-9.607500,-0.411250,-6.763750,-0.096075,0.001342,-0.996679
1901587706,-9.292500,-0.490000,-6.921250,-0.095953,-0.000244,-0.997228
1901620170,-9.441250,-0.463750,-6.720000,-0.096258,0.000854,-0.984967
1901651547,-9.100000,-0.332500,-6.982500,-0.096441,-0.013908,-0.998631
1901680162,-9.240000,-0.420000,-6.641250,-0.098698,0.001708,-0.996252
1901716416,-9.406250,-0.393750,-6.693750,-0.097173,0.000854,-0.995398
1901747419,-9.345000,-0.533750,-6.641250,-0.097783,0.002074,-0.996191
1901778297,-8.767500,-0.621250,-6.667500,-0.094977,0.001098,-0.998509
1901809280,-9.065000,-0.175000,-7.245000,-0.097234,0.002745,-0.996252
1901839155,-9.073750,-0.516250,-7.148750,-0.094733,0.000366,-0.996557
1901869182,-9.082500,-0.420000,-6.833750,-0.096746,0.000793,-0.994910
1901910741,-9.511250,-0.446250,-6.781250,-0.095892,0.000366,-0.995032
1901941653,-9.056250,-0.481250,-6.965000,-0.094001,0.001159,-0.997472
1901971170,-9.345000,-0.393750,-6.982500,-0.097234,0.000183,-0.998265
1902009744,-9.493750,-0.288750,-7.061250,-0.096746,0.001220,-0.998326
1902038299,-9.021250,-0.621250,-6.702500,-0.099308,0.000976,-0.995215
1902067980,-8.995000,-0.560000,-6.737500,-0.097844,0.001037,-0.995825
1902107993,-9.187500,-0.507500,-7.236250,-0.097356,0.001159,-0.995459
1902138194,-9.380000,-0.586250,-6.912500,-0.094123,-0.000549,-0.998387
1902166934,-9.502500,-0.367500,-6.676250,-0.095221,0.001342,-0.995703
1902208639,-8.933750,-0.507500,-6.868750,-0.096380,-0.000122,-0.996069
1902237258,-9.301250,-0.927500,-6.711250,-0.095221,-0.000366,-0.999058
1902267451,-9.047500,-0.822500,-6.982500,-0.097966,0.000793,-0.998387
1902305387,-9.073750,-0.638750,-6.947500,-0.098637,0.000305,-0.998997
1902335737,-9.135000,-0.350000,-7.078750,-0.097844,0.001220,-0.999973
1902364093,-9.257500,-0.507500,-6.912500,-0.094672,0.001952,-0.998875
1902407742,-8.968750,-0.175000,-7.008750,-0.097234,-0.000183,-0.997655
1902439221,-9.318750,-0.437500,-6.851250,-0.098759,0.001281,-0.995947
1902468050,-9.397500,-0.411250,-6.798750,-0.096990,0.001098,-0.995642
1902507164,-9.231250,-0.306250,-6.868750,-0.096441,0.000915,-0.994239
1902535752,-9.415000,-0.297500,-7.078750,-0.097539,0.000061,-0.998692
1902566020,-8.898750,-0.866250,-7.070000,-0.096441,0.000793,-0.995093
1902606337,-8.890000,-0.350000,-6.641250,-0.096624,0.000976,-0.995886
1902637032,-9.248750,-0.472500,-6.790000,-0.096746,0.001098,-0.994361
1902667586,-9.318750,-0.332500,-6.991250,-0.093696,0.000549,-0.993080
1902705957,-9.082500,-0.665000,-6.903750,-0.094733,0.000488,-0.995581
1902737119,-8.785000,-0.612500,-6.982500,-0.096502,0.000000,-0.996984
1902768126,-8.977500,-0.358750,-6.536250,-0.095709,0.001220,-0.994422
1902809626,-9.161250,-0.568750,-7.052500,-0.095221,0.001769,-0.993629
1902840206,-9.152500,-0.708750,-7.227500,-0.097295,0.000122,-0.994666
1902870446,-9.126250,-0.533750,-7.157500,-0.095526,-0.000061,-0.995032
1902908453,-9.528750,-0.813750,-6.825000,-0.095831,0.000793,-0.996374
1902946434,-9.397500,-0.665000,-6.921250,-0.095221,0.000305,-0.993690
1902975280,-9.161250,-0.437500,-7.061250,-0.095953,-0.000061,-0.997472
1903008715,-9.318750,-0.612500,-6.965000,-0.096014,0.001403,-0.998143
1903038914,-9.318750,-0.402500,-6.912500,-0.096319,0.001098,-0.997533
1903069278,-9.205000,-0.656250,-6.982500,-0.096990,0.000488,-0.996618
1903108277,-9.222500,-0.778750,-6.798750,-0.097356,0.001464,-0.994361
1903138746,-8.758750,-0.385000,-6.125000,-0.098332,0.002867,-0.995276
1903167832,-9.030000,-0.542500,-6.842500,-0.094367,0.000976,-0.998265
1903207728,-9.100000,-0.358750,-7.035000,-0.095648,0.001159,-0.993751
1903236808,-9.310000,-0.490000,-7.148750,-0.095038,0.000976,-0.997838
1903268206,-9.301250,-0.490000,-6.868750,-0.096929,0.001159,-0.994056
1903307656,-9.336250,-0.752500,-6.693750,-0.096868,0.015555,-0.997838
1903337284,-9.476250,-0.586250,-6.947500,-0.096624,0.000183,-0.996069
1903366472,-9.222500,-0.315000,-7.087500,-0.096624,0.000305,-0.994361
1903408800,-9.108750,-0.350000,-6.676250,-0.097722,0.000061,-0.994727
1903438376,-9.161250,-0.542500,-7.087500,-0.093818,0.000244,-0.995886
1903468999,-9.178750,-0.148750,-6.483750,-0.095221,0.001586,-0.995703
1903509923,-9.248750,-0.507500,-6.912500,-0.095770,-0.000854,-0.999119
1903540296,-9.038750,-0.577500,-6.597500,-0.095465,0.000061,-0.998448
1903571556,-9.336250,-0.665000,-6.650000,-0.097600,-0.000183,-0.994727
1903611717,-9.327500,-0.848750,-6.816250,-0.096868,0.002989,-0.993873
1903640875,-9.275000,-0.630000,-6.667500,-0.097600,0.000732,-0.997899
1903671324,-9.441250,-0.402500,-6.615000,-0.095953,0.000610,-0.994483
1903708266,-9.388750,-0.621250,-7.061250,-0.095709,0.001037,-0.991311
1903741089,-9.135000,-0.630000,-6.781250,-0.094550,0.000427,-0.997228
1903770170,-8.960000,-0.498750,-6.606250,-0.094489,0.000732,-0.997838
1903809194,-8.942500,-0.726250,-7.070000,-0.096624,0.001098,-0.996252
1903840433,-9.257500,-0.630000,-6.903750,-0.094794,-0.000610,-0.996923
1903869257,-8.828750,-0.498750,-6.991250,-0.096014,-0.000122,-0.997289
1903906222,-9.161250,-0.306250,-6.545000,-0.097417,0.015494,-1.001315
1903937654,-9.047500,-0.481250,-7.166250,-0.096502,-0.000244,-0.997167
1903967403,-9.170000,-0.507500,-6.903750,-0.096197,0.001464,-0.998143
1904010788,-8.898750,-0.227500,-7.577500,-0.098637,0.001098,-0.997228
1904043902,-8.986250,-0.586250,-6.991250,-0.097539,0.000366,-0.994178
1904072767,-9.126250,-0.315000,-6.886250,-0.095892,0.002135,-0.995276
1904113450,-8.837500,-0.306250,-6.615000,-0.096563,0.000122,-0.994361
1904143721,-9.222500,-0.787500,-6.623750,-0.094916,0.000000,-0.997838
1904174055,-9.406250,-0.236250,-6.658750,-0.098271,0.000305,-0.996374
1904212114,-8.828750,-0.630000,-6.825000,-0.096441,0.000549,-0.996069
1904242401,-9.380000,-0.402500,-6.991250,-0.097112,0.001891,-0.998204
1904273473,-9.362500,-0.428750,-6.790000,-0.094855,-0.000610,-0.996862
1904311442,-9.310000,-0.358750,-6.693750,-0.094550,0.000305,-0.998082
1904342347,-9.485000,-0.332500,-7.245000,-0.096441,0.000915,-0.999485
1904370631,-9.108750,-0.481250,-6.746250,-0.095465,0.000732,-0.993141
1904410034,-9.196250,-0.411250,-6.728750,-0.097966,0.002013,-0.993507
1904451669,-9.467500,-0.455000,-6.982500,-0.095099,0.001647,-0.994117
1904481102,-8.995000,-0.568750,-7.008750,-0.096136,0.000305,-0.998326
1904512664,-9.187500,-0.472500,-6.886250,-0.095770,0.000488,-0.999973
1904547490,-9.371250,-0.367500,-6.991250,-0.095953,0.000122,-0.997960
1904578094,-9.432500,-0.341250,-6.886250,-0.095892,0.000427,-0.995154
1904613954,-9.038750,-0.533750,-6.965000,-0.095648,0.000732,-0.995642
1904647279,-9.415000,-0.621250,-6.510000,-0.093574,0.001708,-0.998021
1904676379,-9.283750,-0.568750,-6.641250,-0.097295,0.015250,-0.998387
1904709663,-9.380000,-0.498750,-6.781250,-0.098637,-0.000671,-0.998082
1904756153,-9.091250,-0.175000,-6.886250,-0.097478,0.000122,-0.983930
1904786961,-9.231250,-0.481250,-7.043750,-0.094916,0.000732,-0.997899
1904835388,-9.213750,-1.058750,-6.930000,-0.097661,0.000671,-0.997350
1904872725,-9.362500,-0.192500,-6.851250,-0.097356,0.001586,-0.998692
1904938295,-9.283750,-0.341250,-7.087500,-0.092964,0.001037,-0.997533
1904968713,-9.283750,-0.376250,-6.877500,-0.094733,0.000793,-0.991921
1905009085,-9.222500,-0.743750,-6.930000,-0.095648,0.001403,-0.995581
1905037654,-9.073750,-0.455000,-6.702500,-0.094672,0.000244,-0.995886
1905067959,-9.126250,-0.726250,-6.702500,-0.095770,0.000366,-0.998326
1905107368,-9.213750,-0.350000,-6.536250,-0.096075,0.000000,-0.995337
1905137768,-9.248750,-0.656250,-7.026250,-0.095648,-0.000183,-0.996557
1905166583,-9.073750,-0.796250,-6.877500,-0.094916,0.001098,-0.997777
1905205900,-9.231250,-0.385000,-6.580000,-0.097234,0.000610,-1.001315
1905236202,-9.170000,-0.761250,-6.938750,-0.096624,0.001159,-0.996191
1905267076,-9.003750,-0.446250,-6.720000,-0.097417,0.001464,-0.999607
1905308638,-9.222500,-0.455000,-6.912500,-0.096929,-0.001220,-1.013210
1905337891,-9.458750,-0.498750,-6.650000,-0.096258,0.000488,-0.994605
1905369007,-9.310000,-0.280000,-7.000000,-0.097722,-0.000366,-0.994239
1905409225,-9.187500,-0.577500,-6.842500,-0.095465,0.001281,-0.995764
1905437734,-9.353750,-0.533750,-6.492500,-0.094245,0.001281,-0.995642
1905468330,-8.811250,-0.472500,-6.650000,-0.098576,-0.000183,-0.996252
1905508410,-8.968750,-0.227500,-6.676250,-0.096197,0.000549,-0.995642
1905538846,-9.406250,-0.603750,-6.615000,-0.097966,-0.001647,-0.997838
1905570436,-9.003750,-0.560000,-6.991250,-0.096990,0.000610,-0.997289
1905611490,-9.143750,-0.516250,-7.140000,-0.096014,0.000061,-0.994300
1905642206,-8.925000,-0.822500,-6.965000,-0.095587,0.000732,-0.995825
1905675122,-9.467500,-0.621250,-6.973750,-0.095648,0.000915,-0.995337
1905709850,-9.292500,-0.402500,-6.448750,-0.094672,0.001830,-0.995337
1905739944,-9.362500,-0.708750,-6.781250,-0.097112,0.000183,-0.996984
1905773000,-8.767500,-0.420000,-7.026250,-0.096563,0.000793,-0.997716
1905811309,-9.196250,-0.358750,-7.271250,-0.096441,0.001708,-0.997777
1905840754,-9.012500,-0.586250,-7.043750,-0.094794,0.000305,-0.997716
1905874274,-9.336250,-0.253750,-6.790000,-0.094367,-0.000549,-0.997045
1905911566,-9.135000,-0.402500,-6.903750,-0.097051,0.000976,-0.996069
1905950577,-9.415000,-0.428750,-6.877500,-0.097905,0.001769,-0.997289
1905979795,-8.933750,-0.927500,-6.763750,-0.094794,0.000366,-0.995947
1906013396,-9.082500,-0.551250,-6.868750,-0.096075,0.000549,-0.996374
1906043335,-9.231250,-0.253750,-6.877500,-0.095099,0.001403,-0.998387
1906076516,-8.837500,-0.393750,-6.947500,-0.098698,0.002013,-0.994239
1906113838,-9.362500,-0.367500,-6.755000,-0.096441,0.000427,-0.997167
1906143704,-9.415000,-0.262500,-6.693750,-0.095709,0.001281,-0.998814
1906175944,-9.021250,-0.708750,-6.597500,-0.096441,0.000183,-0.999424
1906209671,-9.108750,-0.376250,-6.938750,-0.096502,0.000671,-1.001132
1906239588,-9.205000,-0.883750,-6.238750,-0.096868,0.001159,-0.998936
1906271670,-9.178750,-0.787500,-6.693750,-0.093635,0.000854,-0.992897
1906311234,-9.240000,-0.542500,-6.807500,-0.095770,0.000244,-0.995276
1906341472,-8.890000,-0.603750,-6.623750,-0.096746,0.001708,-0.998204
1906372824,-9.126250,-0.577500,-6.448750,-0.097417,-0.000305,-1.001254
1906411925,-9.266250,-0.796250,-6.720000,-0.097600,0.000122,-0.998570
1906441326,-9.126250,-0.280000,-6.965000,-0.096258,0.001830,-0.998326
1906472816,-8.995000,-0.437500,-7.148750,-0.095831,0.000854,-0.996191
1906510135,-9.100000,-0.717500,-6.982500,-0.096502,0.002074,-0.995215
1906539041,-9.301250,-0.148750,-6.606250,-0.097234,-0.000305,-0.996069
1906573455,-8.872500,-0.490000,-7.218750,-0.098271,0.014823,-1.000339
1906609703,-9.126250,-0.428750,-7.000000,-0.097295,0.001525,-0.998753
1906641305,-9.012500,-0.201250,-6.877500,-0.097661,0.000488,-1.000827
1906671208,-9.178750,-0.647500,-6.685000,-0.096380,0.000671,-0.995642
1906709540,-9.240000,-0.577500,-7.341250,-0.096685,0.002318,-0.995337
1906740108,-9.161250,-0.446250,-6.781250,-0.096075,0.001281,-0.994239
1906771152,-9.240000,-0.437500,-6.562500,-0.095465,0.000427,-0.998509
1906812088,-9.030000,-0.385000,-6.755000,-0.096441,0.015250,-0.995337
1906840851,-9.117500,-0.472500,-6.921250,-0.095587,0.001342,-0.998509
1906872681,-9.257500,-0.656250,-6.623750,-0.097600,0.000488,-0.996191
1906911863,-8.986250,-0.358750,-6.685000,-0.098088,0.000671,-0.998814
1906941731,-9.327500,-0.446250,-6.965000,-0.095160,0.001037,-0.994605
1906974055,-8.968750,-0.428750,-6.658750,-0.095648,0.000061,-0.998387
1907012939,-9.362500,-0.376250,-6.580000,-0.097905,0.000915,-0.999119
1907042438,-9.143750,-0.638750,-7.078750,-0.096075,0.000488,-0.997045
1907074401,-9.047500,-0.682500,-7.035000,-0.096563,0.000732,-0.996374
1907111161,-9.476250,-0.665000,-7.385000,-0.097966,-0.014091,-0.996740
1907141899,-8.977500,-0.586250,-6.632500,-0.095709,0.001037,-0.994849
1907171351,-9.397500,-0.411250,-6.772500,-0.093757,0.001464,-0.995154
1907209744,-9.178750,-0.560000,-7.017500,-0.094916,-0.000061,-0.995703
1907240766,-9.345000,-0.586250,-6.912500,-0.095831,0.000366,-0.994971
1907272955,-9.450000,-0.358750,-6.877500,-0.097234,0.000549,-0.996984
1907311680,-9.362500,-0.315000,-6.965000,-0.095282,0.000793,-0.996435
1907342808,-9.108750,-0.175000,-6.632500,-0.097051,0.000549,-0.999546
1907371910,-8.942500,-0.691250,-6.947500,-0.098027,0.000366,-0.999729
1907410763,-9.257500,-0.218750,-7.140000,-0.096380,0.001464,-0.997899
1907440271,-8.583750,-0.472500,-6.965000,-0.095160,0.000854,-1.008452
1907469353,-9.021250,-0.796250,-7.052500,-0.094001,0.001464,-0.995459
1907507002,-9.345000,-0.332500,-7.061250,-0.098271,0.001281,-0.997167
1907536695,-9.283750,-0.507500,-6.606250,-0.098210,0.000000,-0.996740
1907566004,-9.047500,-0.507500,-6.720000,-0.095953,0.000976,-0.998326
1907608433,-9.178750,-0.472500,-7.052500,-0.096441,0.001281,-0.996923
1907638504,-9.283750,-0.227500,-7.140000,-0.094245,0.000793,-0.998326
1907667839,-9.397500,-0.105000,-7.061250,-0.095892,0.000549,-0.997350
1907708640,-9.423750,-0.253750,-7.026250,-0.096929,0.000061,-0.996496
1907739985,-9.056250,-0.350000,-7.017500,-0.096014,0.000671,-0.999180
1907768449,-9.065000,-0.455000,-7.000000,-0.096868,-0.000244,-0.999546
1907806172,-9.231250,-0.691250,-6.825000,-0.095404,0.001037,-0.999058
1907836018,-9.222500,-0.498750,-7.000000,-0.099186,0.000427,-0.999424
1907864479,-8.925000,-0.778750,-6.641250,-0.094855,-0.000305,-0.997106
1907905419,-9.222500,-0.630000,-6.737500,-0.095709,0.000000,-0.995215
1907934159,-9.143750,-0.306250,-6.711250,-0.095892,0.000671,-0.997167
1907965053,-9.257500,-0.420000,-6.737500,-0.097051,-0.000793,-1.001010
1908004202,-8.942500,-0.805000,-6.895000,-0.098515,0.000183,-0.998936
1908034316,-8.933750,-0.437500,-6.886250,-0.096807,0.000976,-0.997350
1908065643,-9.248750,-0.192500,-7.218750,-0.096807,0.001037,-0.994300
1908103064,-9.178750,-0.533750,-7.157500,-0.097295,0.000122,-0.995337
1908131628,-9.152500,-0.647500,-6.816250,-0.097234,0.000305,-0.998936
1908162311,-9.012500,-0.796250,-6.938750,-0.097600,0.000427,-0.998204
1908205708,-9.082500,-0.595000,-6.685000,-0.096563,-0.001098,-1.001742
1908235022,-9.266250,-0.612500,-7.122500,-0.096563,0.000610,-1.001254
1908264983,-9.100000,-0.472500,-6.728750,-0.095038,0.000000,-0.999363
1908305684,-9.126250,-0.341250,-6.580000,-0.097478,0.000610,-0.998997
1908335957,-9.091250,-0.656250,-6.615000,-0.097295,0.000915,-0.996984
1908366117,-8.715000,-0.463750,-6.790000,-0.095526,0.000732,-0.996984
1908408523,-9.117500,-0.087500,-6.702500,-0.096990,0.002196,-0.998753
1908437223,-9.677500,-0.735000,-6.571250,-0.096258,0.000976,-0.996069
1908466743,-9.056250,-0.393750,-6.711250,-0.095831,0.000549,-0.997716
1908510887,-9.275000,-0.691250,-6.580000,-0.093879,0.001037,-0.996374
1908540186,-9.458750,-0.420000,-6.930000,-0.094916,-0.000427,-0.996374
1908570692,-9.126250,-0.691250,-6.676250,-0.094123,-0.000183,-0.997838
1908615416,-8.837500,-0.612500,-6.842500,-0.094794,0.015433,-0.994483
1908645996,-9.371250,-0.735000,-6.693750,-0.096075,-0.000244,-0.998448
1908676097,-9.248750,-0.358750,-6.650000,-0.095526,-0.000122,-0.998143
1908714002,-9.362500,-0.586250,-6.790000,-0.097966,0.000915,-0.999424
1908744861,-8.995000,-0.420000,-6.798750,-0.096746,0.001891,-0.999424
1908775209,-9.222500,-0.463750,-6.641250,-0.095953,0.000915,-0.998814
1908816005,-9.467500,-0.376250,-7.026250,-0.098332,-0.000061,-0.999241
1908846583,-9.362500,-0.516250,-6.676250,-0.097966,0.000061,-1.000400
1908876643,-9.170000,-0.332500,-6.518750,-0.097844,0.001098,-0.998997
1908916182,-8.741250,-0.673750,-7.043750,-0.096868,0.015494,-1.000095
1908953725,-9.038750,-0.271250,-7.087500,-0.098332,-0.015189,-0.984113
1908984737,-9.073750,-0.402500,-6.737500,-0.097356,0.000305,-0.999302
1909016268,-9.502500,-0.516250,-7.113750,-0.097356,0.000732,-1.000034
1909045808,-9.415000,-0.612500,-7.175000,-0.097051,0.000549,-0.997899
1909077216,-9.275000,-0.402500,-6.728750,-0.095953,-0.013481,-0.997838
1909117997,-9.563750,-0.577500,-6.982500,-0.097539,0.000915,-1.000400
1909146983,-9.056250,-0.428750,-6.763750,-0.097966,0.000854,-0.997106
1909176417,-9.432500,-0.577500,-6.370000,-0.098698,0.001708,-0.994544
1909212701,-9.406250,-0.516250,-6.545000,-0.095831,0.000671,-0.997655
1909242464,-9.038750,-0.533750,-6.903750,-0.095709,-0.000671,-0.999607
1909272760,-9.091250,-0.288750,-6.947500,-0.098515,0.000793,-0.998753
1909313773,-9.082500,-0.726250,-6.877500,-0.095709,-0.000305,-0.997472
1909345585,-9.047500,-0.463750,-6.982500,-0.096868,0.000976,-1.008635
1909374922,-8.951250,-0.542500,-6.921250,-0.096868,0.000610,-0.996130
1909412676,-9.161250,-0.647500,-7.122500,-0.097783,0.002196,-0.995459
1909442681,-9.231250,-0.411250,-6.746250,-0.095404,0.000671,-0.995093
1909473284,-9.345000,-0.568750,-6.903750,-0.096380,-0.000305,-0.998814
1909514603,-9.388750,-0.778750,-6.501250,-0.094855,0.001525,-0.993629
1909545099,-9.397500,-0.262500,-6.921250,-0.095099,0.000244,-0.997716
1909574316,-9.126250,-0.717500,-6.702500,-0.095587,0.000427,-0.998692
1909626846,-9.257500,-0.586250,-6.798750,-0.095221,0.000732,-0.997350
1909656198,-9.257500,-0.665000,-6.825000,-0.099247,0.001830,-0.997411
1909687468,-9.091250,-0.516250,-6.676250,-0.095343,0.000610,-0.996618
1909718529,-9.170000,-0.673750,-6.527500,-0.095587,0.000366,-0.995032
1909761063,-9.187500,-0.358750,-7.052500,-0.096746,0.000305,-0.996069
1909808803,-9.257500,-0.656250,-6.737500,-0.096380,0.000488,-0.994178
1909847774,-9.056250,-0.673750,-6.851250,-0.097234,0.001098,-0.998814
1909881960,-9.310000,-0.498750,-6.886250,-0.094855,0.001098,-0.996679
1909940229,-9.450000,-0.507500,-6.895000,-0.097051,0.000427,-0.998021
1909969623,-9.423750,-0.428750,-6.851250,-0.098881,0.000183,-0.996679
1910010749,-9.458750,-0.341250,-6.763750,-0.094245,-0.000427,-0.997594
1910040315,-9.222500,-0.525000,-6.912500,-0.099064,0.001098,-0.993690
1910071000,-9.231250,-0.096250,-6.763750,-0.096502,0.003172,-0.997411
1910111142,-9.003750,-0.192500,-6.982500,-0.097539,0.001708,-0.994117
1910141291,-9.240000,-0.682500,-6.781250,-0.095587,0.000671,-0.995215
1910173470,-9.152500,-0.446250,-7.017500,-0.095038,0.000915,-0.997106
1910212059,-8.951250,-0.568750,-7.192500,-0.094245,-0.001647,-0.998570
1910243206,-9.205000,-0.201250,-6.886250,-0.097356,0.000549,-0.997228
1910272079,-8.951250,-0.420000,-6.991250,-0.097234,0.001708,-0.996679
1910310461,-9.485000,-0.350000,-6.886250,-0.097234,0.001159,-0.997472
1910342955,-9.152500,-0.332500,-6.448750,-0.098271,0.000000,-0.997655
1910374498,-9.038750,-0.577500,-6.755000,-0.095953,0.000671,-0.996313
1910413561,-9.406250,-0.673750,-7.262500,-0.098332,-0.000061,-0.997472
1910442955,-9.563750,-0.332500,-7.000000,-0.095831,-0.000183,-0.995215
1910473236,-8.610000,-0.253750,-7.227500,-0.095892,0.002013,-0.996069
1910512563,-9.283750,-0.358750,-7.131250,-0.096136,0.000854,-0.995154
1910544254,-9.292500,-0.210000,-6.833750,-0.096380,0.002318,-0.997533
1910575855,-8.872500,-0.595000,-7.043750,-0.096746,0.000427,-0.996984
1910613930,-8.986250,-0.463750,-7.017500,-0.096563,0.000793,-0.998753
1910643230,-9.266250,-0.735000,-6.571250,-0.096868,0.001403,-0.995581
1910674674,-8.907500,-0.612500,-7.157500,-0.093818,0.001403,-0.998753
1910712264,-9.353750,-0.638750,-7.166250,-0.096014,0.001220,-1.000278
1910741831,-9.117500,-0.411250,-6.755000,-0.096502,-0.001647,-1.000400
1910773114,-8.925000,-0.455000,-7.131250,-0.095648,0.001830,-0.997716
1910813897,-9.458750,-0.376250,-7.096250,-0.097112,0.000000,-0.996984
1910844971,-8.881250,-0.341250,-6.352500,-0.096685,-0.000610,-0.997228
1910874371,-8.951250,-0.350000,-6.763750,-0.096075,0.001952,-0.994483
1910910837,-9.607500,-0.507500,-6.816250,-0.093147,0.001525,-0.994483
1910941252,-9.336250,-0.288750,-6.562500,-0.095709,0.000122,-0.994056
1910970841,-8.925000,-0.647500,-6.588750,-0.096197,0.000793,-0.997777
1911009044,-9.371250,-0.350000,-6.580000,-0.096319,0.000122,-0.998692
1911038940,-9.108750,-0.752500,-7.026250,-0.097051,0.001342,-0.996923
1911069651,-9.047500,-0.568750,-6.833750,-0.096197,0.001403,-0.996984
1911109195,-9.003750,-0.437500,-7.026250,-0.095831,0.015494,-0.995642
1911141230,-9.161250,-0.463750,-6.746250,-0.096929,0.000976,-0.995947
1911170466,-8.960000,-0.472500,-6.685000,-0.096075,-0.000915,-0.994971
1911209478,-8.671250,-0.253750,-6.606250,-0.096990,0.001159,-0.997289
1911240432,-9.091250,-0.726250,-6.930000,-0.096929,-0.000244,-0.998875
1911271175,-9.161250,-0.288750,-6.685000,-0.096685,0.000305,-0.997960
1911311536,-9.108750,-0.516250,-7.245000,-0.096624,0.000305,-1.000461
1911341721,-8.986250,-0.533750,-6.641250,-0.097234,0.002074,-0.995703
1911373057,-9.397500,-0.218750,-6.868750,-0.096014,-0.000305,-0.996801
1911412357,-9.397500,-0.315000,-6.895000,-0.094611,0.000000,-0.994605
1911444307,-9.563750,-0.542500,-6.790000,-0.095526,0.000549,-0.997411
1911474603,-9.292500,-0.262500,-7.043750,-0.095343,-0.000793,-0.999302
1911513376,-9.248750,-0.525000,-7.175000,-0.095587,-0.000244,-1.001559
1911542430,-8.758750,-0.271250,-6.728750,-0.096380,0.001403,-0.996801
1911573864,-9.292500,-0.525000,-6.658750,-0.096868,0.000915,-0.996984
1911611056,-9.283750,-0.472500,-6.790000,-0.096197,0.000610,-0.996374
1911646623,-9.432500,-0.761250,-7.052500,-0.096441,0.000122,-0.994239
1911678344,-9.012500,-0.831250,-6.352500,-0.099247,0.001403,-0.999302
1911712258,-9.152500,-0.350000,-6.895000,-0.097783,0.001098,-0.997533
1911745718,-9.248750,-0.560000,-6.895000,-0.096807,0.001464,-0.994178
1911775018,-9.257500,-0.227500,-6.807500,-0.096014,0.000122,-0.996191
1911815042,-9.152500,-0.271250,-6.781250,-0.097905,-0.000122,-0.997533
1911847439,-9.030000,-0.577500,-6.746250,-0.095587,0.000305,-0.996862
1911876409,-9.432500,-0.236250,-6.772500,-0.097417,0.000976,-0.997106
1911912832,-9.380000,-0.638750,-7.035000,-0.097722,0.000244,-0.994483
1911944605,-8.960000,-0.647500,-6.825000,-0.095587,0.000122,-0.997167
1911975158,-9.406250,-0.490000,-6.860000,-0.096319,-0.000549,-0.997411
1912012395,-9.065000,-0.481250,-6.816250,-0.097661,0.000976,-0.997289
1912044058,-9.117500,-0.507500,-6.728750,-0.094184,0.000915,-0.994544
1912074623,-9.371250,-0.892500,-6.335000,-0.097844,0.001220,-0.998387
1912113053,-9.213750,-0.035000,-7.035000,-0.096868,-0.000366,-1.000217
1912141625,-9.301250,-0.726250,-6.650000,-0.096807,0.000915,-0.996374
1912172204,-9.292500,-0.393750,-6.816250,-0.095648,0.000122,-0.995154
1912210971,-9.073750,-0.805000,-6.816250,-0.093879,0.000549,-0.996679
1912241568,-9.152500,-0.192500,-6.816250,-0.096319,-0.015128,-0.998631
1912271041,-9.126250,-0.560000,-6.956250,-0.096746,0.000488,-0.998326
1912311183,-9.310000,-0.288750,-6.440000,-0.097722,0.001403,-1.001498
1912341093,-9.432500,-0.393750,-6.720000,-0.095892,0.000549,-0.992958
1912370580,-9.388750,-0.735000,-6.702500,-0.096136,-0.000549,-0.997838
1912410671,-9.065000,-0.813750,-6.772500,-0.095709,0.000244,-0.997411
1912440693,-9.091250,-0.455000,-6.685000,-0.096319,0.000610,-0.996557
1912469894,-9.266250,-0.577500,-6.816250,-0.096502,0.000732,-0.998753
1912511590,-9.607500,-0.665000,-7.035000,-0.095953,0.000427,-0.997716
1912541124,-9.196250,-0.717500,-6.658750,-0.096624,0.000183,-0.997167
1912571944,-9.213750,-0.691250,-6.781250,-0.096258,-0.001464,-0.998204
1912609161,-8.662500,-0.752500,-7.008750,-0.098576,0.000488,-0.996008
1912639263,-9.423750,-0.245000,-6.711250,-0.095648,0.001037,-0.995886
1912667646,-9.266250,-0.551250,-6.868750,-0.096258,0.001647,-0.995886
1912708002,-9.345000,-0.271250,-6.641250,-0.095282,0.001098,-0.994971
1912737581,-9.318750,-0.315000,-7.026250,-0.095587,0.001159,-0.995642
1912767684,-9.126250,-0.612500,-6.921250,-0.097478,0.000610,-0.996679
1912808735,-8.872500,-0.113750,-7.008750,-0.096746,0.002135,-0.998326
1912837969,-9.546250,-0.393750,-6.623750,-0.097783,0.000732,-0.994422
1912868164,-8.951250,-0.428750,-6.781250,-0.096685,-0.000244,-0.995947
1912907454,-9.196250,-0.201250,-7.000000,-0.095160,-0.000854,-0.997350
1912935940,-9.301250,-0.638750,-6.947500,-0.096136,0.001098,-0.997838
1912967621,-8.977500,-0.280000,-6.667500,-0.098393,0.000549,-0.998509
1913008984,-9.073750,-0.700000,-6.912500,-0.097234,0.001525,-0.995215
1913038399,-9.677500,-0.227500,-6.711250,-0.098088,-0.000061,-0.996313
1913069031,-9.073750,-0.726250,-6.965000,-0.095160,0.000122,-0.997838
1913107708,-9.660000,-0.612500,-6.921250,-0.098271,-0.000244,-0.999058
1913138088,-9.056250,-0.647500,-6.947500,-0.098088,0.002074,-0.995886
