1425246200.006817,0.126297,0.388912,-0.005630,-0.010019,-0.000227,-0.051128
1425246200.007439,0.126294,0.388914,-0.005639,-0.010096,0.000014,-0.051138
1425246200.007628,0.126293,0.388906,-0.005643,-0.009931,-0.000164,-0.051147
1425246200.007801,0.126288,0.388911,-0.005642,-0.010011,-0.000160,-0.051131
1425246200.007969,0.126293,0.388913,-0.005641,-0.010003,-0.000148,-0.051141
1425246200.013734,0.126293,0.388907,-0.005642,-0.009935,-0.000084,-0.051162
1425246200.014012,0.126288,0.388917,-0.005643,-0.010009,0.000004,-0.051215
1425246200.017085,0.126298,0.388919,-0.005635,-0.009978,-0.000195,-0.051157
1425246200.021313,0.126284,0.388918,-0.005640,-0.009994,-0.000269,-0.051197
1425246200.027191,0.126297,0.388923,-0.005645,-0.010001,-0.000086,-0.051120
1425246200.030273,0.126301,0.388914,-0.005644,-0.009938,-0.000293,-0.051150
1425246200.034651,0.126291,0.388924,-0.005646,-0.009935,-0.000116,-0.051158
1425246200.038865,0.126297,0.388913,-0.005635,-0.010004,-0.000098,-0.051222
1425246200.043803,0.126292,0.388913,-0.005635,-0.010008,-0.000127,-0.051131
1425246200.048176,0.126291,0.388917,-0.005637,-0.009986,-0.000036,-0.051137
1425246200.052088,0.126293,0.388911,-0.005638,-0.009950,-0.000099,-0.051107
1425246200.057164,0.126296,0.388909,-0.005644,-0.009996,-0.000120,-0.051131
1425246200.060730,0.126292,0.388908,-0.005647,-0.009971,-0.000175,-0.051151
1425246200.065928,0.126298,0.388917,-0.005633,-0.009989,-0.000148,-0.051112
1425246200.070285,0.126285,0.388919,-0.005643,-0.009929,-0.000280,-0.051124
1425246200.073804,0.126291,0.388915,-0.005639,-0.009925,-0.000206,-0.051165
1425246200.078365,0.126293,0.388911,-0.005650,-0.009973,-0.000157,-0.051161
1425246200.082741,0.126297,0.388917,-0.005636,-0.010048,-0.000129,-0.051170
1425246200.087591,0.126292,0.388903,-0.005661,-0.010058,0.000092,-0.051120
1425246200.091467,0.126295,0.388904,-0.005651,-0.009886,-0.000260,-0.051150
1425246200.095830,0.126306,0.388904,-0.005648,-0.010035,-0.000152,-0.051198
1425246200.100927,0.126289,0.388908,-0.005653,-0.009923,-0.000242,-0.051150
1425246200.104461,0.126294,0.388902,-0.005650,-0.010019,-0.000216,-0.051161
1425246200.109440,0.126292,0.388913,-0.005646,-0.009959,-0.000167,-0.051213
1425246200.113620,0.126284,0.388915,-0.005643,-0.010034,-0.000149,-0.051169
1425246200.132341,0.126288,0.388899,-0.005655,-0.009944,-0.000162,-0.051130
1425246200.132825,0.126291,0.388906,-0.005654,-0.010035,-0.000100,-0.051132
1425246200.133024,0.126291,0.388903,-0.005643,-0.010076,-0.000228,-0.051160
1425246200.133197,0.126292,0.388902,-0.005641,-0.010050,-0.000263,-0.051102
1425246200.136687,0.126288,0.388903,-0.005646,-0.010048,-0.000153,-0.051083
1425246200.139546,0.126282,0.388905,-0.005652,-0.010041,-0.000272,-0.051114
1425246200.144154,0.126290,0.388906,-0.005651,-0.010002,-0.000167,-0.051119
1425246200.149324,0.126283,0.388905,-0.005663,-0.010025,-0.000225,-0.051117
1425246200.152871,0.126292,0.388899,-0.005646,-0.010068,-0.000199,-0.051167
1425246200.157572,0.126296,0.388901,-0.005656,-0.009941,-0.000179,-0.051136
1425246200.161819,0.126288,0.388905,-0.005636,-0.010053,-0.000105,-0.051120
1425246200.166206,0.126295,0.388905,-0.005651,-0.009924,-0.000244,-0.051142
1425246200.170659,0.126286,0.388900,-0.005662,-0.009934,-0.000245,-0.051154
1425246200.174879,0.126285,0.388905,-0.005656,-0.009941,-0.000212,-0.051124
1425246200.179351,0.126292,0.388896,-0.005652,-0.010026,-0.000154,-0.051163
1425246200.183115,0.126292,0.388911,-0.005653,-0.010045,-0.000297,-0.051111
1425246200.187564,0.126286,0.388909,-0.005653,-0.009995,-0.000030,-0.051158
1425246200.191855,0.126290,0.388899,-0.005656,-0.009991,-0.000232,-0.051113
1425246200.196253,0.126293,0.388906,-0.005644,-0.009965,-0.000252,-0.051138
1425246200.200769,0.126287,0.388903,-0.005662,-0.010033,-0.000273,-0.051131
1425246200.205715,0.126286,0.388911,-0.005655,-0.009952,-0.000198,-0.051132
1425246200.209710,0.126297,0.388906,-0.005643,-0.010025,-0.000293,-0.051118
1425246200.213674,0.126296,0.388900,-0.005652,-0.009949,-0.000367,-0.051127
1425246200.218275,0.126296,0.388903,-0.005649,-0.009937,-0.000373,-0.051153
1425246200.234192,0.126295,0.388906,-0.005648,-0.009999,-0.000275,-0.051144
1425246200.234484,0.126292,0.388912,-0.005650,-0.009964,-0.000196,-0.051178
1425246200.234828,0.126293,0.388906,-0.005651,-0.010016,-0.000149,-0.051136
1425246200.236152,0.126290,0.388910,-0.005654,-0.009953,-0.000243,-0.051144
1425246200.240355,0.126291,0.388903,-0.005661,-0.009997,-0.000255,-0.051107
1425246200.244417,0.126300,0.388912,-0.005640,-0.009929,-0.000369,-0.051192
1425246200.248851,0.126298,0.388903,-0.005651,-0.009967,-0.000308,-0.051115
1425246200.253412,0.126293,0.388909,-0.005640,-0.009902,-0.000374,-0.051146
1425246200.258349,0.126301,0.388904,-0.005636,-0.010028,-0.000214,-0.051139
1425246200.262022,0.126296,0.388906,-0.005632,-0.009976,-0.000470,-0.051106
1425246200.266677,0.126300,0.388910,-0.005641,-0.010058,-0.000394,-0.051086
1425246200.270847,0.126294,0.388910,-0.005649,-0.009971,-0.000400,-0.051146
1425246200.275076,0.126289,0.388908,-0.005649,-0.009949,-0.000260,-0.051140
1425246200.279650,0.126294,0.388909,-0.005646,-0.010073,-0.000235,-0.051097
1425246200.283906,0.126294,0.388905,-0.005641,-0.010021,-0.000340,-0.051049
1425246200.288156,0.126298,0.388911,-0.005641,-0.009987,-0.000495,-0.051060
1425246200.293618,0.126288,0.388902,-0.005644,-0.010069,-0.000227,-0.051090
1425246200.297259,0.126297,0.388909,-0.005636,-0.010069,-0.000477,-0.051082
1425246200.301523,0.126293,0.388906,-0.005643,-0.009994,-0.000224,-0.051103
1425246200.305709,0.126286,0.388907,-0.005641,-0.009973,-0.000313,-0.051062
1425246200.310269,0.126292,0.388899,-0.005640,-0.009972,-0.000339,-0.051147
1425246200.315406,0.126299,0.388899,-0.005631,-0.010044,-0.000178,-0.051114
1425246200.332841,0.126280,0.388899,-0.005646,-0.009914,-0.000290,-0.051122
1425246200.333154,0.126290,0.388908,-0.005631,-0.010080,-0.000007,-0.051143
1425246200.333486,0.126290,0.388906,-0.005648,-0.009977,-0.000132,-0.051053
1425246200.333664,0.126289,0.388912,-0.005643,-0.009964,-0.000133,-0.051156
1425246200.337058,0.126291,0.388911,-0.005631,-0.009938,-0.000154,-0.051132
1425246200.341275,0.126291,0.388917,-0.005647,-0.010013,0.000020,-0.051163
1425246200.346025,0.126295,0.388923,-0.005629,-0.009967,-0.000155,-0.051159
1425246200.349568,0.126292,0.388909,-0.005631,-0.010085,-0.000088,-0.051102
1425246200.354285,0.126291,0.388919,-0.005632,-0.010117,-0.000023,-0.051153
1425246200.359140,0.126293,0.388916,-0.005629,-0.009979,-0.000151,-0.051171
1425246200.363481,0.126294,0.388915,-0.005634,-0.009952,-0.000114,-0.051189
1425246200.367276,0.126294,0.388908,-0.005625,-0.009924,-0.000156,-0.051182
1425246200.371883,0.126290,0.388911,-0.005632,-0.009860,-0.000240,-0.051167
1425246200.376847,0.126290,0.388914,-0.005631,-0.009995,-0.000110,-0.051144
1425246200.380202,0.126293,0.388919,-0.005631,-0.010014,-0.000077,-0.051148
1425246200.385838,0.126298,0.388914,-0.005623,-0.010013,-0.000155,-0.051119
1425246200.389224,0.126288,0.388916,-0.005631,-0.009974,0.000071,-0.051172
1425246200.393792,0.126297,0.388906,-0.005643,-0.009902,-0.000120,-0.051148
1425246200.398042,0.126222,0.389032,-0.005791,-0.010616,-0.000044,-0.050980
1425246200.402676,0.126298,0.388911,-0.005650,-0.009965,-0.000013,-0.051171
1425246200.406988,0.126281,0.388923,-0.005650,-0.009917,-0.000285,-0.051107
1425246200.411157,0.126288,0.388923,-0.005636,-0.009952,-0.000158,-0.051154
1425246200.415506,0.126288,0.388915,-0.005652,-0.009881,-0.000202,-0.051157
1425246200.433422,0.126216,0.389024,-0.005809,-0.010641,-0.000245,-0.050976
1425246200.435023,0.126290,0.388921,-0.005650,-0.009901,-0.000307,-0.051024
1425246200.435624,0.126292,0.388923,-0.005647,-0.009903,-0.000270,-0.051105
1425246200.435995,0.126293,0.388923,-0.005643,-0.010003,-0.000150,-0.051129
1425246200.438907,0.126294,0.388913,-0.005640,-0.009937,-0.000280,-0.051182
1425246200.443274,0.126286,0.388910,-0.005653,-0.009986,-0.000351,-0.051038
1425246200.447584,0.126295,0.388918,-0.005649,-0.009955,-0.000266,-0.051080
1425246200.451975,0.126295,0.388913,-0.005648,-0.010031,-0.000352,-0.051106
1425246200.456561,0.126290,0.388913,-0.005645,-0.009944,-0.000327,-0.051153
1425246200.460843,0.126289,0.388916,-0.005649,-0.010105,-0.000115,-0.051118
1425246200.466220,0.126294,0.388904,-0.005652,-0.009993,-0.000196,-0.051106
1425246200.469581,0.126292,0.388911,-0.005645,-0.010038,-0.000120,-0.051110
1425246200.473927,0.126297,0.388911,-0.005643,-0.010057,-0.000214,-0.051102
1425246200.478173,0.126297,0.388906,-0.005645,-0.010026,-0.000219,-0.051107
1425246200.482745,0.126286,0.388911,-0.005649,-0.009984,-0.000255,-0.051095
1425246200.487114,0.126293,0.388908,-0.005638,-0.010083,-0.000237,-0.051119
1425246200.491308,0.126289,0.388903,-0.005643,-0.009983,-0.000286,-0.051124
1425246200.496181,0.126292,0.388909,-0.005642,-0.010051,-0.000181,-0.051133
1425246200.500436,0.126295,0.388910,-0.005638,-0.009981,-0.000245,-0.051177
1425246200.504506,0.126292,0.388905,-0.005641,-0.009921,-0.000382,-0.051081
1425246200.508780,0.126295,0.388910,-0.005649,-0.010043,-0.000176,-0.051098
1425246200.512524,0.126300,0.388903,-0.005654,-0.010039,-0.000224,-0.051176
1425246200.517029,0.126292,0.388903,-0.005648,-0.009970,-0.000184,-0.051154
1425246200.534234,0.126289,0.388904,-0.005646,-0.010061,-0.000338,-0.051079
1425246200.535211,0.126292,0.388901,-0.005645,-0.010041,-0.000132,-0.051122
1425246200.535583,0.126288,0.388905,-0.005646,-0.010046,-0.000200,-0.051153
1425246200.536489,0.126294,0.388904,-0.005645,-0.009979,-0.000322,-0.051105
1425246200.540192,0.126291,0.388900,-0.005650,-0.009911,-0.000255,-0.051120
1425246200.542719,0.126286,0.388900,-0.005643,-0.009950,-0.000218,-0.051137
1425246200.547423,0.126291,0.388897,-0.005650,-0.009938,-0.000194,-0.051154
1425246200.551783,0.126285,0.388898,-0.005654,-0.009993,-0.000019,-0.051173
1425246200.556248,0.126287,0.388905,-0.005647,-0.010032,-0.000257,-0.051144
1425246200.560314,0.126280,0.388910,-0.005653,-0.010012,-0.000155,-0.051130
1425246200.564945,0.126289,0.388900,-0.005645,-0.009980,-0.000298,-0.051110
1425246200.569155,0.126291,0.388899,-0.005645,-0.009951,-0.000144,-0.051161
1425246200.573289,0.126285,0.388899,-0.005652,-0.010019,-0.000143,-0.051124
1425246200.577687,0.126287,0.388899,-0.005655,-0.010060,-0.000173,-0.051103
1425246200.582003,0.126296,0.388902,-0.005644,-0.009945,-0.000338,-0.051115
1425246200.586601,0.126299,0.388904,-0.005647,-0.009979,-0.000213,-0.051119
1425246200.592314,0.126295,0.388898,-0.005641,-0.009980,-0.000223,-0.051093
1425246200.595517,0.126294,0.388902,-0.005652,-0.010036,-0.000284,-0.051081
1425246200.599738,0.126291,0.388900,-0.005657,-0.010021,-0.000151,-0.051123
1425246200.604329,0.126286,0.388904,-0.005658,-0.010002,-0.000287,-0.051109
1425246200.608742,0.126298,0.388907,-0.005649,-0.010072,-0.000254,-0.051040
1425246200.613098,0.126303,0.388902,-0.005649,-0.010050,-0.000072,-0.051068
1425246200.617475,0.126292,0.388911,-0.005653,-0.010002,-0.000339,-0.051138
1425246200.638637,0.126296,0.388909,-0.005647,-0.010054,-0.000162,-0.051183
1425246200.639664,0.126297,0.388903,-0.005650,-0.010034,-0.000178,-0.051098
1425246200.639964,0.126298,0.388908,-0.005647,-0.010033,-0.000179,-0.051111
1425246200.640450,0.126295,0.388898,-0.005648,-0.010032,-0.000300,-0.051144
1425246200.640652,0.126289,0.388915,-0.005643,-0.010051,-0.000165,-0.051146
1425246200.643688,0.126290,0.388907,-0.005645,-0.010015,-0.000326,-0.051077
1425246200.648180,0.126279,0.388909,-0.005641,-0.010048,-0.000163,-0.051132
1425246200.653074,0.126292,0.388904,-0.005634,-0.010065,-0.000203,-0.051064
1425246200.656689,0.126288,0.388893,-0.005646,-0.010013,-0.000203,-0.051149
1425246200.661696,0.126291,0.388900,-0.005644,-0.010043,-0.000184,-0.051124
1425246200.665533,0.126291,0.388908,-0.005638,-0.010054,-0.000186,-0.051145
1425246200.670426,0.126294,0.388902,-0.005639,-0.009981,-0.000284,-0.051111
1425246200.674292,0.126287,0.388904,-0.005643,-0.010030,-0.000198,-0.051135
1425246200.678715,0.126291,0.388896,-0.005642,-0.010058,-0.000337,-0.051101
1425246200.683076,0.126292,0.388906,-0.005647,-0.010117,-0.000153,-0.051135
1425246200.687348,0.126280,0.388899,-0.005650,-0.009991,-0.000246,-0.051106
1425246200.699186,0.126290,0.388892,-0.005649,-0.010010,-0.000249,-0.051102
1425246200.701832,0.126284,0.388904,-0.005643,-0.010099,-0.000223,-0.051064
1425246200.703433,0.126282,0.388903,-0.005649,-0.009871,-0.000221,-0.051157
1425246200.705173,0.126283,0.388900,-0.005649,-0.010040,-0.000193,-0.051127
1425246200.709387,0.126288,0.388902,-0.005637,-0.010047,-0.000266,-0.051133
1425246200.713663,0.126285,0.388903,-0.005642,-0.009974,-0.000295,-0.051113
1425246200.735140,0.126285,0.388899,-0.005647,-0.010059,-0.000289,-0.051134
1425246200.736030,0.126285,0.388892,-0.005641,-0.010065,-0.000265,-0.051108
1425246200.736950,0.126278,0.388900,-0.005647,-0.009986,-0.000223,-0.051121
1425246200.737315,0.126277,0.388899,-0.005646,-0.009953,-0.000340,-0.051105
1425246200.737951,0.126281,0.388896,-0.005643,-0.009944,-0.000416,-0.051161
1425246200.740277,0.126286,0.388896,-0.005648,-0.009955,-0.000264,-0.051135
1425246200.744589,0.126285,0.388898,-0.005646,-0.010066,-0.000236,-0.051074
1425246200.748636,0.126281,0.388904,-0.005644,-0.009933,-0.000250,-0.051174
1425246200.754666,0.126279,0.388901,-0.005646,-0.009982,-0.000142,-0.051172
1425246200.759078,0.126289,0.388889,-0.005649,-0.010053,-0.000240,-0.051124
1425246200.763471,0.126283,0.388903,-0.005641,-0.010044,-0.000351,-0.051054
1425246200.767822,0.126288,0.388898,-0.005650,-0.010062,-0.000292,-0.051121
1425246200.772003,0.126286,0.388899,-0.005651,-0.010045,-0.000141,-0.051159
1425246200.776699,0.126289,0.388906,-0.005643,-0.010044,-0.000177,-0.051139
1425246200.780848,0.126284,0.388895,-0.005650,-0.009987,-0.000194,-0.051196
1425246200.785501,0.126295,0.388899,-0.005646,-0.010098,-0.000133,-0.051160
1425246200.789660,0.126301,0.388902,-0.005647,-0.009989,-0.000240,-0.051061
1425246200.794193,0.126286,0.388905,-0.005653,-0.010028,-0.000299,-0.051129
1425246200.798908,0.126282,0.388914,-0.005652,-0.010080,-0.000210,-0.051139
1425246200.802722,0.126290,0.388903,-0.005646,-0.009957,-0.000149,-0.051101
1425246200.807025,0.126298,0.388904,-0.005649,-0.010024,-0.000213,-0.051061
1425246200.811791,0.126295,0.388909,-0.005645,-0.009956,-0.000236,-0.051171
1425246200.816131,0.126293,0.388917,-0.005645,-0.010020,-0.000193,-0.051171
1425246200.836782,0.126296,0.388910,-0.005632,-0.010135,-0.000339,-0.051111
1425246200.837558,0.126297,0.388903,-0.005642,-0.010012,-0.000212,-0.051143
1425246200.838884,0.126295,0.388908,-0.005639,-0.010075,-0.000084,-0.051102
1425246200.839554,0.126298,0.388906,-0.005637,-0.009981,-0.000156,-0.051158
1425246200.839894,0.126300,0.388913,-0.005640,-0.010041,-0.000185,-0.051191
1425246200.842567,0.126288,0.388916,-0.005643,-0.009982,-0.000232,-0.051127
1425246200.846677,0.126295,0.388903,-0.005642,-0.009991,-0.000216,-0.051032
1425246200.851115,0.126298,0.388908,-0.005643,-0.009999,-0.000187,-0.051092
1425246200.855354,0.126301,0.388909,-0.005648,-0.009920,-0.000249,-0.051050
1425246200.859610,0.126295,0.388922,-0.005636,-0.010039,-0.000119,-0.051083
1425246200.864105,0.126287,0.388909,-0.005653,-0.009884,-0.000249,-0.051181
1425246200.868704,0.126297,0.388908,-0.005646,-0.010042,-0.000079,-0.051144
1425246200.873118,0.126295,0.388904,-0.005646,-0.009993,-0.000261,-0.051118
1425246200.877274,0.126293,0.388905,-0.005645,-0.010088,-0.000109,-0.051105
1425246200.881428,0.126300,0.388905,-0.005654,-0.010039,-0.000125,-0.051168
1425246200.886302,0.126293,0.388910,-0.005642,-0.009967,-0.000243,-0.051143
1425246200.890863,0.126291,0.388911,-0.005639,-0.010021,-0.000359,-0.051117
1425246200.895082,0.126292,0.388909,-0.005640,-0.009927,-0.000299,-0.051098
1425246200.899314,0.126298,0.388906,-0.005642,-0.010060,-0.000268,-0.051107
1425246200.903635,0.126292,0.388907,-0.005652,-0.009945,-0.000244,-0.051082
1425246200.908148,0.126299,0.388903,-0.005645,-0.010003,-0.000313,-0.051056
1425246200.912900,0.126298,0.388906,-0.005648,-0.009989,-0.000176,-0.051073
1425246200.917289,0.126281,0.388899,-0.005659,-0.010067,-0.000194,-0.051158
1425246200.936634,0.126288,0.388902,-0.005653,-0.009997,-0.000230,-0.051143
1425246200.937679,0.126298,0.388906,-0.005644,-0.010014,-0.000280,-0.051103
1425246200.938043,0.126289,0.388911,-0.005638,-0.010039,-0.000217,-0.051120
1425246200.939028,0.126289,0.388909,-0.005643,-0.010067,-0.000244,-0.051094
1425246200.939408,0.126286,0.388905,-0.005637,-0.010125,-0.000350,-0.051136
1425246200.942131,0.126291,0.388895,-0.005646,-0.009901,-0.000329,-0.051117
1425246200.946842,0.126290,0.388904,-0.005650,-0.009993,-0.000358,-0.051065
1425246200.951069,0.126288,0.388907,-0.005646,-0.010059,-0.000201,-0.051119
1425246200.959941,0.126297,0.388899,-0.005643,-0.009970,-0.000171,-0.051154
1425246200.960353,0.126287,0.388908,-0.005639,-0.010016,-0.000232,-0.051123
1425246200.964519,0.126282,0.388895,-0.005655,-0.009953,-0.000196,-0.051140
1425246200.968608,0.126283,0.388899,-0.005650,-0.010057,-0.000363,-0.051078
1425246200.972803,0.126286,0.388901,-0.005645,-0.010091,-0.000352,-0.051057
1425246200.977193,0.126279,0.388900,-0.005651,-0.010089,-0.000338,-0.051093
1425246200.982534,0.126281,0.388898,-0.005642,-0.010103,-0.000305,-0.051007
1425246200.986039,0.126276,0.388897,-0.005645,-0.009984,-0.000245,-0.051157
1425246200.990604,0.126281,0.388903,-0.005638,-0.010144,-0.000308,-0.051058
1425246200.994824,0.126279,0.388897,-0.005644,-0.010184,-0.000167,-0.051064
1425246200.999521,0.126282,0.388900,-0.005634,-0.010120,-0.000256,-0.051134
1425246201.003578,0.126280,0.388901,-0.005646,-0.010053,-0.000313,-0.051111
1425246201.008226,0.126289,0.388895,-0.005635,-0.010078,-0.000263,-0.051117
1425246201.012265,0.126283,0.388899,-0.005637,-0.010093,-0.000367,-0.051121
1425246201.016973,0.126288,0.388902,-0.005635,-0.010018,-0.000207,-0.051126
1425246201.040016,0.126286,0.388895,-0.005639,-0.010144,-0.000312,-0.051115
1425246201.040428,0.126287,0.388898,-0.005626,-0.010163,-0.000281,-0.051058
1425246201.040637,0.126289,0.388910,-0.005636,-0.010063,-0.000088,-0.051205
1425246201.041055,0.126286,0.388905,-0.005634,-0.009987,-0.000328,-0.051107
1425246201.041238,0.126292,0.388908,-0.005629,-0.010070,-0.000251,-0.051183
1425246201.043560,0.126296,0.388896,-0.005631,-0.010071,-0.000416,-0.051098
1425246201.047661,0.126304,0.388901,-0.005633,-0.010020,-0.000273,-0.051162
1425246201.051841,0.126303,0.388909,-0.005625,-0.010051,-0.000361,-0.051091
1425246201.056268,0.126306,0.388907,-0.005618,-0.010013,-0.000328,-0.051169
1425246201.060862,0.126300,0.388911,-0.005631,-0.010064,-0.000200,-0.051117
1425246201.065401,0.126310,0.388909,-0.005633,-0.010143,-0.000193,-0.051131
1425246201.069462,0.126310,0.388911,-0.005623,-0.010013,-0.000280,-0.051170
1425246201.074789,0.126286,0.388913,-0.005643,-0.009989,-0.000293,-0.051097
1425246201.078090,0.126305,0.388914,-0.005619,-0.010044,-0.000343,-0.051134
1425246201.082935,0.126310,0.388920,-0.005634,-0.010042,-0.000176,-0.051147
1425246201.087285,0.126307,0.388914,-0.005632,-0.010009,-0.000264,-0.051134
1425246201.091692,0.126314,0.388915,-0.005610,-0.009998,-0.000291,-0.051173
1425246201.095977,0.126306,0.388921,-0.005637,-0.010030,-0.000283,-0.051064
1425246201.099961,0.126311,0.388917,-0.005620,-0.010011,-0.000260,-0.051162
1425246201.104823,0.126310,0.388911,-0.005626,-0.010053,-0.000301,-0.051107
1425246201.108986,0.126311,0.388926,-0.005627,-0.009981,-0.000138,-0.051128
1425246201.113531,0.126304,0.388924,-0.005630,-0.010098,-0.000186,-0.051152
1425246201.117998,0.126311,0.388923,-0.005628,-0.009965,-0.000214,-0.051142
1425246201.138528,0.126307,0.388927,-0.005636,-0.010069,-0.000271,-0.051176
1425246201.138815,0.126310,0.388920,-0.005640,-0.009948,-0.000309,-0.051104
1425246201.138997,0.126312,0.388923,-0.005640,-0.009968,-0.000223,-0.051126
1425246201.139167,0.126307,0.388934,-0.005630,-0.009997,-0.000290,-0.051140
1425246201.140088,0.126305,0.388927,-0.005636,-0.010106,-0.000286,-0.051088
1425246201.143893,0.126305,0.388934,-0.005634,-0.010147,-0.000183,-0.051069
1425246201.148569,0.126316,0.388930,-0.005619,-0.009934,-0.000384,-0.051100
1425246201.152897,0.126306,0.388925,-0.005640,-0.009912,-0.000276,-0.051141
1425246201.157776,0.126306,0.388926,-0.005637,-0.009879,-0.000260,-0.051137
1425246201.161541,0.126317,0.388931,-0.005631,-0.010094,-0.000158,-0.051152
1425246201.165826,0.126307,0.388934,-0.005627,-0.009946,-0.000229,-0.051167
1425246201.170663,0.126306,0.388930,-0.005634,-0.010016,-0.000250,-0.051145
1425246201.174682,0.126304,0.388931,-0.005635,-0.010035,-0.000191,-0.051126
1425246201.179193,0.126306,0.388924,-0.005643,-0.010074,-0.000168,-0.051188
1425246201.183287,0.126231,0.389035,-0.005796,-0.010746,-0.000307,-0.050973
1425246201.188023,0.126303,0.388923,-0.005640,-0.010087,-0.000048,-0.051149
1425246201.192535,0.126303,0.388925,-0.005645,-0.010020,-0.000151,-0.051054
1425246201.196935,0.126303,0.388923,-0.005641,-0.009960,-0.000279,-0.051116
1425246201.202082,0.126308,0.388931,-0.005631,-0.009954,-0.000313,-0.051118
1425246201.205789,0.126301,0.388925,-0.005638,-0.009911,-0.000195,-0.051149
1425246201.209406,0.126303,0.388929,-0.005640,-0.010087,-0.000191,-0.051070
1425246201.213731,0.126306,0.388930,-0.005626,-0.010021,-0.000123,-0.051146
1425246201.218451,0.126302,0.388922,-0.005642,-0.009975,-0.000269,-0.051131
1425246201.237362,0.126295,0.388918,-0.005641,-0.010071,-0.000140,-0.051104
1425246201.238112,0.126294,0.388920,-0.005635,-0.009955,-0.000287,-0.051138
1425246201.238311,0.126302,0.388920,-0.005643,-0.010086,-0.000223,-0.051105
1425246201.238485,0.126299,0.388924,-0.005637,-0.009983,-0.000279,-0.051108
1425246201.240789,0.126304,0.388920,-0.005634,-0.010065,-0.000434,-0.051026
1425246201.244538,0.126295,0.388920,-0.005635,-0.010030,-0.000278,-0.051089
1425246201.249011,0.126294,0.388918,-0.005640,-0.010015,-0.000188,-0.051125
1425246201.253492,0.126291,0.388914,-0.005648,-0.010015,-0.000257,-0.051070
1425246201.257732,0.126300,0.388921,-0.005635,-0.009926,-0.000329,-0.051151
1425246201.262434,0.126296,0.388915,-0.005637,-0.010087,-0.000244,-0.051085
1425246201.266513,0.126286,0.388909,-0.005646,-0.010018,-0.000241,-0.051132
1425246201.271517,0.126299,0.388907,-0.005631,-0.009998,-0.000197,-0.051177
1425246201.275215,0.126299,0.388913,-0.005640,-0.010050,-0.000103,-0.051126
1425246201.279723,0.126295,0.388914,-0.005639,-0.010076,-0.000310,-0.051110
1425246201.284103,0.126291,0.388910,-0.005638,-0.010027,-0.000345,-0.051044
1425246201.289354,0.126299,0.388907,-0.005625,-0.010067,-0.000290,-0.051116
1425246201.292719,0.126288,0.388915,-0.005650,-0.010070,-0.000109,-0.051129
1425246201.297264,0.126294,0.388910,-0.005634,-0.010044,-0.000407,-0.051001
1425246201.302188,0.126285,0.388919,-0.005640,-0.009978,-0.000224,-0.051062
